//Maya ASCII 2018ff09 scene
//Name: hdRig_skel_tmp.ma
//Last modified: Wed, May 19, 2021 06:06:27 PM
//Codeset: 1252
requires maya "2018ff09";
requires "stereoCamera" "10.0";
requires "mtoa" "3.3.0.2";
currentUnit -l centimeter -a degree -t film;
fileInfo "application" "maya";
fileInfo "product" "Maya 2018";
fileInfo "version" "2018";
fileInfo "cutIdentifier" "201903222215-65bada0e52";
fileInfo "osv" "Microsoft Windows 8 Business Edition, 64-bit  (Build 9200)\n";
createNode transform -s -n "persp";
	rename -uid "483C30E5-4113-F339-FFB7-70BBBEDE46EB";
	setAttr ".v" no;
	setAttr ".t" -type "double3" 12.375881639245952 8.1543086980128372 2.8168120403284198 ;
	setAttr ".r" -type "double3" -11.138352729602499 78.600000000000151 0 ;
createNode camera -s -n "perspShape" -p "persp";
	rename -uid "2191EFE7-42FE-5E1A-7278-1FA2143295D8";
	setAttr -k off ".v" no;
	setAttr ".fl" 34.999999999999993;
	setAttr ".coi" 14.74625719749449;
	setAttr ".imn" -type "string" "persp";
	setAttr ".den" -type "string" "persp_depth";
	setAttr ".man" -type "string" "persp_mask";
	setAttr ".hc" -type "string" "viewSet -p %camera";
	setAttr ".ai_translator" -type "string" "perspective";
createNode transform -s -n "top";
	rename -uid "186A1E83-4BD9-6404-D3C3-5B8907C271E5";
	setAttr ".v" no;
	setAttr ".t" -type "double3" 0 1000.1 0 ;
	setAttr ".r" -type "double3" -89.999999999999986 0 0 ;
createNode camera -s -n "topShape" -p "top";
	rename -uid "325DE4A8-42CC-1551-61C0-069059AF294C";
	setAttr -k off ".v" no;
	setAttr ".rnd" no;
	setAttr ".coi" 1000.1;
	setAttr ".ow" 30;
	setAttr ".imn" -type "string" "top";
	setAttr ".den" -type "string" "top_depth";
	setAttr ".man" -type "string" "top_mask";
	setAttr ".hc" -type "string" "viewSet -t %camera";
	setAttr ".o" yes;
	setAttr ".ai_translator" -type "string" "orthographic";
createNode transform -s -n "front";
	rename -uid "EB98DC16-4AAE-EE97-4B2F-7A8AEE357FF6";
	setAttr ".v" no;
	setAttr ".t" -type "double3" 0 0 1000.1 ;
createNode camera -s -n "frontShape" -p "front";
	rename -uid "DCF7F8A3-4B7F-2C6E-7B50-E4A241EB4BAC";
	setAttr -k off ".v" no;
	setAttr ".rnd" no;
	setAttr ".coi" 1000.1;
	setAttr ".ow" 30;
	setAttr ".imn" -type "string" "front";
	setAttr ".den" -type "string" "front_depth";
	setAttr ".man" -type "string" "front_mask";
	setAttr ".hc" -type "string" "viewSet -f %camera";
	setAttr ".o" yes;
	setAttr ".ai_translator" -type "string" "orthographic";
createNode transform -s -n "side";
	rename -uid "248F05A0-4A20-1D71-BFF3-3CB86B0D567D";
	setAttr ".v" no;
	setAttr ".t" -type "double3" 1000.1 0 0 ;
	setAttr ".r" -type "double3" 0 89.999999999999986 0 ;
createNode camera -s -n "sideShape" -p "side";
	rename -uid "57554393-40A1-A393-40FE-55B702114651";
	setAttr -k off ".v" no;
	setAttr ".rnd" no;
	setAttr ".coi" 1000.1;
	setAttr ".ow" 30;
	setAttr ".imn" -type "string" "side";
	setAttr ".den" -type "string" "side_depth";
	setAttr ".man" -type "string" "side_mask";
	setAttr ".hc" -type "string" "viewSet -s %camera";
	setAttr ".o" yes;
	setAttr ".ai_translator" -type "string" "orthographic";
createNode transform -n "TmpJnt_Grp";
	rename -uid "1D2E0570-49AB-139D-A390-32A44D4FC6D0";
createNode transform -n "HeadUprHdRig_TmpCtrl" -p "TmpJnt_Grp";
	rename -uid "B5C8FB62-4972-7048-04CD-99952B0AFFBF";
	setAttr ".t" -type "double3" 0 8.9855391176562271 0.26821398288296672 ;
	setAttr ".s" -type "double3" 0.2 0.2 0.2 ;
createNode locator -n "HeadUprHdRig_TmpCtrlShape" -p "HeadUprHdRig_TmpCtrl";
	rename -uid "ABD2E762-445B-A5F5-B3CD-C9AA1955B30D";
	setAttr -k off ".v";
createNode transform -n "HeadLwrHdRig_TmpCtrl" -p "TmpJnt_Grp";
	rename -uid "07D2BD80-411F-4EE1-7969-5EA55DC0F4EF";
	setAttr ".t" -type "double3" 0 7.4078709086453927 0.39591794547691234 ;
	setAttr ".s" -type "double3" 0.2 0.2 0.2 ;
createNode locator -n "HeadLwrHdRig_TmpCtrlShape" -p "HeadLwrHdRig_TmpCtrl";
	rename -uid "F55ECC15-4D6D-E272-0D88-9B8A0F4DE302";
	setAttr -k off ".v";
createNode joint -n "HeadUprHdRig_TmpJnt" -p "TmpJnt_Grp";
	rename -uid "5CA6593D-4AC4-BF89-B19E-8EA30400A3DD";
	setAttr ".t" -type "double3" 0 8.8214071590970811 0.1016260258166487 ;
	setAttr ".mnrl" -type "double3" -360 -360 -360 ;
	setAttr ".mxrl" -type "double3" 360 360 360 ;
	setAttr ".radi" 0.05;
createNode joint -n "HeadMidHdRig_TmpJnt" -p "TmpJnt_Grp";
	rename -uid "CD9EEDD7-46A7-D19A-0F0D-CFB8B9B173F4";
	setAttr ".t" -type "double3" 0 7.9971071719175981 0.32226061633416353 ;
	setAttr ".mnrl" -type "double3" -360 -360 -360 ;
	setAttr ".mxrl" -type "double3" 360 360 360 ;
	setAttr ".radi" 0.05;
createNode joint -n "HeadLwrHdRig_TmpJnt" -p "TmpJnt_Grp";
	rename -uid "B2932CF3-49C3-755E-0B29-1C87A1F27063";
	setAttr ".t" -type "double3" 0 7.5661969277190684 0.33229139472043873 ;
	setAttr ".mnrl" -type "double3" -360 -360 -360 ;
	setAttr ".mxrl" -type "double3" 360 360 360 ;
	setAttr ".radi" 0.05;
createNode lightLinker -s -n "lightLinker1";
	rename -uid "04736ED9-41A1-92B8-8F6F-06AAE1CA9270";
	setAttr -s 11 ".lnk";
	setAttr -s 11 ".slnk";
createNode shapeEditorManager -n "shapeEditorManager";
	rename -uid "C8B4A434-4F7E-F72D-EAD4-4BBBB585E34D";
createNode poseInterpolatorManager -n "poseInterpolatorManager";
	rename -uid "DA99A91A-44D5-6AEF-A59A-B9A1217EFB60";
createNode displayLayerManager -n "layerManager";
	rename -uid "C6F1AF18-4372-623B-E936-33A0C387584D";
	setAttr -s 2 ".dli[1]"  1;
	setAttr -s 2 ".dli";
createNode displayLayer -n "defaultLayer";
	rename -uid "835DAE89-4000-8884-C206-4FB0FF58B35F";
createNode renderLayerManager -n "renderLayerManager";
	rename -uid "F5914BF6-4815-A983-2B0B-A596BB85C032";
createNode renderLayer -n "defaultRenderLayer";
	rename -uid "65910A32-45CB-20C8-A560-B6947EC892F4";
	setAttr ".g" yes;
createNode materialInfo -n "materialInfo11";
	rename -uid "586B1575-4491-9C51-EB9D-C9A053A1A22E";
createNode shadingEngine -n "blinn5SG";
	rename -uid "CAA2819D-4095-8AB4-CD4A-5E9CBFBCDA93";
	addAttr -ci true -sn "objs" -ln "objs" -dt "string";
	setAttr ".ihi" 0;
	setAttr ".ro" yes;
	setAttr -k on ".objs" -type "string" "['Eyeglass_L_Geo', 'Eyeglass_R_Geo']";
createNode phongE -n "phongE1";
	rename -uid "0862F5EB-4AFE-EAA4-E4F3-A5B72D3314D2";
	setAttr ".c" -type "float3" 1 1 1 ;
	setAttr ".it" -type "float3" 1 1 1 ;
	setAttr ".sc" -type "float3" 1 1 1 ;
	setAttr ".rfl" 0;
	setAttr ".rn" 1;
	setAttr ".hls" 0.019999999552965164;
	setAttr ".wn" -type "float3" 0.43590447 0.43590447 0.43590447 ;
createNode shadingEngine -n "pasted__lambert8SG5";
	rename -uid "FEC9FD33-457E-76B3-4B47-039FFDAABB4D";
	addAttr -ci true -sn "objs" -ln "objs" -dt "string";
	setAttr ".ihi" 0;
	setAttr ".ro" yes;
	setAttr -k on ".objs" -type "string" (
		"['EyeDot_L_Geo', 'TeethLwr_Geo.f[1:3]', 'TeethLwr_Geo.f[6:7]', 'TeethLwr_Geo.f[12:13]', 'TeethLwr_Geo.f[19:23]', 'TeethLwr_Geo.f[31:35]', 'TeethLwr_Geo.f[42:43]', 'TeethLwr_Geo.f[51:62]', 'TeethLwr_Geo.f[72:73]', 'TeethLwr_Geo.f[77]', 'TeethLwr_Geo.f[82:94]', 'TeethLwr_Geo.f[104:112]', 'TeethLwr_Geo.f[132:136]', 'TeethLwr_Geo.f[143:153]', 'TeethLwr_Geo.f[165:170]', 'TeethLwr_Geo.f[180:186]', 'TeethLwr_Geo.f[196:202]', 'TeethLwr_Geo.f[212]', 'TeethLwr_Geo.f[214:220]', 'TeethLwr_Geo.f[229:235]', 'TeethLwr_Geo.f[250:256]', 'TeethLwr_Geo.f[261:263]', 'TeethLwr_Geo.f[268:272]', 'TeethLwr_Geo.f[279:282]', 'TeethLwr_Geo.f[292:298]', 'TeethLwr_Geo.f[308:314]', 'TeethLwr_Geo.f[324:330]', 'TeethLwr_Geo.f[340:366]', 'TeethLwr_Geo.f[392:423]', 'TeethLwr_Geo.f[425:427]', 'TeethLwr_Geo.f[430:431]', 'TeethLwr_Geo.f[436:437]', 'TeethLwr_Geo.f[443:447]', 'TeethLwr_Geo.f[455:459]', 'TeethLwr_Geo.f[466:467]', 'TeethLwr_Geo.f[475:486]', 'TeethLwr_Geo.f[496:497]', 'TeethLwr_Geo.f[501]', 'TeethLwr_Geo.f[506:518]', 'TeethLwr_Geo.f[528:536]', 'TeethLwr_Geo.f[556:560]', 'TeethLwr_Geo.f[567:577]', 'TeethLwr_Geo.f[589:594]', 'TeethLwr_Geo.f[604:610]', 'TeethLwr_Geo.f[620:626]', 'TeethLwr_Geo.f[636]', 'TeethLwr_Geo.f[638:644]', 'TeethLwr_Geo.f[653:659]', 'TeethLwr_Geo.f[674:680]', 'TeethLwr_Geo.f[685:687]', 'TeethLwr_Geo.f[692:696]', 'TeethLwr_Geo.f[703:706]', 'TeethLwr_Geo.f[716:722]', 'TeethLwr_Geo.f[732:738]', 'TeethLwr_Geo.f[748:754]', 'TeethLwr_Geo.f[764:790]', 'TeethLwr_Geo.f[816:847]', 'Eyeball_R_Geo.f[0:339]', 'Eyeball_R_Geo.f[360:379]', 'Eyeball_R_Geo.f[420:439]', 'TeethUpr_Geo.f[5:20]', 'TeethUpr_Geo.f[32:42]', 'TeethUpr_Geo.f[66:70]', 'TeethUpr_Geo.f[78:82]', 'TeethUpr_Geo.f[90:94]', 'TeethUpr_Geo.f[101:102]', 'TeethUpr_Geo.f[110:131]', 'TeethUpr_Geo.f[151:156]', 'TeethUpr_Geo.f[166:172]', 'TeethUpr_Geo.f[182:188]', 'TeethUpr_Geo.f[198]', 'TeethUpr_Geo.f[200:206]', 'TeethUpr_Geo.f[215:221]', 'TeethUpr_Geo.f[236:242]', 'TeethUpr_Geo.f[248:254]', 'TeethUpr_Geo.f[264:270]', 'TeethUpr_Geo.f[280:286]', 'TeethUpr_Geo.f[295:297]', 'TeethUpr_Geo.f[307:334]', 'TeethUpr_Geo.f[358:387]', 'TeethUpr_Geo.f[393:408]', 'TeethUpr_Geo.f[420:430]', 'TeethUpr_Geo.f[454:458]', 'TeethUpr_Geo.f[466:470]', 'TeethUpr_Geo.f[478:482]', 'TeethUpr_Geo.f[489:490]', 'TeethUpr_Geo.f[498:519]', 'TeethUpr_Geo.f[539:544]', 'TeethUpr_Geo.f[554:560]', 'TeethUpr_Geo.f[570:576]', 'TeethUpr_Geo.f[586]', 'TeethUpr_Geo.f[588:594]', 'TeethUpr_Geo.f[603:609]', 'TeethUpr_Geo.f[624:630]', 'TeethUpr_Geo.f[636:642]', 'TeethUpr_Geo.f[652:658]', 'TeethUpr_Geo.f[668:674]', 'TeethUpr_Geo.f[683:685]', 'TeethUpr_Geo.f[695:722]', 'TeethUpr_Geo.f[746:775]', 'Eyeball_L_Geo.f[0:339]', 'Eyeball_L_Geo.f[360:379]', 'Eyeball_L_Geo.f[420:439]', 'EyeDot_R_Geo']");
createNode materialInfo -n "pasted__materialInfo60";
	rename -uid "E0A506E9-4704-B886-0934-169DEDC81141";
createNode lambert -n "lambert50";
	rename -uid "CC51F8CA-4BDC-D76F-210C-639AF88147A8";
	setAttr ".c" -type "float3" 1 1 1 ;
	setAttr ".ic" -type "float3" 0.38461891 0.38461891 0.38461891 ;
createNode shadingEngine -n "lambert55SG";
	rename -uid "73F09FCC-4F8F-21B2-4A39-43AB06FB52FD";
	addAttr -ci true -sn "objs" -ln "objs" -dt "string";
	setAttr ".ihi" 0;
	setAttr ".ro" yes;
	setAttr -k on ".objs" -type "string" "['Eyeball_R_Geo.f[340:359]', 'Eyeball_L_Geo.f[340:359]']";
createNode materialInfo -n "materialInfo19";
	rename -uid "712B0263-443B-2CFE-BA12-64B8165A368A";
createNode lambert -n "lambert55";
	rename -uid "149A3F34-441F-22EB-FAB5-49A697E739B3";
	setAttr ".c" -type "float3" 0.25313687 0.47499999 0.23465 ;
	setAttr ".ic" -type "float3" 0.079873778 0.12 0.074639998 ;
createNode shadingEngine -n "lambert7SG";
	rename -uid "EE5107B7-480B-93B5-E097-C0AA69FE5197";
	addAttr -ci true -sn "objs" -ln "objs" -dt "string";
	setAttr ".ihi" 0;
	setAttr ".ro" yes;
	setAttr -k on ".objs" -type "string" "['Skirt_Geo.f[801:838]', 'Eyeball_R_Geo.f[380:419]', 'Eyeball_R_Geo.f[440:459]', 'Eyeball_L_Geo.f[380:419]', 'Eyeball_L_Geo.f[440:459]']";
createNode materialInfo -n "materialInfo9";
	rename -uid "D25859C0-461C-AED2-944A-D7A7072BC989";
createNode lambert -n "lambert7";
	rename -uid "2009C103-48F9-AD70-82AD-6DA03399F1E9";
	setAttr ".c" -type "float3" 0.1657435 0.2564126 0.24072634 ;
createNode materialInfo -n "pasted__materialInfo64";
	rename -uid "89C44118-4D41-CABE-3144-E8A3CAD5FF0A";
createNode shadingEngine -n "pasted__lambert11SG5";
	rename -uid "F81FB29E-4633-79F5-F23C-F8B2D100349C";
	addAttr -ci true -sn "objs" -ln "objs" -dt "string";
	setAttr ".ihi" 0;
	setAttr ".ro" yes;
	setAttr -k on ".objs" -type "string" (
		"['TeethLwr_Geo.f[0]', 'TeethLwr_Geo.f[4:5]', 'TeethLwr_Geo.f[8:11]', 'TeethLwr_Geo.f[14:18]', 'TeethLwr_Geo.f[24:30]', 'TeethLwr_Geo.f[36:41]', 'TeethLwr_Geo.f[44:50]', 'TeethLwr_Geo.f[63:71]', 'TeethLwr_Geo.f[74:76]', 'TeethLwr_Geo.f[78:81]', 'TeethLwr_Geo.f[95:103]', 'TeethLwr_Geo.f[113:131]', 'TeethLwr_Geo.f[137:142]', 'TeethLwr_Geo.f[154:164]', 'TeethLwr_Geo.f[171:179]', 'TeethLwr_Geo.f[187:195]', 'TeethLwr_Geo.f[203:211]', 'TeethLwr_Geo.f[213]', 'TeethLwr_Geo.f[221:228]', 'TeethLwr_Geo.f[236:249]', 'TeethLwr_Geo.f[257:260]', 'TeethLwr_Geo.f[264:267]', 'TeethLwr_Geo.f[273:278]', 'TeethLwr_Geo.f[283:291]', 'TeethLwr_Geo.f[299:307]', 'TeethLwr_Geo.f[315:323]', 'TeethLwr_Geo.f[331:339]', 'TeethLwr_Geo.f[367:391]', 'TeethLwr_Geo.f[424]', 'TeethLwr_Geo.f[428:429]', 'TeethLwr_Geo.f[432:435]', 'TeethLwr_Geo.f[438:442]', 'TeethLwr_Geo.f[448:454]', 'TeethLwr_Geo.f[460:465]', 'TeethLwr_Geo.f[468:474]', 'TeethLwr_Geo.f[487:495]', 'TeethLwr_Geo.f[498:500]', 'TeethLwr_Geo.f[502:505]', 'TeethLwr_Geo.f[519:527]', 'TeethLwr_Geo.f[537:555]', 'TeethLwr_Geo.f[561:566]', 'TeethLwr_Geo.f[578:588]', 'TeethLwr_Geo.f[595:603]', 'TeethLwr_Geo.f[611:619]', 'TeethLwr_Geo.f[627:635]', 'TeethLwr_Geo.f[637]', 'TeethLwr_Geo.f[645:652]', 'TeethLwr_Geo.f[660:673]', 'TeethLwr_Geo.f[681:684]', 'TeethLwr_Geo.f[688:691]', 'TeethLwr_Geo.f[697:702]', 'TeethLwr_Geo.f[707:715]', 'TeethLwr_Geo.f[723:731]', 'TeethLwr_Geo.f[739:747]', 'TeethLwr_Geo.f[755:763]', 'TeethLwr_Geo.f[791:815]', 'Toungue_Geo', 'TeethUpr_Geo.f[0:4]', 'TeethUpr_Geo.f[21:31]', 'TeethUpr_Geo.f[43:65]', 'TeethUpr_Geo.f[71:77]', 'TeethUpr_Geo.f[83:89]', 'TeethUpr_Geo.f[95:100]', 'TeethUpr_Geo.f[103:109]', 'TeethUpr_Geo.f[132:150]', 'TeethUpr_Geo.f[157:165]', 'TeethUpr_Geo.f[173:181]', 'TeethUpr_Geo.f[189:197]', 'TeethUpr_Geo.f[199]', 'TeethUpr_Geo.f[207:214]', 'TeethUpr_Geo.f[222:235]', 'TeethUpr_Geo.f[243:247]', 'TeethUpr_Geo.f[255:263]', 'TeethUpr_Geo.f[271:279]', 'TeethUpr_Geo.f[287:294]', 'TeethUpr_Geo.f[298:306]', 'TeethUpr_Geo.f[335:357]', 'TeethUpr_Geo.f[388:392]', 'TeethUpr_Geo.f[409:419]', 'TeethUpr_Geo.f[431:453]', 'TeethUpr_Geo.f[459:465]', 'TeethUpr_Geo.f[471:477]', 'TeethUpr_Geo.f[483:488]', 'TeethUpr_Geo.f[491:497]', 'TeethUpr_Geo.f[520:538]', 'TeethUpr_Geo.f[545:553]', 'TeethUpr_Geo.f[561:569]', 'TeethUpr_Geo.f[577:585]', 'TeethUpr_Geo.f[587]', 'TeethUpr_Geo.f[595:602]', 'TeethUpr_Geo.f[610:623]', 'TeethUpr_Geo.f[631:635]', 'TeethUpr_Geo.f[643:651]', 'TeethUpr_Geo.f[659:667]', 'TeethUpr_Geo.f[675:682]', 'TeethUpr_Geo.f[686:694]', 'TeethUpr_Geo.f[723:745]']");
createNode lambert -n "lambert53";
	rename -uid "A2ADF0E1-4A2E-DC4A-4BB2-DAB8C3159D16";
	setAttr ".c" -type "float3" 0.83899999 0.40201885 0.38677901 ;
	setAttr ".ic" -type "float3" 0.18799999 0.041171994 0.041171994 ;
createNode materialInfo -n "materialInfo2";
	rename -uid "5B4A47DC-46EC-6EB3-1C55-6392549FA3E7";
createNode shadingEngine -n "lambert3SG";
	rename -uid "35B637D0-41B6-08A3-3298-B0A868BF9871";
	addAttr -ci true -sn "objs" -ln "objs" -dt "string";
	setAttr ".ihi" 0;
	setAttr ".ro" yes;
	setAttr -k on ".objs" -type "string" "['Brow_Geo', 'HairMid_Geo', 'HairTail_Geo', 'HairFront_Geo']";
createNode blinn -n "blinn6";
	rename -uid "99485F6C-4AD7-C1E1-1461-51847D66DB89";
	setAttr ".c" -type "float3" 1 0.81379169 0.45499998 ;
	setAttr ".ic" -type "float3" 0.20512703 0.13937591 0.080659188 ;
	setAttr ".sc" -type "float3" 0.29913786 0.29913786 0.29913786 ;
	setAttr ".rfl" 0;
	setAttr ".sro" 0.30000001192092896;
createNode materialInfo -n "materialInfo1";
	rename -uid "C9A8ABC7-4E78-7BCD-962F-96A23FC8E296";
createNode shadingEngine -n "lambert2SG";
	rename -uid "205258EA-42F2-F77B-E552-C6B6A2CE1A1D";
	addAttr -ci true -sn "objs" -ln "objs" -dt "string";
	setAttr ".ihi" 0;
	setAttr ".ro" yes;
	setAttr -k on ".objs" -type "string" "['Leg_Geo', 'Head_Geo.f[0:84]', 'Head_Geo.f[99:122]', 'Head_Geo.f[130:393]', 'Head_Geo.f[408:411]', 'Head_Geo.f[419:1001]', 'Head_Geo.f[1030:1080]', 'Head_Geo.f[1095:1290]', 'Head_Geo.f[1305:1645]', 'Head_Geo.f[1660:1683]', 'Head_Geo.f[1691:1954]', 'Head_Geo.f[1969:1972]', 'Head_Geo.f[1980:2562]', 'Head_Geo.f[2591:2641]', 'Head_Geo.f[2656:2851]', 'Head_Geo.f[2866:3123]']";
createNode blinn -n "blinn9";
	rename -uid "02E86B45-4414-EE67-0B6C-AFA4EEF3D5DF";
	setAttr ".c" -type "float3" 0.97799999 0.80222273 0.725676 ;
	setAttr ".ic" -type "float3" 0.31578547 0.19143969 0.17746243 ;
	setAttr ".sc" -type "float3" 0.13675135 0.13675135 0.13675135 ;
	setAttr ".ec" 0.20000000298023224;
	setAttr ".sro" 0.5;
createNode shadingEngine -n "lambert8SG";
	rename -uid "6AE12FB8-4186-1860-AF4D-BFA46D64EF9D";
	addAttr -ci true -sn "objs" -ln "objs" -dt "string";
	setAttr ".ihi" 0;
	setAttr ".ro" yes;
	setAttr -k on ".objs" -type "string" "['Eyelash_Geo.f[0:511]', 'Eyelash_Geo.f[668:1179]']";
createNode materialInfo -n "materialInfo10";
	rename -uid "459CFAFD-4D8C-B27A-28BA-98B350A19C98";
createNode lambert -n "lambert8";
	rename -uid "1A66BE25-49B6-73B9-F8C3-F59D5D205FB0";
	setAttr ".c" -type "float3" 0 0 0 ;
	setAttr ".ic" -type "float3" 0.37593651 0.20648508 0.12033264 ;
createNode shadingEngine -n "lambert10SG";
	rename -uid "51BCE4AD-40B5-C2A3-4739-DA8751FCC661";
	addAttr -ci true -sn "objs" -ln "objs" -dt "string";
	setAttr ".ihi" 0;
	setAttr ".ro" yes;
	setAttr -k on ".objs" -type "string" "['Eyelash_Geo.f[512:667]', 'Eyelash_Geo.f[1180:1335]']";
createNode materialInfo -n "materialInfo15";
	rename -uid "70F7355D-43D5-AFDD-2A69-16A1A4C0BC4A";
createNode lambert -n "lambert10";
	rename -uid "F4677B04-40D9-AF9B-4004-1FBB52FD20D8";
	setAttr ".c" -type "float3" 0 0 0 ;
	setAttr ".ic" -type "float3" 0.65399998 0.40297598 0.275334 ;
createNode nodeGraphEditorInfo -n "hyperShadePrimaryNodeEditorSavedTabsInfo";
	rename -uid "1F9987C3-4AAC-7E77-AE85-DDAD954A2C20";
	setAttr ".def" no;
	setAttr ".tgi[0].tn" -type "string" "Untitled_1";
	setAttr ".tgi[0].vl" -type "double2" -140.47618489416843 -49.999998013178597 ;
	setAttr ".tgi[0].vh" -type "double2" 138.0952326078266 51.190474156349509 ;
createNode displayLayer -n "layer1";
	rename -uid "4E907A40-4174-51C8-24D7-BFA6A154AA28";
	setAttr ".do" 1;
createNode script -n "sceneConfigurationScriptNode";
	rename -uid "6A16E599-4031-0716-8338-0E8D76B9C0D7";
	setAttr ".b" -type "string" "playbackOptions -min 1 -max 120 -ast 1 -aet 200 ";
	setAttr ".st" 6;
select -ne :time1;
	setAttr -av -k on ".cch";
	setAttr -av -cb on ".ihi";
	setAttr -av -k on ".nds";
	setAttr -cb on ".bnm";
	setAttr -k on ".o" 1;
	setAttr -av -k on ".unw" 1;
	setAttr -av -k on ".etw";
	setAttr -av -k on ".tps";
	setAttr -av -k on ".tms";
select -ne :hardwareRenderingGlobals;
	setAttr -av -k on ".ihi";
	setAttr ".otfna" -type "stringArray" 22 "NURBS Curves" "NURBS Surfaces" "Polygons" "Subdiv Surface" "Particles" "Particle Instance" "Fluids" "Strokes" "Image Planes" "UI" "Lights" "Cameras" "Locators" "Joints" "IK Handles" "Deformers" "Motion Trails" "Components" "Hair Systems" "Follicles" "Misc. UI" "Ornaments"  ;
	setAttr ".otfva" -type "Int32Array" 22 0 1 1 1 1 1
		 1 1 1 0 0 0 0 0 0 0 0 0
		 0 0 0 0 ;
	setAttr -k on ".hwi";
	setAttr -av ".ta";
	setAttr -av ".tq";
	setAttr -av ".etmr";
	setAttr -av ".tmr";
	setAttr -av ".aoon";
	setAttr -av ".aoam";
	setAttr -av ".aora";
	setAttr -k on ".hff";
	setAttr -av -k on ".hfd";
	setAttr -av -k on ".hfs";
	setAttr -av -k on ".hfe";
	setAttr -av -k on ".hfcr";
	setAttr -av -k on ".hfcg";
	setAttr -av -k on ".hfcb";
	setAttr -av -k on ".hfa";
	setAttr -av ".mbe";
	setAttr -av -k on ".mbsof";
	setAttr -k on ".blen";
	setAttr -k on ".blat";
	setAttr ".fprt" yes;
select -ne :renderPartition;
	setAttr -av -k on ".cch";
	setAttr -cb on ".ihi";
	setAttr -av -k on ".nds";
	setAttr -cb on ".bnm";
	setAttr -s 11 ".st";
	setAttr -cb on ".an";
	setAttr -cb on ".pt";
select -ne :renderGlobalsList1;
	setAttr -k on ".cch";
	setAttr -cb on ".ihi";
	setAttr -k on ".nds";
	setAttr -cb on ".bnm";
select -ne :defaultShaderList1;
	setAttr -k on ".cch";
	setAttr -cb on ".ihi";
	setAttr -k on ".nds";
	setAttr -cb on ".bnm";
	setAttr -s 13 ".s";
select -ne :postProcessList1;
	setAttr -k on ".cch";
	setAttr -cb on ".ihi";
	setAttr -k on ".nds";
	setAttr -cb on ".bnm";
	setAttr -s 2 ".p";
select -ne :defaultRenderingList1;
	setAttr -k on ".ihi";
select -ne :initialShadingGroup;
	setAttr -av -k on ".cch";
	setAttr -k on ".fzn";
	setAttr -cb on ".ihi";
	setAttr -av -k on ".nds";
	setAttr -cb on ".bnm";
	setAttr -k on ".bbx";
	setAttr -k on ".vwm";
	setAttr -k on ".tpv";
	setAttr -k on ".uit";
	setAttr -k on ".mwc";
	setAttr -cb on ".an";
	setAttr -cb on ".il";
	setAttr -cb on ".vo";
	setAttr -cb on ".eo";
	setAttr -cb on ".fo";
	setAttr -cb on ".epo";
	setAttr -k on ".ro" yes;
select -ne :initialParticleSE;
	setAttr -av -k on ".cch";
	setAttr -cb on ".ihi";
	setAttr -av -k on ".nds";
	setAttr -cb on ".bnm";
	setAttr -k on ".mwc";
	setAttr -cb on ".an";
	setAttr -cb on ".il";
	setAttr -cb on ".vo";
	setAttr -cb on ".eo";
	setAttr -cb on ".fo";
	setAttr -cb on ".epo";
	setAttr -k on ".ro" yes;
select -ne :defaultRenderGlobals;
	setAttr -av -k on ".cch";
	setAttr -cb on ".ihi";
	setAttr -av -k on ".nds";
	setAttr -cb on ".bnm";
	setAttr -av -k on ".macc";
	setAttr -av -k on ".macd";
	setAttr -av -k on ".macq";
	setAttr -av -k on ".mcfr";
	setAttr -cb on ".ifg";
	setAttr -av -k on ".clip";
	setAttr -av -k on ".edm";
	setAttr -av -k on ".edl";
	setAttr -cb on ".ren" -type "string" "arnold";
	setAttr -av -k on ".esr";
	setAttr -av -k on ".ors";
	setAttr -cb on ".sdf";
	setAttr -av -k on ".outf";
	setAttr -av -cb on ".imfkey";
	setAttr -av -k on ".gama";
	setAttr -k on ".exrc";
	setAttr -k on ".expt";
	setAttr -av -k on ".an";
	setAttr -cb on ".ar";
	setAttr -k on ".fs";
	setAttr -av -k on ".ef";
	setAttr -av -k on ".bfs";
	setAttr -cb on ".me";
	setAttr -cb on ".se";
	setAttr -av -k on ".be";
	setAttr -av -cb on ".ep";
	setAttr -av -k on ".fec";
	setAttr -av -k on ".ofc";
	setAttr -cb on ".ofe";
	setAttr -cb on ".efe";
	setAttr -cb on ".oft";
	setAttr -cb on ".umfn";
	setAttr -cb on ".ufe";
	setAttr -av -k on ".pff";
	setAttr -av -cb on ".peie";
	setAttr -av -cb on ".ifp";
	setAttr -k on ".rv";
	setAttr -av -k on ".comp";
	setAttr -av -k on ".cth";
	setAttr -av -k on ".soll";
	setAttr -cb on ".sosl";
	setAttr -av -k on ".rd";
	setAttr -av -k on ".lp";
	setAttr -av -k on ".sp";
	setAttr -av -k on ".shs";
	setAttr -av -k on ".lpr";
	setAttr -cb on ".gv";
	setAttr -cb on ".sv";
	setAttr -av -k on ".mm";
	setAttr -av -k on ".npu";
	setAttr -av -k on ".itf";
	setAttr -av -k on ".shp";
	setAttr -cb on ".isp";
	setAttr -av -k on ".uf";
	setAttr -av -k on ".oi";
	setAttr -av -k on ".rut";
	setAttr -av -k on ".mot";
	setAttr -av -cb on ".mb";
	setAttr -av -k on ".mbf";
	setAttr -av -k on ".mbso";
	setAttr -av -k on ".mbsc";
	setAttr -av -k on ".afp";
	setAttr -av -k on ".pfb";
	setAttr -k on ".pram";
	setAttr -k on ".poam";
	setAttr -k on ".prlm";
	setAttr -k on ".polm";
	setAttr -cb on ".prm";
	setAttr -cb on ".pom";
	setAttr -cb on ".pfrm";
	setAttr -cb on ".pfom";
	setAttr -av -k on ".bll";
	setAttr -av -k on ".bls";
	setAttr -av -k on ".smv";
	setAttr -av -k on ".ubc";
	setAttr -av -k on ".mbc";
	setAttr -cb on ".mbt";
	setAttr -av -k on ".udbx";
	setAttr -av -k on ".smc";
	setAttr -av -k on ".kmv";
	setAttr -cb on ".isl";
	setAttr -cb on ".ism";
	setAttr -cb on ".imb";
	setAttr -av -k on ".rlen";
	setAttr -av -k on ".frts";
	setAttr -av -k on ".tlwd";
	setAttr -av -k on ".tlht";
	setAttr -av -k on ".jfc";
	setAttr -cb on ".rsb";
	setAttr -av -k on ".ope";
	setAttr -av -k on ".oppf";
	setAttr -av -k on ".rcp";
	setAttr -av -k on ".icp";
	setAttr -av -k on ".ocp";
	setAttr -cb on ".hbl";
select -ne :defaultResolution;
	setAttr -av -k on ".cch";
	setAttr -av -k on ".ihi";
	setAttr -av -k on ".nds";
	setAttr -k on ".bnm";
	setAttr -av -k on ".w";
	setAttr -av -k on ".h";
	setAttr -av -k on ".pa" 1;
	setAttr -av -k on ".al";
	setAttr -av -k on ".dar";
	setAttr -av -k on ".ldar";
	setAttr -av -k on ".dpi";
	setAttr -av -k on ".off";
	setAttr -av -k on ".fld";
	setAttr -av -k on ".zsl";
	setAttr -av -k on ".isu";
	setAttr -av -k on ".pdu";
select -ne :hardwareRenderGlobals;
	setAttr -av -k on ".cch";
	setAttr -cb on ".ihi";
	setAttr -av -k on ".nds";
	setAttr -cb on ".bnm";
	setAttr -av -k off -cb on ".ctrs" 256;
	setAttr -av -k off -cb on ".btrs" 512;
	setAttr -av -k off -cb on ".fbfm";
	setAttr -av -k off -cb on ".ehql";
	setAttr -av -k off -cb on ".eams";
	setAttr -av -k off -cb on ".eeaa";
	setAttr -av -k off -cb on ".engm";
	setAttr -av -k off -cb on ".mes";
	setAttr -av -k off -cb on ".emb";
	setAttr -av -k off -cb on ".mbbf";
	setAttr -av -k off -cb on ".mbs";
	setAttr -av -k off -cb on ".trm";
	setAttr -av -k off -cb on ".tshc";
	setAttr -av -k off -cb on ".enpt";
	setAttr -av -k off -cb on ".clmt";
	setAttr -av -k off -cb on ".tcov";
	setAttr -av -k off -cb on ".lith";
	setAttr -av -k off -cb on ".sobc";
	setAttr -av -k off -cb on ".cuth";
	setAttr -av -k off -cb on ".hgcd";
	setAttr -av -k off -cb on ".hgci";
	setAttr -av -k off -cb on ".mgcs";
	setAttr -av -k off -cb on ".twa";
	setAttr -av -k off -cb on ".twz";
	setAttr -cb on ".hwcc";
	setAttr -cb on ".hwdp";
	setAttr -cb on ".hwql";
	setAttr -k on ".hwfr";
	setAttr -k on ".soll";
	setAttr -k on ".sosl";
	setAttr -k on ".bswa";
	setAttr -k on ".shml";
	setAttr -k on ".hwel";
relationship "link" ":lightLinker1" ":initialShadingGroup.message" ":defaultLightSet.message";
relationship "link" ":lightLinker1" ":initialParticleSE.message" ":defaultLightSet.message";
relationship "link" ":lightLinker1" "lambert7SG.message" ":defaultLightSet.message";
relationship "link" ":lightLinker1" "lambert2SG.message" ":defaultLightSet.message";
relationship "link" ":lightLinker1" "lambert3SG.message" ":defaultLightSet.message";
relationship "link" ":lightLinker1" "lambert8SG.message" ":defaultLightSet.message";
relationship "link" ":lightLinker1" "blinn5SG.message" ":defaultLightSet.message";
relationship "link" ":lightLinker1" "pasted__lambert11SG5.message" ":defaultLightSet.message";
relationship "link" ":lightLinker1" "pasted__lambert8SG5.message" ":defaultLightSet.message";
relationship "link" ":lightLinker1" "lambert10SG.message" ":defaultLightSet.message";
relationship "link" ":lightLinker1" "lambert55SG.message" ":defaultLightSet.message";
relationship "shadowLink" ":lightLinker1" ":initialShadingGroup.message" ":defaultLightSet.message";
relationship "shadowLink" ":lightLinker1" ":initialParticleSE.message" ":defaultLightSet.message";
relationship "shadowLink" ":lightLinker1" "lambert7SG.message" ":defaultLightSet.message";
relationship "shadowLink" ":lightLinker1" "lambert2SG.message" ":defaultLightSet.message";
relationship "shadowLink" ":lightLinker1" "lambert3SG.message" ":defaultLightSet.message";
relationship "shadowLink" ":lightLinker1" "lambert8SG.message" ":defaultLightSet.message";
relationship "shadowLink" ":lightLinker1" "blinn5SG.message" ":defaultLightSet.message";
relationship "shadowLink" ":lightLinker1" "pasted__lambert11SG5.message" ":defaultLightSet.message";
relationship "shadowLink" ":lightLinker1" "pasted__lambert8SG5.message" ":defaultLightSet.message";
relationship "shadowLink" ":lightLinker1" "lambert10SG.message" ":defaultLightSet.message";
relationship "shadowLink" ":lightLinker1" "lambert55SG.message" ":defaultLightSet.message";
connectAttr "layerManager.dli[0]" "defaultLayer.id";
connectAttr "renderLayerManager.rlmi[0]" "defaultRenderLayer.rlid";
connectAttr "blinn5SG.msg" "materialInfo11.sg";
connectAttr "phongE1.msg" "materialInfo11.m";
connectAttr "phongE1.oc" "blinn5SG.ss";
connectAttr "lambert50.oc" "pasted__lambert8SG5.ss";
connectAttr "pasted__lambert8SG5.msg" "pasted__materialInfo60.sg";
connectAttr "lambert50.msg" "pasted__materialInfo60.m";
connectAttr "lambert55.oc" "lambert55SG.ss";
connectAttr "lambert55SG.msg" "materialInfo19.sg";
connectAttr "lambert55.msg" "materialInfo19.m";
connectAttr "lambert7.oc" "lambert7SG.ss";
connectAttr "lambert7SG.msg" "materialInfo9.sg";
connectAttr "lambert7.msg" "materialInfo9.m";
connectAttr "pasted__lambert11SG5.msg" "pasted__materialInfo64.sg";
connectAttr "lambert53.msg" "pasted__materialInfo64.m";
connectAttr "lambert53.oc" "pasted__lambert11SG5.ss";
connectAttr "lambert3SG.msg" "materialInfo2.sg";
connectAttr "blinn6.msg" "materialInfo2.m";
connectAttr "blinn6.oc" "lambert3SG.ss";
connectAttr "lambert2SG.msg" "materialInfo1.sg";
connectAttr "blinn9.msg" "materialInfo1.m";
connectAttr "blinn9.oc" "lambert2SG.ss";
connectAttr "lambert8.oc" "lambert8SG.ss";
connectAttr "lambert8SG.msg" "materialInfo10.sg";
connectAttr "lambert8.msg" "materialInfo10.m";
connectAttr "lambert10.oc" "lambert10SG.ss";
connectAttr "lambert10SG.msg" "materialInfo15.sg";
connectAttr "lambert10.msg" "materialInfo15.m";
connectAttr "layerManager.dli[1]" "layer1.id";
connectAttr "lambert2SG.pa" ":renderPartition.st" -na;
connectAttr "lambert3SG.pa" ":renderPartition.st" -na;
connectAttr "lambert7SG.pa" ":renderPartition.st" -na;
connectAttr "lambert8SG.pa" ":renderPartition.st" -na;
connectAttr "blinn5SG.pa" ":renderPartition.st" -na;
connectAttr "pasted__lambert8SG5.pa" ":renderPartition.st" -na;
connectAttr "pasted__lambert11SG5.pa" ":renderPartition.st" -na;
connectAttr "lambert10SG.pa" ":renderPartition.st" -na;
connectAttr "lambert55SG.pa" ":renderPartition.st" -na;
connectAttr "blinn9.msg" ":defaultShaderList1.s" -na;
connectAttr "blinn6.msg" ":defaultShaderList1.s" -na;
connectAttr "lambert7.msg" ":defaultShaderList1.s" -na;
connectAttr "lambert8.msg" ":defaultShaderList1.s" -na;
connectAttr "phongE1.msg" ":defaultShaderList1.s" -na;
connectAttr "lambert50.msg" ":defaultShaderList1.s" -na;
connectAttr "lambert53.msg" ":defaultShaderList1.s" -na;
connectAttr "lambert10.msg" ":defaultShaderList1.s" -na;
connectAttr "lambert55.msg" ":defaultShaderList1.s" -na;
connectAttr "defaultRenderLayer.msg" ":defaultRenderingList1.r" -na;
// End of hdRig_skel_tmp.ma
