//Maya ASCII 2018ff09 scene
//Name: ttRig_skel_tmp.ma
//Last modified: Fri, May 21, 2021 12:33:56 PM
//Codeset: 1252
requires maya "2018ff09";
requires -nodeType "ilrOptionsNode" -nodeType "ilrUIOptionsNode" -nodeType "ilrBakeLayerManager"
		 -nodeType "ilrBakeLayer" "Turtle" "2018.0.0";
requires "stereoCamera" "10.0";
requires "mtoa" "3.3.0.2";
currentUnit -l centimeter -a degree -t film;
fileInfo "application" "maya";
fileInfo "product" "Maya 2018";
fileInfo "version" "2018";
fileInfo "cutIdentifier" "201903222215-65bada0e52";
fileInfo "osv" "Microsoft Windows 8 Business Edition, 64-bit  (Build 9200)\n";
createNode transform -s -n "persp";
	rename -uid "3B6CBFA4-4BBF-2211-40DA-B681F1F70A92";
	setAttr ".v" no;
	setAttr ".t" -type "double3" 17.78607381012203 126.30443261077276 29.049562803728101 ;
	setAttr ".r" -type "double3" -24.938352729602414 31.399999999999995 -2.7946971858174969e-15 ;
createNode camera -s -n "perspShape" -p "persp";
	rename -uid "28E30801-45DE-0008-1BBF-9EBE4B7A47B4";
	setAttr -k off ".v" no;
	setAttr ".fl" 34.999999999999993;
	setAttr ".coi" 37.647924351911058;
	setAttr ".imn" -type "string" "persp";
	setAttr ".den" -type "string" "persp_depth";
	setAttr ".man" -type "string" "persp_mask";
	setAttr ".tp" -type "double3" 0 110.43045345907936 -0.088703656713846613 ;
	setAttr ".hc" -type "string" "viewSet -p %camera";
	setAttr ".ai_translator" -type "string" "perspective";
createNode transform -s -n "top";
	rename -uid "91A8B007-4BE9-A575-057B-2DA9772C1910";
	setAttr ".v" no;
	setAttr ".t" -type "double3" 0 1000.1 0 ;
	setAttr ".r" -type "double3" -89.999999999999986 0 0 ;
createNode camera -s -n "topShape" -p "top";
	rename -uid "449CD27A-440B-1ADB-5DCF-06B0496F2829";
	setAttr -k off ".v" no;
	setAttr ".rnd" no;
	setAttr ".coi" 1000.1;
	setAttr ".ow" 30;
	setAttr ".imn" -type "string" "top";
	setAttr ".den" -type "string" "top_depth";
	setAttr ".man" -type "string" "top_mask";
	setAttr ".hc" -type "string" "viewSet -t %camera";
	setAttr ".o" yes;
	setAttr ".ai_translator" -type "string" "orthographic";
createNode transform -s -n "front";
	rename -uid "E40D3821-40C5-6386-7C14-DBBAACB6C61A";
	setAttr ".v" no;
	setAttr ".t" -type "double3" 0 0 1000.1 ;
createNode camera -s -n "frontShape" -p "front";
	rename -uid "73CACDD0-4413-3C6F-160B-978CA3F1ABA4";
	setAttr -k off ".v" no;
	setAttr ".rnd" no;
	setAttr ".coi" 1000.1;
	setAttr ".ow" 30;
	setAttr ".imn" -type "string" "front";
	setAttr ".den" -type "string" "front_depth";
	setAttr ".man" -type "string" "front_mask";
	setAttr ".hc" -type "string" "viewSet -f %camera";
	setAttr ".o" yes;
	setAttr ".ai_translator" -type "string" "orthographic";
createNode transform -s -n "side";
	rename -uid "FE921388-412D-5A98-F169-73AAA7210300";
	setAttr ".v" no;
	setAttr ".t" -type "double3" 1000.1 0 0 ;
	setAttr ".r" -type "double3" 0 89.999999999999986 0 ;
createNode camera -s -n "sideShape" -p "side";
	rename -uid "8B71EBCB-43E6-18B2-C021-C6809AE81243";
	setAttr -k off ".v" no;
	setAttr ".rnd" no;
	setAttr ".coi" 1000.1;
	setAttr ".ow" 30;
	setAttr ".imn" -type "string" "side";
	setAttr ".den" -type "string" "side_depth";
	setAttr ".man" -type "string" "side_mask";
	setAttr ".hc" -type "string" "viewSet -s %camera";
	setAttr ".o" yes;
	setAttr ".ai_translator" -type "string" "orthographic";
createNode transform -n "Export_Grp";
	rename -uid "F7636214-47B0-B09E-B6BE-AB88561F765C";
	setAttr ".t" -type "double3" 0 -35.392216654241565 -3.8345132348229498 ;
	setAttr ".rp" -type "double3" 0 149.07769669815482 5.3815851707549331 ;
	setAttr ".sp" -type "double3" 0 149.07769669815482 5.3815851707549331 ;
createNode transform -n "TtRigTmpLoc_Grp" -p "Export_Grp";
	rename -uid "A8C0D817-40C8-84D0-D893-F28843F32E77";
createNode transform -n "UpTthTmpLoc_Grp" -p "TtRigTmpLoc_Grp";
	rename -uid "1072019F-486A-F7F3-927D-98B8BD433545";
createNode transform -n "MainUpTth_TmpLoc" -p "UpTthTmpLoc_Grp";
	rename -uid "C041F364-499F-EEC7-298F-2085FB9515F1";
	setAttr ".t" -type "double3" 0 145.46208718681848 5.3144952971351698 ;
createNode locator -n "MainUpTth_TmpLocShape" -p "MainUpTth_TmpLoc";
	rename -uid "B8134BEB-4C4E-200E-0AB8-8C92D2EAC0DC";
	setAttr -k off ".v";
createNode transform -n "CntUpTth_TmpLoc" -p "UpTthTmpLoc_Grp";
	rename -uid "41E2C2BE-4C6C-73FF-7F92-D1A205BB9C6D";
	setAttr ".t" -type "double3" 0 145.46208718681848 7.7597227598338918 ;
createNode locator -n "CntUpTth_TmpLocShape" -p "CntUpTth_TmpLoc";
	rename -uid "22293C32-477F-CDD3-281F-94B3A51EEDB8";
	setAttr -k off ".v";
createNode transform -n "MidUpTth_L_TmpLoc" -p "UpTthTmpLoc_Grp";
	rename -uid "D9F20F5C-4AC7-BC09-9DF9-7B8EEDB6D779";
	setAttr ".t" -type "double3" 2.1906001168197742 145.46208718681848 6.84070711049106 ;
	setAttr ".r" -type "double3" 0 45 0 ;
createNode locator -n "MidUpTth_L_TmpLocShape" -p "MidUpTth_L_TmpLoc";
	rename -uid "F2807B68-469E-1FDC-9F48-FC8F83EA0277";
	setAttr -k off ".v";
createNode transform -n "InUpTth_L_TmpLoc" -p "UpTthTmpLoc_Grp";
	rename -uid "ECE17583-47F0-47AD-49D2-26BAE53E6646";
	setAttr ".t" -type "double3" 2.5485190764355306 145.46208718681848 3.7001499296810194 ;
	setAttr ".r" -type "double3" 0 90 0 ;
createNode locator -n "InUpTth_L_TmpLocShape" -p "InUpTth_L_TmpLoc";
	rename -uid "9F28C979-4229-ACDE-55EC-1A8AC92F1711";
	setAttr -k off ".v";
createNode transform -n "MidUpTth_R_TmpLoc" -p "UpTthTmpLoc_Grp";
	rename -uid "8BD01F10-45B1-32A7-0759-449A74DAB8F4";
	setAttr ".t" -type "double3" -2.190600116819776 145.46208718681848 6.84070711049106 ;
	setAttr ".r" -type "double3" 0 -45 0 ;
createNode locator -n "MidUpTth_R_TmpLocShape" -p "MidUpTth_R_TmpLoc";
	rename -uid "A943E464-4596-CD7E-7651-00B0655EDE01";
	setAttr -k off ".v";
createNode transform -n "InUpTth_R_TmpLoc" -p "UpTthTmpLoc_Grp";
	rename -uid "50CFCF0A-43D1-07D9-2B26-2EBD93131D2F";
	setAttr ".t" -type "double3" -2.5485190764355306 145.46208718681848 3.7001499296810185 ;
	setAttr ".r" -type "double3" 0 -90 0 ;
createNode locator -n "InUpTth_R_TmpLocShape" -p "InUpTth_R_TmpLoc";
	rename -uid "C5A53B95-49CD-BEA5-2B8F-B2B1AE227AF4";
	setAttr -k off ".v";
createNode transform -n "LowTthTmpLoc_Grp" -p "TtRigTmpLoc_Grp";
	rename -uid "8138E4F9-40E8-5104-FAD1-19945893690E";
createNode transform -n "MainLowTth_TmpLoc" -p "LowTthTmpLoc_Grp";
	rename -uid "3B914BB1-4A8A-15D4-CF54-0E80B3A1773F";
	setAttr ".t" -type "double3" 0 143.81039461520302 5.2827135681938087 ;
createNode locator -n "MainLowTth_TmpLocShape" -p "MainLowTth_TmpLoc";
	rename -uid "7260E9A1-4FC0-A7D8-E25E-9F993F336DFD";
	setAttr -k off ".v";
createNode transform -n "CntLowTth_TmpLoc" -p "LowTthTmpLoc_Grp";
	rename -uid "F86EE9CC-4AAB-88D7-31A5-C0BC289D03E7";
	setAttr ".t" -type "double3" 0 143.81039461520302 7.8601586723986294 ;
createNode locator -n "CntLowTth_TmpLocShape" -p "CntLowTth_TmpLoc";
	rename -uid "D35BF6A3-4D07-D2CD-39BA-D4AF81E52D83";
	setAttr -k off ".v";
createNode transform -n "MidLowTth_L_TmpLoc" -p "LowTthTmpLoc_Grp";
	rename -uid "A256BD6A-467D-708C-784E-29A0C1B7260E";
	setAttr ".t" -type "double3" 1.8059803995533927 143.81039461520305 7.0015199251247546 ;
	setAttr ".r" -type "double3" 0 29.999999999999996 0 ;
createNode locator -n "MidLowTth_L_TmpLocShape" -p "MidLowTth_L_TmpLoc";
	rename -uid "3DE4A234-4762-DF7E-FA9F-6DAC3921E5B3";
	setAttr -k off ".v";
createNode transform -n "InLowTth_L_TmpLoc" -p "LowTthTmpLoc_Grp";
	rename -uid "4FED1386-4AF3-80AB-1C3C-C2A1006AEF8B";
	setAttr ".t" -type "double3" 2.6206583117879507 143.81039461520302 3.8636994769312798 ;
	setAttr ".r" -type "double3" 0 90 0 ;
createNode locator -n "InLowTth_L_TmpLocShape" -p "InLowTth_L_TmpLoc";
	rename -uid "7DD37A24-4918-F7A4-C508-1FA0B5B2BC3A";
	setAttr -k off ".v";
createNode transform -n "MidLowTth_R_TmpLoc" -p "LowTthTmpLoc_Grp";
	rename -uid "47208155-4013-FD20-40A7-54AA607D2723";
	setAttr ".t" -type "double3" -1.8059803995533923 143.81039461520305 7.001519925124752 ;
	setAttr ".r" -type "double3" 0 -29.999999999999996 0 ;
createNode locator -n "MidLowTth_R_TmpLocShape" -p "MidLowTth_R_TmpLoc";
	rename -uid "9C64DF46-4296-6F1A-19DE-FAABB64599F0";
	setAttr -k off ".v";
createNode transform -n "InLowTth_R_TmpLoc" -p "LowTthTmpLoc_Grp";
	rename -uid "8D9C2F2D-4EFD-7BA5-AF28-CFB071B8004B";
	setAttr ".t" -type "double3" -2.6206583117879507 143.81039461520302 3.8636994769312789 ;
	setAttr ".r" -type "double3" 0 -90 0 ;
createNode locator -n "InLowTth_R_TmpLocShape" -p "InLowTth_R_TmpLoc";
	rename -uid "B03684BE-4B09-A0FF-01BE-81B65FE1D852";
	setAttr -k off ".v";
createNode joint -n "Tongue1_TmpJnt" -p "TtRigTmpLoc_Grp";
	rename -uid "C4334ED2-444A-0CAB-B788-12983B3E2F09";
	setAttr ".t" -type "double3" 0 143.08500407428468 1.1395710747308514 ;
	setAttr ".r" -type "double3" -0.94960569640112691 0 0 ;
	setAttr ".jo" -type "double3" 49.031838488095012 0 0 ;
	setAttr ".radi" 0.2;
createNode joint -n "Tongue2_TmpJnt" -p "Tongue1_TmpJnt";
	rename -uid "3A4F310F-4A90-DFC9-839E-32BABF856839";
	setAttr ".t" -type "double3" 0 1.2 0 ;
	setAttr ".jo" -type "double3" 27.567196903175219 0 0 ;
	setAttr ".radi" 0.2;
createNode joint -n "Tongue3_TmpJnt" -p "Tongue2_TmpJnt";
	rename -uid "03D251D6-4294-EFB7-E5F8-90BD389DD714";
	setAttr ".t" -type "double3" 0 1.2 0 ;
	setAttr ".jo" -type "double3" 14.798653583425601 0 0 ;
	setAttr ".radi" 0.2;
createNode joint -n "Tongue4_TmpJnt" -p "Tongue3_TmpJnt";
	rename -uid "D3B2F98F-4F5E-D135-E471-F388411AA9F5";
	setAttr ".t" -type "double3" 0 1.2 0 ;
	setAttr ".jo" -type "double3" 10.766977670790855 0 0 ;
	setAttr ".radi" 0.2;
createNode joint -n "Tongue5_TmpJnt" -p "Tongue4_TmpJnt";
	rename -uid "B5571574-492B-4305-C819-AC9655C49958";
	setAttr ".t" -type "double3" 0 1.2 0 ;
	setAttr ".jo" -type "double3" 1.4292325211183023 0 0 ;
	setAttr ".radi" 0.2;
createNode joint -n "Tongue6_TmpJnt" -p "Tongue5_TmpJnt";
	rename -uid "CDACFDB4-42AF-BCFC-9704-3EA9BEDB750D";
	setAttr ".t" -type "double3" 0 1.2 0 ;
	setAttr ".radi" 0.2;
createNode transform -n "JawPost_TmpLoc" -p "TtRigTmpLoc_Grp";
	rename -uid "318A6496-4FA4-602D-659E-399A5F8F0DE2";
	setAttr ".t" -type "double3" 0 149.49386450812926 -0.36853951618042258 ;
createNode locator -n "JawPost_TmpLocShape" -p "JawPost_TmpLoc";
	rename -uid "23277EE4-4E1F-7EE3-DC24-DE831471BCCB";
	setAttr -k off ".v";
createNode lightLinker -s -n "lightLinker1";
	rename -uid "DC433C37-462E-688F-DB85-75AD0F43CD6D";
	setAttr -s 2 ".lnk";
	setAttr -s 2 ".slnk";
createNode shapeEditorManager -n "shapeEditorManager";
	rename -uid "6955F919-4C53-EDE4-90A4-8B944AA76BC0";
createNode poseInterpolatorManager -n "poseInterpolatorManager";
	rename -uid "38884126-4A70-A231-F610-CD9D5AAA7C01";
createNode displayLayerManager -n "layerManager";
	rename -uid "112F8DC0-4092-0481-0E4D-95AB4FE0E83A";
createNode displayLayer -n "defaultLayer";
	rename -uid "D2964361-42C5-28FC-A273-9CBEBA13097C";
createNode renderLayerManager -n "renderLayerManager";
	rename -uid "7084DA70-4CD8-0F1A-EEB3-72B3D85808C4";
createNode renderLayer -n "defaultRenderLayer";
	rename -uid "3CBBFB51-4B87-D7CB-902C-6A826CDEE941";
	setAttr ".g" yes;
createNode ilrOptionsNode -s -n "TurtleRenderOptions";
	rename -uid "BAC38E5B-4713-0F2F-5624-D8B2BB6642C8";
lockNode -l 1 ;
createNode ilrUIOptionsNode -s -n "TurtleUIOptions";
	rename -uid "22E3DC0B-4E64-1CD4-8718-F58686B0DB40";
lockNode -l 1 ;
createNode ilrBakeLayerManager -s -n "TurtleBakeLayerManager";
	rename -uid "0FED3ED9-490D-CDF3-94E2-CF9A6CF6D693";
lockNode -l 1 ;
createNode ilrBakeLayer -s -n "TurtleDefaultBakeLayer";
	rename -uid "837878B7-484A-4D1F-E0EC-37AFAC1A8932";
lockNode -l 1 ;
createNode nodeGraphEditorInfo -n "hyperShadePrimaryNodeEditorSavedTabsInfo";
	rename -uid "400AD928-41C6-4501-04B9-748C6A9A3031";
	setAttr ".def" no;
	setAttr ".tgi[0].tn" -type "string" "Untitled_1";
	setAttr ".tgi[0].vl" -type "double2" 1928.5713519368883 -1674.9489130353463 ;
	setAttr ".tgi[0].vh" -type "double2" 5810.7140548172538 1549.0781697376813 ;
createNode script -n "sceneConfigurationScriptNode";
	rename -uid "1FC5170F-4A49-2A0D-01D1-199C1454CA4B";
	setAttr ".b" -type "string" "playbackOptions -min 1 -max 120 -ast 1 -aet 200 ";
	setAttr ".st" 6;
select -ne :time1;
	setAttr -av -k on ".cch";
	setAttr -av -cb on ".ihi";
	setAttr -av -k on ".nds";
	setAttr -cb on ".bnm";
	setAttr -k on ".o" 1;
	setAttr -av -k on ".unw" 1;
	setAttr -av -k on ".etw";
	setAttr -av -k on ".tps";
	setAttr -av -k on ".tms";
select -ne :hardwareRenderingGlobals;
	setAttr -av -k on ".ihi";
	setAttr ".otfna" -type "stringArray" 22 "NURBS Curves" "NURBS Surfaces" "Polygons" "Subdiv Surface" "Particles" "Particle Instance" "Fluids" "Strokes" "Image Planes" "UI" "Lights" "Cameras" "Locators" "Joints" "IK Handles" "Deformers" "Motion Trails" "Components" "Hair Systems" "Follicles" "Misc. UI" "Ornaments"  ;
	setAttr ".otfva" -type "Int32Array" 22 0 1 1 1 1 1
		 1 1 1 0 0 0 0 0 0 0 0 0
		 0 0 0 0 ;
	setAttr -k on ".hwi";
	setAttr -av ".ta";
	setAttr -av ".tq";
	setAttr -av ".etmr";
	setAttr -av ".tmr";
	setAttr -av ".aoon";
	setAttr -av ".aoam";
	setAttr -av ".aora";
	setAttr -k on ".hff";
	setAttr -av -k on ".hfd";
	setAttr -av -k on ".hfs";
	setAttr -av -k on ".hfe";
	setAttr -av -k on ".hfcr";
	setAttr -av -k on ".hfcg";
	setAttr -av -k on ".hfcb";
	setAttr -av -k on ".hfa";
	setAttr -av ".mbe";
	setAttr -av -k on ".mbsof";
	setAttr -k on ".blen";
	setAttr -k on ".blat";
	setAttr ".fprt" yes;
select -ne :renderPartition;
	setAttr -av -k on ".cch";
	setAttr -cb on ".ihi";
	setAttr -av -k on ".nds";
	setAttr -cb on ".bnm";
	setAttr -s 2 ".st";
	setAttr -cb on ".an";
	setAttr -cb on ".pt";
select -ne :renderGlobalsList1;
	setAttr -k on ".cch";
	setAttr -cb on ".ihi";
	setAttr -k on ".nds";
	setAttr -cb on ".bnm";
select -ne :defaultShaderList1;
	setAttr -k on ".cch";
	setAttr -cb on ".ihi";
	setAttr -k on ".nds";
	setAttr -cb on ".bnm";
	setAttr -s 4 ".s";
select -ne :postProcessList1;
	setAttr -k on ".cch";
	setAttr -cb on ".ihi";
	setAttr -k on ".nds";
	setAttr -cb on ".bnm";
	setAttr -s 2 ".p";
select -ne :defaultRenderingList1;
	setAttr -k on ".ihi";
select -ne :initialShadingGroup;
	setAttr -av -k on ".cch";
	setAttr -k on ".fzn";
	setAttr -cb on ".ihi";
	setAttr -av -k on ".nds";
	setAttr -cb on ".bnm";
	setAttr -k on ".bbx";
	setAttr -k on ".vwm";
	setAttr -k on ".tpv";
	setAttr -k on ".uit";
	setAttr -k on ".mwc";
	setAttr -cb on ".an";
	setAttr -cb on ".il";
	setAttr -cb on ".vo";
	setAttr -cb on ".eo";
	setAttr -cb on ".fo";
	setAttr -cb on ".epo";
	setAttr -k on ".ro" yes;
select -ne :initialParticleSE;
	setAttr -av -k on ".cch";
	setAttr -cb on ".ihi";
	setAttr -av -k on ".nds";
	setAttr -cb on ".bnm";
	setAttr -k on ".mwc";
	setAttr -cb on ".an";
	setAttr -cb on ".il";
	setAttr -cb on ".vo";
	setAttr -cb on ".eo";
	setAttr -cb on ".fo";
	setAttr -cb on ".epo";
	setAttr -k on ".ro" yes;
select -ne :defaultRenderGlobals;
	setAttr -av -k on ".cch";
	setAttr -cb on ".ihi";
	setAttr -av -k on ".nds";
	setAttr -cb on ".bnm";
	setAttr -av -k on ".macc";
	setAttr -av -k on ".macd";
	setAttr -av -k on ".macq";
	setAttr -av -k on ".mcfr";
	setAttr -cb on ".ifg";
	setAttr -av -k on ".clip";
	setAttr -av -k on ".edm";
	setAttr -av -k on ".edl";
	setAttr -cb on ".ren" -type "string" "arnold";
	setAttr -av -k on ".esr";
	setAttr -av -k on ".ors";
	setAttr -cb on ".sdf";
	setAttr -av -k on ".outf";
	setAttr -av -cb on ".imfkey";
	setAttr -av -k on ".gama";
	setAttr -k on ".exrc";
	setAttr -k on ".expt";
	setAttr -av -k on ".an";
	setAttr -cb on ".ar";
	setAttr -k on ".fs";
	setAttr -av -k on ".ef";
	setAttr -av -k on ".bfs";
	setAttr -cb on ".me";
	setAttr -cb on ".se";
	setAttr -av -k on ".be";
	setAttr -av -cb on ".ep";
	setAttr -av -k on ".fec";
	setAttr -av -k on ".ofc";
	setAttr -cb on ".ofe";
	setAttr -cb on ".efe";
	setAttr -cb on ".oft";
	setAttr -cb on ".umfn";
	setAttr -cb on ".ufe";
	setAttr -av -k on ".pff";
	setAttr -av -cb on ".peie";
	setAttr -av -cb on ".ifp";
	setAttr -k on ".rv";
	setAttr -av -k on ".comp";
	setAttr -av -k on ".cth";
	setAttr -av -k on ".soll";
	setAttr -cb on ".sosl";
	setAttr -av -k on ".rd";
	setAttr -av -k on ".lp";
	setAttr -av -k on ".sp";
	setAttr -av -k on ".shs";
	setAttr -av -k on ".lpr";
	setAttr -cb on ".gv";
	setAttr -cb on ".sv";
	setAttr -av -k on ".mm";
	setAttr -av -k on ".npu";
	setAttr -av -k on ".itf";
	setAttr -av -k on ".shp";
	setAttr -cb on ".isp";
	setAttr -av -k on ".uf";
	setAttr -av -k on ".oi";
	setAttr -av -k on ".rut";
	setAttr -av -k on ".mot";
	setAttr -av -cb on ".mb";
	setAttr -av -k on ".mbf";
	setAttr -av -k on ".mbso";
	setAttr -av -k on ".mbsc";
	setAttr -av -k on ".afp";
	setAttr -av -k on ".pfb";
	setAttr -k on ".pram";
	setAttr -k on ".poam";
	setAttr -k on ".prlm";
	setAttr -k on ".polm";
	setAttr -cb on ".prm";
	setAttr -cb on ".pom";
	setAttr -cb on ".pfrm";
	setAttr -cb on ".pfom";
	setAttr -av -k on ".bll";
	setAttr -av -k on ".bls";
	setAttr -av -k on ".smv";
	setAttr -av -k on ".ubc";
	setAttr -av -k on ".mbc";
	setAttr -cb on ".mbt";
	setAttr -av -k on ".udbx";
	setAttr -av -k on ".smc";
	setAttr -av -k on ".kmv";
	setAttr -cb on ".isl";
	setAttr -cb on ".ism";
	setAttr -cb on ".imb";
	setAttr -av -k on ".rlen";
	setAttr -av -k on ".frts";
	setAttr -av -k on ".tlwd";
	setAttr -av -k on ".tlht";
	setAttr -av -k on ".jfc";
	setAttr -cb on ".rsb";
	setAttr -av -k on ".ope";
	setAttr -av -k on ".oppf";
	setAttr -av -k on ".rcp";
	setAttr -av -k on ".icp";
	setAttr -av -k on ".ocp";
	setAttr -cb on ".hbl";
select -ne :defaultResolution;
	setAttr -av -k on ".cch";
	setAttr -av -k on ".ihi";
	setAttr -av -k on ".nds";
	setAttr -k on ".bnm";
	setAttr -av -k on ".w";
	setAttr -av -k on ".h";
	setAttr -av -k on ".pa" 1;
	setAttr -av -k on ".al";
	setAttr -av -k on ".dar";
	setAttr -av -k on ".ldar";
	setAttr -av -k on ".dpi";
	setAttr -av -k on ".off";
	setAttr -av -k on ".fld";
	setAttr -av -k on ".zsl";
	setAttr -av -k on ".isu";
	setAttr -av -k on ".pdu";
select -ne :hardwareRenderGlobals;
	setAttr -av -k on ".cch";
	setAttr -cb on ".ihi";
	setAttr -av -k on ".nds";
	setAttr -cb on ".bnm";
	setAttr -av -k off -cb on ".ctrs" 256;
	setAttr -av -k off -cb on ".btrs" 512;
	setAttr -av -k off -cb on ".fbfm";
	setAttr -av -k off -cb on ".ehql";
	setAttr -av -k off -cb on ".eams";
	setAttr -av -k off -cb on ".eeaa";
	setAttr -av -k off -cb on ".engm";
	setAttr -av -k off -cb on ".mes";
	setAttr -av -k off -cb on ".emb";
	setAttr -av -k off -cb on ".mbbf";
	setAttr -av -k off -cb on ".mbs";
	setAttr -av -k off -cb on ".trm";
	setAttr -av -k off -cb on ".tshc";
	setAttr -av -k off -cb on ".enpt";
	setAttr -av -k off -cb on ".clmt";
	setAttr -av -k off -cb on ".tcov";
	setAttr -av -k off -cb on ".lith";
	setAttr -av -k off -cb on ".sobc";
	setAttr -av -k off -cb on ".cuth";
	setAttr -av -k off -cb on ".hgcd";
	setAttr -av -k off -cb on ".hgci";
	setAttr -av -k off -cb on ".mgcs";
	setAttr -av -k off -cb on ".twa";
	setAttr -av -k off -cb on ".twz";
	setAttr -cb on ".hwcc";
	setAttr -cb on ".hwdp";
	setAttr -cb on ".hwql";
	setAttr -k on ".hwfr";
	setAttr -k on ".soll";
	setAttr -k on ".sosl";
	setAttr -k on ".bswa";
	setAttr -k on ".shml";
	setAttr -k on ".hwel";
connectAttr "Tongue1_TmpJnt.s" "Tongue2_TmpJnt.is";
connectAttr "Tongue2_TmpJnt.s" "Tongue3_TmpJnt.is";
connectAttr "Tongue3_TmpJnt.s" "Tongue4_TmpJnt.is";
connectAttr "Tongue4_TmpJnt.s" "Tongue5_TmpJnt.is";
connectAttr "Tongue5_TmpJnt.s" "Tongue6_TmpJnt.is";
relationship "link" ":lightLinker1" ":initialShadingGroup.message" ":defaultLightSet.message";
relationship "link" ":lightLinker1" ":initialParticleSE.message" ":defaultLightSet.message";
relationship "shadowLink" ":lightLinker1" ":initialShadingGroup.message" ":defaultLightSet.message";
relationship "shadowLink" ":lightLinker1" ":initialParticleSE.message" ":defaultLightSet.message";
connectAttr "layerManager.dli[0]" "defaultLayer.id";
connectAttr "renderLayerManager.rlmi[0]" "defaultRenderLayer.rlid";
connectAttr ":TurtleDefaultBakeLayer.idx" ":TurtleBakeLayerManager.bli[0]";
connectAttr ":TurtleRenderOptions.msg" ":TurtleDefaultBakeLayer.rset";
connectAttr "defaultRenderLayer.msg" ":defaultRenderingList1.r" -na;
connectAttr ":perspShape.msg" ":defaultRenderGlobals.sc";
// End of ttRig_skel_tmp.ma
