//Maya ASCII 2018ff09 scene
//Name: shader16_lambertRamp.ma
//Last modified: Tue, Apr 27, 2021 07:58:09 PM
//Codeset: 1252
requires maya "2018ff09";
requires "stereoCamera" "10.0";
currentUnit -l centimeter -a degree -t film;
fileInfo "application" "maya";
fileInfo "product" "Maya 2018";
fileInfo "version" "2018";
fileInfo "cutIdentifier" "201903222215-65bada0e52";
fileInfo "osv" "Microsoft Windows 8 Business Edition, 64-bit  (Build 9200)\n";
createNode lambert -n "Hair_Aquamarine_Shd";
	rename -uid "CF4E9CF9-43A6-CC8A-3D84-3596B34AB729";
createNode lambert -n "Hair_Blue_Shd";
	rename -uid "A53FD457-42BC-2393-834F-C88151846255";
createNode lambert -n "Hair_DarkBrown_Shd";
	rename -uid "58E4672D-4581-529B-75EE-0C9DE56B713C";
createNode lambert -n "Hair_DarkGreen_Shd";
	rename -uid "C3284DC7-4812-4905-DF7B-3E8F0331678B";
createNode lambert -n "Hair_DarkPink_Shd";
	rename -uid "2EB82162-4C18-C759-41CB-F1A674A50DEA";
createNode lambert -n "Hair_DarkPurple_Shd";
	rename -uid "2446FA78-40C6-B8EA-6872-D1BF15442296";
createNode lambert -n "Hair_DarkRed_Shd";
	rename -uid "6DCE7EA3-43FA-6678-9159-CA96FFF03BE9";
createNode lambert -n "Hair_Green_Shd";
	rename -uid "49831CC2-4546-155E-A04B-F6A3EC7A3C31";
createNode lambert -n "Hair_LightBlue_Shd";
	rename -uid "57608C9E-477B-065C-7687-EEB3C0835A31";
createNode lambert -n "Hair_LightBrown_Shd";
	rename -uid "67B74162-4D6D-5541-DE2C-CC9B44CEE563";
createNode lambert -n "Hair_LightGrey_Shd";
	rename -uid "605702F6-48E2-C39E-1EC6-81B7D5E201B3";
createNode lambert -n "Hair_LightPink_Shd";
	rename -uid "5F2BB565-496C-BE63-4A45-16A0683F4198";
createNode lambert -n "Hair_Red_Shd";
	rename -uid "FA1B1825-4925-6B03-41DC-88A15D7D16D1";
createNode lambert -n "Hair_SeaGreen_Shd";
	rename -uid "2A3C75C4-463C-4FF3-1C4B-6C8240656EE4";
createNode lambert -n "Hair_YellowGreen_Shd";
	rename -uid "EB9F004F-4C67-A545-32D1-53AABFEC422C";
createNode lambert -n "Hair_Yellow_Shd";
	rename -uid "1AE687D9-4BA3-E822-29FE-959BE20E4AB5";
createNode ramp -n "ramp17";
	rename -uid "C7567362-4ABF-1E35-CAAE-75B8AD46C89D";
	setAttr -s 3 ".cel";
	setAttr ".cel[0].ep" 0.5;
	setAttr ".cel[0].ec" -type "float3" 0 0.68699998 0.27656329 ;
	setAttr ".cel[1].ep" 1;
	setAttr ".cel[1].ec" -type "float3" 0.333 1 0.35249999 ;
	setAttr ".cel[2].ep" 0.05000000074505806;
	setAttr ".cel[2].ec" -type "float3" 0 0.035999998 0.0144924 ;
createNode place2dTexture -n "place2dTexture13";
	rename -uid "AD180D11-4AA8-DDCC-22EC-659D841DF56B";
createNode ramp -n "ramp12";
	rename -uid "07134363-4D14-EA51-8F33-958D9E57B6EE";
	setAttr -s 3 ".cel";
	setAttr ".cel[0].ep" 0.5;
	setAttr ".cel[0].ec" -type "float3" 0 0 1 ;
	setAttr ".cel[1].ep" 1;
	setAttr ".cel[1].ec" -type "float3" 0.11500001 0.21711433 1 ;
	setAttr ".cel[2].ep" 0.05000000074505806;
	setAttr ".cel[2].ec" -type "float3" 0 0 0.083999999 ;
createNode place2dTexture -n "place2dTexture8";
	rename -uid "54A5EFB2-49A1-1E94-4BB7-5D8628C8A082";
createNode ramp -n "ramp13";
	rename -uid "A5E525DC-4777-653B-00B8-0EAE6BA09FE3";
	setAttr -s 3 ".cel";
	setAttr ".cel[0].ep" 0.5;
	setAttr ".cel[0].ec" -type "float3" 0.56300002 0.13097306 0.018016003 ;
	setAttr ".cel[1].ep" 0.99690401554107666;
	setAttr ".cel[1].ec" -type "float3" 1 0.47734118 0.15399998 ;
	setAttr ".cel[2].ep" 0.05000000074505806;
	setAttr ".cel[2].ec" -type "float3" 0.029999999 0.0069790254 0.00096000015 ;
createNode place2dTexture -n "place2dTexture9";
	rename -uid "8DAD345A-4A3C-6C73-49E2-B1B0D432BC03";
createNode ramp -n "ramp7";
	rename -uid "E7F682DC-4DE9-1D9D-5C4C-BD91AF9FED90";
	setAttr -s 3 ".cel";
	setAttr ".cel[0].ep" 0.5;
	setAttr ".cel[0].ec" -type "float3" 0 0.2218 0.032400001 ;
	setAttr ".cel[1].ep" 1;
	setAttr ".cel[1].ec" -type "float3" 0 1 0.1464 ;
	setAttr ".cel[2].ep" 0.05000000074505806;
	setAttr ".cel[2].ec" -type "float3" 0.00055899977 0.013 0.00055899977 ;
createNode place2dTexture -n "place2dTexture3";
	rename -uid "D4184FEA-49EB-D09F-8F68-7BB5D785E3F3";
createNode ramp -n "ramp15";
	rename -uid "39E05736-41A4-0F00-DFC7-0D86F0066573";
	setAttr -s 3 ".cel";
	setAttr ".cel[0].ep" 0.5;
	setAttr ".cel[0].ec" -type "float3" 1 0 1 ;
	setAttr ".cel[1].ep" 1;
	setAttr ".cel[1].ec" -type "float3" 1 0.301 1 ;
	setAttr ".cel[2].ep" 0.05000000074505806;
	setAttr ".cel[2].ec" -type "float3" 0.07 0 0.07 ;
createNode place2dTexture -n "place2dTexture11";
	rename -uid "EE1D303B-4E37-C650-0A6D-FA930192A3FF";
createNode ramp -n "ramp10";
	rename -uid "F6761F2C-42D3-51E7-7EF9-1C9EE2E80EEB";
	setAttr -s 3 ".cel";
	setAttr ".cel[0].ep" 0.49226006865501404;
	setAttr ".cel[0].ec" -type "float3" 0.52755022 0 1 ;
	setAttr ".cel[1].ep" 1;
	setAttr ".cel[1].ec" -type "float3" 0.25 0.26199999 1 ;
	setAttr ".cel[2].ep" 0.05000000074505806;
	setAttr ".cel[2].ec" -type "float3" 0.022157108 0 0.041999999 ;
createNode place2dTexture -n "place2dTexture6";
	rename -uid "D53CF0EC-4A9F-10CE-2032-3B96F485A174";
createNode ramp -n "ramp9";
	rename -uid "A397571B-44FA-0295-BA3D-2FB302A02096";
	setAttr -s 3 ".cel";
	setAttr ".cel[0].ep" 0.5;
	setAttr ".cel[0].ec" -type "float3" 0.588 0.0093492093 0 ;
	setAttr ".cel[1].ep" 1;
	setAttr ".cel[1].ec" -type "float3" 1 0.078400001 0.41049999 ;
	setAttr ".cel[2].ep" 0.05000000074505806;
	setAttr ".cel[2].ec" -type "float3" 0.023 0 0 ;
createNode place2dTexture -n "place2dTexture5";
	rename -uid "3ACA3C88-429C-C0EC-FFFF-64A293C1B1C6";
createNode ramp -n "ramp3";
	rename -uid "B00A170B-4FF7-FB9A-F855-738B6CF28127";
	setAttr -s 3 ".cel";
	setAttr ".cel[0].ep" 0.05000000074505806;
	setAttr ".cel[0].ec" -type "float3" 0 0.034000002 0 ;
	setAttr ".cel[1].ep" 1;
	setAttr ".cel[1].ec" -type "float3" 0.35780001 1 0 ;
	setAttr ".cel[2].ep" 0.5;
	setAttr ".cel[2].ec" -type "float3" 0 0.60958898 0 ;
createNode ramp -n "ramp4";
	rename -uid "833E565F-4D5F-1B8C-E502-AA99CCAB837C";
	setAttr -s 3 ".cel";
	setAttr ".cel[0].ep" 0.05000000074505806;
	setAttr ".cel[0].ec" -type "float3" 0 0.0066999998 0.042300001 ;
	setAttr ".cel[1].ep" 1;
	setAttr ".cel[1].ec" -type "float3" 0 1 1 ;
	setAttr ".cel[2].ep" 0.5;
	setAttr ".cel[2].ec" -type "float3" 0 0.36770001 0.5711 ;
createNode ramp -n "ramp6";
	rename -uid "AE5BF489-4DEB-2383-29F3-8BA55EB0A127";
	setAttr -s 3 ".cel";
	setAttr ".cel[0].ep" 0.5;
	setAttr ".cel[0].ec" -type "float3" 0.60383129 0.31855452 0.13287087 ;
	setAttr ".cel[1].ep" 1;
	setAttr ".cel[1].ec" -type "float3" 1 0.64327061 0.44199997 ;
	setAttr ".cel[2].ep" 0.05000000074505806;
	setAttr ".cel[2].ec" -type "float3" 0.081 0.03188565 0 ;
createNode place2dTexture -n "place2dTexture2";
	rename -uid "F370D8A6-4D16-303A-8385-54AAD8864B72";
createNode ramp -n "ramp8";
	rename -uid "85E69A70-42BB-C6A1-D156-D39AEB79E750";
	setAttr -s 3 ".cel";
	setAttr ".cel[0].ep" 0.05000000074505806;
	setAttr ".cel[0].ec" -type "float3" 0.035999998 0.035999998 0.035999998 ;
	setAttr ".cel[1].ep" 1;
	setAttr ".cel[1].ec" -type "float3" 1 1 1 ;
	setAttr ".cel[2].ep" 0.5;
	setAttr ".cel[2].ec" -type "float3" 0.23100001 0.23100001 0.23100001 ;
createNode place2dTexture -n "place2dTexture4";
	rename -uid "1161BDD5-46B0-3D24-E075-91BD9D1A0216";
createNode ramp -n "ramp5";
	rename -uid "2077CAA2-4672-A919-7A90-5C96E33DFA6E";
	setAttr -s 3 ".cel";
	setAttr ".cel[0].ep" 0.5;
	setAttr ".cel[0].ec" -type "float3" 1 0.12800001 0.2034 ;
	setAttr ".cel[1].ep" 1;
	setAttr ".cel[1].ec" -type "float3" 1 0.57700002 0.60318351 ;
	setAttr ".cel[2].ep" 0.049535602331161499;
	setAttr ".cel[2].ec" -type "float3" 0.62900001 0.028305011 0.10221034 ;
createNode place2dTexture -n "place2dTexture1";
	rename -uid "DD533F0E-4613-7E0A-CA59-83B63D61A499";
createNode ramp -n "ramp1";
	rename -uid "AA6E5AE6-41E2-8CBE-3459-FD9699F194E0";
	setAttr -s 3 ".cel";
	setAttr ".cel[0].ep" 0.05000000074505806;
	setAttr ".cel[0].ec" -type "float3" 0.1055 0 0.0024999999 ;
	setAttr ".cel[1].ep" 0.5;
	setAttr ".cel[1].ec" -type "float3" 0.37599999 0 0.0008584442 ;
	setAttr ".cel[3].ep" 1;
	setAttr ".cel[3].ec" -type "float3" 1 0.090599999 0 ;
createNode ramp -n "ramp11";
	rename -uid "379D8853-44D4-D534-F0E2-90BE5FA4F269";
	setAttr -s 3 ".cel";
	setAttr ".cel[0].ep" 0.5;
	setAttr ".cel[0].ec" -type "float3" 0 0.208 0.19769706 ;
	setAttr ".cel[1].ep" 1;
	setAttr ".cel[1].ec" -type "float3" 0 1 0.74040002 ;
	setAttr ".cel[2].ep" 0.05000000074505806;
	setAttr ".cel[2].ec" -type "float3" 0 0.052000001 0.052000001 ;
createNode place2dTexture -n "place2dTexture7";
	rename -uid "4C36AA49-4B2F-38CE-9C0A-8FAD077D8FBC";
createNode ramp -n "ramp14";
	rename -uid "3B3F1775-43DD-3817-CDC7-D486679AD480";
	setAttr -s 3 ".cel";
	setAttr ".cel[0].ep" 0.5;
	setAttr ".cel[0].ec" -type "float3" 0.27003184 0.442 0.019005993 ;
	setAttr ".cel[1].ep" 1;
	setAttr ".cel[1].ec" -type "float3" 0.92729998 1 0 ;
	setAttr ".cel[2].ep" 0.05000000074505806;
	setAttr ".cel[2].ec" -type "float3" 0.025855795 0.041999999 0.0020159991 ;
createNode place2dTexture -n "place2dTexture10";
	rename -uid "99B74929-4A5A-44F8-21E9-F4B3475514C5";
createNode ramp -n "ramp2";
	rename -uid "0DDA552A-4848-5881-4C80-8282BBA13BB3";
	setAttr -s 3 ".cel";
	setAttr ".cel[0].ep" 0.05000000074505806;
	setAttr ".cel[0].ec" -type "float3" 0.1055 0.0394 0 ;
	setAttr ".cel[1].ep" 1;
	setAttr ".cel[1].ec" -type "float3" 1 1 0 ;
	setAttr ".cel[2].ep" 0.5;
	setAttr ".cel[2].ec" -type "float3" 1 0.4314 0 ;
select -ne :time1;
	setAttr ".o" 1;
	setAttr ".unw" 1;
select -ne :hardwareRenderingGlobals;
	setAttr ".otfna" -type "stringArray" 22 "NURBS Curves" "NURBS Surfaces" "Polygons" "Subdiv Surface" "Particles" "Particle Instance" "Fluids" "Strokes" "Image Planes" "UI" "Lights" "Cameras" "Locators" "Joints" "IK Handles" "Deformers" "Motion Trails" "Components" "Hair Systems" "Follicles" "Misc. UI" "Ornaments"  ;
	setAttr ".otfva" -type "Int32Array" 22 0 1 1 1 1 1
		 1 1 1 0 0 0 0 0 0 0 0 0
		 0 0 0 0 ;
	setAttr ".cons" no;
	setAttr ".ta" 0;
	setAttr ".tmr" 1024;
	setAttr ".fprt" yes;
select -ne :renderPartition;
	setAttr -s 18 ".st";
select -ne :renderGlobalsList1;
select -ne :defaultShaderList1;
	setAttr -s 20 ".s";
select -ne :postProcessList1;
	setAttr -s 2 ".p";
select -ne :defaultRenderUtilityList1;
	setAttr -s 12 ".u";
select -ne :defaultRenderingList1;
select -ne :defaultTextureList1;
	setAttr -s 16 ".tx";
select -ne :initialShadingGroup;
	setAttr ".ro" yes;
select -ne :initialParticleSE;
	setAttr ".ro" yes;
select -ne :defaultRenderGlobals;
	setAttr ".pram" -type "string" "";
select -ne :defaultResolution;
	setAttr ".pa" 1;
select -ne :hardwareRenderGlobals;
	setAttr ".ctrs" 256;
	setAttr ".btrs" 512;
connectAttr "ramp17.oc" "Hair_Aquamarine_Shd.c";
connectAttr "ramp12.oc" "Hair_Blue_Shd.c";
connectAttr "ramp13.oc" "Hair_DarkBrown_Shd.c";
connectAttr "ramp7.oc" "Hair_DarkGreen_Shd.c";
connectAttr "ramp15.oc" "Hair_DarkPink_Shd.c";
connectAttr "ramp10.oc" "Hair_DarkPurple_Shd.c";
connectAttr "ramp9.oc" "Hair_DarkRed_Shd.c";
connectAttr "ramp3.oc" "Hair_Green_Shd.c";
connectAttr "ramp4.oc" "Hair_LightBlue_Shd.c";
connectAttr "ramp6.oc" "Hair_LightBrown_Shd.c";
connectAttr "ramp8.oc" "Hair_LightGrey_Shd.c";
connectAttr "ramp5.oc" "Hair_LightPink_Shd.c";
connectAttr "ramp1.oc" "Hair_Red_Shd.c";
connectAttr "ramp11.oc" "Hair_SeaGreen_Shd.c";
connectAttr "ramp14.oc" "Hair_YellowGreen_Shd.c";
connectAttr "ramp2.oc" "Hair_Yellow_Shd.c";
connectAttr "place2dTexture13.o" "ramp17.uv";
connectAttr "place2dTexture13.ofs" "ramp17.fs";
connectAttr "place2dTexture8.o" "ramp12.uv";
connectAttr "place2dTexture8.ofs" "ramp12.fs";
connectAttr "place2dTexture9.o" "ramp13.uv";
connectAttr "place2dTexture9.ofs" "ramp13.fs";
connectAttr "place2dTexture3.o" "ramp7.uv";
connectAttr "place2dTexture3.ofs" "ramp7.fs";
connectAttr "place2dTexture11.o" "ramp15.uv";
connectAttr "place2dTexture11.ofs" "ramp15.fs";
connectAttr "place2dTexture6.o" "ramp10.uv";
connectAttr "place2dTexture6.ofs" "ramp10.fs";
connectAttr "place2dTexture5.o" "ramp9.uv";
connectAttr "place2dTexture5.ofs" "ramp9.fs";
connectAttr "place2dTexture2.o" "ramp6.uv";
connectAttr "place2dTexture2.ofs" "ramp6.fs";
connectAttr "place2dTexture4.o" "ramp8.uv";
connectAttr "place2dTexture4.ofs" "ramp8.fs";
connectAttr "place2dTexture1.o" "ramp5.uv";
connectAttr "place2dTexture1.ofs" "ramp5.fs";
connectAttr "place2dTexture7.o" "ramp11.uv";
connectAttr "place2dTexture7.ofs" "ramp11.fs";
connectAttr "place2dTexture10.o" "ramp14.uv";
connectAttr "place2dTexture10.ofs" "ramp14.fs";
connectAttr "Hair_Red_Shd.msg" ":defaultShaderList1.s" -na;
connectAttr "Hair_Yellow_Shd.msg" ":defaultShaderList1.s" -na;
connectAttr "Hair_Green_Shd.msg" ":defaultShaderList1.s" -na;
connectAttr "Hair_LightBlue_Shd.msg" ":defaultShaderList1.s" -na;
connectAttr "Hair_LightPink_Shd.msg" ":defaultShaderList1.s" -na;
connectAttr "Hair_LightBrown_Shd.msg" ":defaultShaderList1.s" -na;
connectAttr "Hair_DarkGreen_Shd.msg" ":defaultShaderList1.s" -na;
connectAttr "Hair_LightGrey_Shd.msg" ":defaultShaderList1.s" -na;
connectAttr "Hair_DarkRed_Shd.msg" ":defaultShaderList1.s" -na;
connectAttr "Hair_DarkPurple_Shd.msg" ":defaultShaderList1.s" -na;
connectAttr "Hair_SeaGreen_Shd.msg" ":defaultShaderList1.s" -na;
connectAttr "Hair_Blue_Shd.msg" ":defaultShaderList1.s" -na;
connectAttr "Hair_DarkBrown_Shd.msg" ":defaultShaderList1.s" -na;
connectAttr "Hair_YellowGreen_Shd.msg" ":defaultShaderList1.s" -na;
connectAttr "Hair_DarkPink_Shd.msg" ":defaultShaderList1.s" -na;
connectAttr "Hair_Aquamarine_Shd.msg" ":defaultShaderList1.s" -na;
connectAttr "place2dTexture1.msg" ":defaultRenderUtilityList1.u" -na;
connectAttr "place2dTexture2.msg" ":defaultRenderUtilityList1.u" -na;
connectAttr "place2dTexture3.msg" ":defaultRenderUtilityList1.u" -na;
connectAttr "place2dTexture4.msg" ":defaultRenderUtilityList1.u" -na;
connectAttr "place2dTexture5.msg" ":defaultRenderUtilityList1.u" -na;
connectAttr "place2dTexture6.msg" ":defaultRenderUtilityList1.u" -na;
connectAttr "place2dTexture7.msg" ":defaultRenderUtilityList1.u" -na;
connectAttr "place2dTexture8.msg" ":defaultRenderUtilityList1.u" -na;
connectAttr "place2dTexture9.msg" ":defaultRenderUtilityList1.u" -na;
connectAttr "place2dTexture10.msg" ":defaultRenderUtilityList1.u" -na;
connectAttr "place2dTexture11.msg" ":defaultRenderUtilityList1.u" -na;
connectAttr "place2dTexture13.msg" ":defaultRenderUtilityList1.u" -na;
connectAttr "ramp1.msg" ":defaultTextureList1.tx" -na;
connectAttr "ramp2.msg" ":defaultTextureList1.tx" -na;
connectAttr "ramp3.msg" ":defaultTextureList1.tx" -na;
connectAttr "ramp4.msg" ":defaultTextureList1.tx" -na;
connectAttr "ramp5.msg" ":defaultTextureList1.tx" -na;
connectAttr "ramp6.msg" ":defaultTextureList1.tx" -na;
connectAttr "ramp7.msg" ":defaultTextureList1.tx" -na;
connectAttr "ramp8.msg" ":defaultTextureList1.tx" -na;
connectAttr "ramp9.msg" ":defaultTextureList1.tx" -na;
connectAttr "ramp10.msg" ":defaultTextureList1.tx" -na;
connectAttr "ramp11.msg" ":defaultTextureList1.tx" -na;
connectAttr "ramp12.msg" ":defaultTextureList1.tx" -na;
connectAttr "ramp13.msg" ":defaultTextureList1.tx" -na;
connectAttr "ramp14.msg" ":defaultTextureList1.tx" -na;
connectAttr "ramp15.msg" ":defaultTextureList1.tx" -na;
connectAttr "ramp17.msg" ":defaultTextureList1.tx" -na;
// End of shader16_lambertRamp.ma
