//Maya ASCII 2017ff05 scene
//Name: shader_lambertRamp.ma
//Last modified: Mon, Sep 25, 2017 11:31:44 PM
//Codeset: 1252
requires maya "2017ff05";
requires -nodeType "ilrOptionsNode" -nodeType "ilrUIOptionsNode" -nodeType "ilrBakeLayerManager"
		 -nodeType "ilrBakeLayer" "Turtle" "2017.0.0";
requires "stereoCamera" "10.0";
requires "arkMayaExporter_2013_5" "1.21.ma3.s2.me5.a7";
requires "PO_Reader_v2012_64" "1.0";
requires "stereoCamera" "10.0";
requires "TurtleForMaya2009" "5.0.0.5";
requires "pfOptions.py" "1.0";
currentUnit -l centimeter -a degree -t film;
fileInfo "application" "maya";
fileInfo "product" "Maya 2017";
fileInfo "version" "2017";
fileInfo "cutIdentifier" "201706020738-1017329";
fileInfo "osv" "Microsoft Windows 8 Home Premium Edition, 64-bit  (Build 9200)\n";
createNode transform -s -n "persp";
	rename -uid "FF12442F-44F2-FD81-7513-6982952C10F2";
	setAttr ".v" no;
	setAttr ".t" -type "double3" -154.33527274744256 11.82548353583147 -39.844675917590934 ;
	setAttr ".r" -type "double3" 354.47798507170688 4935.0309898521591 0 ;
	setAttr ".rp" -type "double3" 2.2204460492503131e-016 2.8421709430404007e-014 0 ;
	setAttr ".rpt" -type "double3" -1.7501411099128583e-013 -2.0408691017411814e-013 
		2.6359079157327482e-013 ;
createNode camera -s -n "perspShape" -p "persp";
	rename -uid "3D7279DF-4E9C-9E0D-AF03-7E909C59381A";
	setAttr -k off ".v" no;
	setAttr ".rnd" no;
	setAttr ".fl" 70;
	setAttr ".ncp" 1;
	setAttr ".fcp" 1000000;
	setAttr ".coi" 159.68082059924117;
	setAttr ".imn" -type "string" "persp";
	setAttr ".den" -type "string" "persp_depth";
	setAttr ".man" -type "string" "persp_mask";
	setAttr ".tp" -type "double3" -1.1920928955078125e-007 0 -1.7881393432617188e-007 ;
	setAttr ".hc" -type "string" "viewSet -p %camera";
	setAttr ".dgm" no;
	setAttr ".col" -type "float3" 0.23100001 0.23100001 0.23100001 ;
	setAttr ".ai_translator" -type "string" "perspective";
createNode transform -s -n "top";
	rename -uid "E14DB1D5-46E0-2685-57D9-14BF0CB596E4";
	setAttr ".v" no;
	setAttr ".t" -type "double3" -1.9077493271444839 526.14552884071372 -1.1442824261625777 ;
	setAttr ".r" -type "double3" -89.999999999999986 0 0 ;
createNode camera -s -n "topShape" -p "top";
	rename -uid "45CA031E-42C0-99C2-2B2B-9D88F8311417";
	setAttr -k off ".v" no;
	setAttr ".rnd" no;
	setAttr ".coi" 357.14924494344814;
	setAttr ".ow" 30.10206040585615;
	setAttr ".imn" -type "string" "top";
	setAttr ".den" -type "string" "top_depth";
	setAttr ".man" -type "string" "top_mask";
	setAttr ".tp" -type "double3" -1.9077493271444839 168.99628389726558 -1.1442824261626567 ;
	setAttr ".hc" -type "string" "viewSet -t %camera";
	setAttr ".o" yes;
	setAttr ".ai_translator" -type "string" "orthographic";
createNode transform -s -n "front";
	rename -uid "B7D08C0A-4E2F-7ED0-A3FB-DA9B10FCB9E2";
	setAttr ".v" no;
	setAttr ".t" -type "double3" -1.9077493271444839 168.99628389726558 704.21763053254949 ;
createNode camera -s -n "frontShape" -p "front";
	rename -uid "DFEDAE7E-4166-212D-27E8-F794E3C6C0B3";
	setAttr -k off ".v";
	setAttr ".rnd" no;
	setAttr ".coi" 705.3619129587122;
	setAttr ".ow" 27.436956858680642;
	setAttr ".imn" -type "string" "front";
	setAttr ".den" -type "string" "front_depth";
	setAttr ".man" -type "string" "front_mask";
	setAttr ".tp" -type "double3" -1.9077493271444839 168.99628389726558 -1.1442824261626567 ;
	setAttr ".hc" -type "string" "viewSet -f %camera";
	setAttr ".o" yes;
	setAttr ".col" -type "float3" 0.23100001 0.23100001 0.23100001 ;
	setAttr ".ai_translator" -type "string" "orthographic";
createNode transform -s -n "side";
	rename -uid "0A466BEF-4B91-A620-E185-D78468D87117";
	setAttr ".v" no;
	setAttr ".t" -type "double3" 708.30239772577784 168.99628389726558 -1.1442824261624978 ;
	setAttr ".r" -type "double3" 0 89.999999999999986 0 ;
createNode camera -s -n "sideShape" -p "side";
	rename -uid "E1896EFB-49D6-F1AE-27B8-D48319772AE0";
	setAttr -k off ".v";
	setAttr ".rnd" no;
	setAttr ".coi" 710.21014705292225;
	setAttr ".ow" 30.102060405856143;
	setAttr ".imn" -type "string" "side";
	setAttr ".den" -type "string" "side_depth";
	setAttr ".man" -type "string" "side_mask";
	setAttr ".tp" -type "double3" -1.9077493271444839 168.99628389726558 -1.1442824261626567 ;
	setAttr ".hc" -type "string" "viewSet -s %camera";
	setAttr ".o" yes;
	setAttr ".ai_translator" -type "string" "orthographic";
createNode lightLinker -s -n "lightLinker1";
	rename -uid "CADF59FD-417E-F2A4-80E5-1CAB97C651C9";
	setAttr -s 6 ".lnk";
	setAttr -s 6 ".slnk";
createNode displayLayerManager -n "layerManager";
	rename -uid "63617E5E-432B-E1E0-97F0-128E8DE8C360";
	setAttr ".cdl" 40;
	setAttr -s 40 ".dli[1:39]"  40 5 6 16 7 8 1 2 
		3 4 9 10 13 12 14 11 15 17 18 19 20 21 22 23 24 
		31 25 26 27 28 32 29 33 34 35 36 37 38 39;
createNode displayLayer -n "defaultLayer";
	rename -uid "212A3482-428F-FB59-7830-30BEE538C637";
createNode renderLayerManager -n "renderLayerManager";
	rename -uid "29DE189A-4901-3FEE-D10A-41A3D2425E57";
createNode renderLayer -n "defaultRenderLayer";
	rename -uid "6BD656C1-49CF-248E-DDB3-1D866A145FBC";
	setAttr ".g" yes;
	setAttr ".rndr" no;
createNode ilrOptionsNode -s -n "TurtleRenderOptions";
	rename -uid "28FE87FF-4980-01B7-C10D-A49BD9137181";
lockNode -l 1 ;
createNode ilrUIOptionsNode -s -n "TurtleUIOptions";
	rename -uid "019817CE-4F8E-1EC6-093E-E4AE80476457";
lockNode -l 1 ;
createNode ilrBakeLayerManager -s -n "TurtleBakeLayerManager";
	rename -uid "EDCF3333-46A2-6FE1-F5FF-468E39EB972A";
lockNode -l 1 ;
createNode ilrBakeLayer -s -n "TurtleDefaultBakeLayer";
	rename -uid "7773EAF0-44B7-A135-5040-46BAFA2B6739";
lockNode -l 1 ;
createNode nodeGraphEditorBookmarkInfo -n "nodeGraphEditorBookmarkInfo1";
	rename -uid "1DF63275-4125-C7B8-BA3E-AEB59B2DF032";
createNode shapeEditorManager -n "shapeEditorManager";
	rename -uid "CA0A97E0-4155-808B-304D-1A8C7732AF67";
	setAttr -s 10 ".bsdt";
	setAttr ".bsdt[0].bscd" -type "Int32Array" 3 -1 -4 -8 ;
	setAttr ".bsdt[1].bscd" -type "Int32Array" 2 -2 -3 ;
	setAttr ".bsdt[1].bsdn" -type "string" "sunnySRU_HAIR1_browStatic_HERO_ma";
	setAttr ".bsdt[2].bscd" -type "Int32Array" 0 ;
	setAttr ".bsdt[2].bspi" 1;
	setAttr ".bsdt[2].bsdn" -type "string" "pasted_";
	setAttr ".bsdt[3].bscd" -type "Int32Array" 0 ;
	setAttr ".bsdt[3].bspi" 1;
	setAttr ".bsdt[3].bsdn" -type "string" "sunnySRU_00_HAIRCURVES_HERO";
	setAttr ".bsdt[4].bscd" -type "Int32Array" 1 -5 ;
	setAttr ".bsdt[4].bsdn" -type "string" "pasted_";
	setAttr ".bsdt[5].bscd" -type "Int32Array" 2 -6 -7 ;
	setAttr ".bsdt[5].bspi" 4;
	setAttr ".bsdt[5].bsdn" -type "string" "sunnySRU_HAIR1_browStatic_HERO_ma";
	setAttr ".bsdt[6].bscd" -type "Int32Array" 0 ;
	setAttr ".bsdt[6].bspi" 5;
	setAttr ".bsdt[6].bsdn" -type "string" "pasted_";
	setAttr ".bsdt[7].bscd" -type "Int32Array" 0 ;
	setAttr ".bsdt[7].bspi" 5;
	setAttr ".bsdt[7].bsdn" -type "string" "sunnySRU_00_HAIRCURVES_HERO";
	setAttr ".bsdt[8].bscd" -type "Int32Array" 1 -9 ;
	setAttr ".bsdt[8].bsdn" -type "string" "sunnyCasualSuit_COL";
	setAttr ".bsdt[9].bscd" -type "Int32Array" 0 ;
	setAttr ".bsdt[9].bspi" 8;
	setAttr ".bsdt[9].bsdn" -type "string" "shader";
createNode poseInterpolatorManager -n "poseInterpolatorManager";
	rename -uid "FCB7E398-4E97-913C-FFA7-F98BAED7B5B7";
createNode objectSet -s -n "lightEditorRoot";
	rename -uid "CB4CCF48-43B1-CEA5-3313-5DA7C1CCBC82";
	addAttr -ci true -sn "isolate" -ln "isolate" -min 0 -max 1 -at "bool";
	addAttr -ci true -sn "wasEnabled" -ln "wasEnabled" -dv 1 -min 0 -max 1 -at "bool";
	addAttr -ci true -sn "childIndex" -ln "childIndex" -dv -1 -at "long";
	addAttr -ci true -sn "lightGroup" -ln "lightGroup" -dv 1 -min 0 -max 1 -at "bool";
	addAttr -ci true -sn "visibility" -ln "visibility" -dv 1 -min 0 -max 1 -at "bool";
lockNode -l 1 ;
createNode nodeGraphEditorBookmarkInfo -n "nodeGraphEditorBookmarkInfo2";
	rename -uid "E6FAF6A5-4BAD-733F-89FC-158E1B1272C2";
createNode nodeGraphEditorBookmarkInfo -n "nodeGraphEditorBookmarkInfo3";
	rename -uid "DFEC6DBF-4176-5B42-ABC2-04A979DEDC94";
createNode nodeGraphEditorBookmarkInfo -n "pasted__nodeGraphEditorBookmarkInfo1";
	rename -uid "C54F5DCE-4DC4-132E-E21B-A59837A14E2C";
createNode nodeGraphEditorBookmarkInfo -n "nodeGraphEditorBookmarkInfo4";
	rename -uid "77D9DAE1-4794-F98A-5F6E-AC89C9E34DB8";
createNode nodeGraphEditorBookmarkInfo -n "nodeGraphEditorBookmarkInfo5";
	rename -uid "F82564A1-4136-F731-111E-079EF80442D2";
createNode nodeGraphEditorBookmarkInfo -n "sunnySRU_HAIR1_browStatic_HERO_ma_nodeGraphEditorBookmarkInfo1";
	rename -uid "3033BA0C-4C01-66D2-62BB-6289CAF75994";
createNode nodeGraphEditorBookmarkInfo -n "sunnySRU_HAIR1_browStatic_HERO_ma_nodeGraphEditorBookmarkInfo2";
	rename -uid "C1AF21C6-4CC6-C020-1A75-D2AB6C6FB1A9";
createNode nodeGraphEditorBookmarkInfo -n "sunnySRU_HAIR1_browStatic_HERO_ma_nodeGraphEditorBookmarkInfo3";
	rename -uid "4A19905F-4347-A0FC-9815-509EF13EDF05";
createNode nodeGraphEditorBookmarkInfo -n "sunnySRU_HAIR1_browStatic_HERO_ma_pasted__nodeGraphEditorBookmarkInfo1";
	rename -uid "6C6452E2-4A44-8169-94B4-3BBD5E0C8C92";
createNode nodeGraphEditorBookmarkInfo -n "sunnySRU_HAIR1_browStatic_HERO_ma_nodeGraphEditorBookmarkInfo4";
	rename -uid "8CE4B2CF-4CE1-EA3C-72B9-94820DA44F40";
createNode nodeGraphEditorBookmarkInfo -n "sunnySRU_HAIR1_browStatic_HERO_ma_nodeGraphEditorBookmarkInfo5";
	rename -uid "4CDD3204-4D25-57CE-0E02-C1BAC9273B29";
createNode nodeGraphEditorBookmarkInfo -n "sunnySRU_00_HAIRCURVES_HERO_nodeGraphEditorBookmarkInfo1";
	rename -uid "9D7933A5-4103-2F1F-0241-D8BFFD791930";
createNode nodeGraphEditorBookmarkInfo -n "sunnySRU_00_HAIRCURVES_HERO_nodeGraphEditorBookmarkInfo2";
	rename -uid "2F86AA4F-40D9-93FB-8CD3-028AC1A6009A";
createNode nodeGraphEditorBookmarkInfo -n "sunnySRU_00_HAIRCURVES_HERO_nodeGraphEditorBookmarkInfo3";
	rename -uid "EE10F6C3-4FEE-E4CA-F228-DBBE9E309121";
createNode nodeGraphEditorBookmarkInfo -n "sunnySRU_00_HAIRCURVES_HERO_pasted__nodeGraphEditorBookmarkInfo1";
	rename -uid "9FE93A4B-47FE-3D79-E771-128118ED7F50";
createNode nodeGraphEditorBookmarkInfo -n "sunnySRU_00_HAIRCURVES_HERO_nodeGraphEditorBookmarkInfo4";
	rename -uid "D983522D-4034-8A7A-FBD8-3387A2F60AAA";
createNode nodeGraphEditorBookmarkInfo -n "sunnySRU_00_HAIRCURVES_HERO_nodeGraphEditorBookmarkInfo5";
	rename -uid "A356BE95-4D5C-AC3D-DBE8-9E8BE7E19DC2";
createNode nodeGraphEditorBookmarkInfo -n "pasted__nodeGraphEditorBookmarkInfo2";
	rename -uid "33BA1172-45D0-98AE-E059-40832FDC730A";
createNode nodeGraphEditorBookmarkInfo -n "pasted__nodeGraphEditorBookmarkInfo3";
	rename -uid "0A7BA9B8-4D24-6074-1228-38B8C3820BD4";
createNode nodeGraphEditorBookmarkInfo -n "pasted__nodeGraphEditorBookmarkInfo4";
	rename -uid "F270CB3D-4373-67FC-2497-74AD2F8990DE";
createNode nodeGraphEditorBookmarkInfo -n "pasted__pasted__nodeGraphEditorBookmarkInfo1";
	rename -uid "C7DC976F-4AE0-D3C9-286B-50931DB5F6BA";
createNode nodeGraphEditorBookmarkInfo -n "pasted__nodeGraphEditorBookmarkInfo5";
	rename -uid "A2DC82B6-4875-CE5F-A9F6-59A7C276390A";
createNode nodeGraphEditorBookmarkInfo -n "pasted__nodeGraphEditorBookmarkInfo6";
	rename -uid "FD62330F-40F5-3F11-10EA-358BAF03C051";
createNode nodeGraphEditorBookmarkInfo -n "pasted__sunnySRU_HAIR1_browStatic_HERO_ma_nodeGraphEditorBookmarkInfo1";
	rename -uid "DF11449F-483B-1A09-0EE2-F3B002F81951";
createNode nodeGraphEditorBookmarkInfo -n "pasted__sunnySRU_HAIR1_browStatic_HERO_ma_nodeGraphEditorBookmarkInfo2";
	rename -uid "927B367F-464E-E2D6-9473-D6821FF7ECE9";
createNode nodeGraphEditorBookmarkInfo -n "pasted__sunnySRU_HAIR1_browStatic_HERO_ma_nodeGraphEditorBookmarkInfo3";
	rename -uid "000951D8-4B0E-9B85-BFCB-0988503C1107";
createNode nodeGraphEditorBookmarkInfo -n "pasted__sunnySRU_HAIR1_browStatic_HERO_ma_pasted__nodeGraphEditorBookmarkInfo1";
	rename -uid "83896B2B-4D22-993F-3036-FE9E72C4E08B";
createNode nodeGraphEditorBookmarkInfo -n "pasted__sunnySRU_HAIR1_browStatic_HERO_ma_nodeGraphEditorBookmarkInfo4";
	rename -uid "BAB48777-46F2-0C05-1BC2-4BA29C7A0AE5";
createNode nodeGraphEditorBookmarkInfo -n "pasted__sunnySRU_HAIR1_browStatic_HERO_ma_nodeGraphEditorBookmarkInfo5";
	rename -uid "8433C825-4E37-27FA-8EF4-43A7D7DDD027";
createNode nodeGraphEditorBookmarkInfo -n "pasted__sunnySRU_00_HAIRCURVES_HERO_nodeGraphEditorBookmarkInfo1";
	rename -uid "62271BA4-4B1F-8DE1-C5F8-2DB75E232F95";
createNode nodeGraphEditorBookmarkInfo -n "pasted__sunnySRU_00_HAIRCURVES_HERO_nodeGraphEditorBookmarkInfo2";
	rename -uid "E96A8CEA-4EB8-9C0F-A293-859E3273434D";
createNode nodeGraphEditorBookmarkInfo -n "pasted__sunnySRU_00_HAIRCURVES_HERO_nodeGraphEditorBookmarkInfo3";
	rename -uid "9DC339DD-41E1-045B-D1E7-BEBDC4E67408";
createNode nodeGraphEditorBookmarkInfo -n "pasted__sunnySRU_00_HAIRCURVES_HERO_pasted__nodeGraphEditorBookmarkInfo1";
	rename -uid "9254B056-4528-6CB3-E107-B186FCF2D2EA";
createNode nodeGraphEditorBookmarkInfo -n "pasted__sunnySRU_00_HAIRCURVES_HERO_nodeGraphEditorBookmarkInfo4";
	rename -uid "88C363A7-4DBE-43F9-8103-53B9EEAAB10D";
createNode nodeGraphEditorBookmarkInfo -n "pasted__sunnySRU_00_HAIRCURVES_HERO_nodeGraphEditorBookmarkInfo5";
	rename -uid "FB7D2B57-4100-0FA0-B574-D5B3F4D52C30";
createNode lambert -n "hairRed_shd";
	rename -uid "3FACA542-4749-79A9-6248-7C873D8F5EBE";
createNode lambert -n "hairYellow_shd";
	rename -uid "9FC120BF-4C7B-03D6-E837-F18C5C1B2494";
createNode lambert -n "hairGreen_shd";
	rename -uid "7EBDC445-4356-1F6C-70FB-C4BC6316C5A1";
createNode lambert -n "hairBlue_shd";
	rename -uid "A729CEEC-4CDC-DE6A-688E-D5A13C06DE9F";
createNode nodeGraphEditorInfo -n "shader_hyperShadePrimaryNodeEditorSavedTabsInfo";
	rename -uid "20C509EA-4958-6D0E-3B59-FBBE9AB984F5";
	setAttr ".def" no;
	setAttr ".tgi[0].tn" -type "string" "Untitled_1";
	setAttr ".tgi[0].vl" -type "double2" -330.95236780151544 -323.80951094248991 ;
	setAttr ".tgi[0].vh" -type "double2" 317.85713022663526 338.09522466054096 ;
createNode shadingEngine -n "hairBlue_shdSG";
	rename -uid "23D6556C-45A8-0BC8-241A-92A9FC125427";
	setAttr ".ihi" 0;
	setAttr ".ro" yes;
createNode materialInfo -n "materialInfo1";
	rename -uid "A9038184-48E5-8BD7-B1E9-23B615BA9702";
	setAttr -s 3 ".t";
createNode shadingEngine -n "hairGreen_shdSG";
	rename -uid "7095CEF9-48FF-9464-38D0-C4ABC8CF97E4";
	setAttr ".ihi" 0;
	setAttr ".ro" yes;
createNode materialInfo -n "materialInfo2";
	rename -uid "1DDB836B-4BDF-5CD8-91C3-9F9DDA1692F9";
	setAttr -s 3 ".t";
createNode shadingEngine -n "hairRed_shdSG";
	rename -uid "37BF9367-46B8-1A7A-1828-CE935A6F1067";
	setAttr ".ihi" 0;
	setAttr ".ro" yes;
createNode materialInfo -n "materialInfo3";
	rename -uid "7E10E3EA-4A8A-A104-77AF-9C8A8D04E432";
	setAttr -s 3 ".t";
createNode shadingEngine -n "hairYellow_shdSG";
	rename -uid "3B1FC332-4861-3B0F-1E55-D5B23FC8FE0A";
	setAttr ".ihi" 0;
	setAttr ".ro" yes;
createNode materialInfo -n "materialInfo4";
	rename -uid "77632A61-4665-89C0-B7C6-07AB6EB25577";
	setAttr -s 3 ".t";
createNode nodeGraphEditorInfo -n "body_hyperShadePrimaryNodeEditorSavedTabsInfo";
	rename -uid "AB6BA809-43A8-D93C-F457-D1AEC922C0C7";
	setAttr ".def" no;
	setAttr ".tgi[0].tn" -type "string" "Untitled_1";
	setAttr ".tgi[0].vl" -type "double2" -330.95236780151544 -323.80951094248991 ;
	setAttr ".tgi[0].vh" -type "double2" 317.85713022663526 338.09522466054096 ;
createNode nodeGraphEditorBookmarkInfo -n "sunnyCasualSuit_COL_nodeGraphEditorBookmarkInfo1";
	rename -uid "9A777288-4DC2-F14C-D24F-88851090E8B9";
createNode nodeGraphEditorBookmarkInfo -n "body_base:nodeGraphEditorBookmarkInfo1";
	rename -uid "0AF7670A-4EE2-A012-2D50-B7ABC7D9A411";
createNode nodeGraphEditorBookmarkInfo -n "body_base:nodeGraphEditorBookmarkInfo2";
	rename -uid "6B1DDC12-4981-F229-A956-99AD7A61198C";
createNode nodeGraphEditorInfo -n "sunnyCasualSuit_COL_hyperShadePrimaryNodeEditorSavedTabsInfo";
	rename -uid "8AF15A05-47B8-E5E1-03AD-868A538B7EC2";
	setAttr ".def" no;
	setAttr ".tgi[0].tn" -type "string" "Untitled_1";
	setAttr ".tgi[0].vl" -type "double2" -330.95236780151544 -323.80951094248991 ;
	setAttr ".tgi[0].vh" -type "double2" 317.85713022663526 338.09522466054096 ;
	setAttr -s 75 ".tgi[0].ni";
	setAttr ".tgi[0].ni[0].x" 361.42855834960937;
	setAttr ".tgi[0].ni[0].y" 5901.4287109375;
	setAttr ".tgi[0].ni[0].nvs" 1922;
	setAttr ".tgi[0].ni[1].x" -284.28570556640625;
	setAttr ".tgi[0].ni[1].y" 3917.142822265625;
	setAttr ".tgi[0].ni[1].nvs" 1922;
	setAttr ".tgi[0].ni[2].x" 254.28572082519531;
	setAttr ".tgi[0].ni[2].y" 3750;
	setAttr ".tgi[0].ni[2].nvs" 1922;
	setAttr ".tgi[0].ni[3].x" 361.42855834960937;
	setAttr ".tgi[0].ni[3].y" -4484.28564453125;
	setAttr ".tgi[0].ni[3].nvs" 1922;
	setAttr ".tgi[0].ni[4].x" 361.42855834960937;
	setAttr ".tgi[0].ni[4].y" 2935.71435546875;
	setAttr ".tgi[0].ni[4].nvs" 1922;
	setAttr ".tgi[0].ni[5].x" 54.285713195800781;
	setAttr ".tgi[0].ni[5].y" 3147.142822265625;
	setAttr ".tgi[0].ni[5].nvs" 1922;
	setAttr ".tgi[0].ni[6].x" 361.42855834960937;
	setAttr ".tgi[0].ni[6].y" -7240;
	setAttr ".tgi[0].ni[6].nvs" 1922;
	setAttr ".tgi[0].ni[7].x" 54.285713195800781;
	setAttr ".tgi[0].ni[7].y" 2598.571533203125;
	setAttr ".tgi[0].ni[7].nvs" 1922;
	setAttr ".tgi[0].ni[8].x" 361.42855834960937;
	setAttr ".tgi[0].ni[8].y" -5575.71435546875;
	setAttr ".tgi[0].ni[8].nvs" 1922;
	setAttr ".tgi[0].ni[9].x" 361.42855834960937;
	setAttr ".tgi[0].ni[9].y" 2665.71435546875;
	setAttr ".tgi[0].ni[9].nvs" 1922;
	setAttr ".tgi[0].ni[10].x" -125.71428680419922;
	setAttr ".tgi[0].ni[10].y" 3682.857177734375;
	setAttr ".tgi[0].ni[10].nvs" 1922;
	setAttr ".tgi[0].ni[11].x" 22.857143402099609;
	setAttr ".tgi[0].ni[11].y" 5901.4287109375;
	setAttr ".tgi[0].ni[11].nvs" 2274;
	setAttr ".tgi[0].ni[12].x" 361.42855834960937;
	setAttr ".tgi[0].ni[12].y" -5034.28564453125;
	setAttr ".tgi[0].ni[12].nvs" 1922;
	setAttr ".tgi[0].ni[13].x" 54.285713195800781;
	setAttr ".tgi[0].ni[13].y" 2868.571533203125;
	setAttr ".tgi[0].ni[13].nvs" 1922;
	setAttr ".tgi[0].ni[14].x" 361.42855834960937;
	setAttr ".tgi[0].ni[14].y" -5305.71435546875;
	setAttr ".tgi[0].ni[14].nvs" 1922;
	setAttr ".tgi[0].ni[15].x" 361.42855834960937;
	setAttr ".tgi[0].ni[15].y" 6220;
	setAttr ".tgi[0].ni[15].nvs" 1923;
	setAttr ".tgi[0].ni[16].x" 361.42855834960937;
	setAttr ".tgi[0].ni[16].y" -4204.28564453125;
	setAttr ".tgi[0].ni[16].nvs" 1922;
	setAttr ".tgi[0].ni[17].x" 361.42855834960937;
	setAttr ".tgi[0].ni[17].y" -2185.71435546875;
	setAttr ".tgi[0].ni[17].nvs" 1922;
	setAttr ".tgi[0].ni[18].x" 361.42855834960937;
	setAttr ".tgi[0].ni[18].y" -3258.571533203125;
	setAttr ".tgi[0].ni[18].nvs" 1922;
	setAttr ".tgi[0].ni[19].x" 361.42855834960937;
	setAttr ".tgi[0].ni[19].y" -85.714286804199219;
	setAttr ".tgi[0].ni[19].nvs" 1922;
	setAttr ".tgi[0].ni[20].x" 361.42855834960937;
	setAttr ".tgi[0].ni[20].y" -1792.857177734375;
	setAttr ".tgi[0].ni[20].nvs" 1922;
	setAttr ".tgi[0].ni[21].x" 361.42855834960937;
	setAttr ".tgi[0].ni[21].y" -545.71429443359375;
	setAttr ".tgi[0].ni[21].nvs" 1922;
	setAttr ".tgi[0].ni[22].x" 361.42855834960937;
	setAttr ".tgi[0].ni[22].y" -7522.85693359375;
	setAttr ".tgi[0].ni[22].nvs" 1922;
	setAttr ".tgi[0].ni[23].x" 361.42855834960937;
	setAttr ".tgi[0].ni[23].y" 374.28570556640625;
	setAttr ".tgi[0].ni[23].nvs" 1922;
	setAttr ".tgi[0].ni[24].x" 361.42855834960937;
	setAttr ".tgi[0].ni[24].y" -5832.85693359375;
	setAttr ".tgi[0].ni[24].nvs" 1922;
	setAttr ".tgi[0].ni[25].x" 361.42855834960937;
	setAttr ".tgi[0].ni[25].y" 857.14288330078125;
	setAttr ".tgi[0].ni[25].nvs" 1922;
	setAttr ".tgi[0].ni[26].x" 361.42855834960937;
	setAttr ".tgi[0].ni[26].y" 1475.7142333984375;
	setAttr ".tgi[0].ni[26].nvs" 1922;
	setAttr ".tgi[0].ni[27].x" 361.42855834960937;
	setAttr ".tgi[0].ni[27].y" -6068.5712890625;
	setAttr ".tgi[0].ni[27].nvs" 1922;
	setAttr ".tgi[0].ni[28].x" 54.285713195800781;
	setAttr ".tgi[0].ni[28].y" 3425.71435546875;
	setAttr ".tgi[0].ni[28].nvs" 1922;
	setAttr ".tgi[0].ni[29].x" 361.42855834960937;
	setAttr ".tgi[0].ni[29].y" 3492.857177734375;
	setAttr ".tgi[0].ni[29].nvs" 1922;
	setAttr ".tgi[0].ni[30].x" 361.42855834960937;
	setAttr ".tgi[0].ni[30].y" -7094.28564453125;
	setAttr ".tgi[0].ni[30].nvs" 1922;
	setAttr ".tgi[0].ni[31].x" 361.42855834960937;
	setAttr ".tgi[0].ni[31].y" -7385.71435546875;
	setAttr ".tgi[0].ni[31].nvs" 1922;
	setAttr ".tgi[0].ni[32].x" 361.42855834960937;
	setAttr ".tgi[0].ni[32].y" -4762.85693359375;
	setAttr ".tgi[0].ni[32].nvs" 1922;
	setAttr ".tgi[0].ni[33].x" 361.42855834960937;
	setAttr ".tgi[0].ni[33].y" -1400;
	setAttr ".tgi[0].ni[33].nvs" 1922;
	setAttr ".tgi[0].ni[34].x" 361.42855834960937;
	setAttr ".tgi[0].ni[34].y" -2918.571533203125;
	setAttr ".tgi[0].ni[34].nvs" 1922;
	setAttr ".tgi[0].ni[35].x" 361.42855834960937;
	setAttr ".tgi[0].ni[35].y" 2117.142822265625;
	setAttr ".tgi[0].ni[35].nvs" 1922;
	setAttr ".tgi[0].ni[36].x" 361.42855834960937;
	setAttr ".tgi[0].ni[36].y" 3214.28564453125;
	setAttr ".tgi[0].ni[36].nvs" 1922;
	setAttr ".tgi[0].ni[37].x" 361.42855834960937;
	setAttr ".tgi[0].ni[37].y" -3584.28564453125;
	setAttr ".tgi[0].ni[37].nvs" 1922;
	setAttr ".tgi[0].ni[38].x" 361.42855834960937;
	setAttr ".tgi[0].ni[38].y" -2570;
	setAttr ".tgi[0].ni[38].nvs" 1922;
	setAttr ".tgi[0].ni[39].x" 361.42855834960937;
	setAttr ".tgi[0].ni[39].y" 6900;
	setAttr ".tgi[0].ni[39].nvs" 1923;
	setAttr ".tgi[0].ni[40].x" 54.285713195800781;
	setAttr ".tgi[0].ni[40].y" 6922.85693359375;
	setAttr ".tgi[0].ni[40].nvs" 1923;
	setAttr ".tgi[0].ni[41].x" 361.42855834960937;
	setAttr ".tgi[0].ni[41].y" -984.28570556640625;
	setAttr ".tgi[0].ni[41].nvs" 1922;
	setAttr ".tgi[0].ni[42].x" 361.42855834960937;
	setAttr ".tgi[0].ni[42].y" -3901.428466796875;
	setAttr ".tgi[0].ni[42].nvs" 1922;
	setAttr ".tgi[0].ni[43].x" 54.285713195800781;
	setAttr ".tgi[0].ni[43].y" 6242.85693359375;
	setAttr ".tgi[0].ni[43].nvs" 1923;
	setAttr ".tgi[0].ni[44].x" -252.85714721679687;
	setAttr ".tgi[0].ni[44].y" 6922.85693359375;
	setAttr ".tgi[0].ni[44].nvs" 1923;
	setAttr ".tgi[0].ni[45].x" -560;
	setAttr ".tgi[0].ni[45].y" 6900;
	setAttr ".tgi[0].ni[45].nvs" 1923;
	setAttr ".tgi[0].ni[46].x" -252.85714721679687;
	setAttr ".tgi[0].ni[46].y" 145.71427917480469;
	setAttr ".tgi[0].ni[46].nvs" 1923;
	setAttr ".tgi[0].ni[47].x" 54.285713195800781;
	setAttr ".tgi[0].ni[47].y" 145.71427917480469;
	setAttr ".tgi[0].ni[47].nvs" 1923;
	setAttr ".tgi[0].ni[48].x" 361.42855834960937;
	setAttr ".tgi[0].ni[48].y" -6927.14306640625;
	setAttr ".tgi[0].ni[48].nvs" 1922;
	setAttr ".tgi[0].ni[49].x" 361.42855834960937;
	setAttr ".tgi[0].ni[49].y" -6760;
	setAttr ".tgi[0].ni[49].nvs" 1922;
	setAttr ".tgi[0].ni[50].x" -252.85714721679687;
	setAttr ".tgi[0].ni[50].y" 6242.85693359375;
	setAttr ".tgi[0].ni[50].nvs" 1923;
	setAttr ".tgi[0].ni[51].x" -560;
	setAttr ".tgi[0].ni[51].y" 6220;
	setAttr ".tgi[0].ni[51].nvs" 1923;
	setAttr ".tgi[0].ni[52].x" 361.42855834960937;
	setAttr ".tgi[0].ni[52].y" -6592.85693359375;
	setAttr ".tgi[0].ni[52].nvs" 1922;
	setAttr ".tgi[0].ni[53].x" 361.42855834960937;
	setAttr ".tgi[0].ni[53].y" -6425.71435546875;
	setAttr ".tgi[0].ni[53].nvs" 1922;
	setAttr ".tgi[0].ni[54].x" 361.42855834960937;
	setAttr ".tgi[0].ni[54].y" -6258.5712890625;
	setAttr ".tgi[0].ni[54].nvs" 1922;
	setAttr ".tgi[0].ni[55].x" -252.85714721679687;
	setAttr ".tgi[0].ni[55].y" 190;
	setAttr ".tgi[0].ni[55].nvs" 1923;
	setAttr ".tgi[0].ni[56].x" 54.285713195800781;
	setAttr ".tgi[0].ni[56].y" 190;
	setAttr ".tgi[0].ni[56].nvs" 1923;
	setAttr ".tgi[0].ni[57].x" 54.285713195800781;
	setAttr ".tgi[0].ni[57].y" -475.71429443359375;
	setAttr ".tgi[0].ni[57].nvs" 1923;
	setAttr ".tgi[0].ni[58].x" -252.85714721679687;
	setAttr ".tgi[0].ni[58].y" -475.71429443359375;
	setAttr ".tgi[0].ni[58].nvs" 1923;
	setAttr ".tgi[0].ni[59].x" 54.285713195800781;
	setAttr ".tgi[0].ni[59].y" -1774.2857666015625;
	setAttr ".tgi[0].ni[59].nvs" 1923;
	setAttr ".tgi[0].ni[60].x" 54.285713195800781;
	setAttr ".tgi[0].ni[60].y" -37.142856597900391;
	setAttr ".tgi[0].ni[60].nvs" 1923;
	setAttr ".tgi[0].ni[61].x" -252.85714721679687;
	setAttr ".tgi[0].ni[61].y" 401.42855834960937;
	setAttr ".tgi[0].ni[61].nvs" 1923;
	setAttr ".tgi[0].ni[62].x" -252.85714721679687;
	setAttr ".tgi[0].ni[62].y" -37.142856597900391;
	setAttr ".tgi[0].ni[62].nvs" 1923;
	setAttr ".tgi[0].ni[63].x" -252.85714721679687;
	setAttr ".tgi[0].ni[63].y" -1774.2857666015625;
	setAttr ".tgi[0].ni[63].nvs" 1923;
	setAttr ".tgi[0].ni[64].x" 54.285713195800781;
	setAttr ".tgi[0].ni[64].y" 401.42855834960937;
	setAttr ".tgi[0].ni[64].nvs" 1923;
	setAttr ".tgi[0].ni[65].x" -252.85714721679687;
	setAttr ".tgi[0].ni[65].y" 840;
	setAttr ".tgi[0].ni[65].nvs" 1923;
	setAttr ".tgi[0].ni[66].x" 54.285713195800781;
	setAttr ".tgi[0].ni[66].y" 840;
	setAttr ".tgi[0].ni[66].nvs" 1923;
	setAttr ".tgi[0].ni[67].x" -252.85714721679687;
	setAttr ".tgi[0].ni[67].y" 1278.5714111328125;
	setAttr ".tgi[0].ni[67].nvs" 1923;
	setAttr ".tgi[0].ni[68].x" 54.285713195800781;
	setAttr ".tgi[0].ni[68].y" 1278.5714111328125;
	setAttr ".tgi[0].ni[68].nvs" 1923;
	setAttr ".tgi[0].ni[69].x" -252.85714721679687;
	setAttr ".tgi[0].ni[69].y" 194.28572082519531;
	setAttr ".tgi[0].ni[69].nvs" 1923;
	setAttr ".tgi[0].ni[70].x" 54.285713195800781;
	setAttr ".tgi[0].ni[70].y" 194.28572082519531;
	setAttr ".tgi[0].ni[70].nvs" 1923;
	setAttr ".tgi[0].ni[71].x" 54.285713195800781;
	setAttr ".tgi[0].ni[71].y" 1717.142822265625;
	setAttr ".tgi[0].ni[71].nvs" 1923;
	setAttr ".tgi[0].ni[72].x" 54.285713195800781;
	setAttr ".tgi[0].ni[72].y" 2155.71435546875;
	setAttr ".tgi[0].ni[72].nvs" 1923;
	setAttr ".tgi[0].ni[73].x" -252.85714721679687;
	setAttr ".tgi[0].ni[73].y" 1717.142822265625;
	setAttr ".tgi[0].ni[73].nvs" 1923;
	setAttr ".tgi[0].ni[74].x" -252.85714721679687;
	setAttr ".tgi[0].ni[74].y" 2155.71435546875;
	setAttr ".tgi[0].ni[74].nvs" 1923;
createNode ramp -n "ramp4";
	rename -uid "C36CA0A7-4045-F28B-8410-ECB4D4ECEA10";
	setAttr -s 3 ".cel";
	setAttr ".cel[0].ep" 0;
	setAttr ".cel[0].ec" -type "float3" 0 0.0066999998 0.042300001 ;
	setAttr ".cel[1].ep" 1;
	setAttr ".cel[1].ec" -type "float3" 0 1 1 ;
	setAttr ".cel[2].ep" 0.54925370216369629;
	setAttr ".cel[2].ec" -type "float3" 0 0.36770001 0.5711 ;
createNode ramp -n "ramp3";
	rename -uid "FCE0908A-4C68-C362-C1E9-3980E96D7A6D";
	setAttr -s 3 ".cel";
	setAttr ".cel[0].ep" 0;
	setAttr ".cel[0].ec" -type "float3" 0 0.0854 0 ;
	setAttr ".cel[1].ep" 1;
	setAttr ".cel[1].ec" -type "float3" 0.35780001 1 0 ;
	setAttr ".cel[2].ep" 0.49552237987518311;
	setAttr ".cel[2].ec" -type "float3" 0 0.60958898 0 ;
createNode ramp -n "ramp2";
	rename -uid "853D25D3-4A84-D2BA-9AA7-CFB6187B8B10";
	setAttr -s 3 ".cel";
	setAttr ".cel[0].ep" 0;
	setAttr ".cel[0].ec" -type "float3" 0.1055 0.0394 0 ;
	setAttr ".cel[1].ep" 1;
	setAttr ".cel[1].ec" -type "float3" 1 1 0 ;
	setAttr ".cel[2].ep" 0.53134328126907349;
	setAttr ".cel[2].ec" -type "float3" 1 0.4314 0 ;
createNode ramp -n "ramp1";
	rename -uid "F0D0C01C-4757-ABE5-F81E-E498E3E6E224";
	setAttr -s 3 ".cel";
	setAttr ".cel[0].ep" 0.083582088351249695;
	setAttr ".cel[0].ec" -type "float3" 0.1055 0 0.0024999999 ;
	setAttr ".cel[1].ep" 0.54029899835586548;
	setAttr ".cel[1].ec" -type "float3" 0.37599999 0 0.0008584442 ;
	setAttr ".cel[3].ep" 1;
	setAttr ".cel[3].ec" -type "float3" 1 0.090599999 0 ;
createNode script -n "uiConfigurationScriptNode";
	rename -uid "D8102305-45E4-317A-C246-A88AFF60FBD4";
	setAttr ".b" -type "string" (
		"// Maya Mel UI Configuration File.\n//\n//  This script is machine generated.  Edit at your own risk.\n//\n//\n\nglobal string $gMainPane;\nif (`paneLayout -exists $gMainPane`) {\n\n\tglobal int $gUseScenePanelConfig;\n\tint    $useSceneConfig = $gUseScenePanelConfig;\n\tint    $menusOkayInPanels = `optionVar -q allowMenusInPanels`;\tint    $nVisPanes = `paneLayout -q -nvp $gMainPane`;\n\tint    $nPanes = 0;\n\tstring $editorName;\n\tstring $panelName;\n\tstring $itemFilterName;\n\tstring $panelConfig;\n\n\t//\n\t//  get current state of the UI\n\t//\n\tsceneUIReplacement -update $gMainPane;\n\n\t$panelName = `sceneUIReplacement -getNextPanel \"modelPanel\" (localizedPanelLabel(\"Top View\")) `;\n\tif (\"\" != $panelName) {\n\t\t$label = `panel -q -label $panelName`;\n\t\tmodelPanel -edit -l (localizedPanelLabel(\"Top View\")) -mbv $menusOkayInPanels  $panelName;\n\t\t$editorName = $panelName;\n        modelEditor -e \n            -camera \"top\" \n            -useInteractiveMode 0\n            -displayLights \"default\" \n            -displayAppearance \"smoothShaded\" \n            -activeOnly 0\n"
		+ "            -ignorePanZoom 0\n            -wireframeOnShaded 0\n            -headsUpDisplay 1\n            -holdOuts 1\n            -selectionHiliteDisplay 1\n            -useDefaultMaterial 0\n            -bufferMode \"double\" \n            -twoSidedLighting 0\n            -backfaceCulling 0\n            -xray 0\n            -jointXray 0\n            -activeComponentsXray 0\n            -displayTextures 0\n            -smoothWireframe 0\n            -lineWidth 1\n            -textureAnisotropic 0\n            -textureHilight 1\n            -textureSampling 2\n            -textureDisplay \"modulate\" \n            -textureMaxSize 32768\n            -fogging 0\n            -fogSource \"fragment\" \n            -fogMode \"linear\" \n            -fogStart 0\n            -fogEnd 100\n            -fogDensity 0.1\n            -fogColor 0.5 0.5 0.5 1 \n            -depthOfFieldPreview 1\n            -maxConstantTransparency 1\n            -rendererName \"vp2Renderer\" \n            -objectFilterShowInHUD 1\n            -isFiltered 0\n            -colorResolution 256 256 \n"
		+ "            -bumpResolution 512 512 \n            -textureCompression 0\n            -transparencyAlgorithm \"frontAndBackCull\" \n            -transpInShadows 0\n            -cullingOverride \"none\" \n            -lowQualityLighting 0\n            -maximumNumHardwareLights 1\n            -occlusionCulling 0\n            -shadingModel 0\n            -useBaseRenderer 0\n            -useReducedRenderer 0\n            -smallObjectCulling 0\n            -smallObjectThreshold -1 \n            -interactiveDisableShadows 0\n            -interactiveBackFaceCull 0\n            -sortTransparent 1\n            -nurbsCurves 1\n            -nurbsSurfaces 1\n            -polymeshes 1\n            -subdivSurfaces 1\n            -planes 1\n            -lights 1\n            -cameras 1\n            -controlVertices 1\n            -hulls 1\n            -grid 1\n            -imagePlane 1\n            -joints 1\n            -ikHandles 1\n            -deformers 1\n            -dynamics 1\n            -particleInstancers 1\n            -fluids 1\n            -hairSystems 1\n"
		+ "            -follicles 1\n            -nCloths 1\n            -nParticles 1\n            -nRigids 1\n            -dynamicConstraints 1\n            -locators 1\n            -manipulators 1\n            -pluginShapes 1\n            -dimensions 1\n            -handles 1\n            -pivots 1\n            -textures 1\n            -strokes 1\n            -motionTrails 1\n            -clipGhosts 1\n            -greasePencils 1\n            -shadows 0\n            -captureSequenceNumber -1\n            -width 1\n            -height 1\n            -sceneRenderFilter 0\n            $editorName;\n        modelEditor -e -viewSelected 0 $editorName;\n\t\tif (!$useSceneConfig) {\n\t\t\tpanel -e -l $label $panelName;\n\t\t}\n\t}\n\n\n\t$panelName = `sceneUIReplacement -getNextPanel \"modelPanel\" (localizedPanelLabel(\"Side View\")) `;\n\tif (\"\" != $panelName) {\n\t\t$label = `panel -q -label $panelName`;\n\t\tmodelPanel -edit -l (localizedPanelLabel(\"Side View\")) -mbv $menusOkayInPanels  $panelName;\n\t\t$editorName = $panelName;\n        modelEditor -e \n            -camera \"side\" \n"
		+ "            -useInteractiveMode 0\n            -displayLights \"default\" \n            -displayAppearance \"smoothShaded\" \n            -activeOnly 0\n            -ignorePanZoom 0\n            -wireframeOnShaded 0\n            -headsUpDisplay 1\n            -holdOuts 1\n            -selectionHiliteDisplay 1\n            -useDefaultMaterial 0\n            -bufferMode \"double\" \n            -twoSidedLighting 0\n            -backfaceCulling 0\n            -xray 0\n            -jointXray 0\n            -activeComponentsXray 0\n            -displayTextures 0\n            -smoothWireframe 0\n            -lineWidth 1\n            -textureAnisotropic 0\n            -textureHilight 1\n            -textureSampling 2\n            -textureDisplay \"modulate\" \n            -textureMaxSize 32768\n            -fogging 0\n            -fogSource \"fragment\" \n            -fogMode \"linear\" \n            -fogStart 0\n            -fogEnd 100\n            -fogDensity 0.1\n            -fogColor 0.5 0.5 0.5 1 \n            -depthOfFieldPreview 1\n            -maxConstantTransparency 1\n"
		+ "            -rendererName \"vp2Renderer\" \n            -objectFilterShowInHUD 1\n            -isFiltered 0\n            -colorResolution 256 256 \n            -bumpResolution 512 512 \n            -textureCompression 0\n            -transparencyAlgorithm \"frontAndBackCull\" \n            -transpInShadows 0\n            -cullingOverride \"none\" \n            -lowQualityLighting 0\n            -maximumNumHardwareLights 1\n            -occlusionCulling 0\n            -shadingModel 0\n            -useBaseRenderer 0\n            -useReducedRenderer 0\n            -smallObjectCulling 0\n            -smallObjectThreshold -1 \n            -interactiveDisableShadows 0\n            -interactiveBackFaceCull 0\n            -sortTransparent 1\n            -nurbsCurves 1\n            -nurbsSurfaces 1\n            -polymeshes 1\n            -subdivSurfaces 1\n            -planes 1\n            -lights 1\n            -cameras 1\n            -controlVertices 1\n            -hulls 1\n            -grid 1\n            -imagePlane 1\n            -joints 1\n            -ikHandles 1\n"
		+ "            -deformers 1\n            -dynamics 1\n            -particleInstancers 1\n            -fluids 1\n            -hairSystems 1\n            -follicles 1\n            -nCloths 1\n            -nParticles 1\n            -nRigids 1\n            -dynamicConstraints 1\n            -locators 1\n            -manipulators 1\n            -pluginShapes 1\n            -dimensions 1\n            -handles 1\n            -pivots 1\n            -textures 1\n            -strokes 1\n            -motionTrails 1\n            -clipGhosts 1\n            -greasePencils 1\n            -shadows 0\n            -captureSequenceNumber -1\n            -width 1\n            -height 1\n            -sceneRenderFilter 0\n            $editorName;\n        modelEditor -e -viewSelected 0 $editorName;\n\t\tif (!$useSceneConfig) {\n\t\t\tpanel -e -l $label $panelName;\n\t\t}\n\t}\n\n\n\t$panelName = `sceneUIReplacement -getNextPanel \"modelPanel\" (localizedPanelLabel(\"Front View\")) `;\n\tif (\"\" != $panelName) {\n\t\t$label = `panel -q -label $panelName`;\n\t\tmodelPanel -edit -l (localizedPanelLabel(\"Front View\")) -mbv $menusOkayInPanels  $panelName;\n"
		+ "\t\t$editorName = $panelName;\n        modelEditor -e \n            -camera \"front\" \n            -useInteractiveMode 0\n            -displayLights \"default\" \n            -displayAppearance \"smoothShaded\" \n            -activeOnly 0\n            -ignorePanZoom 0\n            -wireframeOnShaded 0\n            -headsUpDisplay 1\n            -holdOuts 1\n            -selectionHiliteDisplay 1\n            -useDefaultMaterial 0\n            -bufferMode \"double\" \n            -twoSidedLighting 0\n            -backfaceCulling 0\n            -xray 0\n            -jointXray 0\n            -activeComponentsXray 0\n            -displayTextures 0\n            -smoothWireframe 0\n            -lineWidth 1\n            -textureAnisotropic 0\n            -textureHilight 1\n            -textureSampling 2\n            -textureDisplay \"modulate\" \n            -textureMaxSize 32768\n            -fogging 0\n            -fogSource \"fragment\" \n            -fogMode \"linear\" \n            -fogStart 0\n            -fogEnd 100\n            -fogDensity 0.1\n            -fogColor 0.5 0.5 0.5 1 \n"
		+ "            -depthOfFieldPreview 1\n            -maxConstantTransparency 1\n            -rendererName \"vp2Renderer\" \n            -objectFilterShowInHUD 1\n            -isFiltered 0\n            -colorResolution 256 256 \n            -bumpResolution 512 512 \n            -textureCompression 0\n            -transparencyAlgorithm \"frontAndBackCull\" \n            -transpInShadows 0\n            -cullingOverride \"none\" \n            -lowQualityLighting 0\n            -maximumNumHardwareLights 1\n            -occlusionCulling 0\n            -shadingModel 0\n            -useBaseRenderer 0\n            -useReducedRenderer 0\n            -smallObjectCulling 0\n            -smallObjectThreshold -1 \n            -interactiveDisableShadows 0\n            -interactiveBackFaceCull 0\n            -sortTransparent 1\n            -nurbsCurves 1\n            -nurbsSurfaces 1\n            -polymeshes 1\n            -subdivSurfaces 1\n            -planes 1\n            -lights 1\n            -cameras 1\n            -controlVertices 1\n            -hulls 1\n            -grid 1\n"
		+ "            -imagePlane 1\n            -joints 1\n            -ikHandles 1\n            -deformers 1\n            -dynamics 1\n            -particleInstancers 1\n            -fluids 1\n            -hairSystems 1\n            -follicles 1\n            -nCloths 1\n            -nParticles 1\n            -nRigids 1\n            -dynamicConstraints 1\n            -locators 1\n            -manipulators 1\n            -pluginShapes 1\n            -dimensions 1\n            -handles 1\n            -pivots 1\n            -textures 1\n            -strokes 1\n            -motionTrails 1\n            -clipGhosts 1\n            -greasePencils 1\n            -shadows 0\n            -captureSequenceNumber -1\n            -width 1\n            -height 1\n            -sceneRenderFilter 0\n            $editorName;\n        modelEditor -e -viewSelected 0 $editorName;\n\t\tif (!$useSceneConfig) {\n\t\t\tpanel -e -l $label $panelName;\n\t\t}\n\t}\n\n\n\t$panelName = `sceneUIReplacement -getNextPanel \"modelPanel\" (localizedPanelLabel(\"Persp View\")) `;\n\tif (\"\" != $panelName) {\n"
		+ "\t\t$label = `panel -q -label $panelName`;\n\t\tmodelPanel -edit -l (localizedPanelLabel(\"Persp View\")) -mbv $menusOkayInPanels  $panelName;\n\t\t$editorName = $panelName;\n        modelEditor -e \n            -camera \"persp\" \n            -useInteractiveMode 0\n            -displayLights \"default\" \n            -displayAppearance \"smoothShaded\" \n            -activeOnly 0\n            -ignorePanZoom 0\n            -wireframeOnShaded 0\n            -headsUpDisplay 1\n            -holdOuts 1\n            -selectionHiliteDisplay 1\n            -useDefaultMaterial 0\n            -bufferMode \"double\" \n            -twoSidedLighting 1\n            -backfaceCulling 0\n            -xray 0\n            -jointXray 0\n            -activeComponentsXray 0\n            -displayTextures 1\n            -smoothWireframe 0\n            -lineWidth 1\n            -textureAnisotropic 0\n            -textureHilight 1\n            -textureSampling 2\n            -textureDisplay \"modulate\" \n            -textureMaxSize 32768\n            -fogging 0\n            -fogSource \"fragment\" \n"
		+ "            -fogMode \"linear\" \n            -fogStart 0\n            -fogEnd 100\n            -fogDensity 0.1\n            -fogColor 0.5 0.5 0.5 1 \n            -depthOfFieldPreview 1\n            -maxConstantTransparency 1\n            -rendererName \"base_OpenGL_Renderer\" \n            -objectFilterShowInHUD 1\n            -isFiltered 0\n            -colorResolution 256 256 \n            -bumpResolution 512 512 \n            -textureCompression 0\n            -transparencyAlgorithm \"frontAndBackCull\" \n            -transpInShadows 0\n            -cullingOverride \"none\" \n            -lowQualityLighting 0\n            -maximumNumHardwareLights 1\n            -occlusionCulling 0\n            -shadingModel 0\n            -useBaseRenderer 0\n            -useReducedRenderer 0\n            -smallObjectCulling 0\n            -smallObjectThreshold -1 \n            -interactiveDisableShadows 0\n            -interactiveBackFaceCull 0\n            -sortTransparent 1\n            -nurbsCurves 0\n            -nurbsSurfaces 1\n            -polymeshes 1\n"
		+ "            -subdivSurfaces 0\n            -planes 0\n            -lights 0\n            -cameras 0\n            -controlVertices 0\n            -hulls 0\n            -grid 0\n            -imagePlane 0\n            -joints 0\n            -ikHandles 0\n            -deformers 0\n            -dynamics 0\n            -particleInstancers 0\n            -fluids 0\n            -hairSystems 0\n            -follicles 0\n            -nCloths 0\n            -nParticles 0\n            -nRigids 0\n            -dynamicConstraints 0\n            -locators 0\n            -manipulators 1\n            -pluginShapes 0\n            -dimensions 0\n            -handles 0\n            -pivots 0\n            -textures 0\n            -strokes 0\n            -motionTrails 0\n            -clipGhosts 0\n            -greasePencils 0\n            -shadows 0\n            -captureSequenceNumber -1\n            -width 1118\n            -height 589\n            -sceneRenderFilter 0\n            $editorName;\n        modelEditor -e -viewSelected 0 $editorName;\n\t\tif (!$useSceneConfig) {\n"
		+ "\t\t\tpanel -e -l $label $panelName;\n\t\t}\n\t}\n\n\n\t$panelName = `sceneUIReplacement -getNextPanel \"outlinerPanel\" (localizedPanelLabel(\"ToggledOutliner\")) `;\n\tif (\"\" != $panelName) {\n\t\t$label = `panel -q -label $panelName`;\n\t\toutlinerPanel -edit -l (localizedPanelLabel(\"ToggledOutliner\")) -mbv $menusOkayInPanels  $panelName;\n\t\t$editorName = $panelName;\n        outlinerEditor -e \n            -showShapes 0\n            -showAssignedMaterials 0\n            -showTimeEditor 1\n            -showReferenceNodes 0\n            -showReferenceMembers 0\n            -showAttributes 0\n            -showConnected 0\n            -showAnimCurvesOnly 0\n            -showMuteInfo 0\n            -organizeByLayer 1\n            -showAnimLayerWeight 1\n            -autoExpandLayers 1\n            -autoExpand 0\n            -showDagOnly 1\n            -showAssets 1\n            -showContainedOnly 1\n            -showPublishedAsConnected 0\n            -showContainerContents 1\n            -ignoreDagHierarchy 0\n            -expandConnections 0\n            -showUpstreamCurves 1\n"
		+ "            -showUnitlessCurves 1\n            -showCompounds 1\n            -showLeafs 1\n            -showNumericAttrsOnly 0\n            -highlightActive 1\n            -autoSelectNewObjects 0\n            -doNotSelectNewObjects 0\n            -dropIsParent 1\n            -transmitFilters 0\n            -setFilter \"defaultSetFilter\" \n            -showSetMembers 1\n            -allowMultiSelection 1\n            -alwaysToggleSelect 0\n            -directSelect 0\n            -isSet 0\n            -isSetMember 0\n            -displayMode \"DAG\" \n            -expandObjects 0\n            -setsIgnoreFilters 1\n            -containersIgnoreFilters 0\n            -editAttrName 0\n            -showAttrValues 0\n            -highlightSecondary 0\n            -showUVAttrsOnly 0\n            -showTextureNodesOnly 0\n            -attrAlphaOrder \"default\" \n            -animLayerFilterOptions \"allAffecting\" \n            -sortOrder \"none\" \n            -longNames 0\n            -niceNames 1\n            -showNamespace 1\n            -showPinIcons 0\n"
		+ "            -mapMotionTrails 0\n            -ignoreHiddenAttribute 0\n            -ignoreOutlinerColor 0\n            -renderFilterVisible 0\n            -renderFilterIndex 0\n            -selectionOrder \"chronological\" \n            -expandAttribute 0\n            $editorName;\n\t\tif (!$useSceneConfig) {\n\t\t\tpanel -e -l $label $panelName;\n\t\t}\n\t}\n\n\n\t$panelName = `sceneUIReplacement -getNextPanel \"outlinerPanel\" (localizedPanelLabel(\"Outliner\")) `;\n\tif (\"\" != $panelName) {\n\t\t$label = `panel -q -label $panelName`;\n\t\toutlinerPanel -edit -l (localizedPanelLabel(\"Outliner\")) -mbv $menusOkayInPanels  $panelName;\n\t\t$editorName = $panelName;\n        outlinerEditor -e \n            -docTag \"isolOutln_fromSeln\" \n            -showShapes 0\n            -showAssignedMaterials 0\n            -showTimeEditor 1\n            -showReferenceNodes 0\n            -showReferenceMembers 1\n            -showAttributes 0\n            -showConnected 0\n            -showAnimCurvesOnly 0\n            -showMuteInfo 0\n            -organizeByLayer 1\n            -showAnimLayerWeight 1\n"
		+ "            -autoExpandLayers 1\n            -autoExpand 0\n            -showDagOnly 1\n            -showAssets 1\n            -showContainedOnly 1\n            -showPublishedAsConnected 0\n            -showContainerContents 1\n            -ignoreDagHierarchy 0\n            -expandConnections 0\n            -showUpstreamCurves 1\n            -showUnitlessCurves 1\n            -showCompounds 1\n            -showLeafs 1\n            -showNumericAttrsOnly 0\n            -highlightActive 1\n            -autoSelectNewObjects 0\n            -doNotSelectNewObjects 0\n            -dropIsParent 1\n            -transmitFilters 0\n            -setFilter \"defaultSetFilter\" \n            -showSetMembers 1\n            -allowMultiSelection 1\n            -alwaysToggleSelect 0\n            -directSelect 0\n            -displayMode \"DAG\" \n            -expandObjects 0\n            -setsIgnoreFilters 1\n            -containersIgnoreFilters 0\n            -editAttrName 0\n            -showAttrValues 0\n            -highlightSecondary 0\n            -showUVAttrsOnly 0\n"
		+ "            -showTextureNodesOnly 0\n            -attrAlphaOrder \"default\" \n            -animLayerFilterOptions \"allAffecting\" \n            -sortOrder \"none\" \n            -longNames 0\n            -niceNames 1\n            -showNamespace 1\n            -showPinIcons 0\n            -mapMotionTrails 0\n            -ignoreHiddenAttribute 0\n            -ignoreOutlinerColor 0\n            -renderFilterVisible 0\n            $editorName;\n\t\tif (!$useSceneConfig) {\n\t\t\tpanel -e -l $label $panelName;\n\t\t}\n\t}\n\n\n\t$panelName = `sceneUIReplacement -getNextScriptedPanel \"graphEditor\" (localizedPanelLabel(\"Graph Editor\")) `;\n\tif (\"\" != $panelName) {\n\t\t$label = `panel -q -label $panelName`;\n\t\tscriptedPanel -edit -l (localizedPanelLabel(\"Graph Editor\")) -mbv $menusOkayInPanels  $panelName;\n\n\t\t\t$editorName = ($panelName+\"OutlineEd\");\n            outlinerEditor -e \n                -showShapes 1\n                -showAssignedMaterials 0\n                -showTimeEditor 1\n                -showReferenceNodes 0\n                -showReferenceMembers 0\n"
		+ "                -showAttributes 1\n                -showConnected 1\n                -showAnimCurvesOnly 1\n                -showMuteInfo 0\n                -organizeByLayer 1\n                -showAnimLayerWeight 1\n                -autoExpandLayers 1\n                -autoExpand 1\n                -showDagOnly 0\n                -showAssets 1\n                -showContainedOnly 0\n                -showPublishedAsConnected 0\n                -showContainerContents 0\n                -ignoreDagHierarchy 0\n                -expandConnections 1\n                -showUpstreamCurves 1\n                -showUnitlessCurves 1\n                -showCompounds 0\n                -showLeafs 1\n                -showNumericAttrsOnly 1\n                -highlightActive 0\n                -autoSelectNewObjects 1\n                -doNotSelectNewObjects 0\n                -dropIsParent 1\n                -transmitFilters 1\n                -setFilter \"0\" \n                -showSetMembers 0\n                -allowMultiSelection 1\n                -alwaysToggleSelect 0\n"
		+ "                -directSelect 0\n                -displayMode \"DAG\" \n                -expandObjects 0\n                -setsIgnoreFilters 1\n                -containersIgnoreFilters 0\n                -editAttrName 0\n                -showAttrValues 0\n                -highlightSecondary 0\n                -showUVAttrsOnly 0\n                -showTextureNodesOnly 0\n                -attrAlphaOrder \"default\" \n                -animLayerFilterOptions \"allAffecting\" \n                -sortOrder \"none\" \n                -longNames 0\n                -niceNames 1\n                -showNamespace 1\n                -showPinIcons 1\n                -mapMotionTrails 1\n                -ignoreHiddenAttribute 0\n                -ignoreOutlinerColor 0\n                -renderFilterVisible 0\n                $editorName;\n\n\t\t\t$editorName = ($panelName+\"GraphEd\");\n            animCurveEditor -e \n                -displayKeys 1\n                -displayTangents 0\n                -displayActiveKeys 0\n                -displayActiveKeyTangents 1\n                -displayInfinities 0\n"
		+ "                -displayValues 0\n                -autoFit 1\n                -snapTime \"integer\" \n                -snapValue \"none\" \n                -showResults \"off\" \n                -showBufferCurves \"off\" \n                -smoothness \"fine\" \n                -resultSamples 1\n                -resultScreenSamples 0\n                -resultUpdate \"delayed\" \n                -showUpstreamCurves 1\n                -showCurveNames 0\n                -showActiveCurveNames 0\n                -stackedCurves 0\n                -stackedCurvesMin -1\n                -stackedCurvesMax 1\n                -stackedCurvesSpace 0.2\n                -displayNormalized 0\n                -preSelectionHighlight 0\n                -constrainDrag 0\n                -classicMode 1\n                -valueLinesToggle 1\n                -outliner \"graphEditor1OutlineEd\" \n                $editorName;\n\t\tif (!$useSceneConfig) {\n\t\t\tpanel -e -l $label $panelName;\n\t\t}\n\t}\n\n\n\t$panelName = `sceneUIReplacement -getNextScriptedPanel \"dopeSheetPanel\" (localizedPanelLabel(\"Dope Sheet\")) `;\n"
		+ "\tif (\"\" != $panelName) {\n\t\t$label = `panel -q -label $panelName`;\n\t\tscriptedPanel -edit -l (localizedPanelLabel(\"Dope Sheet\")) -mbv $menusOkayInPanels  $panelName;\n\n\t\t\t$editorName = ($panelName+\"OutlineEd\");\n            outlinerEditor -e \n                -showShapes 1\n                -showAssignedMaterials 0\n                -showTimeEditor 1\n                -showReferenceNodes 0\n                -showReferenceMembers 0\n                -showAttributes 1\n                -showConnected 1\n                -showAnimCurvesOnly 1\n                -showMuteInfo 0\n                -organizeByLayer 1\n                -showAnimLayerWeight 1\n                -autoExpandLayers 1\n                -autoExpand 0\n                -showDagOnly 0\n                -showAssets 1\n                -showContainedOnly 0\n                -showPublishedAsConnected 0\n                -showContainerContents 0\n                -ignoreDagHierarchy 0\n                -expandConnections 1\n                -showUpstreamCurves 1\n                -showUnitlessCurves 0\n"
		+ "                -showCompounds 1\n                -showLeafs 1\n                -showNumericAttrsOnly 1\n                -highlightActive 0\n                -autoSelectNewObjects 0\n                -doNotSelectNewObjects 1\n                -dropIsParent 1\n                -transmitFilters 0\n                -setFilter \"0\" \n                -showSetMembers 0\n                -allowMultiSelection 1\n                -alwaysToggleSelect 0\n                -directSelect 0\n                -displayMode \"DAG\" \n                -expandObjects 0\n                -setsIgnoreFilters 1\n                -containersIgnoreFilters 0\n                -editAttrName 0\n                -showAttrValues 0\n                -highlightSecondary 0\n                -showUVAttrsOnly 0\n                -showTextureNodesOnly 0\n                -attrAlphaOrder \"default\" \n                -animLayerFilterOptions \"allAffecting\" \n                -sortOrder \"none\" \n                -longNames 0\n                -niceNames 1\n                -showNamespace 1\n                -showPinIcons 0\n"
		+ "                -mapMotionTrails 1\n                -ignoreHiddenAttribute 0\n                -ignoreOutlinerColor 0\n                -renderFilterVisible 0\n                $editorName;\n\n\t\t\t$editorName = ($panelName+\"DopeSheetEd\");\n            dopeSheetEditor -e \n                -displayKeys 1\n                -displayTangents 0\n                -displayActiveKeys 0\n                -displayActiveKeyTangents 0\n                -displayInfinities 0\n                -displayValues 0\n                -autoFit 0\n                -snapTime \"integer\" \n                -snapValue \"none\" \n                -outliner \"dopeSheetPanel1OutlineEd\" \n                -showSummary 1\n                -showScene 0\n                -hierarchyBelow 0\n                -showTicks 1\n                -selectionWindow 0 0 0 0 \n                $editorName;\n\t\tif (!$useSceneConfig) {\n\t\t\tpanel -e -l $label $panelName;\n\t\t}\n\t}\n\n\n\t$panelName = `sceneUIReplacement -getNextScriptedPanel \"timeEditorPanel\" (localizedPanelLabel(\"Time Editor\")) `;\n\tif (\"\" != $panelName) {\n"
		+ "\t\t$label = `panel -q -label $panelName`;\n\t\tscriptedPanel -edit -l (localizedPanelLabel(\"Time Editor\")) -mbv $menusOkayInPanels  $panelName;\n\t\tif (!$useSceneConfig) {\n\t\t\tpanel -e -l $label $panelName;\n\t\t}\n\t}\n\n\n\t$panelName = `sceneUIReplacement -getNextScriptedPanel \"clipEditorPanel\" (localizedPanelLabel(\"Trax Editor\")) `;\n\tif (\"\" != $panelName) {\n\t\t$label = `panel -q -label $panelName`;\n\t\tscriptedPanel -edit -l (localizedPanelLabel(\"Trax Editor\")) -mbv $menusOkayInPanels  $panelName;\n\n\t\t\t$editorName = clipEditorNameFromPanel($panelName);\n            clipEditor -e \n                -displayKeys 0\n                -displayTangents 0\n                -displayActiveKeys 0\n                -displayActiveKeyTangents 0\n                -displayInfinities 0\n                -displayValues 0\n                -autoFit 0\n                -snapTime \"none\" \n                -snapValue \"none\" \n                -initialized 0\n                -manageSequencer 0 \n                $editorName;\n\t\tif (!$useSceneConfig) {\n\t\t\tpanel -e -l $label $panelName;\n"
		+ "\t\t}\n\t}\n\n\n\t$panelName = `sceneUIReplacement -getNextScriptedPanel \"sequenceEditorPanel\" (localizedPanelLabel(\"Camera Sequencer\")) `;\n\tif (\"\" != $panelName) {\n\t\t$label = `panel -q -label $panelName`;\n\t\tscriptedPanel -edit -l (localizedPanelLabel(\"Camera Sequencer\")) -mbv $menusOkayInPanels  $panelName;\n\n\t\t\t$editorName = sequenceEditorNameFromPanel($panelName);\n            clipEditor -e \n                -displayKeys 0\n                -displayTangents 0\n                -displayActiveKeys 0\n                -displayActiveKeyTangents 0\n                -displayInfinities 0\n                -displayValues 0\n                -autoFit 0\n                -snapTime \"none\" \n                -snapValue \"none\" \n                -initialized 0\n                -manageSequencer 1 \n                $editorName;\n\t\tif (!$useSceneConfig) {\n\t\t\tpanel -e -l $label $panelName;\n\t\t}\n\t}\n\n\n\t$panelName = `sceneUIReplacement -getNextScriptedPanel \"hyperGraphPanel\" (localizedPanelLabel(\"Hypergraph Hierarchy\")) `;\n\tif (\"\" != $panelName) {\n\t\t$label = `panel -q -label $panelName`;\n"
		+ "\t\tscriptedPanel -edit -l (localizedPanelLabel(\"Hypergraph Hierarchy\")) -mbv $menusOkayInPanels  $panelName;\n\n\t\t\t$editorName = ($panelName+\"HyperGraphEd\");\n            hyperGraph -e \n                -graphLayoutStyle \"hierarchicalLayout\" \n                -orientation \"horiz\" \n                -mergeConnections 0\n                -zoom 1\n                -animateTransition 0\n                -showRelationships 1\n                -showShapes 0\n                -showDeformers 0\n                -showExpressions 0\n                -showConstraints 0\n                -showConnectionFromSelected 0\n                -showConnectionToSelected 0\n                -showConstraintLabels 0\n                -showUnderworld 0\n                -showInvisible 0\n                -transitionFrames 1\n                -opaqueContainers 0\n                -freeform 0\n                -image \"C:/Animation for Maya/sourceimages/backImage.jpg\" \n                -imagePosition 0 0 \n                -imageScale 1\n                -imageEnabled 0\n                -graphType \"DAG\" \n"
		+ "                -heatMapDisplay 0\n                -updateSelection 1\n                -updateNodeAdded 1\n                -useDrawOverrideColor 0\n                -limitGraphTraversal -1\n                -range 0 0 \n                -iconSize \"smallIcons\" \n                -showCachedConnections 0\n                $editorName;\n\t\tif (!$useSceneConfig) {\n\t\t\tpanel -e -l $label $panelName;\n\t\t}\n\t}\n\n\n\t$panelName = `sceneUIReplacement -getNextScriptedPanel \"visorPanel\" (localizedPanelLabel(\"Visor\")) `;\n\tif (\"\" != $panelName) {\n\t\t$label = `panel -q -label $panelName`;\n\t\tscriptedPanel -edit -l (localizedPanelLabel(\"Visor\")) -mbv $menusOkayInPanels  $panelName;\n\t\tif (!$useSceneConfig) {\n\t\t\tpanel -e -l $label $panelName;\n\t\t}\n\t}\n\n\n\t$panelName = `sceneUIReplacement -getNextScriptedPanel \"createNodePanel\" (localizedPanelLabel(\"Create Node\")) `;\n\tif (\"\" != $panelName) {\n\t\t$label = `panel -q -label $panelName`;\n\t\tscriptedPanel -edit -l (localizedPanelLabel(\"Create Node\")) -mbv $menusOkayInPanels  $panelName;\n\t\tif (!$useSceneConfig) {\n"
		+ "\t\t\tpanel -e -l $label $panelName;\n\t\t}\n\t}\n\n\n\t$panelName = `sceneUIReplacement -getNextScriptedPanel \"polyTexturePlacementPanel\" (localizedPanelLabel(\"UV Editor\")) `;\n\tif (\"\" != $panelName) {\n\t\t$label = `panel -q -label $panelName`;\n\t\tscriptedPanel -edit -l (localizedPanelLabel(\"UV Editor\")) -mbv $menusOkayInPanels  $panelName;\n\t\tif (!$useSceneConfig) {\n\t\t\tpanel -e -l $label $panelName;\n\t\t}\n\t}\n\n\n\t$panelName = `sceneUIReplacement -getNextScriptedPanel \"renderWindowPanel\" (localizedPanelLabel(\"Render View\")) `;\n\tif (\"\" != $panelName) {\n\t\t$label = `panel -q -label $panelName`;\n\t\tscriptedPanel -edit -l (localizedPanelLabel(\"Render View\")) -mbv $menusOkayInPanels  $panelName;\n\t\tif (!$useSceneConfig) {\n\t\t\tpanel -e -l $label $panelName;\n\t\t}\n\t}\n\n\n\t$panelName = `sceneUIReplacement -getNextPanel \"shapePanel\" (localizedPanelLabel(\"Shape Editor\")) `;\n\tif (\"\" != $panelName) {\n\t\t$label = `panel -q -label $panelName`;\n\t\tshapePanel -edit -l (localizedPanelLabel(\"Shape Editor\")) -mbv $menusOkayInPanels  $panelName;\n\t\tif (!$useSceneConfig) {\n"
		+ "\t\t\tpanel -e -l $label $panelName;\n\t\t}\n\t}\n\n\n\t$panelName = `sceneUIReplacement -getNextPanel \"posePanel\" (localizedPanelLabel(\"Pose Editor\")) `;\n\tif (\"\" != $panelName) {\n\t\t$label = `panel -q -label $panelName`;\n\t\tposePanel -edit -l (localizedPanelLabel(\"Pose Editor\")) -mbv $menusOkayInPanels  $panelName;\n\t\tif (!$useSceneConfig) {\n\t\t\tpanel -e -l $label $panelName;\n\t\t}\n\t}\n\n\n\t$panelName = `sceneUIReplacement -getNextScriptedPanel \"dynRelEdPanel\" (localizedPanelLabel(\"Dynamic Relationships\")) `;\n\tif (\"\" != $panelName) {\n\t\t$label = `panel -q -label $panelName`;\n\t\tscriptedPanel -edit -l (localizedPanelLabel(\"Dynamic Relationships\")) -mbv $menusOkayInPanels  $panelName;\n\t\tif (!$useSceneConfig) {\n\t\t\tpanel -e -l $label $panelName;\n\t\t}\n\t}\n\n\n\t$panelName = `sceneUIReplacement -getNextScriptedPanel \"relationshipPanel\" (localizedPanelLabel(\"Relationship Editor\")) `;\n\tif (\"\" != $panelName) {\n\t\t$label = `panel -q -label $panelName`;\n\t\tscriptedPanel -edit -l (localizedPanelLabel(\"Relationship Editor\")) -mbv $menusOkayInPanels  $panelName;\n"
		+ "\t\tif (!$useSceneConfig) {\n\t\t\tpanel -e -l $label $panelName;\n\t\t}\n\t}\n\n\n\t$panelName = `sceneUIReplacement -getNextScriptedPanel \"referenceEditorPanel\" (localizedPanelLabel(\"Reference Editor\")) `;\n\tif (\"\" != $panelName) {\n\t\t$label = `panel -q -label $panelName`;\n\t\tscriptedPanel -edit -l (localizedPanelLabel(\"Reference Editor\")) -mbv $menusOkayInPanels  $panelName;\n\t\tif (!$useSceneConfig) {\n\t\t\tpanel -e -l $label $panelName;\n\t\t}\n\t}\n\n\n\t$panelName = `sceneUIReplacement -getNextScriptedPanel \"componentEditorPanel\" (localizedPanelLabel(\"Component Editor\")) `;\n\tif (\"\" != $panelName) {\n\t\t$label = `panel -q -label $panelName`;\n\t\tscriptedPanel -edit -l (localizedPanelLabel(\"Component Editor\")) -mbv $menusOkayInPanels  $panelName;\n\t\tif (!$useSceneConfig) {\n\t\t\tpanel -e -l $label $panelName;\n\t\t}\n\t}\n\n\n\t$panelName = `sceneUIReplacement -getNextScriptedPanel \"dynPaintScriptedPanelType\" (localizedPanelLabel(\"Paint Effects\")) `;\n\tif (\"\" != $panelName) {\n\t\t$label = `panel -q -label $panelName`;\n\t\tscriptedPanel -edit -l (localizedPanelLabel(\"Paint Effects\")) -mbv $menusOkayInPanels  $panelName;\n"
		+ "\t\tif (!$useSceneConfig) {\n\t\t\tpanel -e -l $label $panelName;\n\t\t}\n\t}\n\n\n\t$panelName = `sceneUIReplacement -getNextScriptedPanel \"scriptEditorPanel\" (localizedPanelLabel(\"Script Editor\")) `;\n\tif (\"\" != $panelName) {\n\t\t$label = `panel -q -label $panelName`;\n\t\tscriptedPanel -edit -l (localizedPanelLabel(\"Script Editor\")) -mbv $menusOkayInPanels  $panelName;\n\t\tif (!$useSceneConfig) {\n\t\t\tpanel -e -l $label $panelName;\n\t\t}\n\t}\n\n\n\t$panelName = `sceneUIReplacement -getNextScriptedPanel \"profilerPanel\" (localizedPanelLabel(\"Profiler Tool\")) `;\n\tif (\"\" != $panelName) {\n\t\t$label = `panel -q -label $panelName`;\n\t\tscriptedPanel -edit -l (localizedPanelLabel(\"Profiler Tool\")) -mbv $menusOkayInPanels  $panelName;\n\t\tif (!$useSceneConfig) {\n\t\t\tpanel -e -l $label $panelName;\n\t\t}\n\t}\n\n\n\t$panelName = `sceneUIReplacement -getNextScriptedPanel \"contentBrowserPanel\" (localizedPanelLabel(\"Content Browser\")) `;\n\tif (\"\" != $panelName) {\n\t\t$label = `panel -q -label $panelName`;\n\t\tscriptedPanel -edit -l (localizedPanelLabel(\"Content Browser\")) -mbv $menusOkayInPanels  $panelName;\n"
		+ "\t\tif (!$useSceneConfig) {\n\t\t\tpanel -e -l $label $panelName;\n\t\t}\n\t}\n\n\n\t$panelName = `sceneUIReplacement -getNextScriptedPanel \"Stereo\" (localizedPanelLabel(\"Stereo\")) `;\n\tif (\"\" != $panelName) {\n\t\t$label = `panel -q -label $panelName`;\n\t\tscriptedPanel -edit -l (localizedPanelLabel(\"Stereo\")) -mbv $menusOkayInPanels  $panelName;\nstring $editorName = ($panelName+\"Editor\");\n            stereoCameraView -e \n                -camera \"persp\" \n                -useInteractiveMode 0\n                -displayLights \"default\" \n                -displayAppearance \"smoothShaded\" \n                -activeOnly 0\n                -ignorePanZoom 0\n                -wireframeOnShaded 0\n                -headsUpDisplay 1\n                -holdOuts 1\n                -selectionHiliteDisplay 1\n                -useDefaultMaterial 0\n                -bufferMode \"double\" \n                -twoSidedLighting 0\n                -backfaceCulling 0\n                -xray 0\n                -jointXray 0\n                -activeComponentsXray 0\n                -displayTextures 0\n"
		+ "                -smoothWireframe 0\n                -lineWidth 1\n                -textureAnisotropic 0\n                -textureHilight 1\n                -textureSampling 2\n                -textureDisplay \"modulate\" \n                -textureMaxSize 32768\n                -fogging 0\n                -fogSource \"fragment\" \n                -fogMode \"linear\" \n                -fogStart 0\n                -fogEnd 100\n                -fogDensity 0.1\n                -fogColor 0.5 0.5 0.5 1 \n                -depthOfFieldPreview 1\n                -maxConstantTransparency 1\n                -objectFilterShowInHUD 1\n                -isFiltered 0\n                -colorResolution 4 4 \n                -bumpResolution 4 4 \n                -textureCompression 0\n                -transparencyAlgorithm \"frontAndBackCull\" \n                -transpInShadows 0\n                -cullingOverride \"none\" \n                -lowQualityLighting 0\n                -maximumNumHardwareLights 0\n                -occlusionCulling 0\n                -shadingModel 0\n"
		+ "                -useBaseRenderer 0\n                -useReducedRenderer 0\n                -smallObjectCulling 0\n                -smallObjectThreshold -1 \n                -interactiveDisableShadows 0\n                -interactiveBackFaceCull 0\n                -sortTransparent 1\n                -nurbsCurves 1\n                -nurbsSurfaces 1\n                -polymeshes 1\n                -subdivSurfaces 1\n                -planes 1\n                -lights 1\n                -cameras 1\n                -controlVertices 1\n                -hulls 1\n                -grid 1\n                -imagePlane 1\n                -joints 1\n                -ikHandles 1\n                -deformers 1\n                -dynamics 1\n                -particleInstancers 1\n                -fluids 1\n                -hairSystems 1\n                -follicles 1\n                -nCloths 1\n                -nParticles 1\n                -nRigids 1\n                -dynamicConstraints 1\n                -locators 1\n                -manipulators 1\n                -pluginShapes 1\n"
		+ "                -dimensions 1\n                -handles 1\n                -pivots 1\n                -textures 1\n                -strokes 1\n                -motionTrails 1\n                -clipGhosts 1\n                -greasePencils 1\n                -shadows 0\n                -captureSequenceNumber -1\n                -width 0\n                -height 0\n                -sceneRenderFilter 0\n                -displayMode \"centerEye\" \n                -viewColor 0 0 0 1 \n                -useCustomBackground 1\n                $editorName;\n            stereoCameraView -e -viewSelected 0 $editorName;\n\t\tif (!$useSceneConfig) {\n\t\t\tpanel -e -l $label $panelName;\n\t\t}\n\t}\n\n\n\t$panelName = `sceneUIReplacement -getNextScriptedPanel \"hyperShadePanel\" (localizedPanelLabel(\"Hypershade\")) `;\n\tif (\"\" != $panelName) {\n\t\t$label = `panel -q -label $panelName`;\n\t\tscriptedPanel -edit -l (localizedPanelLabel(\"Hypershade\")) -mbv $menusOkayInPanels  $panelName;\n\t\tif (!$useSceneConfig) {\n\t\t\tpanel -e -l $label $panelName;\n\t\t}\n\t}\n\n\n\t$panelName = `sceneUIReplacement -getNextScriptedPanel \"nodeEditorPanel\" (localizedPanelLabel(\"Node Editor\")) `;\n"
		+ "\tif (\"\" != $panelName) {\n\t\t$label = `panel -q -label $panelName`;\n\t\tscriptedPanel -edit -l (localizedPanelLabel(\"Node Editor\")) -mbv $menusOkayInPanels  $panelName;\n\n\t\t\t$editorName = ($panelName+\"NodeEditorEd\");\n            nodeEditor -e \n                -allAttributes 0\n                -allNodes 0\n                -autoSizeNodes 1\n                -consistentNameSize 1\n                -createNodeCommand \"nodeEdCreateNodeCommand\" \n                -defaultPinnedState 0\n                -additiveGraphingMode 0\n                -settingsChangedCallback \"nodeEdSyncControls\" \n                -traversalDepthLimit -1\n                -keyPressCommand \"nodeEdKeyPressCommand\" \n                -nodeTitleMode \"name\" \n                -gridSnap 0\n                -gridVisibility 1\n                -popupMenuScript \"nodeEdBuildPanelMenus\" \n                -showNamespace 1\n                -showShapes 1\n                -showSGShapes 0\n                -showTransforms 1\n                -useAssets 1\n                -syncedSelection 1\n                -extendToShapes 1\n"
		+ "                -activeTab -1\n                -editorMode \"default\" \n                $editorName;\n\t\tif (!$useSceneConfig) {\n\t\t\tpanel -e -l $label $panelName;\n\t\t}\n\t}\n\n\n\tif ($useSceneConfig) {\n        string $configName = `getPanel -cwl (localizedPanelLabel(\"Current Layout\"))`;\n        if (\"\" != $configName) {\n\t\t\tpanelConfiguration -edit -label (localizedPanelLabel(\"Current Layout\")) \n\t\t\t\t-userCreated false\n\t\t\t\t-defaultImage \"vacantCell.xP:/\"\n\t\t\t\t-image \"\"\n\t\t\t\t-sc false\n\t\t\t\t-configString \"global string $gMainPane; paneLayout -e -cn \\\"single\\\" -ps 1 100 100 $gMainPane;\"\n\t\t\t\t-removeAllPanels\n\t\t\t\t-ap false\n\t\t\t\t\t(localizedPanelLabel(\"Persp View\")) \n\t\t\t\t\t\"modelPanel\"\n"
		+ "\t\t\t\t\t\"$panelName = `modelPanel -unParent -l (localizedPanelLabel(\\\"Persp View\\\")) -mbv $menusOkayInPanels `;\\n$editorName = $panelName;\\nmodelEditor -e \\n    -cam `findStartUpCamera persp` \\n    -useInteractiveMode 0\\n    -displayLights \\\"default\\\" \\n    -displayAppearance \\\"smoothShaded\\\" \\n    -activeOnly 0\\n    -ignorePanZoom 0\\n    -wireframeOnShaded 0\\n    -headsUpDisplay 1\\n    -holdOuts 1\\n    -selectionHiliteDisplay 1\\n    -useDefaultMaterial 0\\n    -bufferMode \\\"double\\\" \\n    -twoSidedLighting 1\\n    -backfaceCulling 0\\n    -xray 0\\n    -jointXray 0\\n    -activeComponentsXray 0\\n    -displayTextures 1\\n    -smoothWireframe 0\\n    -lineWidth 1\\n    -textureAnisotropic 0\\n    -textureHilight 1\\n    -textureSampling 2\\n    -textureDisplay \\\"modulate\\\" \\n    -textureMaxSize 32768\\n    -fogging 0\\n    -fogSource \\\"fragment\\\" \\n    -fogMode \\\"linear\\\" \\n    -fogStart 0\\n    -fogEnd 100\\n    -fogDensity 0.1\\n    -fogColor 0.5 0.5 0.5 1 \\n    -depthOfFieldPreview 1\\n    -maxConstantTransparency 1\\n    -rendererName \\\"base_OpenGL_Renderer\\\" \\n    -objectFilterShowInHUD 1\\n    -isFiltered 0\\n    -colorResolution 256 256 \\n    -bumpResolution 512 512 \\n    -textureCompression 0\\n    -transparencyAlgorithm \\\"frontAndBackCull\\\" \\n    -transpInShadows 0\\n    -cullingOverride \\\"none\\\" \\n    -lowQualityLighting 0\\n    -maximumNumHardwareLights 1\\n    -occlusionCulling 0\\n    -shadingModel 0\\n    -useBaseRenderer 0\\n    -useReducedRenderer 0\\n    -smallObjectCulling 0\\n    -smallObjectThreshold -1 \\n    -interactiveDisableShadows 0\\n    -interactiveBackFaceCull 0\\n    -sortTransparent 1\\n    -nurbsCurves 0\\n    -nurbsSurfaces 1\\n    -polymeshes 1\\n    -subdivSurfaces 0\\n    -planes 0\\n    -lights 0\\n    -cameras 0\\n    -controlVertices 0\\n    -hulls 0\\n    -grid 0\\n    -imagePlane 0\\n    -joints 0\\n    -ikHandles 0\\n    -deformers 0\\n    -dynamics 0\\n    -particleInstancers 0\\n    -fluids 0\\n    -hairSystems 0\\n    -follicles 0\\n    -nCloths 0\\n    -nParticles 0\\n    -nRigids 0\\n    -dynamicConstraints 0\\n    -locators 0\\n    -manipulators 1\\n    -pluginShapes 0\\n    -dimensions 0\\n    -handles 0\\n    -pivots 0\\n    -textures 0\\n    -strokes 0\\n    -motionTrails 0\\n    -clipGhosts 0\\n    -greasePencils 0\\n    -shadows 0\\n    -captureSequenceNumber -1\\n    -width 1118\\n    -height 589\\n    -sceneRenderFilter 0\\n    $editorName;\\nmodelEditor -e -viewSelected 0 $editorName\"\n"
		+ "\t\t\t\t\t\"modelPanel -edit -l (localizedPanelLabel(\\\"Persp View\\\")) -mbv $menusOkayInPanels  $panelName;\\n$editorName = $panelName;\\nmodelEditor -e \\n    -cam `findStartUpCamera persp` \\n    -useInteractiveMode 0\\n    -displayLights \\\"default\\\" \\n    -displayAppearance \\\"smoothShaded\\\" \\n    -activeOnly 0\\n    -ignorePanZoom 0\\n    -wireframeOnShaded 0\\n    -headsUpDisplay 1\\n    -holdOuts 1\\n    -selectionHiliteDisplay 1\\n    -useDefaultMaterial 0\\n    -bufferMode \\\"double\\\" \\n    -twoSidedLighting 1\\n    -backfaceCulling 0\\n    -xray 0\\n    -jointXray 0\\n    -activeComponentsXray 0\\n    -displayTextures 1\\n    -smoothWireframe 0\\n    -lineWidth 1\\n    -textureAnisotropic 0\\n    -textureHilight 1\\n    -textureSampling 2\\n    -textureDisplay \\\"modulate\\\" \\n    -textureMaxSize 32768\\n    -fogging 0\\n    -fogSource \\\"fragment\\\" \\n    -fogMode \\\"linear\\\" \\n    -fogStart 0\\n    -fogEnd 100\\n    -fogDensity 0.1\\n    -fogColor 0.5 0.5 0.5 1 \\n    -depthOfFieldPreview 1\\n    -maxConstantTransparency 1\\n    -rendererName \\\"base_OpenGL_Renderer\\\" \\n    -objectFilterShowInHUD 1\\n    -isFiltered 0\\n    -colorResolution 256 256 \\n    -bumpResolution 512 512 \\n    -textureCompression 0\\n    -transparencyAlgorithm \\\"frontAndBackCull\\\" \\n    -transpInShadows 0\\n    -cullingOverride \\\"none\\\" \\n    -lowQualityLighting 0\\n    -maximumNumHardwareLights 1\\n    -occlusionCulling 0\\n    -shadingModel 0\\n    -useBaseRenderer 0\\n    -useReducedRenderer 0\\n    -smallObjectCulling 0\\n    -smallObjectThreshold -1 \\n    -interactiveDisableShadows 0\\n    -interactiveBackFaceCull 0\\n    -sortTransparent 1\\n    -nurbsCurves 0\\n    -nurbsSurfaces 1\\n    -polymeshes 1\\n    -subdivSurfaces 0\\n    -planes 0\\n    -lights 0\\n    -cameras 0\\n    -controlVertices 0\\n    -hulls 0\\n    -grid 0\\n    -imagePlane 0\\n    -joints 0\\n    -ikHandles 0\\n    -deformers 0\\n    -dynamics 0\\n    -particleInstancers 0\\n    -fluids 0\\n    -hairSystems 0\\n    -follicles 0\\n    -nCloths 0\\n    -nParticles 0\\n    -nRigids 0\\n    -dynamicConstraints 0\\n    -locators 0\\n    -manipulators 1\\n    -pluginShapes 0\\n    -dimensions 0\\n    -handles 0\\n    -pivots 0\\n    -textures 0\\n    -strokes 0\\n    -motionTrails 0\\n    -clipGhosts 0\\n    -greasePencils 0\\n    -shadows 0\\n    -captureSequenceNumber -1\\n    -width 1118\\n    -height 589\\n    -sceneRenderFilter 0\\n    $editorName;\\nmodelEditor -e -viewSelected 0 $editorName\"\n"
		+ "\t\t\t\t$configName;\n\n            setNamedPanelLayout (localizedPanelLabel(\"Current Layout\"));\n        }\n\n        panelHistory -e -clear mainPanelHistory;\n        sceneUIReplacement -clear;\n\t}\n\n\ngrid -spacing 5 -size 12 -divisions 5 -displayAxes yes -displayGridLines yes -displayDivisionLines yes -displayPerspectiveLabels no -displayOrthographicLabels no -displayAxesBold yes -perspectiveLabelPosition axis -orthographicLabelPosition edge;\nviewManip -drawCompass 0 -compassAngle 0 -frontParameters \"\" -homeParameters \"\" -selectionLockParameters \"\";\n}\n");
	setAttr ".st" 3;
createNode script -n "sceneConfigurationScriptNode";
	rename -uid "391C1CE0-42B0-4C64-150B-F781C8B089FD";
	setAttr ".b" -type "string" "playbackOptions -min 0 -max 192 -ast 0 -aet 200 ";
	setAttr ".st" 6;
createNode nodeGraphEditorInfo -n "hyperShadePrimaryNodeEditorSavedTabsInfo";
	rename -uid "EF2EB9A4-4032-35E7-7BE2-3F967C1F5389";
	setAttr ".tgi[0].tn" -type "string" "Untitled_1";
	setAttr ".tgi[0].vl" -type "double2" 80.562111451772992 -1687.301520254249 ;
	setAttr ".tgi[0].vh" -type "double2" 771.52458469815156 -918.25393176583543 ;
	setAttr -s 8 ".tgi[0].ni";
	setAttr ".tgi[0].ni[0].x" 362.85714721679687;
	setAttr ".tgi[0].ni[0].y" -1001.4285888671875;
	setAttr ".tgi[0].ni[0].nvs" 1923;
	setAttr ".tgi[0].ni[1].x" 600;
	setAttr ".tgi[0].ni[1].y" -1230;
	setAttr ".tgi[0].ni[1].nvs" 1923;
	setAttr ".tgi[0].ni[2].x" 362.85714721679687;
	setAttr ".tgi[0].ni[2].y" -1230;
	setAttr ".tgi[0].ni[2].nvs" 1923;
	setAttr ".tgi[0].ni[3].x" 362.85714721679687;
	setAttr ".tgi[0].ni[3].y" -1460;
	setAttr ".tgi[0].ni[3].nvs" 1923;
	setAttr ".tgi[0].ni[4].x" 485.71429443359375;
	setAttr ".tgi[0].ni[4].y" 3692.857177734375;
	setAttr ".tgi[0].ni[4].nvs" 1923;
	setAttr ".tgi[0].ni[5].x" 485.71429443359375;
	setAttr ".tgi[0].ni[5].y" 4101.4287109375;
	setAttr ".tgi[0].ni[5].nvs" 1923;
	setAttr ".tgi[0].ni[6].x" 485.71429443359375;
	setAttr ".tgi[0].ni[6].y" 4305.71435546875;
	setAttr ".tgi[0].ni[6].nvs" 1923;
	setAttr ".tgi[0].ni[7].x" 485.71429443359375;
	setAttr ".tgi[0].ni[7].y" 3897.142822265625;
	setAttr ".tgi[0].ni[7].nvs" 1923;
select -ne :time1;
	setAttr -av -k on ".cch";
	setAttr -av -cb on ".ihi";
	setAttr -av -k on ".nds";
	setAttr -cb on ".bnm";
	setAttr -k on ".o" 0;
	setAttr -av -k on ".unw";
	setAttr -k on ".etw";
	setAttr -k on ".tps";
	setAttr -av -k on ".tms";
select -ne :hardwareRenderingGlobals;
	setAttr ".otfna" -type "stringArray" 22 "NURBS Curves" "NURBS Surfaces" "Polygons" "Subdiv Surface" "Particles" "Particle Instance" "Fluids" "Strokes" "Image Planes" "UI" "Lights" "Cameras" "Locators" "Joints" "IK Handles" "Deformers" "Motion Trails" "Components" "Hair Systems" "Follicles" "Misc. UI" "Ornaments"  ;
	setAttr ".otfva" -type "Int32Array" 22 0 1 1 1 1 1
		 1 1 1 0 0 0 0 0 0 0 0 0
		 0 0 0 0 ;
	setAttr ".hwi" yes;
	setAttr ".etmr" yes;
	setAttr ".tmr" 2048;
	setAttr -k on ".mbsof";
	setAttr ".msaa" yes;
	setAttr ".aasc" 16;
	setAttr ".laa" yes;
	setAttr ".fprt" yes;
select -ne :renderPartition;
	setAttr -k on ".cch";
	setAttr -cb on ".ihi";
	setAttr -k on ".nds";
	setAttr -cb on ".bnm";
	setAttr -s 6 ".st";
	setAttr -cb on ".an";
	setAttr -cb on ".pt";
select -ne :renderGlobalsList1;
	setAttr -k on ".cch";
	setAttr -cb on ".ihi";
	setAttr -k on ".nds";
	setAttr -cb on ".bnm";
select -ne :defaultShaderList1;
	setAttr -k on ".cch";
	setAttr -cb on ".ihi";
	setAttr -k on ".nds";
	setAttr -cb on ".bnm";
	setAttr -s 8 ".s";
select -ne :postProcessList1;
	setAttr -k on ".cch";
	setAttr -cb on ".ihi";
	setAttr -k on ".nds";
	setAttr -cb on ".bnm";
	setAttr -s 2 ".p";
select -ne :defaultRenderingList1;
	setAttr -k on ".ihi";
select -ne :defaultTextureList1;
	setAttr -k on ".cch";
	setAttr -cb on ".ihi";
	setAttr -k on ".nds";
	setAttr -cb on ".bnm";
	setAttr -s 4 ".tx";
select -ne :initialShadingGroup;
	addAttr -ci true -h true -sn "aal" -ln "attributeAliasList" -dt "attributeAlias";
	setAttr -av -k on ".cch";
	setAttr -cb on ".ihi";
	setAttr -av -k on ".nds";
	setAttr -cb on ".bnm";
	setAttr -k on ".mwc";
	setAttr -cb on ".an";
	setAttr -cb on ".il";
	setAttr -cb on ".vo";
	setAttr -cb on ".eo";
	setAttr -cb on ".fo";
	setAttr -cb on ".epo";
	setAttr -k on ".ro" yes;
	setAttr ".ai_surface_shader" -type "float3" -7.3932283e-039 8.9122582e-043 -1.#INF ;
	setAttr ".ai_volume_shader" -type "float3" -7.3932283e-039 8.9122582e-043 -1.#INF ;
	setAttr ".aal" -type "attributeAlias" {"ai_aov_N","aiCustomAOVs[0]","ai_aov_direct_specular_2"
		,"aiCustomAOVs[10]","ai_aov_indirect_backlight","aiCustomAOVs[11]","ai_aov_indirect_diffuse"
		,"aiCustomAOVs[12]","ai_aov_indirect_diffuse_raw","aiCustomAOVs[13]","ai_aov_indirect_specular"
		,"aiCustomAOVs[14]","ai_aov_indirect_specular_2","aiCustomAOVs[15]","ai_aov_refraction"
		,"aiCustomAOVs[16]","ai_aov_single_scatter","aiCustomAOVs[17]","ai_aov_sss","aiCustomAOVs[18]"
		,"ai_aov_uv","aiCustomAOVs[19]","ai_aov_P","aiCustomAOVs[1]","ai_aov_depth","aiCustomAOVs[20]"
		,"ai_aov_id_1","aiCustomAOVs[21]","ai_aov_id_8","aiCustomAOVs[22]","ai_aov_id_2","aiCustomAOVs[23]"
		,"ai_aov_direct_glint","aiCustomAOVs[24]","ai_aov_direct_global","aiCustomAOVs[25]"
		,"ai_aov_direct_local","aiCustomAOVs[26]","ai_aov_direct_transmission","aiCustomAOVs[27]"
		,"ai_aov_indirect_glint","aiCustomAOVs[28]","ai_aov_indirect_global","aiCustomAOVs[29]"
		,"ai_aov_Z","aiCustomAOVs[2]","ai_aov_indirect_local","aiCustomAOVs[30]","ai_aov_indirect_transmission"
		,"aiCustomAOVs[31]","ai_aov_id_3","aiCustomAOVs[32]","ai_aov_crypto_asset","aiCustomAOVs[3]"
		,"ai_aov_crypto_material","aiCustomAOVs[4]","ai_aov_diffuse_color","aiCustomAOVs[5]"
		,"ai_aov_direct_backlight","aiCustomAOVs[6]","ai_aov_direct_diffuse","aiCustomAOVs[7]"
		,"ai_aov_direct_diffuse_raw","aiCustomAOVs[8]","ai_aov_direct_specular","aiCustomAOVs[9]"
		} ;
select -ne :initialParticleSE;
	addAttr -ci true -h true -sn "aal" -ln "attributeAliasList" -dt "attributeAlias";
	setAttr -av -k on ".cch";
	setAttr -cb on ".ihi";
	setAttr -av -k on ".nds";
	setAttr -cb on ".bnm";
	setAttr -k on ".mwc";
	setAttr -cb on ".an";
	setAttr -cb on ".il";
	setAttr -cb on ".vo";
	setAttr -cb on ".eo";
	setAttr -cb on ".fo";
	setAttr -cb on ".epo";
	setAttr -k on ".ro" yes;
	setAttr ".ai_surface_shader" -type "float3" -7.3932283e-039 8.9122582e-043 -1.#INF ;
	setAttr ".ai_volume_shader" -type "float3" -7.3932283e-039 8.9122582e-043 -1.#INF ;
	setAttr ".aal" -type "attributeAlias" {"ai_aov_N","aiCustomAOVs[0]","ai_aov_direct_specular_2"
		,"aiCustomAOVs[10]","ai_aov_indirect_backlight","aiCustomAOVs[11]","ai_aov_indirect_diffuse"
		,"aiCustomAOVs[12]","ai_aov_indirect_diffuse_raw","aiCustomAOVs[13]","ai_aov_indirect_specular"
		,"aiCustomAOVs[14]","ai_aov_indirect_specular_2","aiCustomAOVs[15]","ai_aov_refraction"
		,"aiCustomAOVs[16]","ai_aov_single_scatter","aiCustomAOVs[17]","ai_aov_sss","aiCustomAOVs[18]"
		,"ai_aov_uv","aiCustomAOVs[19]","ai_aov_P","aiCustomAOVs[1]","ai_aov_depth","aiCustomAOVs[20]"
		,"ai_aov_id_1","aiCustomAOVs[21]","ai_aov_id_8","aiCustomAOVs[22]","ai_aov_id_2","aiCustomAOVs[23]"
		,"ai_aov_direct_glint","aiCustomAOVs[24]","ai_aov_direct_global","aiCustomAOVs[25]"
		,"ai_aov_direct_local","aiCustomAOVs[26]","ai_aov_direct_transmission","aiCustomAOVs[27]"
		,"ai_aov_indirect_glint","aiCustomAOVs[28]","ai_aov_indirect_global","aiCustomAOVs[29]"
		,"ai_aov_Z","aiCustomAOVs[2]","ai_aov_indirect_local","aiCustomAOVs[30]","ai_aov_indirect_transmission"
		,"aiCustomAOVs[31]","ai_aov_id_3","aiCustomAOVs[32]","ai_aov_crypto_asset","aiCustomAOVs[3]"
		,"ai_aov_crypto_material","aiCustomAOVs[4]","ai_aov_diffuse_color","aiCustomAOVs[5]"
		,"ai_aov_direct_backlight","aiCustomAOVs[6]","ai_aov_direct_diffuse","aiCustomAOVs[7]"
		,"ai_aov_direct_diffuse_raw","aiCustomAOVs[8]","ai_aov_direct_specular","aiCustomAOVs[9]"
		} ;
select -ne :defaultRenderGlobals;
	addAttr -ci true -sn "shave_old_preRenderMel" -ln "shave_old_preRenderMel" -dt "string";
	addAttr -ci true -sn "shave_old_postRenderMel" -ln "shave_old_postRenderMel" -dt "string";
	setAttr -k on ".cch";
	setAttr -cb on ".ihi";
	setAttr -k on ".nds";
	setAttr -cb on ".bnm";
	setAttr -k on ".macc";
	setAttr -k on ".macd";
	setAttr -k on ".macq";
	setAttr -k on ".mcfr" 25;
	setAttr -cb on ".ifg";
	setAttr -k on ".clip";
	setAttr -k on ".edm";
	setAttr -k on ".edl";
	setAttr -cb on ".ren" -type "string" "arnold";
	setAttr -av -k on ".esr";
	setAttr -k on ".ors";
	setAttr -cb on ".sdf";
	setAttr -av -k on ".outf" 51;
	setAttr -cb on ".imfkey" -type "string" "exr";
	setAttr -k on ".gama";
	setAttr -k on ".an";
	setAttr -k on ".ar";
	setAttr -k on ".fs" 0.96;
	setAttr -k on ".ef" 9.6;
	setAttr -av -k on ".bfs";
	setAttr -k on ".me";
	setAttr -k on ".se";
	setAttr -k on ".be";
	setAttr -cb on ".ep" 1;
	setAttr -k on ".fec";
	setAttr -av -k on ".ofc";
	setAttr -cb on ".ofe";
	setAttr -cb on ".efe";
	setAttr -k on ".oft" -type "string" "";
	setAttr -k on ".umfn";
	setAttr -k on ".ufe";
	setAttr -cb on ".pff";
	setAttr -k on ".peie";
	setAttr -cb on ".ifp" -type "string" "";
	setAttr -k on ".rv" -type "string" "";
	setAttr -k on ".comp";
	setAttr -k on ".cth";
	setAttr -k on ".soll";
	setAttr -cb on ".sosl";
	setAttr -k on ".rd";
	setAttr -k on ".lp";
	setAttr -av -k on ".sp";
	setAttr -k on ".shs";
	setAttr -av -k on ".lpr";
	setAttr -cb on ".gv";
	setAttr -cb on ".sv";
	setAttr -k on ".mm";
	setAttr -k on ".npu";
	setAttr -k on ".itf";
	setAttr -k on ".shp";
	setAttr -cb on ".isp";
	setAttr -k on ".uf";
	setAttr -k on ".oi";
	setAttr -k on ".rut";
	setAttr -k on ".mot";
	setAttr -av -k on ".mb";
	setAttr -av -k on ".mbf";
	setAttr -k on ".mbso";
	setAttr -k on ".mbsc";
	setAttr -k on ".afp";
	setAttr -k on ".pfb";
	setAttr -k on ".pram" -type "string" "";
	setAttr -k on ".poam" -type "string" "";
	setAttr -k on ".prlm" -type "string" "";
	setAttr -k on ".polm" -type "string" "";
	setAttr -cb on ".prm" -type "string" "";
	setAttr -cb on ".pom" -type "string" "";
	setAttr -cb on ".pfrm";
	setAttr -cb on ".pfom";
	setAttr -av -k on ".bll";
	setAttr -av -k on ".bls";
	setAttr -av -k on ".smv";
	setAttr -k on ".ubc";
	setAttr -k on ".mbc";
	setAttr -cb on ".mbt";
	setAttr -k on ".udbx";
	setAttr -k on ".smc";
	setAttr -k on ".kmv";
	setAttr -cb on ".isl";
	setAttr -cb on ".ism";
	setAttr -cb on ".imb";
	setAttr -k on ".rlen";
	setAttr -av -k on ".frts";
	setAttr -k on ".tlwd";
	setAttr -k on ".tlht";
	setAttr -k on ".jfc";
	setAttr -cb on ".rsb";
	setAttr -k on ".ope";
	setAttr -k on ".oppf";
	setAttr -k on ".rcp";
	setAttr -k on ".icp";
	setAttr -k on ".ocp";
	setAttr -cb on ".hbl";
	setAttr ".shave_old_preRenderMel" -type "string" "";
	setAttr ".shave_old_postRenderMel" -type "string" "";
select -ne :defaultResolution;
	setAttr -av -k on ".cch";
	setAttr -k on ".ihi";
	setAttr -av -k on ".nds";
	setAttr -k on ".bnm";
	setAttr -av -k on ".w" 3840;
	setAttr -av -k on ".h" 1632;
	setAttr -av -k on ".pa" 1;
	setAttr -av -k on ".al";
	setAttr -av -k on ".dar" 1;
	setAttr -av -k on ".ldar";
	setAttr -k on ".dpi";
	setAttr -av -k on ".off";
	setAttr -av -k on ".fld";
	setAttr -av -k on ".zsl";
	setAttr -k on ".isu";
	setAttr -k on ".pdu";
select -ne :hardwareRenderGlobals;
	setAttr -k on ".cch";
	setAttr -cb on ".ihi";
	setAttr -k on ".nds";
	setAttr -cb on ".bnm";
	setAttr -k off -cb on ".ctrs" 256;
	setAttr -av -k off -cb on ".btrs" 512;
	setAttr -k off -cb on ".fbfm";
	setAttr -k off -cb on ".ehql";
	setAttr -k off -cb on ".eams";
	setAttr -k off -cb on ".eeaa";
	setAttr -k off -cb on ".engm";
	setAttr -k off -cb on ".mes";
	setAttr -k off -cb on ".emb";
	setAttr -av -k off -cb on ".mbbf";
	setAttr -k off -cb on ".mbs";
	setAttr -k off -cb on ".trm";
	setAttr -k off -cb on ".tshc";
	setAttr -k off -cb on ".enpt";
	setAttr -k off -cb on ".clmt";
	setAttr -k off -cb on ".tcov";
	setAttr -k off -cb on ".lith";
	setAttr -k off -cb on ".sobc";
	setAttr -k off -cb on ".cuth";
	setAttr -k off -cb on ".hgcd";
	setAttr -k off -cb on ".hgci";
	setAttr -k off -cb on ".mgcs";
	setAttr -k off -cb on ".twa";
	setAttr -k off -cb on ".twz";
	setAttr -cb on ".hwcc";
	setAttr -cb on ".hwdp";
	setAttr -cb on ".hwql";
	setAttr -k on ".hwfr" 25;
	setAttr -k on ".soll";
	setAttr -k on ".sosl";
	setAttr -k on ".bswa";
	setAttr -k on ".shml";
	setAttr -k on ".hwel";
relationship "link" ":lightLinker1" ":initialShadingGroup.message" ":defaultLightSet.message";
relationship "link" ":lightLinker1" ":initialParticleSE.message" ":defaultLightSet.message";
relationship "link" ":lightLinker1" "hairBlue_shdSG.message" ":defaultLightSet.message";
relationship "link" ":lightLinker1" "hairGreen_shdSG.message" ":defaultLightSet.message";
relationship "link" ":lightLinker1" "hairRed_shdSG.message" ":defaultLightSet.message";
relationship "link" ":lightLinker1" "hairYellow_shdSG.message" ":defaultLightSet.message";
relationship "shadowLink" ":lightLinker1" ":initialShadingGroup.message" ":defaultLightSet.message";
relationship "shadowLink" ":lightLinker1" ":initialParticleSE.message" ":defaultLightSet.message";
relationship "shadowLink" ":lightLinker1" "hairBlue_shdSG.message" ":defaultLightSet.message";
relationship "shadowLink" ":lightLinker1" "hairGreen_shdSG.message" ":defaultLightSet.message";
relationship "shadowLink" ":lightLinker1" "hairRed_shdSG.message" ":defaultLightSet.message";
relationship "shadowLink" ":lightLinker1" "hairYellow_shdSG.message" ":defaultLightSet.message";
connectAttr "layerManager.dli[0]" "defaultLayer.id";
connectAttr "renderLayerManager.rlmi[0]" "defaultRenderLayer.rlid";
connectAttr ":TurtleDefaultBakeLayer.idx" ":TurtleBakeLayerManager.bli[0]";
connectAttr ":TurtleRenderOptions.msg" ":TurtleDefaultBakeLayer.rset";
connectAttr "ramp1.oc" "hairRed_shd.c";
connectAttr "ramp2.oc" "hairYellow_shd.c";
connectAttr "ramp3.oc" "hairGreen_shd.c";
connectAttr "ramp4.oc" "hairBlue_shd.c";
connectAttr "hairBlue_shd.oc" "hairBlue_shdSG.ss";
connectAttr "hairBlue_shdSG.msg" "materialInfo1.sg";
connectAttr "hairBlue_shd.msg" "materialInfo1.m";
connectAttr "ramp4.msg" "materialInfo1.t" -na;
connectAttr "hairGreen_shd.oc" "hairGreen_shdSG.ss";
connectAttr "hairGreen_shdSG.msg" "materialInfo2.sg";
connectAttr "hairGreen_shd.msg" "materialInfo2.m";
connectAttr "ramp3.msg" "materialInfo2.t" -na;
connectAttr "hairRed_shd.oc" "hairRed_shdSG.ss";
connectAttr "hairRed_shdSG.msg" "materialInfo3.sg";
connectAttr "hairRed_shd.msg" "materialInfo3.m";
connectAttr "ramp1.msg" "materialInfo3.t" -na;
connectAttr "hairYellow_shd.oc" "hairYellow_shdSG.ss";
connectAttr "hairYellow_shdSG.msg" "materialInfo4.sg";
connectAttr "hairYellow_shd.msg" "materialInfo4.m";
connectAttr "ramp2.msg" "materialInfo4.t" -na;
connectAttr ":TurtleBakeLayerManager.msg" "sunnyCasualSuit_COL_hyperShadePrimaryNodeEditorSavedTabsInfo.tgi[0].ni[0].dn"
		;
connectAttr ":TurtleRenderOptions.msg" "sunnyCasualSuit_COL_hyperShadePrimaryNodeEditorSavedTabsInfo.tgi[0].ni[1].dn"
		;
connectAttr ":TurtleUIOptions.msg" "sunnyCasualSuit_COL_hyperShadePrimaryNodeEditorSavedTabsInfo.tgi[0].ni[6].dn"
		;
connectAttr ":TurtleDefaultBakeLayer.msg" "sunnyCasualSuit_COL_hyperShadePrimaryNodeEditorSavedTabsInfo.tgi[0].ni[11].dn"
		;
connectAttr ":lightEditorRoot.msg" "sunnyCasualSuit_COL_hyperShadePrimaryNodeEditorSavedTabsInfo.tgi[0].ni[12].dn"
		;
connectAttr "hairRed_shdSG.msg" "hyperShadePrimaryNodeEditorSavedTabsInfo.tgi[0].ni[0].dn"
		;
connectAttr "hairYellow_shdSG.msg" "hyperShadePrimaryNodeEditorSavedTabsInfo.tgi[0].ni[1].dn"
		;
connectAttr "hairBlue_shdSG.msg" "hyperShadePrimaryNodeEditorSavedTabsInfo.tgi[0].ni[2].dn"
		;
connectAttr "hairGreen_shdSG.msg" "hyperShadePrimaryNodeEditorSavedTabsInfo.tgi[0].ni[3].dn"
		;
connectAttr "ramp3.msg" "hyperShadePrimaryNodeEditorSavedTabsInfo.tgi[0].ni[4].dn"
		;
connectAttr "ramp1.msg" "hyperShadePrimaryNodeEditorSavedTabsInfo.tgi[0].ni[5].dn"
		;
connectAttr "ramp2.msg" "hyperShadePrimaryNodeEditorSavedTabsInfo.tgi[0].ni[6].dn"
		;
connectAttr "ramp4.msg" "hyperShadePrimaryNodeEditorSavedTabsInfo.tgi[0].ni[7].dn"
		;
connectAttr "hairBlue_shdSG.pa" ":renderPartition.st" -na;
connectAttr "hairGreen_shdSG.pa" ":renderPartition.st" -na;
connectAttr "hairRed_shdSG.pa" ":renderPartition.st" -na;
connectAttr "hairYellow_shdSG.pa" ":renderPartition.st" -na;
connectAttr "hairRed_shd.msg" ":defaultShaderList1.s" -na;
connectAttr "hairYellow_shd.msg" ":defaultShaderList1.s" -na;
connectAttr "hairGreen_shd.msg" ":defaultShaderList1.s" -na;
connectAttr "hairBlue_shd.msg" ":defaultShaderList1.s" -na;
connectAttr "defaultRenderLayer.msg" ":defaultRenderingList1.r" -na;
connectAttr "ramp1.msg" ":defaultTextureList1.tx" -na;
connectAttr "ramp2.msg" ":defaultTextureList1.tx" -na;
connectAttr "ramp3.msg" ":defaultTextureList1.tx" -na;
connectAttr "ramp4.msg" ":defaultTextureList1.tx" -na;
connectAttr ":perspShape.msg" ":defaultRenderGlobals.sc";
// End of shader_lambertRamp.ma
