//Maya ASCII 2017ff05 scene
//Name: shader_lambertColor.ma
//Last modified: Wed, Apr 08, 2020 08:15:22 PM
//Codeset: 1252
requires maya "2017ff05";
requires "stereoCamera" "10.0";
currentUnit -l centimeter -a degree -t film;
fileInfo "application" "maya";
fileInfo "product" "Maya 2017";
fileInfo "version" "2017";
fileInfo "cutIdentifier" "201710312130-1018716";
fileInfo "osv" "Microsoft Windows 8 Business Edition, 64-bit  (Build 9200)\n";
createNode transform -s -n "persp";
	rename -uid "2423342A-4062-EDF4-8C8D-B78B79EA5FF1";
	setAttr ".v" no;
	setAttr ".t" -type "double3" 28 21 28 ;
	setAttr ".r" -type "double3" -27.938352729602379 44.999999999999972 -5.172681101354183e-014 ;
createNode camera -s -n "perspShape" -p "persp";
	rename -uid "295B7AE2-4C30-A692-7534-F482424AE23D";
	setAttr -k off ".v" no;
	setAttr ".fl" 34.999999999999993;
	setAttr ".coi" 44.82186966202994;
	setAttr ".imn" -type "string" "persp";
	setAttr ".den" -type "string" "persp_depth";
	setAttr ".man" -type "string" "persp_mask";
	setAttr ".hc" -type "string" "viewSet -p %camera";
createNode transform -s -n "top";
	rename -uid "BE6299D9-4326-B406-28A4-528588E0E360";
	setAttr ".v" no;
	setAttr ".t" -type "double3" 0 1000.1 0 ;
	setAttr ".r" -type "double3" -89.999999999999986 0 0 ;
createNode camera -s -n "topShape" -p "top";
	rename -uid "CB75A01F-4EDC-C86A-6B4D-688CB43860AB";
	setAttr -k off ".v" no;
	setAttr ".rnd" no;
	setAttr ".coi" 1000.1;
	setAttr ".ow" 30;
	setAttr ".imn" -type "string" "top";
	setAttr ".den" -type "string" "top_depth";
	setAttr ".man" -type "string" "top_mask";
	setAttr ".hc" -type "string" "viewSet -t %camera";
	setAttr ".o" yes;
createNode transform -s -n "front";
	rename -uid "8158A385-432B-71BD-4E07-438A1DE0FA91";
	setAttr ".v" no;
	setAttr ".t" -type "double3" 0 0 1000.1 ;
createNode camera -s -n "frontShape" -p "front";
	rename -uid "9FF337D4-4EA3-48AA-0D3C-9CAF887409FF";
	setAttr -k off ".v" no;
	setAttr ".rnd" no;
	setAttr ".coi" 1000.1;
	setAttr ".ow" 30;
	setAttr ".imn" -type "string" "front";
	setAttr ".den" -type "string" "front_depth";
	setAttr ".man" -type "string" "front_mask";
	setAttr ".hc" -type "string" "viewSet -f %camera";
	setAttr ".o" yes;
createNode transform -s -n "side";
	rename -uid "765D57A2-40C3-CF98-E621-ADAC6F02980E";
	setAttr ".v" no;
	setAttr ".t" -type "double3" 1000.1 0 0 ;
	setAttr ".r" -type "double3" 0 89.999999999999986 0 ;
createNode camera -s -n "sideShape" -p "side";
	rename -uid "5CA0FCAC-4A31-86DE-6463-FD9363A624F3";
	setAttr -k off ".v" no;
	setAttr ".rnd" no;
	setAttr ".coi" 1000.1;
	setAttr ".ow" 30;
	setAttr ".imn" -type "string" "side";
	setAttr ".den" -type "string" "side_depth";
	setAttr ".man" -type "string" "side_mask";
	setAttr ".hc" -type "string" "viewSet -s %camera";
	setAttr ".o" yes;
createNode lightLinker -s -n "lightLinker1";
	rename -uid "C21F2088-48BC-207C-A86F-A78F713EE1EE";
	setAttr -s 10 ".lnk";
	setAttr -s 10 ".slnk";
createNode shapeEditorManager -n "shapeEditorManager";
	rename -uid "4A56D4ED-46A1-0085-140B-6494971EF042";
createNode poseInterpolatorManager -n "poseInterpolatorManager";
	rename -uid "9937E46C-4EB3-855F-572B-71884583A004";
createNode displayLayerManager -n "layerManager";
	rename -uid "D2E3C126-4230-F86A-DC3C-CA847E67F371";
createNode displayLayer -n "defaultLayer";
	rename -uid "0A4DC975-4E34-DF30-29F5-EC8134892427";
createNode renderLayerManager -n "renderLayerManager";
	rename -uid "2629FD3C-4402-2224-D9DD-0F97092BB564";
createNode renderLayer -n "defaultRenderLayer";
	rename -uid "CD66355A-4204-C785-7D3F-E2ABB583D6B7";
	setAttr ".g" yes;
createNode lambert -n "hairGreen";
	rename -uid "1CB3BC7D-477D-BB23-DCC0-2597FF9EB67A";
	setAttr ".c" -type "float3" 0.39389789 1 0.21799999 ;
createNode shadingEngine -n "lambert2SG";
	rename -uid "72BA6F11-407E-7F94-6414-3F977216B62E";
	setAttr ".ihi" 0;
	setAttr ".ro" yes;
createNode materialInfo -n "materialInfo1";
	rename -uid "93C25BFB-425B-11BA-E351-7BB6D230EB9B";
createNode lambert -n "hairBluelight";
	rename -uid "50302C75-4BF5-716C-2CF1-B5A5B4362BE3";
	setAttr ".c" -type "float3" 0.33999997 0.84030199 1 ;
createNode shadingEngine -n "lambert3SG";
	rename -uid "55D3E3BB-4AAC-A268-60A8-6ABEBD722734";
	setAttr ".ihi" 0;
	setAttr ".ro" yes;
createNode materialInfo -n "materialInfo2";
	rename -uid "8580752B-4DCB-4992-09C7-82815973402C";
createNode lambert -n "hairRed";
	rename -uid "619CAD57-4D87-5E8F-C791-5B9E2EA1E744";
	setAttr ".c" -type "float3" 1 0.35299999 0.35299999 ;
createNode shadingEngine -n "lambert4SG";
	rename -uid "DC069E24-4874-1AB7-D0F1-1DADA276C314";
	setAttr ".ihi" 0;
	setAttr ".ro" yes;
createNode materialInfo -n "materialInfo3";
	rename -uid "A15528F8-4BB4-D8BF-EDC2-CF80BF6C5196";
createNode lambert -n "hairYellow";
	rename -uid "1D1FF7CD-4707-A89E-26BC-16A7EB1ADDE4";
	setAttr ".c" -type "float3" 1 0.82253748 0.25 ;
createNode shadingEngine -n "lambert5SG";
	rename -uid "E704F654-4AC7-2FBE-C92E-3A803DC616BD";
	setAttr ".ihi" 0;
	setAttr ".ro" yes;
createNode materialInfo -n "materialInfo4";
	rename -uid "55489563-4CB7-5405-1482-52A9435F9A50";
createNode lambert -n "hairPink";
	rename -uid "DC14887A-4B78-9ACC-1AE5-D8BACD3E50AE";
	setAttr ".c" -type "float3" 1 0.301 0.59949636 ;
createNode shadingEngine -n "lambert6SG";
	rename -uid "95391707-471B-1617-4842-E2A97FF437FD";
	setAttr ".ihi" 0;
	setAttr ".ro" yes;
createNode materialInfo -n "materialInfo5";
	rename -uid "3E3D2376-4128-2C03-6438-0C839ED53D29";
createNode lambert -n "hairBlue";
	rename -uid "B0CBB217-4B09-38B3-7032-0AB0655CA8C1";
	setAttr ".c" -type "float3" 0.30252099 0.44007802 0.85699999 ;
createNode shadingEngine -n "lambert7SG";
	rename -uid "94F451F4-47FD-66E6-0473-859CF3ED62D0";
	setAttr ".ihi" 0;
	setAttr ".ro" yes;
createNode materialInfo -n "materialInfo6";
	rename -uid "A7687685-4BDA-B585-D40E-84AA979F71DF";
createNode lambert -n "hairGreenlight";
	rename -uid "62331FDA-4C6E-FA99-A2B1-918822DC2282";
	setAttr ".c" -type "float3" 0.22399998 1 0.56431478 ;
createNode shadingEngine -n "lambert8SG";
	rename -uid "5DBEE1BC-4EFC-786D-D4B8-C884E85D0E6E";
	setAttr ".ihi" 0;
	setAttr ".ro" yes;
createNode materialInfo -n "materialInfo7";
	rename -uid "901AB642-457C-56AC-806A-61A3A836B90D";
createNode lambert -n "hairWhite";
	rename -uid "FD3FBDD9-48D8-DBCD-29CB-DE862EC43423";
	setAttr ".c" -type "float3" 1 1 1 ;
createNode shadingEngine -n "lambert9SG";
	rename -uid "0188D01E-47A8-D282-BA79-BEA4CB3B0869";
	setAttr ".ihi" 0;
	setAttr ".ro" yes;
createNode materialInfo -n "materialInfo8";
	rename -uid "EE2FA95C-42C4-B032-816D-B087C6867631";
createNode script -n "sceneConfigurationScriptNode";
	rename -uid "E7B6C1D0-42CB-5F4D-2374-3CBC4FD762AB";
	setAttr ".b" -type "string" "playbackOptions -min 1 -max 120 -ast 1 -aet 200 ";
	setAttr ".st" 6;
createNode nodeGraphEditorInfo -n "hyperShadePrimaryNodeEditorSavedTabsInfo";
	rename -uid "7D630806-4813-A1ED-8B5E-5592D6A13C37";
	setAttr ".tgi[0].tn" -type "string" "Untitled_1";
	setAttr ".tgi[0].vl" -type "double2" -876.52683279773782 -270.24245321959006 ;
	setAttr ".tgi[0].vh" -type "double2" 612.75226922939419 284.72475932825637 ;
	setAttr -s 16 ".tgi[0].ni";
	setAttr ".tgi[0].ni[0].x" -362.85714721679687;
	setAttr ".tgi[0].ni[0].y" 150;
	setAttr ".tgi[0].ni[0].nvs" 1923;
	setAttr ".tgi[0].ni[1].x" -362.85714721679687;
	setAttr ".tgi[0].ni[1].y" 154.28572082519531;
	setAttr ".tgi[0].ni[1].nvs" 1923;
	setAttr ".tgi[0].ni[2].x" -362.85714721679687;
	setAttr ".tgi[0].ni[2].y" 150;
	setAttr ".tgi[0].ni[2].nvs" 1923;
	setAttr ".tgi[0].ni[3].x" -55.714286804199219;
	setAttr ".tgi[0].ni[3].y" 150;
	setAttr ".tgi[0].ni[3].nvs" 1923;
	setAttr ".tgi[0].ni[4].x" -362.85714721679687;
	setAttr ".tgi[0].ni[4].y" 150;
	setAttr ".tgi[0].ni[4].nvs" 1923;
	setAttr ".tgi[0].ni[5].x" -55.714286804199219;
	setAttr ".tgi[0].ni[5].y" 150;
	setAttr ".tgi[0].ni[5].nvs" 1923;
	setAttr ".tgi[0].ni[6].x" -362.85714721679687;
	setAttr ".tgi[0].ni[6].y" 150;
	setAttr ".tgi[0].ni[6].nvs" 1923;
	setAttr ".tgi[0].ni[7].x" -362.85714721679687;
	setAttr ".tgi[0].ni[7].y" 150;
	setAttr ".tgi[0].ni[7].nvs" 1923;
	setAttr ".tgi[0].ni[8].x" -55.714286804199219;
	setAttr ".tgi[0].ni[8].y" 150;
	setAttr ".tgi[0].ni[8].nvs" 1923;
	setAttr ".tgi[0].ni[9].x" -55.714286804199219;
	setAttr ".tgi[0].ni[9].y" 150;
	setAttr ".tgi[0].ni[9].nvs" 1923;
	setAttr ".tgi[0].ni[10].x" -371.42855834960937;
	setAttr ".tgi[0].ni[10].y" 154.28572082519531;
	setAttr ".tgi[0].ni[10].nvs" 1923;
	setAttr ".tgi[0].ni[11].x" -55.714286804199219;
	setAttr ".tgi[0].ni[11].y" 150;
	setAttr ".tgi[0].ni[11].nvs" 1923;
	setAttr ".tgi[0].ni[12].x" -678.5714111328125;
	setAttr ".tgi[0].ni[12].y" 154.28572082519531;
	setAttr ".tgi[0].ni[12].nvs" 1923;
	setAttr ".tgi[0].ni[13].x" -55.714286804199219;
	setAttr ".tgi[0].ni[13].y" 154.28572082519531;
	setAttr ".tgi[0].ni[13].nvs" 1923;
	setAttr ".tgi[0].ni[14].x" -362.85714721679687;
	setAttr ".tgi[0].ni[14].y" 150;
	setAttr ".tgi[0].ni[14].nvs" 1923;
	setAttr ".tgi[0].ni[15].x" -55.714286804199219;
	setAttr ".tgi[0].ni[15].y" 150;
	setAttr ".tgi[0].ni[15].nvs" 1923;
select -ne :time1;
	setAttr ".o" 1;
	setAttr ".unw" 1;
select -ne :hardwareRenderingGlobals;
	setAttr ".otfna" -type "stringArray" 22 "NURBS Curves" "NURBS Surfaces" "Polygons" "Subdiv Surface" "Particles" "Particle Instance" "Fluids" "Strokes" "Image Planes" "UI" "Lights" "Cameras" "Locators" "Joints" "IK Handles" "Deformers" "Motion Trails" "Components" "Hair Systems" "Follicles" "Misc. UI" "Ornaments"  ;
	setAttr ".otfva" -type "Int32Array" 22 0 1 1 1 1 1
		 1 1 1 0 0 0 0 0 0 0 0 0
		 0 0 0 0 ;
	setAttr ".fprt" yes;
select -ne :renderPartition;
	setAttr -s 10 ".st";
select -ne :renderGlobalsList1;
select -ne :defaultShaderList1;
	setAttr -s 12 ".s";
select -ne :postProcessList1;
	setAttr -s 2 ".p";
select -ne :defaultRenderingList1;
select -ne :initialShadingGroup;
	setAttr ".ro" yes;
select -ne :initialParticleSE;
	setAttr ".ro" yes;
select -ne :defaultResolution;
	setAttr ".pa" 1;
select -ne :hardwareRenderGlobals;
	setAttr ".ctrs" 256;
	setAttr ".btrs" 512;
relationship "link" ":lightLinker1" ":initialShadingGroup.message" ":defaultLightSet.message";
relationship "link" ":lightLinker1" ":initialParticleSE.message" ":defaultLightSet.message";
relationship "link" ":lightLinker1" "lambert2SG.message" ":defaultLightSet.message";
relationship "link" ":lightLinker1" "lambert3SG.message" ":defaultLightSet.message";
relationship "link" ":lightLinker1" "lambert4SG.message" ":defaultLightSet.message";
relationship "link" ":lightLinker1" "lambert5SG.message" ":defaultLightSet.message";
relationship "link" ":lightLinker1" "lambert6SG.message" ":defaultLightSet.message";
relationship "link" ":lightLinker1" "lambert7SG.message" ":defaultLightSet.message";
relationship "link" ":lightLinker1" "lambert8SG.message" ":defaultLightSet.message";
relationship "link" ":lightLinker1" "lambert9SG.message" ":defaultLightSet.message";
relationship "shadowLink" ":lightLinker1" ":initialShadingGroup.message" ":defaultLightSet.message";
relationship "shadowLink" ":lightLinker1" ":initialParticleSE.message" ":defaultLightSet.message";
relationship "shadowLink" ":lightLinker1" "lambert2SG.message" ":defaultLightSet.message";
relationship "shadowLink" ":lightLinker1" "lambert3SG.message" ":defaultLightSet.message";
relationship "shadowLink" ":lightLinker1" "lambert4SG.message" ":defaultLightSet.message";
relationship "shadowLink" ":lightLinker1" "lambert5SG.message" ":defaultLightSet.message";
relationship "shadowLink" ":lightLinker1" "lambert6SG.message" ":defaultLightSet.message";
relationship "shadowLink" ":lightLinker1" "lambert7SG.message" ":defaultLightSet.message";
relationship "shadowLink" ":lightLinker1" "lambert8SG.message" ":defaultLightSet.message";
relationship "shadowLink" ":lightLinker1" "lambert9SG.message" ":defaultLightSet.message";
connectAttr "layerManager.dli[0]" "defaultLayer.id";
connectAttr "renderLayerManager.rlmi[0]" "defaultRenderLayer.rlid";
connectAttr "hairGreen.oc" "lambert2SG.ss";
connectAttr "lambert2SG.msg" "materialInfo1.sg";
connectAttr "hairGreen.msg" "materialInfo1.m";
connectAttr "hairBluelight.oc" "lambert3SG.ss";
connectAttr "lambert3SG.msg" "materialInfo2.sg";
connectAttr "hairBluelight.msg" "materialInfo2.m";
connectAttr "hairRed.oc" "lambert4SG.ss";
connectAttr "lambert4SG.msg" "materialInfo3.sg";
connectAttr "hairRed.msg" "materialInfo3.m";
connectAttr "hairYellow.oc" "lambert5SG.ss";
connectAttr "lambert5SG.msg" "materialInfo4.sg";
connectAttr "hairYellow.msg" "materialInfo4.m";
connectAttr "hairPink.oc" "lambert6SG.ss";
connectAttr "lambert6SG.msg" "materialInfo5.sg";
connectAttr "hairPink.msg" "materialInfo5.m";
connectAttr "hairBlue.oc" "lambert7SG.ss";
connectAttr "lambert7SG.msg" "materialInfo6.sg";
connectAttr "hairBlue.msg" "materialInfo6.m";
connectAttr "hairGreenlight.oc" "lambert8SG.ss";
connectAttr "lambert8SG.msg" "materialInfo7.sg";
connectAttr "hairGreenlight.msg" "materialInfo7.m";
connectAttr "hairWhite.oc" "lambert9SG.ss";
connectAttr "lambert9SG.msg" "materialInfo8.sg";
connectAttr "hairWhite.msg" "materialInfo8.m";
connectAttr "hairPink.msg" "hyperShadePrimaryNodeEditorSavedTabsInfo.tgi[0].ni[0].dn"
		;
connectAttr "hairBluelight.msg" "hyperShadePrimaryNodeEditorSavedTabsInfo.tgi[0].ni[1].dn"
		;
connectAttr "hairWhite.msg" "hyperShadePrimaryNodeEditorSavedTabsInfo.tgi[0].ni[2].dn"
		;
connectAttr "lambert7SG.msg" "hyperShadePrimaryNodeEditorSavedTabsInfo.tgi[0].ni[3].dn"
		;
connectAttr "hairRed.msg" "hyperShadePrimaryNodeEditorSavedTabsInfo.tgi[0].ni[4].dn"
		;
connectAttr "lambert6SG.msg" "hyperShadePrimaryNodeEditorSavedTabsInfo.tgi[0].ni[5].dn"
		;
connectAttr "hairBlue.msg" "hyperShadePrimaryNodeEditorSavedTabsInfo.tgi[0].ni[6].dn"
		;
connectAttr "hairYellow.msg" "hyperShadePrimaryNodeEditorSavedTabsInfo.tgi[0].ni[7].dn"
		;
connectAttr "lambert5SG.msg" "hyperShadePrimaryNodeEditorSavedTabsInfo.tgi[0].ni[8].dn"
		;
connectAttr "lambert9SG.msg" "hyperShadePrimaryNodeEditorSavedTabsInfo.tgi[0].ni[9].dn"
		;
connectAttr "lambert2SG.msg" "hyperShadePrimaryNodeEditorSavedTabsInfo.tgi[0].ni[10].dn"
		;
connectAttr "lambert4SG.msg" "hyperShadePrimaryNodeEditorSavedTabsInfo.tgi[0].ni[11].dn"
		;
connectAttr "hairGreen.msg" "hyperShadePrimaryNodeEditorSavedTabsInfo.tgi[0].ni[12].dn"
		;
connectAttr "lambert3SG.msg" "hyperShadePrimaryNodeEditorSavedTabsInfo.tgi[0].ni[13].dn"
		;
connectAttr "hairGreenlight.msg" "hyperShadePrimaryNodeEditorSavedTabsInfo.tgi[0].ni[14].dn"
		;
connectAttr "lambert8SG.msg" "hyperShadePrimaryNodeEditorSavedTabsInfo.tgi[0].ni[15].dn"
		;
connectAttr "lambert2SG.pa" ":renderPartition.st" -na;
connectAttr "lambert3SG.pa" ":renderPartition.st" -na;
connectAttr "lambert4SG.pa" ":renderPartition.st" -na;
connectAttr "lambert5SG.pa" ":renderPartition.st" -na;
connectAttr "lambert6SG.pa" ":renderPartition.st" -na;
connectAttr "lambert7SG.pa" ":renderPartition.st" -na;
connectAttr "lambert8SG.pa" ":renderPartition.st" -na;
connectAttr "lambert9SG.pa" ":renderPartition.st" -na;
connectAttr "hairGreen.msg" ":defaultShaderList1.s" -na;
connectAttr "hairBluelight.msg" ":defaultShaderList1.s" -na;
connectAttr "hairRed.msg" ":defaultShaderList1.s" -na;
connectAttr "hairYellow.msg" ":defaultShaderList1.s" -na;
connectAttr "hairPink.msg" ":defaultShaderList1.s" -na;
connectAttr "hairBlue.msg" ":defaultShaderList1.s" -na;
connectAttr "hairGreenlight.msg" ":defaultShaderList1.s" -na;
connectAttr "hairWhite.msg" ":defaultShaderList1.s" -na;
connectAttr "defaultRenderLayer.msg" ":defaultRenderingList1.r" -na;
// End of shader_lambertColor.ma
