//Maya ASCII 2017ff05 scene
//Name: characterTmp.ma
//Last modified: Fri, Jul 06, 2018 03:36:30 PM
//Codeset: 1252
requires maya "2017ff05";
requires "stereoCamera" "10.0";
requires "TurtleForMaya2009" "5.0.0.5";
requires "arkMayaExporter_2013_5" "1.21.ma3.s2.me5.a7";
currentUnit -l centimeter -a degree -t film;
fileInfo "application" "maya";
fileInfo "product" "Maya 2017";
fileInfo "version" "2017";
fileInfo "cutIdentifier" "201710312130-1018716";
fileInfo "osv" "Microsoft Windows 8 Business Edition, 64-bit  (Build 9200)\n";
fileInfo "vrayBuild" "3.52.03 b05f456";
createNode transform -s -n "persp";
	rename -uid "4B0889B9-4BB7-1AF8-8CAA-16BA7512C2A5";
	setAttr ".v" no;
	setAttr ".t" -type "double3" 228.91777133557468 202.08953631003419 777.47097778214982 ;
	setAttr ".r" -type "double3" -6.9383527268519796 16.600000000142387 -2.0742980796686786e-016 ;
	setAttr ".rp" -type "double3" -3.5527136788005009e-015 -1.4210854715202004e-014 
		-2.8421709430404007e-014 ;
	setAttr ".rpt" -type "double3" -2.0447697732590796e-014 -4.8423748865668053e-015 
		3.2704333886855004e-014 ;
createNode camera -s -n "perspShape" -p "persp";
	rename -uid "86643384-4496-AF17-E11A-16BB44E81BC4";
	setAttr -k off ".v" no;
	setAttr ".fl" 34.999999999999979;
	setAttr ".ncp" 1;
	setAttr ".fcp" 100000;
	setAttr ".coi" 791.47204407752145;
	setAttr ".imn" -type "string" "persp";
	setAttr ".den" -type "string" "persp_depth";
	setAttr ".man" -type "string" "persp_mask";
	setAttr ".tp" -type "double3" 0 98.874230955923011 1.2877904008980039 ;
	setAttr ".hc" -type "string" "viewSet -p %camera";
createNode transform -s -n "top";
	rename -uid "433CC237-43E6-BD67-20F5-21AC33BC4157";
	setAttr ".v" no;
	setAttr ".t" -type "double3" 6.3233327376319117 205.05487673122809 10.095375696263069 ;
	setAttr ".r" -type "double3" -89.999999999999986 0 0 ;
createNode camera -s -n "topShape" -p "top";
	rename -uid "DE3CA2D4-46A3-7449-ED4A-3C9CBFCCEF2F";
	setAttr -k off ".v" no;
	setAttr ".rnd" no;
	setAttr ".coi" 100.1;
	setAttr ".ow" 23.440274889734116;
	setAttr ".imn" -type "string" "top";
	setAttr ".den" -type "string" "top_depth";
	setAttr ".man" -type "string" "top_mask";
	setAttr ".hc" -type "string" "viewSet -t %camera";
	setAttr ".o" yes;
createNode transform -s -n "front";
	rename -uid "799B715A-46FE-DFA6-A491-D0BA73315495";
	setAttr ".v" no;
	setAttr ".t" -type "double3" -9.6473937632902178 90.047074058221142 131.61090106053661 ;
createNode camera -s -n "frontShape" -p "front";
	rename -uid "A7A48C3C-435E-72EB-C2C3-53A06110F2A1";
	setAttr -k off ".v" no;
	setAttr ".rnd" no;
	setAttr ".coi" 100.1;
	setAttr ".ow" 60.604829461439678;
	setAttr ".imn" -type "string" "front";
	setAttr ".den" -type "string" "front_depth";
	setAttr ".man" -type "string" "front_mask";
	setAttr ".hc" -type "string" "viewSet -f %camera";
	setAttr ".o" yes;
createNode transform -s -n "side";
	rename -uid "C9A82D87-44BA-C947-687D-528CAC69D5DB";
	setAttr ".v" no;
	setAttr ".t" -type "double3" 153.19994052397396 72.949771798942891 4.3899056327507724 ;
	setAttr ".r" -type "double3" 0 89.999999999999986 0 ;
createNode camera -s -n "sideShape" -p "side";
	rename -uid "CFE904F2-4FF8-37E5-4C2C-B2BD1032CBA4";
	setAttr -k off ".v" no;
	setAttr ".rnd" no;
	setAttr ".coi" 100.1;
	setAttr ".ow" 61.739776788191087;
	setAttr ".imn" -type "string" "side";
	setAttr ".den" -type "string" "side_depth";
	setAttr ".man" -type "string" "side_mask";
	setAttr ".hc" -type "string" "viewSet -s %camera";
	setAttr ".o" yes;
createNode transform -n "PivJnt_Grp";
	rename -uid "C0DCB2F7-4100-52D5-27EA-EA9DA6B20803";
createNode joint -n "EyeTar_Jnt" -p "PivJnt_Grp";
	rename -uid "39A4ED28-48F6-181C-E60F-3AA50052FD29";
	setAttr ".t" -type "double3" 0 160.78829193115234 38.292609270870187 ;
	setAttr ".mnrl" -type "double3" -360 -360 -360 ;
	setAttr ".mxrl" -type "double3" 360 360 360 ;
	setAttr ".ssc" no;
createNode joint -n "EyeTar_L_Jnt" -p "EyeTar_Jnt";
	rename -uid "501957C2-4FA7-1738-F3CB-6DA0D7BD172E";
	setAttr ".t" -type "double3" 3.6433706283569336 0 0 ;
	setAttr ".mnrl" -type "double3" -360 -360 -360 ;
	setAttr ".mxrl" -type "double3" 360 360 360 ;
	setAttr ".ssc" no;
createNode joint -n "EyeTar_R_Jnt" -p "EyeTar_Jnt";
	rename -uid "32D6D8A0-4A88-2F1C-8F40-1B9A0644DCED";
	setAttr ".t" -type "double3" -3.643 0 0 ;
	setAttr ".mnrl" -type "double3" -360 -360 -360 ;
	setAttr ".mxrl" -type "double3" 360 360 360 ;
	setAttr ".ssc" no;
createNode joint -n "HeelPiv_L_Jnt" -p "PivJnt_Grp";
	rename -uid "5922B011-43E5-E112-74E8-0DBEC62B505B";
	setAttr ".t" -type "double3" 9.0426915184258192 -1.7763568394002505e-015 -10.16480111751693 ;
	setAttr ".mnrl" -type "double3" -360 -360 -360 ;
	setAttr ".mxrl" -type "double3" 360 360 360 ;
	setAttr ".jo" -type "double3" 89.999999999999986 -7.0622500768802538e-031 -180 ;
	setAttr ".ssc" no;
createNode joint -n "FootOutPiv_L_Jnt" -p "HeelPiv_L_Jnt";
	rename -uid "3677696A-4780-EEC8-0832-3C9812A2CEBC";
	setAttr ".t" -type "double3" -6.0769452760355662 15.458026478329401 1.9548189165788293e-015 ;
	setAttr ".mnrl" -type "double3" -360 -360 -360 ;
	setAttr ".mxrl" -type "double3" 360 360 360 ;
	setAttr ".ssc" no;
createNode joint -n "FootInPiv_L_Jnt" -p "HeelPiv_L_Jnt";
	rename -uid "0119DE9F-4DB8-8059-4A00-94AA9B12D921";
	setAttr ".t" -type "double3" 4.6105498609552082 15.728470389530724 -1.6240868416212887e-015 ;
	setAttr ".mnrl" -type "double3" -360 -360 -360 ;
	setAttr ".mxrl" -type "double3" 360 360 360 ;
	setAttr ".ssc" no;
createNode joint -n "KneeIk_L_Jnt" -p "HeelPiv_L_Jnt";
	rename -uid "C4DF4B90-42CF-8934-557C-1A9AEBACBEEB";
	setAttr ".t" -type "double3" 7.1054273576010019e-014 53.606845325060121 51.439497467092004 ;
	setAttr ".mnrl" -type "double3" -360 -360 -360 ;
	setAttr ".mxrl" -type "double3" 360 360 360 ;
	setAttr ".jo" -type "double3" 89.999999999999972 0 180 ;
	setAttr ".ssc" no;
createNode joint -n "ElbowIk_L_Jnt" -p "HeelPiv_L_Jnt";
	rename -uid "91C661BE-4076-1AEA-EB83-EC8DAF542C44";
	setAttr ".t" -type "double3" -32.39654296437314 -38.444810283615951 136.23289953412299 ;
	setAttr ".mnrl" -type "double3" -360 -360 -360 ;
	setAttr ".mxrl" -type "double3" 360 360 360 ;
	setAttr ".jo" -type "double3" 89.999999999999972 0 180 ;
	setAttr ".ssc" no;
createNode joint -n "HeelPiv_R_Jnt" -p "PivJnt_Grp";
	rename -uid "69356C04-4D6A-1B33-7284-7099B83C84D1";
	setAttr ".t" -type "double3" -9.04269 -1.7763599999999999e-015 -10.1648 ;
	setAttr ".mnrl" -type "double3" -360 -360 -360 ;
	setAttr ".mxrl" -type "double3" 360 360 360 ;
	setAttr ".jo" -type "double3" 89.999999999999972 180 0 ;
	setAttr ".ssc" no;
createNode joint -n "FootOutPiv_R_Jnt" -p "HeelPiv_R_Jnt";
	rename -uid "3A70A39C-4BD0-0036-75C9-00809A6FE3CD";
	setAttr ".t" -type "double3" 6.076909999999998 -15.45803 -2.6990343285385642e-015 ;
	setAttr ".mnrl" -type "double3" -360 -360 -360 ;
	setAttr ".mxrl" -type "double3" 360 360 360 ;
	setAttr ".ssc" no;
createNode joint -n "FootInPiv_R_Jnt" -p "HeelPiv_R_Jnt";
	rename -uid "EECD85D4-46FF-E663-208F-85A4CDDF473B";
	setAttr ".t" -type "double3" -4.6105500000000026 -15.728469999999998 2.1886961855495845e-015 ;
	setAttr ".mnrl" -type "double3" -360 -360 -360 ;
	setAttr ".mxrl" -type "double3" 360 360 360 ;
	setAttr ".ssc" no;
createNode joint -n "KneeIk_R_Jnt" -p "HeelPiv_R_Jnt";
	rename -uid "F82C212C-4504-5BDD-982C-2BBAB535294C";
	setAttr ".t" -type "double3" -7.1054273576010019e-015 -53.606799999999978 -51.439500000000031 ;
	setAttr ".mnrl" -type "double3" -360 -360 -360 ;
	setAttr ".mxrl" -type "double3" 360 360 360 ;
	setAttr ".jo" -type "double3" 89.999999999999972 0 179.99999999999997 ;
	setAttr ".ssc" no;
createNode joint -n "ElbowIk_R_Jnt" -p "HeelPiv_R_Jnt";
	rename -uid "31B5094E-4088-FA87-1A94-4C8E605D02E1";
	setAttr ".t" -type "double3" 32.396510000000006 38.444800000000058 -136.23317611440709 ;
	setAttr ".mnrl" -type "double3" -360 -360 -360 ;
	setAttr ".mxrl" -type "double3" 360 360 360 ;
	setAttr ".jo" -type "double3" 89.999999999999972 0 179.99999999999997 ;
	setAttr ".ssc" no;
createNode transform -n "TmpJnt_Grp";
	rename -uid "D4CE437C-47D8-4D5E-7445-A28279901695";
createNode joint -n "Root_Jnt" -p "TmpJnt_Grp";
	rename -uid "E376D1AC-47D7-82D6-019A-0FB272AAEDD5";
	setAttr ".t" -type "double3" 0 98.874230955923011 1.2877904008980039 ;
	setAttr ".mnrl" -type "double3" -360 -360 -360 ;
	setAttr ".mxrl" -type "double3" 360 360 360 ;
	setAttr ".ssc" no;
createNode joint -n "Spine_Jnt" -p "Root_Jnt";
	rename -uid "CB38A00B-46A6-580F-8655-0D8CC33081B0";
	setAttr ".t" -type "double3" 0 0.68140400313157556 0 ;
	setAttr ".mnrl" -type "double3" -360 -360 -360 ;
	setAttr ".mxrl" -type "double3" 360 360 360 ;
	setAttr ".ssc" no;
createNode joint -n "SpineMid_Jnt" -p "Spine_Jnt";
	rename -uid "BA9BE395-41F9-D15E-B7BF-5BACB32325F7";
	setAttr ".t" -type "double3" 0 10.242089757104083 0.40160232436605714 ;
	setAttr ".mnrl" -type "double3" -360 -360 -360 ;
	setAttr ".mxrl" -type "double3" 360 360 360 ;
	setAttr ".ssc" no;
createNode joint -n "Chest_Jnt" -p "SpineMid_Jnt";
	rename -uid "D729E3FF-4344-C04B-53A5-4695532F449D";
	setAttr ".t" -type "double3" 0 10.242089757104097 -0.57772818259049075 ;
	setAttr ".mnrl" -type "double3" -360 -360 -360 ;
	setAttr ".mxrl" -type "double3" 360 360 360 ;
	setAttr ".ssc" no;
createNode joint -n "Clav_L_Jnt" -p "Chest_Jnt";
	rename -uid "91667E43-41B2-18E8-EBBB-A8B1BC7EDC98";
	setAttr ".t" -type "double3" 2.7153116906495711 18.441076324589972 2.088174958550312 ;
	setAttr ".mnrl" -type "double3" -360 -360 -360 ;
	setAttr ".mxrl" -type "double3" 360 360 360 ;
	setAttr ".jo" -type "double3" 0 0 -89.999999999999986 ;
	setAttr ".ssc" no;
createNode joint -n "ClavTip_L_Jnt" -p "Clav_L_Jnt";
	rename -uid "DF94B982-4B01-AEF5-A8E4-6BA3852D573D";
	setAttr ".t" -type "double3" 2.2479912637294888 12.020149676997953 -6.619122281019715 ;
	setAttr ".mnrl" -type "double3" -360 -360 -360 ;
	setAttr ".mxrl" -type "double3" 360 360 360 ;
	setAttr ".ssc" no;
createNode joint -n "UpArm_L_Jnt" -p "ClavTip_L_Jnt";
	rename -uid "D3E54040-42E9-1F92-EF8C-4EB48CAA2E3D";
	setAttr ".t" -type "double3" 0 -6.0396132539608516e-014 1.1990408665951691e-014 ;
	setAttr ".mnrl" -type "double3" -360 -360 -360 ;
	setAttr ".mxrl" -type "double3" 360 360 360 ;
	setAttr ".ssc" no;
createNode joint -n "Forearm_L_Jnt" -p "UpArm_L_Jnt";
	rename -uid "F173AE2F-4BEC-46A3-4725-FCB6AFA5D3E4";
	setAttr ".t" -type "double3" 1.9895196601282805e-013 26.703773115151478 -2.9129168285238767 ;
	setAttr ".mnrl" -type "double3" -360 -360 -360 ;
	setAttr ".mxrl" -type "double3" 360 360 360 ;
	setAttr ".ssc" no;
createNode joint -n "Wrist_L_Jnt" -p "Forearm_L_Jnt";
	rename -uid "FB061BEA-48A9-E0EB-B23D-35A01948E63A";
	setAttr ".t" -type "double3" 1.1937117960769683e-012 29.119605578688294 2.3275501264863081 ;
	setAttr ".mnrl" -type "double3" -360 -360 -360 ;
	setAttr ".mxrl" -type "double3" 360 360 360 ;
	setAttr ".ssc" no;
createNode joint -n "Hand_L_Jnt" -p "Wrist_L_Jnt";
	rename -uid "75A6C2B9-45D9-DFCE-1B5D-DEB1AAB020FF";
	setAttr ".t" -type "double3" -6.8212102632969618e-013 3.0979413462517726 2.8421709430404007e-014 ;
	setAttr ".mnrl" -type "double3" -360 -360 -360 ;
	setAttr ".mxrl" -type "double3" 360 360 360 ;
	setAttr ".ssc" no;
createNode joint -n "Thumb_1_L_Jnt" -p "Hand_L_Jnt";
	rename -uid "444AA769-486B-CAC2-8BFF-2AB4A9FDBAAE";
	setAttr ".t" -type "double3" 1.6635709819905458 0.76251592063881901 3.3706862609031782 ;
	setAttr ".mnrl" -type "double3" -360 -360 -360 ;
	setAttr ".mxrl" -type "double3" 360 360 360 ;
	setAttr ".jo" -type "double3" 49.635647316054246 3.8743020100502674 -66.166112232762345 ;
	setAttr ".ssc" no;
createNode joint -n "Thumb_2_L_Jnt" -p "Thumb_1_L_Jnt";
	rename -uid "7A592CBB-4987-607E-2B60-B4ADE3D48647";
	setAttr ".t" -type "double3" -0.092116566981943038 5.1224255274283479 -0.1790721905580881 ;
	setAttr ".mnrl" -type "double3" -360 -360 -360 ;
	setAttr ".mxrl" -type "double3" 360 360 360 ;
	setAttr ".jo" -type "double3" -8.6493366816814277 6.5160515741535274 16.510193498695362 ;
	setAttr ".ssc" no;
createNode joint -n "Thumb_3_L_Jnt" -p "Thumb_2_L_Jnt";
	rename -uid "085B0D2E-4C80-BC7D-416F-2AA3D9387D6E";
	setAttr ".t" -type "double3" -2.8421709430404007e-014 2.7563654164760649 -0.51408082834761615 ;
	setAttr ".mnrl" -type "double3" -360 -360 -360 ;
	setAttr ".mxrl" -type "double3" 360 360 360 ;
	setAttr ".jo" -type "double3" -3.4778051267304178 0 0 ;
	setAttr ".ssc" no;
createNode joint -n "Thumb_4_L_Jnt" -p "Thumb_3_L_Jnt";
	rename -uid "AE2A1360-4532-DEC7-27F9-9783E6ED3A6E";
	setAttr ".t" -type "double3" 4.5474735088646412e-013 3.948527771453076 -0.27384058830373448 ;
	setAttr ".mnrl" -type "double3" -360 -360 -360 ;
	setAttr ".mxrl" -type "double3" 360 360 360 ;
	setAttr ".ssc" no;
createNode joint -n "Index_1_L_Jnt" -p "Hand_L_Jnt";
	rename -uid "03512809-4D55-7857-A07B-0186BA1E3188";
	setAttr ".t" -type "double3" -0.060664839816979566 1.1744738623700925 3.928449485464995 ;
	setAttr ".mnrl" -type "double3" -360 -360 -360 ;
	setAttr ".mxrl" -type "double3" 360 360 360 ;
	setAttr ".jo" -type "double3" 0 -89.999999999999972 0 ;
	setAttr ".ssc" no;
createNode joint -n "Index_2_L_Jnt" -p "Index_1_L_Jnt";
	rename -uid "9084816E-4665-D597-EEC8-AD9E8DD33AA8";
	setAttr ".t" -type "double3" -6.6613381477509392e-016 5.0752243666952523 0.0076617638863183402 ;
	setAttr ".mnrl" -type "double3" -360 -360 -360 ;
	setAttr ".mxrl" -type "double3" 360 360 360 ;
	setAttr ".ssc" no;
createNode joint -n "Index_3_L_Jnt" -p "Index_2_L_Jnt";
	rename -uid "F9C0C8B8-4A6F-9286-1AC9-A08DC6A66626";
	setAttr ".t" -type "double3" 2.2204460492503131e-016 4.9784450596155523 -0.057876878782053609 ;
	setAttr ".mnrl" -type "double3" -360 -360 -360 ;
	setAttr ".mxrl" -type "double3" 360 360 360 ;
	setAttr ".ssc" no;
createNode joint -n "Index_4_L_Jnt" -p "Index_3_L_Jnt";
	rename -uid "49C05ED4-4CCE-4FFE-4194-85A536FCC5E2";
	setAttr ".t" -type "double3" 1.0547118733938987e-015 2.580180897210596 -0.05467062147599222 ;
	setAttr ".mnrl" -type "double3" -360 -360 -360 ;
	setAttr ".mxrl" -type "double3" 360 360 360 ;
	setAttr ".ssc" no;
createNode joint -n "Index_5_L_Jnt" -p "Index_4_L_Jnt";
	rename -uid "88E0B08D-45F8-DFF7-AC03-B4B293EACA15";
	setAttr ".t" -type "double3" -8.0491169285323849e-016 3.1611701807620136 -2.8421709430404007e-014 ;
	setAttr ".mnrl" -type "double3" -360 -360 -360 ;
	setAttr ".mxrl" -type "double3" 360 360 360 ;
	setAttr ".ssc" no;
createNode joint -n "Middle_1_L_Jnt" -p "Hand_L_Jnt";
	rename -uid "7230B496-444E-49FE-3AA9-5C851BF56305";
	setAttr ".t" -type "double3" -1.2462628341304196 1.3811604593905287 1.2399317629210316 ;
	setAttr ".mnrl" -type "double3" -360 -360 -360 ;
	setAttr ".mxrl" -type "double3" 360 360 360 ;
	setAttr ".jo" -type "double3" 0 -89.999999999999972 0 ;
	setAttr ".ssc" no;
createNode joint -n "Middle_2_L_Jnt" -p "Middle_1_L_Jnt";
	rename -uid "8605B520-49A4-747E-56A5-4CB8560479EF";
	setAttr ".t" -type "double3" -4.6629367034256575e-014 5.1107144760237588 -0.70510343531043418 ;
	setAttr ".mnrl" -type "double3" -360 -360 -360 ;
	setAttr ".mxrl" -type "double3" 360 360 360 ;
	setAttr ".ssc" no;
createNode joint -n "Middle_3_L_Jnt" -p "Middle_2_L_Jnt";
	rename -uid "47683CC0-4AE9-11D0-5FF4-E18E613F0646";
	setAttr ".t" -type "double3" 4.929390229335695e-014 4.929562761800625 -0.13045161488696522 ;
	setAttr ".mnrl" -type "double3" -360 -360 -360 ;
	setAttr ".mxrl" -type "double3" 360 360 360 ;
	setAttr ".ssc" no;
createNode joint -n "Middle_4_L_Jnt" -p "Middle_3_L_Jnt";
	rename -uid "026918D9-4BE3-7852-3222-ECBD7959E7D3";
	setAttr ".t" -type "double3" -2.5313084961453569e-014 2.5637288283680135 -0.10524608014654291 ;
	setAttr ".mnrl" -type "double3" -360 -360 -360 ;
	setAttr ".mxrl" -type "double3" 360 360 360 ;
	setAttr ".ssc" no;
createNode joint -n "Middle_5_L_Jnt" -p "Middle_4_L_Jnt";
	rename -uid "CD656C96-4C3F-DEEA-DACD-2CB1A3ED32DA";
	setAttr ".t" -type "double3" -1.7763568394002505e-015 3.3059437680789472 2.8421709430404007e-014 ;
	setAttr ".mnrl" -type "double3" -360 -360 -360 ;
	setAttr ".mxrl" -type "double3" 360 360 360 ;
	setAttr ".ssc" no;
createNode joint -n "Ring_1_L_Jnt" -p "Hand_L_Jnt";
	rename -uid "C3AF13B6-4513-C547-BA6D-ACB156A4D38E";
	setAttr ".t" -type "double3" -1.2018553379874106 1.2507258252080646 -1.55506538084515 ;
	setAttr ".mnrl" -type "double3" -360 -360 -360 ;
	setAttr ".mxrl" -type "double3" 360 360 360 ;
	setAttr ".jo" -type "double3" -89.999999999997343 -88.767292776978366 89.999999999997343 ;
	setAttr ".ssc" no;
createNode joint -n "Ring_2_L_Jnt" -p "Ring_1_L_Jnt";
	rename -uid "6DCA469C-4B0E-AF27-482A-86BBE154C7EC";
	setAttr ".t" -type "double3" -0.039656250498300682 5.1553665378899041 -0.64204964375397822 ;
	setAttr ".mnrl" -type "double3" -360 -360 -360 ;
	setAttr ".mxrl" -type "double3" 360 360 360 ;
	setAttr ".ssc" no;
createNode joint -n "Ring_3_L_Jnt" -p "Ring_2_L_Jnt";
	rename -uid "19B7565E-4B07-4752-224E-2AA45D688361";
	setAttr ".t" -type "double3" 0.039656250498294465 4.3076992098079501 -0.2978432904120325 ;
	setAttr ".mnrl" -type "double3" -360 -360 -360 ;
	setAttr ".mxrl" -type "double3" 360 360 360 ;
	setAttr ".jo" -type "double3" -2.6802426687744942 0 0 ;
	setAttr ".ssc" no;
createNode joint -n "Ring_4_L_Jnt" -p "Ring_3_L_Jnt";
	rename -uid "082E9928-46B3-D5E7-74C9-A08AEF8B4027";
	setAttr ".t" -type "double3" -8.8817841970012523e-015 2.3326107957079358 -0.041931809416439592 ;
	setAttr ".mnrl" -type "double3" -360 -360 -360 ;
	setAttr ".mxrl" -type "double3" 360 360 360 ;
	setAttr ".ssc" no;
createNode joint -n "Ring_5_L_Jnt" -p "Ring_4_L_Jnt";
	rename -uid "A0D1BD75-47A7-F214-CD56-C098182DD9B0";
	setAttr ".t" -type "double3" -1.7763568394002505e-015 3.1516034123535803 -8.8107299234252423e-013 ;
	setAttr ".mnrl" -type "double3" -360 -360 -360 ;
	setAttr ".mxrl" -type "double3" 360 360 360 ;
	setAttr ".ssc" no;
createNode joint -n "Pinky_1_L_Jnt" -p "Hand_L_Jnt";
	rename -uid "A5E5B660-47BD-85A0-1D5B-90B55E32FDF3";
	setAttr ".t" -type "double3" -0.57742381713921986 0.5332539989779832 -4.3040951258021778 ;
	setAttr ".mnrl" -type "double3" -360 -360 -360 ;
	setAttr ".mxrl" -type "double3" 360 360 360 ;
	setAttr ".jo" -type "double3" 0 -89.999999999999972 0 ;
	setAttr ".ssc" no;
createNode joint -n "Pinky_2_L_Jnt" -p "Pinky_1_L_Jnt";
	rename -uid "5A62A32A-42C1-C682-436C-47ABCA82E8AA";
	setAttr ".t" -type "double3" -3.5527136788005009e-015 5.0703727993807064 -0.24780974941327827 ;
	setAttr ".mnrl" -type "double3" -360 -360 -360 ;
	setAttr ".mxrl" -type "double3" 360 360 360 ;
	setAttr ".ssc" no;
createNode joint -n "Pinky_3_L_Jnt" -p "Pinky_2_L_Jnt";
	rename -uid "63000DC9-4112-BE3C-D12D-ACB53D01974C";
	setAttr ".t" -type "double3" 1.0658141036401503e-014 3.3406580169697264 -0.052679192245051354 ;
	setAttr ".mnrl" -type "double3" -360 -360 -360 ;
	setAttr ".mxrl" -type "double3" 360 360 360 ;
	setAttr ".jo" -type "double3" -2.2990150056175738 0 0 ;
	setAttr ".ssc" no;
createNode joint -n "Pinky_4_L_Jnt" -p "Pinky_3_L_Jnt";
	rename -uid "C531CC04-479C-A4B4-FAF4-60A1C1EB1371";
	setAttr ".t" -type "double3" -6.2172489379008766e-014 1.5839997522523674 -3.694822225952521e-013 ;
	setAttr ".mnrl" -type "double3" -360 -360 -360 ;
	setAttr ".mxrl" -type "double3" 360 360 360 ;
	setAttr ".ssc" no;
createNode joint -n "Pinky_5_L_Jnt" -p "Pinky_4_L_Jnt";
	rename -uid "9023873B-4480-F0E3-7908-D89F04BF2BBD";
	setAttr ".t" -type "double3" -3.730349362740526e-014 2.8065085102347211 -7.1054273576010019e-013 ;
	setAttr ".mnrl" -type "double3" -360 -360 -360 ;
	setAttr ".mxrl" -type "double3" 360 360 360 ;
	setAttr ".ssc" no;
createNode joint -n "ShoulderPad_L_Jnt" -p "UpArm_L_Jnt";
	rename -uid "9913855B-4921-9054-3A3E-8592A311219A";
	setAttr ".t" -type "double3" -7.5679137965210259 6.2742533184832272 4.4408920985006262e-016 ;
	setAttr ".mnrl" -type "double3" -360 -360 -360 ;
	setAttr ".mxrl" -type "double3" 360 360 360 ;
	setAttr ".jo" -type "double3" 0 0 6.3611093629270304e-015 ;
	setAttr ".ssc" no;
createNode joint -n "ShoulderPadTip_L_Jnt" -p "ShoulderPad_L_Jnt";
	rename -uid "62E5628C-4323-FC95-E0FA-208F732BB925";
	setAttr ".t" -type "double3" 0 8.200196684808823 4.4408920985006262e-016 ;
	setAttr ".mnrl" -type "double3" -360 -360 -360 ;
	setAttr ".mxrl" -type "double3" 360 360 360 ;
	setAttr ".jo" -type "double3" 0 0 6.3611093629270304e-015 ;
	setAttr ".ssc" no;
createNode joint -n "ShoulderPadRbnAPost_L_Jnt" -p "ShoulderPad_L_Jnt";
	rename -uid "C4440C16-4717-118B-F9E4-E5814A3D2998";
	setAttr ".t" -type "double3" 3.1695114507614619 -0.41571100876251066 4.0930278159210056 ;
	setAttr ".mnrl" -type "double3" -360 -360 -360 ;
	setAttr ".mxrl" -type "double3" 360 360 360 ;
	setAttr ".jo" -type "double3" 0 0 89.999999999999986 ;
	setAttr ".ssc" no;
createNode joint -n "ShoulderPadRbnCPost_L_Jnt" -p "ShoulderPad_L_Jnt";
	rename -uid "1DAF6C47-405B-86CB-A20B-269D357F557A";
	setAttr ".t" -type "double3" 1.4479080572067744 -1.501696192478331 -6.861445560353105 ;
	setAttr ".mnrl" -type "double3" -360 -360 -360 ;
	setAttr ".mxrl" -type "double3" 360 360 360 ;
	setAttr ".jo" -type "double3" 0 0 89.999999999999986 ;
	setAttr ".ssc" no;
createNode joint -n "ChestTip_Jnt" -p "Chest_Jnt";
	rename -uid "27DAB1A0-45DC-C069-B009-07BEC3CF3A71";
	setAttr ".t" -type "double3" 0 24.403060995527994 -3.7810707274991895 ;
	setAttr ".mnrl" -type "double3" -360 -360 -360 ;
	setAttr ".mxrl" -type "double3" 360 360 360 ;
	setAttr ".ssc" no;
createNode joint -n "Neck_Jnt" -p "ChestTip_Jnt";
	rename -uid "55824022-4611-388D-30BC-939145B40863";
	setAttr ".t" -type "double3" 0 0.64620995897416833 4.4408920985006262e-016 ;
	setAttr ".mnrl" -type "double3" -360 -360 -360 ;
	setAttr ".mxrl" -type "double3" 360 360 360 ;
	setAttr ".ssc" no;
createNode joint -n "NeckTip_Jnt" -p "Neck_Jnt";
	rename -uid "735EA1B6-44E0-BD2E-3C76-F394680145FD";
	setAttr ".t" -type "double3" 0 10.450077655969011 1.2957820459726868 ;
	setAttr ".mnrl" -type "double3" -360 -360 -360 ;
	setAttr ".mxrl" -type "double3" 360 360 360 ;
	setAttr ".ssc" no;
createNode joint -n "Head_Jnt" -p "NeckTip_Jnt";
	rename -uid "5EA31C8C-4588-83F6-A47B-53AFEC342865";
	setAttr ".mnrl" -type "double3" -360 -360 -360 ;
	setAttr ".mxrl" -type "double3" 360 360 360 ;
	setAttr ".ssc" no;
createNode joint -n "HeadTip_Jnt" -p "Head_Jnt";
	rename -uid "DB32BC1E-44FC-4157-D63E-B488558A209A";
	setAttr ".t" -type "double3" 0 16.795633636171146 1.9806489671033791 ;
	setAttr ".mnrl" -type "double3" -360 -360 -360 ;
	setAttr ".mxrl" -type "double3" 360 360 360 ;
	setAttr ".ssc" no;
createNode joint -n "Hair_Jnt" -p "HeadTip_Jnt";
	rename -uid "31ABDB5D-4CF2-D029-1661-5881826C21A8";
	setAttr ".t" -type "double3" 0 -4.0572283464566965 0.55519966846249447 ;
	setAttr ".mnrl" -type "double3" -360 -360 -360 ;
	setAttr ".mxrl" -type "double3" 360 360 360 ;
	setAttr ".ssc" no;
createNode joint -n "Eye_L_Jnt" -p "Head_Jnt";
	rename -uid "86188571-4F49-C9AC-124B-A3AF6E4B3F88";
	setAttr ".t" -type "double3" 3.6432875394821167 5.2491288474184046 7.1086979437082789 ;
	setAttr ".mnrl" -type "double3" -360 -360 -360 ;
	setAttr ".mxrl" -type "double3" 360 360 360 ;
	setAttr ".ssc" no;
createNode joint -n "EyeDot_L_Jnt" -p "Eye_L_Jnt";
	rename -uid "7D9A885D-4F47-161E-3FC6-19A6D4640A1C";
	setAttr ".t" -type "double3" 0.95879813368289746 0.07498450816186164 2.8456326239619099 ;
	setAttr ".jo" -type "double3" 0 17.756513193737195 0.2180212917469827 ;
	setAttr ".ssc" no;
createNode joint -n "Eye_R_Jnt" -p "Head_Jnt";
	rename -uid "E1B7CD7F-42A8-7824-40EE-509E8144FCA0";
	setAttr ".t" -type "double3" -3.643 5.2491288474184046 7.1086979437082789 ;
	setAttr ".mnrl" -type "double3" -360 -360 -360 ;
	setAttr ".mxrl" -type "double3" 360 360 360 ;
	setAttr ".ssc" no;
createNode joint -n "EyeDot_R_Jnt" -p "Eye_R_Jnt";
	rename -uid "5BABFA1D-46D2-A41B-F777-70AD0CD4E1AF";
	setAttr ".t" -type "double3" -0.0067389476679555749 -0.011061943171597477 2.9378288173401081 ;
	setAttr ".jo" -type "double3" 0 -5.7049692238576037 0.21802129174698265 ;
	setAttr ".ssc" no;
createNode joint -n "Clav_R_Jnt" -p "Chest_Jnt";
	rename -uid "294E7994-4325-363D-00C2-4B8F66351062";
	setAttr ".t" -type "double3" -2.71531 18.441361641144368 2.0881754573264297 ;
	setAttr ".mnrl" -type "double3" -360 -360 -360 ;
	setAttr ".mxrl" -type "double3" 360 360 360 ;
	setAttr ".jo" -type "double3" -180 0 89.999999999999972 ;
	setAttr ".ssc" no;
createNode joint -n "ClavTip_R_Jnt" -p "Clav_R_Jnt";
	rename -uid "C140AD5C-46EB-E7D1-ABBD-3986225D4158";
	setAttr ".t" -type "double3" -2.2479999999999905 -12.02019 6.6191200000000006 ;
	setAttr ".mnrl" -type "double3" -360 -360 -360 ;
	setAttr ".mxrl" -type "double3" 360 360 360 ;
	setAttr ".ssc" no;
createNode joint -n "UpArm_R_Jnt" -p "ClavTip_R_Jnt";
	rename -uid "06677A3A-4204-A29E-5A74-3887E4E36FF0";
	setAttr ".t" -type "double3" 0 1.7763568394002505e-015 1.3322676295501878e-015 ;
	setAttr ".mnrl" -type "double3" -360 -360 -360 ;
	setAttr ".mxrl" -type "double3" 360 360 360 ;
	setAttr ".ssc" no;
createNode joint -n "Forearm_R_Jnt" -p "UpArm_R_Jnt";
	rename -uid "A38CCA0F-41F7-C0C8-6B6B-3C98C2A2EA47";
	setAttr ".t" -type "double3" -3.1263880373444408e-013 -26.703700000000069 2.9129200000000037 ;
	setAttr ".mnrl" -type "double3" -360 -360 -360 ;
	setAttr ".mxrl" -type "double3" 360 360 360 ;
	setAttr ".ssc" no;
createNode joint -n "Wrist_R_Jnt" -p "Forearm_R_Jnt";
	rename -uid "B24FBE53-42FC-BD6F-5288-518B1FD3AB64";
	setAttr ".t" -type "double3" 3.1263880373444408e-013 -29.119599999999913 -2.3275499999999969 ;
	setAttr ".mnrl" -type "double3" -360 -360 -360 ;
	setAttr ".mxrl" -type "double3" 360 360 360 ;
	setAttr ".ssc" no;
createNode joint -n "Hand_R_Jnt" -p "Wrist_R_Jnt";
	rename -uid "C6EDF1C0-4309-CD87-7891-5C895EC20C76";
	setAttr ".t" -type "double3" 0 -3.0980000000000132 0 ;
	setAttr ".mnrl" -type "double3" -360 -360 -360 ;
	setAttr ".mxrl" -type "double3" 360 360 360 ;
	setAttr ".ssc" no;
createNode joint -n "Thumb_1_R_Jnt" -p "Hand_R_Jnt";
	rename -uid "CCFA1489-4F99-197C-A943-C59478B45976";
	setAttr ".t" -type "double3" -1.6640000000000157 -0.76250000000000284 -3.3706869999999993 ;
	setAttr ".mnrl" -type "double3" -360 -360 -360 ;
	setAttr ".mxrl" -type "double3" 360 360 360 ;
	setAttr ".jo" -type "double3" 49.635647316054246 3.8743020100502465 -66.166112232762359 ;
	setAttr ".ssc" no;
createNode joint -n "Thumb_2_R_Jnt" -p "Thumb_1_R_Jnt";
	rename -uid "1699CE93-42A5-7130-3567-469B996EE0FB";
	setAttr ".t" -type "double3" 0.091976102591786457 -5.1226269873648675 0.17929338738883871 ;
	setAttr ".mnrl" -type "double3" -360 -360 -360 ;
	setAttr ".mxrl" -type "double3" 360 360 360 ;
	setAttr ".jo" -type "double3" -8.6493366816813086 6.5160515741535399 16.510193498695358 ;
	setAttr ".ssc" no;
createNode joint -n "Thumb_3_R_Jnt" -p "Thumb_2_R_Jnt";
	rename -uid "C9476150-4CA2-9902-222C-53ABE7AFC6BC";
	setAttr ".t" -type "double3" 0.00021803699482347838 -2.7561582423288158 0.51388417537731357 ;
	setAttr ".mnrl" -type "double3" -360 -360 -360 ;
	setAttr ".mxrl" -type "double3" 360 360 360 ;
	setAttr ".jo" -type "double3" -3.4778051267307282 0 0 ;
	setAttr ".ssc" no;
createNode joint -n "Thumb_4_R_Jnt" -p "Thumb_3_R_Jnt";
	rename -uid "6D248F6A-41B5-6CAD-608F-67BEF74BB666";
	setAttr ".t" -type "double3" -6.2449138454212516e-005 -3.9486569830231595 0.27394595620641127 ;
	setAttr ".mnrl" -type "double3" -360 -360 -360 ;
	setAttr ".mxrl" -type "double3" 360 360 360 ;
	setAttr ".ssc" no;
createNode joint -n "Index_1_R_Jnt" -p "Hand_R_Jnt";
	rename -uid "EE73880B-43A1-4BF0-654E-7FA3B5CB4E34";
	setAttr ".t" -type "double3" 0.060000000000002274 -1.1744999999999948 -3.9284499999999949 ;
	setAttr ".mnrl" -type "double3" -360 -360 -360 ;
	setAttr ".mxrl" -type "double3" 360 360 360 ;
	setAttr ".jo" -type "double3" 0 -89.999999999999972 0 ;
	setAttr ".ssc" no;
createNode joint -n "Index_2_R_Jnt" -p "Index_1_R_Jnt";
	rename -uid "DD7D2808-49A7-A14E-C806-49ABC15C565C";
	setAttr ".t" -type "double3" -4.163336342344337e-015 -5.0751999999999953 -0.0079999999999813554 ;
	setAttr ".mnrl" -type "double3" -360 -360 -360 ;
	setAttr ".mxrl" -type "double3" 360 360 360 ;
	setAttr ".ssc" no;
createNode joint -n "Index_3_R_Jnt" -p "Index_2_R_Jnt";
	rename -uid "79591BD9-44ED-2E04-2111-DDBB79962904";
	setAttr ".t" -type "double3" 4.4408920985006262e-016 -4.9784000000000077 0.057999999999992724 ;
	setAttr ".mnrl" -type "double3" -360 -360 -360 ;
	setAttr ".mxrl" -type "double3" 360 360 360 ;
	setAttr ".ssc" no;
createNode joint -n "Index_4_R_Jnt" -p "Index_3_R_Jnt";
	rename -uid "A538DCC5-489B-A8F4-60CF-80AD833B38C2";
	setAttr ".t" -type "double3" 2.9143354396410359e-016 -2.5802000000000049 0.054000000000002046 ;
	setAttr ".mnrl" -type "double3" -360 -360 -360 ;
	setAttr ".mxrl" -type "double3" 360 360 360 ;
	setAttr ".ssc" no;
createNode joint -n "Index_5_R_Jnt" -p "Index_4_R_Jnt";
	rename -uid "1A75ABB5-46CA-25AF-0B5D-129D7703E141";
	setAttr ".t" -type "double3" 3.7470027081099033e-016 -3.1611999999999938 0 ;
	setAttr ".mnrl" -type "double3" -360 -360 -360 ;
	setAttr ".mxrl" -type "double3" 360 360 360 ;
	setAttr ".ssc" no;
createNode joint -n "Middle_1_R_Jnt" -p "Hand_R_Jnt";
	rename -uid "D93C8700-4258-9435-D22E-88AD0D1C156E";
	setAttr ".t" -type "double3" 1.2459999999999809 -1.3810999999999893 -1.2399299999999989 ;
	setAttr ".mnrl" -type "double3" -360 -360 -360 ;
	setAttr ".mxrl" -type "double3" 360 360 360 ;
	setAttr ".jo" -type "double3" 0 -89.999999999999972 0 ;
	setAttr ".ssc" no;
createNode joint -n "Middle_2_R_Jnt" -p "Middle_1_R_Jnt";
	rename -uid "A5B64FB2-44AA-9C7C-6D1C-899DC0FBBD1E";
	setAttr ".t" -type "double3" -4.4408920985006262e-016 -5.1108000000000118 0.70499999999998408 ;
	setAttr ".mnrl" -type "double3" -360 -360 -360 ;
	setAttr ".mxrl" -type "double3" 360 360 360 ;
	setAttr ".ssc" no;
createNode joint -n "Middle_3_R_Jnt" -p "Middle_2_R_Jnt";
	rename -uid "0850DE6C-49D1-FF10-0C04-71BE83B65756";
	setAttr ".t" -type "double3" 8.8817841970012523e-016 -4.9294999999999902 0.13100000000000023 ;
	setAttr ".mnrl" -type "double3" -360 -360 -360 ;
	setAttr ".mxrl" -type "double3" 360 360 360 ;
	setAttr ".ssc" no;
createNode joint -n "Middle_4_R_Jnt" -p "Middle_3_R_Jnt";
	rename -uid "72825C46-4B68-9832-3CD5-6CA4E54E614C";
	setAttr ".t" -type "double3" 4.4408920985006262e-016 -2.5637000000000114 0.10500000000001819 ;
	setAttr ".mnrl" -type "double3" -360 -360 -360 ;
	setAttr ".mxrl" -type "double3" 360 360 360 ;
	setAttr ".ssc" no;
createNode joint -n "Middle_5_R_Jnt" -p "Middle_4_R_Jnt";
	rename -uid "FC95ABE5-4019-E6DF-2EB6-EDB6517E0300";
	setAttr ".t" -type "double3" 4.4408920985006262e-016 -3.3059999999999974 0 ;
	setAttr ".mnrl" -type "double3" -360 -360 -360 ;
	setAttr ".mxrl" -type "double3" 360 360 360 ;
	setAttr ".ssc" no;
createNode joint -n "Ring_1_R_Jnt" -p "Hand_R_Jnt";
	rename -uid "5545277A-4334-EF0C-70F4-76B80EE31258";
	setAttr ".t" -type "double3" 1.2019999999999982 -1.2506999999999948 1.55506 ;
	setAttr ".mnrl" -type "double3" -360 -360 -360 ;
	setAttr ".mxrl" -type "double3" 360 360 360 ;
	setAttr ".jo" -type "double3" -89.999999999997939 -88.767292776978366 89.999999999998238 ;
	setAttr ".ssc" no;
createNode joint -n "Ring_2_R_Jnt" -p "Ring_1_R_Jnt";
	rename -uid "7D12F64F-408E-F02D-B49C-F7A476CFB96F";
	setAttr ".t" -type "double3" 0.03966149100976768 -5.1553463675811741 0.64200000000005275 ;
	setAttr ".mnrl" -type "double3" -360 -360 -360 ;
	setAttr ".mxrl" -type "double3" 360 360 360 ;
	setAttr ".ssc" no;
createNode joint -n "Ring_3_R_Jnt" -p "Ring_2_R_Jnt";
	rename -uid "83969312-4557-EF5B-9EA6-3B9FCBAE9EEE";
	setAttr ".t" -type "double3" -0.039652274719050862 -4.3077439150915353 0.29800000000000182 ;
	setAttr ".mnrl" -type "double3" -360 -360 -360 ;
	setAttr ".mxrl" -type "double3" 360 360 360 ;
	setAttr ".jo" -type "double3" -2.6802426687743566 0 0 ;
	setAttr ".ssc" no;
createNode joint -n "Ring_4_R_Jnt" -p "Ring_3_R_Jnt";
	rename -uid "B3E9C05C-430C-07B4-A252-2199C7874237";
	setAttr ".t" -type "double3" -3.4235241699320795e-006 -2.3325530403051289 0.041971068029710068 ;
	setAttr ".mnrl" -type "double3" -360 -360 -360 ;
	setAttr ".mxrl" -type "double3" 360 360 360 ;
	setAttr ".ssc" no;
createNode joint -n "Ring_5_R_Jnt" -p "Ring_4_R_Jnt";
	rename -uid "C5B6ADF0-4645-C1CE-FA10-A2BCE651CEE6";
	setAttr ".t" -type "double3" 1.7168799817390834e-006 -3.1517054459001628 0.0006206281148877224 ;
	setAttr ".mnrl" -type "double3" -360 -360 -360 ;
	setAttr ".mxrl" -type "double3" 360 360 360 ;
	setAttr ".ssc" no;
createNode joint -n "Pinky_1_R_Jnt" -p "Hand_R_Jnt";
	rename -uid "35840CCC-4AF4-7F0B-F881-2BB6DA9A9CBD";
	setAttr ".t" -type "double3" 0.57699999999999818 -0.53319999999999368 4.30409 ;
	setAttr ".mnrl" -type "double3" -360 -360 -360 ;
	setAttr ".mxrl" -type "double3" 360 360 360 ;
	setAttr ".jo" -type "double3" 0 -89.999999999999972 0 ;
	setAttr ".ssc" no;
createNode joint -n "Pinky_2_R_Jnt" -p "Pinky_1_R_Jnt";
	rename -uid "AC99C26E-48E9-5ACC-2589-4DBB72AA828E";
	setAttr ".t" -type "double3" 1.7763568394002505e-014 -5.0704000000000065 0.24800000000001887 ;
	setAttr ".mnrl" -type "double3" -360 -360 -360 ;
	setAttr ".mxrl" -type "double3" 360 360 360 ;
	setAttr ".ssc" no;
createNode joint -n "Pinky_3_R_Jnt" -p "Pinky_2_R_Jnt";
	rename -uid "4F4910BB-4C42-0A3A-2023-D1A8852DAC20";
	setAttr ".t" -type "double3" 0 -3.3406999999999982 0.051999999999992497 ;
	setAttr ".mnrl" -type "double3" -360 -360 -360 ;
	setAttr ".mxrl" -type "double3" 360 360 360 ;
	setAttr ".jo" -type "double3" -2.2990150056171532 0 0 ;
	setAttr ".ssc" no;
createNode joint -n "Pinky_4_R_Jnt" -p "Pinky_3_R_Jnt";
	rename -uid "787026FF-4BBE-E802-B603-E5840C8B2B63";
	setAttr ".t" -type "double3" -1.9539925233402755e-014 -1.5839933962114969 0.00045908430240615417 ;
	setAttr ".mnrl" -type "double3" -360 -360 -360 ;
	setAttr ".mxrl" -type "double3" 360 360 360 ;
	setAttr ".ssc" no;
createNode joint -n "Pinky_5_R_Jnt" -p "Pinky_4_R_Jnt";
	rename -uid "26EF7568-458C-F2F9-FF09-B5B5DFD74A49";
	setAttr ".t" -type "double3" 1.7763568394002505e-015 -2.8064356939216282 -0.00057955382195018501 ;
	setAttr ".mnrl" -type "double3" -360 -360 -360 ;
	setAttr ".mxrl" -type "double3" 360 360 360 ;
	setAttr ".ssc" no;
createNode joint -n "ShoulderPad_R_Jnt" -p "UpArm_R_Jnt";
	rename -uid "C52C142E-4B1C-02A7-208A-6EAAA1ADEC0B";
	setAttr ".t" -type "double3" 7.5678238855928441 -6.2742000000000022 8.8817841970012523e-016 ;
	setAttr ".mnrl" -type "double3" -360 -360 -360 ;
	setAttr ".mxrl" -type "double3" 360 360 360 ;
	setAttr ".jo" -type "double3" 1.4124500153760508e-030 0 0 ;
	setAttr ".ssc" no;
createNode joint -n "ShoulderPadTip_R_Jnt" -p "ShoulderPad_R_Jnt";
	rename -uid "6D29F05F-43D8-0AD8-8D3E-C0946A2FAE19";
	setAttr ".t" -type "double3" 0 -8.2002000000000024 8.8817841970012523e-016 ;
	setAttr ".mnrl" -type "double3" -360 -360 -360 ;
	setAttr ".mxrl" -type "double3" 360 360 360 ;
	setAttr ".ssc" no;
createNode joint -n "ShoulderPadRbnAPost_R_Jnt" -p "ShoulderPad_R_Jnt";
	rename -uid "002B5DDD-4475-EB53-61B9-78BAB8C60D0E";
	setAttr ".t" -type "double3" -3.1696981201171752 0.41569632263183465 -4.0930250361251836 ;
	setAttr ".mnrl" -type "double3" -360 -360 -360 ;
	setAttr ".mxrl" -type "double3" 360 360 360 ;
	setAttr ".jo" -type "double3" 180 7.0167092985348752e-015 89.999999999999972 ;
	setAttr ".ssc" no;
createNode joint -n "ShoulderPadRbnCPost_R_Jnt" -p "ShoulderPad_R_Jnt";
	rename -uid "8AD1C4B2-4881-9771-CA5E-B2BEF3615C3C";
	setAttr ".t" -type "double3" -1.4080404052734252 1.4699565765380846 6.8529539630126948 ;
	setAttr ".mnrl" -type "double3" -360 -360 -360 ;
	setAttr ".mxrl" -type "double3" 360 360 360 ;
	setAttr ".jo" -type "double3" 180 7.0167092985348752e-015 89.999999999999972 ;
	setAttr ".ssc" no;
createNode joint -n "ShoulderPadRbnBPost_L_Jnt" -p "Chest_Jnt";
	rename -uid "E2D47F75-4BFB-B455-C2C2-D7A13D8C1A97";
	setAttr ".t" -type "double3" 14.892441749572754 15.098811625370047 2.8762073426261123 ;
	setAttr ".mnrl" -type "double3" -360 -360 -360 ;
	setAttr ".mxrl" -type "double3" 360 360 360 ;
	setAttr ".ssc" no;
createNode joint -n "ShoulderPadRbnDPost_L_Jnt" -p "Chest_Jnt";
	rename -uid "DE44216D-4DBC-1967-CB82-E5BD2FE0E072";
	setAttr ".t" -type "double3" 13.738205909729004 16.512721537479422 -12.356408843515855 ;
	setAttr ".mnrl" -type "double3" -360 -360 -360 ;
	setAttr ".mxrl" -type "double3" 360 360 360 ;
	setAttr ".ssc" no;
createNode joint -n "ShoulderPadRbnBPost_R_Jnt" -p "Chest_Jnt";
	rename -uid "27DC7C9E-4E19-AB31-9DED-4AABB44DAD3F";
	setAttr ".t" -type "double3" -14.929186820983887 15.124598978885672 2.8629259972586807 ;
	setAttr ".mnrl" -type "double3" -360 -360 -360 ;
	setAttr ".mxrl" -type "double3" 360 360 360 ;
	setAttr ".ssc" no;
createNode joint -n "ShoulderPadRbnDPost_R_Jnt" -p "Chest_Jnt";
	rename -uid "FFE1B6DC-47EF-C11D-3A56-49A5316CC930";
	setAttr ".t" -type "double3" -13.485980987548828 16.319072245487234 -12.339794883249741 ;
	setAttr ".mnrl" -type "double3" -360 -360 -360 ;
	setAttr ".mxrl" -type "double3" 360 360 360 ;
	setAttr ".ssc" no;
createNode joint -n "Pelvis_Jnt" -p "Root_Jnt";
	rename -uid "CD655757-4E0F-B206-1589-A2B109A01CB1";
	setAttr ".t" -type "double3" 0 -0.68140400313157556 0 ;
	setAttr ".mnrl" -type "double3" -360 -360 -360 ;
	setAttr ".mxrl" -type "double3" 360 360 360 ;
	setAttr ".ssc" no;
createNode joint -n "UpLeg_L_Jnt" -p "Pelvis_Jnt";
	rename -uid "6DCD1E35-4C79-B7E1-824F-6EBAF5180681";
	setAttr ".t" -type "double3" 9.0426916934414443 -5.9882571579396711 -0.47290949247066338 ;
	setAttr ".mnrl" -type "double3" -360 -360 -360 ;
	setAttr ".mxrl" -type "double3" 360 360 360 ;
	setAttr ".jo" -type "double3" 1.4375275691812837 0 -180 ;
	setAttr ".ssc" no;
createNode joint -n "LowLeg_L_Jnt" -p "UpLeg_L_Jnt";
	rename -uid "8A9B0ECA-4181-653C-3BF3-8D893D3FE793";
	setAttr ".t" -type "double3" 4.4408920985006262e-014 40.714896955186298 -2.5108449552004943 ;
	setAttr ".mnrl" -type "double3" -360 -360 -360 ;
	setAttr ".mxrl" -type "double3" 360 360 360 ;
	setAttr ".jo" -type "double3" -6.2400756029855939 0 0 ;
	setAttr ".ssc" no;
createNode joint -n "Ankle_L_Jnt" -p "LowLeg_L_Jnt";
	rename -uid "E127B856-4D1B-4F47-C62C-1096D3279BE8";
	setAttr ".t" -type "double3" 0 43.488721422667425 -1.7686484845854702 ;
	setAttr ".mnrl" -type "double3" -360 -360 -360 ;
	setAttr ".mxrl" -type "double3" 360 360 360 ;
	setAttr ".jo" -type "double3" 4.8023218334837221 0 0 ;
	setAttr ".ssc" no;
createNode joint -n "Ball_L_Jnt" -p "Ankle_L_Jnt";
	rename -uid "BD3D8F4C-4288-B0EF-14A6-CFA9EF1E26F5";
	setAttr ".t" -type "double3" 8.1712414612411521e-014 8.2514888656103764 11.447026700977535 ;
	setAttr ".mnrl" -type "double3" -360 -360 -360 ;
	setAttr ".mxrl" -type "double3" 360 360 360 ;
	setAttr ".jo" -type "double3" 90.000226200320554 0 0 ;
	setAttr ".ssc" no;
createNode joint -n "Toe_L_Jnt" -p "Ball_L_Jnt";
	rename -uid "FBE9DEB7-4C9A-196B-C02E-53A24C022A8C";
	setAttr ".t" -type "double3" -1.7763568394002505e-015 7.5646445095937533 -2.8230014002273999e-014 ;
	setAttr ".mnrl" -type "double3" -360 -360 -360 ;
	setAttr ".mxrl" -type "double3" 360 360 360 ;
	setAttr ".ssc" no;
createNode joint -n "Knife_Jnt" -p "UpLeg_L_Jnt";
	rename -uid "A9F36DB5-4E5D-3B09-894F-C2A52F2B1527";
	setAttr ".t" -type "double3" -9.4468331724841246 18.346436456613048 0.69002349687019127 ;
	setAttr ".mnrl" -type "double3" -360 -360 -360 ;
	setAttr ".mxrl" -type "double3" 360 360 360 ;
	setAttr ".jo" -type "double3" 3.3722226408351719 -12.659458392265286 176.90486611056187 ;
	setAttr ".ssc" no;
createNode joint -n "UpLeg_R_Jnt" -p "Pelvis_Jnt";
	rename -uid "5223B5C7-4FD4-D381-A53E-3FA7EEE7ADF7";
	setAttr ".t" -type "double3" -9.04269 -5.988226952791436 -0.47290940089800393 ;
	setAttr ".mnrl" -type "double3" -360 -360 -360 ;
	setAttr ".mxrl" -type "double3" 360 360 360 ;
	setAttr ".jo" -type "double3" 1.4375275691814602 180 0 ;
	setAttr ".ssc" no;
createNode joint -n "LowLeg_R_Jnt" -p "UpLeg_R_Jnt";
	rename -uid "57A11325-4DAA-6B9B-18E6-7C9B7E1DC9CC";
	setAttr ".t" -type "double3" 0 -40.714924615083483 2.5108457941974045 ;
	setAttr ".mnrl" -type "double3" -360 -360 -360 ;
	setAttr ".mxrl" -type "double3" 360 360 360 ;
	setAttr ".jo" -type "double3" -6.2400756029858258 0 0 ;
	setAttr ".ssc" no;
createNode joint -n "Ankle_R_Jnt" -p "LowLeg_R_Jnt";
	rename -uid "4FA74441-4F8F-72AE-8EF9-37B2E820B80C";
	setAttr ".t" -type "double3" -1.9539925233402755e-014 -43.488728019831072 1.7686482859348942 ;
	setAttr ".mnrl" -type "double3" -360 -360 -360 ;
	setAttr ".mxrl" -type "double3" 360 360 360 ;
	setAttr ".jo" -type "double3" 4.8023218334837727 0 0 ;
	setAttr ".ssc" no;
createNode joint -n "Ball_R_Jnt" -p "Ankle_R_Jnt";
	rename -uid "DCAFFB3F-4679-B827-5F35-D3B43C496BB4";
	setAttr ".t" -type "double3" 1.7763568394002505e-014 -8.2514848079018162 -11.447022576459137 ;
	setAttr ".mnrl" -type "double3" -360 -360 -360 ;
	setAttr ".mxrl" -type "double3" 360 360 360 ;
	setAttr ".jo" -type "double3" 90.000226200320554 0 0 ;
	setAttr ".ssc" no;
createNode joint -n "Toe_R_Jnt" -p "Ball_R_Jnt";
	rename -uid "A92B4C45-4305-8D1C-DCF7-BBA2AF487703";
	setAttr ".t" -type "double3" -1.7763568394002505e-015 -7.5646800000000054 -1.1383109419137557e-014 ;
	setAttr ".mnrl" -type "double3" -360 -360 -360 ;
	setAttr ".mxrl" -type "double3" 360 360 360 ;
	setAttr ".ssc" no;
createNode joint -n "Belt_Jnt" -p "Root_Jnt";
	rename -uid "F71E3A83-42DC-3283-C3B6-7DB85B144CE9";
	setAttr ".t" -type "double3" 0 -0.33775270980439132 0 ;
	setAttr ".mnrl" -type "double3" -360 -360 -360 ;
	setAttr ".mxrl" -type "double3" 360 360 360 ;
	setAttr ".ssc" no;
createNode joint -n "HeadBeltA_Jnt" -p "Belt_Jnt";
	rename -uid "321731FD-4C8C-52A9-80C9-3AB9E8917CD8";
	setAttr ".t" -type "double3" -0.0029237762842315718 1.7114372608852477 12.191963658419489 ;
	setAttr ".mnrl" -type "double3" -360 -360 -360 ;
	setAttr ".mxrl" -type "double3" 360 360 360 ;
	setAttr ".ssc" no;
createNode joint -n "HeadBeltB_Jnt" -p "Belt_Jnt";
	rename -uid "515D6D74-43E9-BA92-EB17-B19CDE1FC294";
	setAttr ".t" -type "double3" 9.5565725587439267 2.5304316603822912 8.5287435532921023 ;
	setAttr ".mnrl" -type "double3" -360 -360 -360 ;
	setAttr ".mxrl" -type "double3" 360 360 360 ;
	setAttr ".jo" -type "double3" 0 41.662915825745891 0 ;
	setAttr ".ssc" no;
createNode joint -n "BagA_Jnt" -p "Belt_Jnt";
	rename -uid "ED20773C-46FD-5EB3-DC3D-D0B9BB4A6A0A";
	setAttr ".t" -type "double3" -15.031201615971147 1.5084909906124011 1.0671744879322227 ;
	setAttr ".mnrl" -type "double3" -360 -360 -360 ;
	setAttr ".mxrl" -type "double3" 360 360 360 ;
	setAttr ".jo" -type "double3" 15.494532625852115 -81.721814688489388 -22.913955575135191 ;
	setAttr ".ssc" no;
createNode joint -n "BagB_Jnt" -p "Belt_Jnt";
	rename -uid "B95BEFA4-454D-DDD3-FAE1-DCB60D5B8F66";
	setAttr ".t" -type "double3" 13.680070877075195 2.3551462045649743 1.1152950693015811 ;
	setAttr ".mnrl" -type "double3" -360 -360 -360 ;
	setAttr ".mxrl" -type "double3" 360 360 360 ;
	setAttr ".jo" -type "double3" 17.398646736974836 84.03851119333531 30.239621808343671 ;
	setAttr ".ssc" no;
createNode joint -n "BagC_Jnt" -p "Belt_Jnt";
	rename -uid "2211E0FD-44D7-6F2B-DC35-4992E84F464A";
	setAttr ".t" -type "double3" -10.160273904788841 2.5514830071971204 8.8804632193365158 ;
	setAttr ".mnrl" -type "double3" -360 -360 -360 ;
	setAttr ".mxrl" -type "double3" 360 360 360 ;
	setAttr ".jo" -type "double3" 0.69627158345895379 -36.787664808819571 -0.066279072753797089 ;
	setAttr ".ssc" no;
createNode joint -n "Flashlight_Jnt" -p "Belt_Jnt";
	rename -uid "987C1F2C-4B0D-49CA-59B7-6E9E7BF3360C";
	setAttr ".t" -type "double3" 13.190594740379003 2.9268419761601336 -7.1475726269384774 ;
	setAttr ".mnrl" -type "double3" -360 -360 -360 ;
	setAttr ".mxrl" -type "double3" 360 360 360 ;
	setAttr ".jo" -type "double3" 169.05696692783621 54.783141403703908 177.00569040571878 ;
	setAttr ".ssc" no;
createNode joint -n "Axe_Jnt" -p "Belt_Jnt";
	rename -uid "FC46BF3A-44E2-8ABC-29F3-6CA1C01ABF8A";
	setAttr ".t" -type "double3" -8.2869104266301186 2.8241183791715798 -12.422830370292511 ;
	setAttr ".mnrl" -type "double3" -360 -360 -360 ;
	setAttr ".mxrl" -type "double3" 360 360 360 ;
	setAttr ".jo" -type "double3" 171.30111605717704 -13.106433563733061 178.61767951508543 ;
	setAttr ".ssc" no;
createNode joint -n "Rope_Jnt" -p "Belt_Jnt";
	rename -uid "85B63E04-4453-94B9-D007-C68D65D5C73A";
	setAttr ".t" -type "double3" -13.48743921042295 2.6683362521780793 -6.2639212390633681 ;
	setAttr ".mnrl" -type "double3" -360 -360 -360 ;
	setAttr ".mxrl" -type "double3" 360 360 360 ;
	setAttr ".jo" -type "double3" 161.22225936566099 -63.58514699399791 -178.37440034452285 ;
	setAttr ".ssc" no;
createNode joint -n "RopeA_Jnt" -p "Belt_Jnt";
	rename -uid "F72AAF61-4B4F-ABE5-2FB9-9B95C7A9A883";
	setAttr ".t" -type "double3" -14.867479868398956 -1.0480048465722547 1.5747908602498235 ;
	setAttr ".mnrl" -type "double3" -360 -360 -360 ;
	setAttr ".mxrl" -type "double3" 360 360 360 ;
	setAttr ".jo" -type "double3" 4.6539292570770998 -77.910043892398676 -17.92569426590109 ;
	setAttr ".ssc" no;
createNode lightLinker -s -n "lightLinker1";
	rename -uid "AAFE43CC-4A25-FB9C-F5C6-B0A64E35D435";
	setAttr -s 214 ".lnk";
	setAttr -s 214 ".slnk";
createNode displayLayerManager -n "layerManager";
	rename -uid "A9796254-4103-4D0C-3E70-4DBDD401A5AD";
	setAttr -s 2 ".dli[1]"  1;
createNode displayLayer -n "defaultLayer";
	rename -uid "5078BCE1-4B0C-380A-5706-078D9E1DFF64";
createNode renderLayerManager -n "renderLayerManager";
	rename -uid "35CBB92F-4DB9-3BD0-A1F3-EBBEC23DBF13";
createNode renderLayer -n "defaultRenderLayer";
	rename -uid "D53F8744-4D9C-FC0D-9D33-6EBE6E3A51D5";
	setAttr ".g" yes;
createNode shapeEditorManager -n "shapeEditorManager";
	rename -uid "97BC1F9F-4C08-ED12-EF63-7F829B6B6A2B";
createNode poseInterpolatorManager -n "poseInterpolatorManager";
	rename -uid "500780D5-4065-6E05-350E-9A8EC19843E8";
createNode renderLayerManager -n "renderLayerManager1";
	rename -uid "5258AD32-445B-FC50-BD97-5DAD823D496D";
createNode renderLayer -n "defaultRenderLayer1";
	rename -uid "8ACDCA7D-4119-BB24-9DFE-07AD21FD2C76";
	setAttr ".g" yes;
createNode groupId -n "weapon_groupId37";
	rename -uid "A4AD4BD6-4BE1-0E90-5292-42B60A796CC5";
	setAttr ".ihi" 0;
createNode groupId -n "groupId37";
	rename -uid "820684E5-49EC-3F9D-04B0-3DB59BFA3314";
	setAttr ".ihi" 0;
createNode groupId -n "weapon_groupId38";
	rename -uid "1A794313-4868-829B-0763-D6999640C3E5";
	setAttr ".ihi" 0;
createNode groupId -n "groupId38";
	rename -uid "86045AF5-4F74-B858-E3C7-05BE84E4E899";
	setAttr ".ihi" 0;
createNode groupId -n "weapon_groupId42";
	rename -uid "2CF5C6AA-4478-0A69-FBE9-5986582DDF42";
	setAttr ".ihi" 0;
createNode groupId -n "groupId757";
	rename -uid "39D843D5-444F-28A3-F11E-BCA058FB29F2";
	setAttr ".ihi" 0;
createNode groupId -n "weapon_groupId43";
	rename -uid "1887863B-4C25-4A6C-AFD9-EB816DD76319";
	setAttr ".ihi" 0;
createNode groupId -n "groupId44";
	rename -uid "DFAA2FFF-46FA-9EBC-2D23-40944E045DC8";
	setAttr ".ihi" 0;
createNode groupId -n "weapon_groupId44";
	rename -uid "AC653BE0-4939-8ECD-056F-6AAF67C5DE13";
	setAttr ".ihi" 0;
createNode groupId -n "groupId760";
	rename -uid "F5B1583F-43C0-C8F2-9276-76845AB672B1";
	setAttr ".ihi" 0;
createNode groupId -n "weapon_groupId45";
	rename -uid "72D06356-419D-78DB-42D5-4CA07B8F5D0F";
	setAttr ".ihi" 0;
createNode groupId -n "groupId761";
	rename -uid "6A282D56-4B81-E72B-88BC-DBB7E95EA346";
	setAttr ".ihi" 0;
createNode groupId -n "tvc_leatherhead_79121_uv_weapon_groupId37";
	rename -uid "D6E5F8BF-4510-94D5-31C2-5D8DFD679F9A";
	setAttr ".ihi" 0;
createNode groupId -n "tvc_leatherhead_79121_uv_groupId37";
	rename -uid "A6277B8A-43DC-F463-0B8D-BE9FA8F25157";
	setAttr ".ihi" 0;
createNode groupId -n "tvc_leatherhead_79121_uv_weapon_groupId38";
	rename -uid "B1AF9137-4946-41F4-3884-5389491301B2";
	setAttr ".ihi" 0;
createNode groupId -n "tvc_leatherhead_79121_uv_groupId38";
	rename -uid "2B138372-4831-0AAC-FB0D-D59BEDA63C00";
	setAttr ".ihi" 0;
createNode groupId -n "tvc_leatherhead_79121_uv_weapon_groupId39";
	rename -uid "00070130-4194-3B45-10EF-2D95D6131FF1";
	setAttr ".ihi" 0;
createNode groupId -n "tvc_leatherhead_79121_uv_groupId168";
	rename -uid "13AB04A3-4CF2-DD02-EEED-69A243447DE7";
	setAttr ".ihi" 0;
createNode groupId -n "tvc_leatherhead_79121_uv_weapon_groupId40";
	rename -uid "35797067-42C8-066A-99E2-4392413CAAA6";
	setAttr ".ihi" 0;
createNode groupId -n "tvc_leatherhead_79121_uv_groupId169";
	rename -uid "FE8E28BC-40AD-B3AF-A62D-4E83C756B37F";
	setAttr ".ihi" 0;
createNode groupId -n "weapon_groupId39";
	rename -uid "7B8D5A33-4FEB-57E8-3E24-6A96681BDA88";
	setAttr ".ihi" 0;
createNode groupId -n "groupId750";
	rename -uid "606DF930-495B-1490-8F2D-A4B824CC7DCE";
	setAttr ".ihi" 0;
createNode groupId -n "weapon_groupId40";
	rename -uid "E903E7CA-4772-0058-3420-B78E9075AD70";
	setAttr ".ihi" 0;
createNode groupId -n "groupId751";
	rename -uid "D5F13973-49E2-BA97-980B-8AB1A366B556";
	setAttr ".ihi" 0;
createNode groupId -n "weapon_groupId41";
	rename -uid "7FA07A0E-4406-0F50-2BB0-2FB19CB9A2D2";
	setAttr ".ihi" 0;
createNode groupId -n "groupId754";
	rename -uid "66F49A3C-40FD-0097-FD91-258EAF9B0011";
	setAttr ".ihi" 0;
createNode script -n "sceneConfigurationScriptNode1";
	rename -uid "3A7F8F19-44E9-93D3-7B0B-87B32784D7B1";
	setAttr ".b" -type "string" "playbackOptions -min 1 -max 120 -ast 1 -aet 200 ";
	setAttr ".st" 6;
select -ne :time1;
	setAttr -av -k on ".cch";
	setAttr -av -cb on ".ihi";
	setAttr -av -k on ".nds";
	setAttr -cb on ".bnm";
	setAttr -k on ".o" 1;
	setAttr -av -k on ".unw" 1;
	setAttr -k on ".etw";
	setAttr -k on ".tps";
	setAttr -av -k on ".tms";
select -ne :hardwareRenderingGlobals;
	setAttr ".otfna" -type "stringArray" 22 "NURBS Curves" "NURBS Surfaces" "Polygons" "Subdiv Surface" "Particles" "Particle Instance" "Fluids" "Strokes" "Image Planes" "UI" "Lights" "Cameras" "Locators" "Joints" "IK Handles" "Deformers" "Motion Trails" "Components" "Hair Systems" "Follicles" "Misc. UI" "Ornaments"  ;
	setAttr ".otfva" -type "Int32Array" 22 0 1 1 1 1 1
		 1 1 1 0 0 0 0 0 0 0 0 0
		 0 0 0 0 ;
	setAttr -av ".aoam";
	setAttr -k on ".mbsof";
select -ne :renderPartition;
	setAttr -k on ".cch";
	setAttr -cb on ".ihi";
	setAttr -k on ".nds";
	setAttr -cb on ".bnm";
	setAttr -s 2 ".st";
	setAttr -cb on ".an";
	setAttr -cb on ".pt";
select -ne :renderGlobalsList1;
	setAttr -k on ".cch";
	setAttr -cb on ".ihi";
	setAttr -k on ".nds";
	setAttr -cb on ".bnm";
select -ne :defaultShaderList1;
	setAttr -k on ".cch";
	setAttr -cb on ".ihi";
	setAttr -k on ".nds";
	setAttr -cb on ".bnm";
	setAttr -s 4 ".s";
select -ne :postProcessList1;
	setAttr -k on ".cch";
	setAttr -cb on ".ihi";
	setAttr -k on ".nds";
	setAttr -cb on ".bnm";
	setAttr -s 2 ".p";
select -ne :defaultRenderingList1;
	setAttr -k on ".ihi";
	setAttr -s 2 ".r";
select -ne :initialShadingGroup;
	setAttr -av -k on ".cch";
	setAttr -cb on ".ihi";
	setAttr -av -k on ".nds";
	setAttr -cb on ".bnm";
	setAttr -k on ".mwc";
	setAttr -cb on ".an";
	setAttr -cb on ".il";
	setAttr -cb on ".vo";
	setAttr -cb on ".eo";
	setAttr -cb on ".fo";
	setAttr -cb on ".epo";
	setAttr -k on ".ro" yes;
	setAttr -s 26 ".gn";
select -ne :initialParticleSE;
	setAttr -av -k on ".cch";
	setAttr -cb on ".ihi";
	setAttr -av -k on ".nds";
	setAttr -cb on ".bnm";
	setAttr -k on ".mwc";
	setAttr -cb on ".an";
	setAttr -cb on ".il";
	setAttr -cb on ".vo";
	setAttr -cb on ".eo";
	setAttr -cb on ".fo";
	setAttr -cb on ".epo";
	setAttr -k on ".ro" yes;
select -ne :defaultResolution;
	setAttr -av -k on ".cch";
	setAttr -k on ".ihi";
	setAttr -av -k on ".nds";
	setAttr -k on ".bnm";
	setAttr -av -k on ".w";
	setAttr -av -k on ".h";
	setAttr -av -k on ".pa" 1;
	setAttr -av -k on ".al";
	setAttr -av -k on ".dar";
	setAttr -av -k on ".ldar";
	setAttr -av -k on ".dpi";
	setAttr -av -k on ".off";
	setAttr -av -k on ".fld";
	setAttr -av -k on ".zsl";
	setAttr -k on ".isu";
	setAttr -k on ".pdu";
select -ne :defaultColorMgtGlobals;
	setAttr ".cme" no;
select -ne :hardwareRenderGlobals;
	setAttr -k on ".cch";
	setAttr -cb on ".ihi";
	setAttr -k on ".nds";
	setAttr -cb on ".bnm";
	setAttr -k off -cb on ".ctrs" 256;
	setAttr -av -k off -cb on ".btrs" 512;
	setAttr -k off -cb on ".fbfm";
	setAttr -k off -cb on ".ehql";
	setAttr -k off -cb on ".eams";
	setAttr -k off -cb on ".eeaa";
	setAttr -k off -cb on ".engm";
	setAttr -k off -cb on ".mes";
	setAttr -k off -cb on ".emb";
	setAttr -av -k off -cb on ".mbbf";
	setAttr -k off -cb on ".mbs";
	setAttr -k off -cb on ".trm";
	setAttr -k off -cb on ".tshc";
	setAttr -k off -cb on ".enpt";
	setAttr -k off -cb on ".clmt";
	setAttr -k off -cb on ".tcov";
	setAttr -k off -cb on ".lith";
	setAttr -k off -cb on ".sobc";
	setAttr -k off -cb on ".cuth";
	setAttr -k off -cb on ".hgcd";
	setAttr -k off -cb on ".hgci";
	setAttr -k off -cb on ".mgcs";
	setAttr -k off -cb on ".twa";
	setAttr -k off -cb on ".twz";
	setAttr -cb on ".hwcc";
	setAttr -cb on ".hwdp";
	setAttr -cb on ".hwql";
	setAttr -k on ".hwfr";
	setAttr -k on ".soll";
	setAttr -k on ".sosl";
	setAttr -k on ".bswa";
	setAttr -k on ".shml";
	setAttr -k on ".hwel";
connectAttr "EyeTar_Jnt.s" "EyeTar_L_Jnt.is";
connectAttr "EyeTar_Jnt.s" "EyeTar_R_Jnt.is";
connectAttr "HeelPiv_L_Jnt.s" "FootOutPiv_L_Jnt.is";
connectAttr "HeelPiv_L_Jnt.s" "FootInPiv_L_Jnt.is";
connectAttr "HeelPiv_L_Jnt.s" "KneeIk_L_Jnt.is";
connectAttr "HeelPiv_L_Jnt.s" "ElbowIk_L_Jnt.is";
connectAttr "HeelPiv_R_Jnt.s" "FootOutPiv_R_Jnt.is";
connectAttr "HeelPiv_R_Jnt.s" "FootInPiv_R_Jnt.is";
connectAttr "HeelPiv_R_Jnt.s" "KneeIk_R_Jnt.is";
connectAttr "HeelPiv_R_Jnt.s" "ElbowIk_R_Jnt.is";
connectAttr "Root_Jnt.s" "Spine_Jnt.is";
connectAttr "Spine_Jnt.s" "SpineMid_Jnt.is";
connectAttr "SpineMid_Jnt.s" "Chest_Jnt.is";
connectAttr "Chest_Jnt.s" "Clav_L_Jnt.is";
connectAttr "Clav_L_Jnt.s" "ClavTip_L_Jnt.is";
connectAttr "ClavTip_L_Jnt.s" "UpArm_L_Jnt.is";
connectAttr "UpArm_L_Jnt.s" "Forearm_L_Jnt.is";
connectAttr "Forearm_L_Jnt.s" "Wrist_L_Jnt.is";
connectAttr "Wrist_L_Jnt.s" "Hand_L_Jnt.is";
connectAttr "Hand_L_Jnt.s" "Thumb_1_L_Jnt.is";
connectAttr "Thumb_1_L_Jnt.s" "Thumb_2_L_Jnt.is";
connectAttr "Thumb_2_L_Jnt.s" "Thumb_3_L_Jnt.is";
connectAttr "Thumb_3_L_Jnt.s" "Thumb_4_L_Jnt.is";
connectAttr "Hand_L_Jnt.s" "Index_1_L_Jnt.is";
connectAttr "Index_1_L_Jnt.s" "Index_2_L_Jnt.is";
connectAttr "Index_2_L_Jnt.s" "Index_3_L_Jnt.is";
connectAttr "Index_3_L_Jnt.s" "Index_4_L_Jnt.is";
connectAttr "Index_4_L_Jnt.s" "Index_5_L_Jnt.is";
connectAttr "Hand_L_Jnt.s" "Middle_1_L_Jnt.is";
connectAttr "Middle_1_L_Jnt.s" "Middle_2_L_Jnt.is";
connectAttr "Middle_2_L_Jnt.s" "Middle_3_L_Jnt.is";
connectAttr "Middle_3_L_Jnt.s" "Middle_4_L_Jnt.is";
connectAttr "Middle_4_L_Jnt.s" "Middle_5_L_Jnt.is";
connectAttr "Hand_L_Jnt.s" "Ring_1_L_Jnt.is";
connectAttr "Ring_1_L_Jnt.s" "Ring_2_L_Jnt.is";
connectAttr "Ring_2_L_Jnt.s" "Ring_3_L_Jnt.is";
connectAttr "Ring_3_L_Jnt.s" "Ring_4_L_Jnt.is";
connectAttr "Ring_4_L_Jnt.s" "Ring_5_L_Jnt.is";
connectAttr "Hand_L_Jnt.s" "Pinky_1_L_Jnt.is";
connectAttr "Pinky_1_L_Jnt.s" "Pinky_2_L_Jnt.is";
connectAttr "Pinky_2_L_Jnt.s" "Pinky_3_L_Jnt.is";
connectAttr "Pinky_3_L_Jnt.s" "Pinky_4_L_Jnt.is";
connectAttr "Pinky_4_L_Jnt.s" "Pinky_5_L_Jnt.is";
connectAttr "UpArm_L_Jnt.s" "ShoulderPad_L_Jnt.is";
connectAttr "ShoulderPad_L_Jnt.s" "ShoulderPadTip_L_Jnt.is";
connectAttr "ShoulderPad_L_Jnt.s" "ShoulderPadRbnAPost_L_Jnt.is";
connectAttr "ShoulderPad_L_Jnt.s" "ShoulderPadRbnCPost_L_Jnt.is";
connectAttr "Chest_Jnt.s" "ChestTip_Jnt.is";
connectAttr "ChestTip_Jnt.s" "Neck_Jnt.is";
connectAttr "Neck_Jnt.s" "NeckTip_Jnt.is";
connectAttr "NeckTip_Jnt.s" "Head_Jnt.is";
connectAttr "Head_Jnt.s" "HeadTip_Jnt.is";
connectAttr "HeadTip_Jnt.s" "Hair_Jnt.is";
connectAttr "Head_Jnt.s" "Eye_L_Jnt.is";
connectAttr "Eye_L_Jnt.s" "EyeDot_L_Jnt.is";
connectAttr "Head_Jnt.s" "Eye_R_Jnt.is";
connectAttr "Eye_R_Jnt.s" "EyeDot_R_Jnt.is";
connectAttr "Chest_Jnt.s" "Clav_R_Jnt.is";
connectAttr "Clav_R_Jnt.s" "ClavTip_R_Jnt.is";
connectAttr "ClavTip_R_Jnt.s" "UpArm_R_Jnt.is";
connectAttr "UpArm_R_Jnt.s" "Forearm_R_Jnt.is";
connectAttr "Forearm_R_Jnt.s" "Wrist_R_Jnt.is";
connectAttr "Wrist_R_Jnt.s" "Hand_R_Jnt.is";
connectAttr "Hand_R_Jnt.s" "Thumb_1_R_Jnt.is";
connectAttr "Thumb_1_R_Jnt.s" "Thumb_2_R_Jnt.is";
connectAttr "Thumb_2_R_Jnt.s" "Thumb_3_R_Jnt.is";
connectAttr "Thumb_3_R_Jnt.s" "Thumb_4_R_Jnt.is";
connectAttr "Hand_R_Jnt.s" "Index_1_R_Jnt.is";
connectAttr "Index_1_R_Jnt.s" "Index_2_R_Jnt.is";
connectAttr "Index_2_R_Jnt.s" "Index_3_R_Jnt.is";
connectAttr "Index_3_R_Jnt.s" "Index_4_R_Jnt.is";
connectAttr "Index_4_R_Jnt.s" "Index_5_R_Jnt.is";
connectAttr "Hand_R_Jnt.s" "Middle_1_R_Jnt.is";
connectAttr "Middle_1_R_Jnt.s" "Middle_2_R_Jnt.is";
connectAttr "Middle_2_R_Jnt.s" "Middle_3_R_Jnt.is";
connectAttr "Middle_3_R_Jnt.s" "Middle_4_R_Jnt.is";
connectAttr "Middle_4_R_Jnt.s" "Middle_5_R_Jnt.is";
connectAttr "Hand_R_Jnt.s" "Ring_1_R_Jnt.is";
connectAttr "Ring_1_R_Jnt.s" "Ring_2_R_Jnt.is";
connectAttr "Ring_2_R_Jnt.s" "Ring_3_R_Jnt.is";
connectAttr "Ring_3_R_Jnt.s" "Ring_4_R_Jnt.is";
connectAttr "Ring_4_R_Jnt.s" "Ring_5_R_Jnt.is";
connectAttr "Hand_R_Jnt.s" "Pinky_1_R_Jnt.is";
connectAttr "Pinky_1_R_Jnt.s" "Pinky_2_R_Jnt.is";
connectAttr "Pinky_2_R_Jnt.s" "Pinky_3_R_Jnt.is";
connectAttr "Pinky_3_R_Jnt.s" "Pinky_4_R_Jnt.is";
connectAttr "Pinky_4_R_Jnt.s" "Pinky_5_R_Jnt.is";
connectAttr "UpArm_R_Jnt.s" "ShoulderPad_R_Jnt.is";
connectAttr "ShoulderPad_R_Jnt.s" "ShoulderPadTip_R_Jnt.is";
connectAttr "ShoulderPad_R_Jnt.s" "ShoulderPadRbnAPost_R_Jnt.is";
connectAttr "ShoulderPad_R_Jnt.s" "ShoulderPadRbnCPost_R_Jnt.is";
connectAttr "Chest_Jnt.s" "ShoulderPadRbnBPost_L_Jnt.is";
connectAttr "Chest_Jnt.s" "ShoulderPadRbnDPost_L_Jnt.is";
connectAttr "Chest_Jnt.s" "ShoulderPadRbnBPost_R_Jnt.is";
connectAttr "Chest_Jnt.s" "ShoulderPadRbnDPost_R_Jnt.is";
connectAttr "Root_Jnt.s" "Pelvis_Jnt.is";
connectAttr "Pelvis_Jnt.s" "UpLeg_L_Jnt.is";
connectAttr "UpLeg_L_Jnt.s" "LowLeg_L_Jnt.is";
connectAttr "LowLeg_L_Jnt.s" "Ankle_L_Jnt.is";
connectAttr "Ankle_L_Jnt.s" "Ball_L_Jnt.is";
connectAttr "Ball_L_Jnt.s" "Toe_L_Jnt.is";
connectAttr "UpLeg_L_Jnt.s" "Knife_Jnt.is";
connectAttr "Pelvis_Jnt.s" "UpLeg_R_Jnt.is";
connectAttr "UpLeg_R_Jnt.s" "LowLeg_R_Jnt.is";
connectAttr "LowLeg_R_Jnt.s" "Ankle_R_Jnt.is";
connectAttr "Ankle_R_Jnt.s" "Ball_R_Jnt.is";
connectAttr "Ball_R_Jnt.s" "Toe_R_Jnt.is";
connectAttr "Root_Jnt.s" "Belt_Jnt.is";
relationship "link" ":lightLinker1" ":initialShadingGroup.message" ":defaultLightSet.message";
relationship "link" ":lightLinker1" ":initialParticleSE.message" ":defaultLightSet.message";
relationship "shadowLink" ":lightLinker1" ":initialShadingGroup.message" ":defaultLightSet.message";
relationship "shadowLink" ":lightLinker1" ":initialParticleSE.message" ":defaultLightSet.message";
connectAttr "layerManager.dli[0]" "defaultLayer.id";
connectAttr "renderLayerManager.rlmi[0]" "defaultRenderLayer.rlid";
connectAttr "renderLayerManager1.rlmi[0]" "defaultRenderLayer1.rlid";
connectAttr "defaultRenderLayer.msg" ":defaultRenderingList1.r" -na;
connectAttr "defaultRenderLayer1.msg" ":defaultRenderingList1.r" -na;
connectAttr "weapon_groupId37.msg" ":initialShadingGroup.gn" -na;
connectAttr "groupId37.msg" ":initialShadingGroup.gn" -na;
connectAttr "weapon_groupId38.msg" ":initialShadingGroup.gn" -na;
connectAttr "groupId38.msg" ":initialShadingGroup.gn" -na;
connectAttr "weapon_groupId42.msg" ":initialShadingGroup.gn" -na;
connectAttr "groupId757.msg" ":initialShadingGroup.gn" -na;
connectAttr "weapon_groupId43.msg" ":initialShadingGroup.gn" -na;
connectAttr "groupId44.msg" ":initialShadingGroup.gn" -na;
connectAttr "weapon_groupId44.msg" ":initialShadingGroup.gn" -na;
connectAttr "groupId760.msg" ":initialShadingGroup.gn" -na;
connectAttr "weapon_groupId45.msg" ":initialShadingGroup.gn" -na;
connectAttr "groupId761.msg" ":initialShadingGroup.gn" -na;
connectAttr "tvc_leatherhead_79121_uv_weapon_groupId37.msg" ":initialShadingGroup.gn"
		 -na;
connectAttr "tvc_leatherhead_79121_uv_groupId37.msg" ":initialShadingGroup.gn" -na
		;
connectAttr "tvc_leatherhead_79121_uv_weapon_groupId38.msg" ":initialShadingGroup.gn"
		 -na;
connectAttr "tvc_leatherhead_79121_uv_groupId38.msg" ":initialShadingGroup.gn" -na
		;
connectAttr "tvc_leatherhead_79121_uv_weapon_groupId39.msg" ":initialShadingGroup.gn"
		 -na;
connectAttr "tvc_leatherhead_79121_uv_groupId168.msg" ":initialShadingGroup.gn" 
		-na;
connectAttr "tvc_leatherhead_79121_uv_weapon_groupId40.msg" ":initialShadingGroup.gn"
		 -na;
connectAttr "tvc_leatherhead_79121_uv_groupId169.msg" ":initialShadingGroup.gn" 
		-na;
connectAttr "weapon_groupId39.msg" ":initialShadingGroup.gn" -na;
connectAttr "groupId750.msg" ":initialShadingGroup.gn" -na;
connectAttr "weapon_groupId40.msg" ":initialShadingGroup.gn" -na;
connectAttr "groupId751.msg" ":initialShadingGroup.gn" -na;
connectAttr "weapon_groupId41.msg" ":initialShadingGroup.gn" -na;
connectAttr "groupId754.msg" ":initialShadingGroup.gn" -na;
connectAttr ":perspShape.msg" ":defaultRenderGlobals.sc";
// End of characterTmp.ma
