//Maya ASCII 2017ff05 scene
//Name: SpiderGirl_Hair_XgS.ma
//Last modified: Sun, May 06, 2018 02:45:54 AM
//Codeset: 1252
requires maya "2017ff05";
requires -nodeType "hairPhysicalShader" "hairPhysicalShader" "1.0";
requires "stereoCamera" "10.0";
requires "arkMayaExporter_2013_5" "1.21.ma3.s2.me5.a7";
requires "PO_Reader_v2012_64" "1.0";
requires "pfOptions.py" "1.0";
requires "TurtleForMaya2009" "5.0.0.5";
currentUnit -l centimeter -a degree -t film;
fileInfo "application" "maya";
fileInfo "product" "Maya 2017";
fileInfo "version" "2017";
fileInfo "cutIdentifier" "201706020738-1017329";
fileInfo "osv" "Microsoft Windows 8 Home Premium Edition, 64-bit  (Build 9200)\n";
createNode hairPhysicalShader -n "SpiderGirl_Hair_XgS";
	rename -uid "1E6E0301-4B5D-65DB-B83C-CAAF284894C7";
	setAttr ".rcD" -type "float3" 0.021219049 0.010960327 0.061247341 ;
	setAttr ".tcD" -type "float3" 0.14413089 0.1301388 0.60383129 ;
	setAttr -l on ".ac";
	setAttr -l on ".incand";
	setAttr ".cR" -type "float3" 0.59401339 0.58598405 0.89600003 ;
	setAttr ".iR" 0.25;
	setAttr ".cTT" -type "float3" 0.34192038 0.40197501 1.0000241 ;
	setAttr -l on ".lsTT" -4;
	setAttr ".cTRT" -type "float3" 0.16826633 0.20507553 0.69388628 ;
	setAttr -l on ".cG" -type "float3" 0 0 0 ;
	setAttr -l on ".cG";
	setAttr -l on ".iG" 0;
	setAttr -l on ".asG" 0;
	setAttr -l on ".awG" 0;
createNode multiplyDivide -n "multiplyDivide2";
	rename -uid "ABF2E18F-4A8D-5FCE-C1BB-30A6629F2D2E";
	setAttr ".i2" -type "float3" 2.5 1 1 ;
select -ne :time1;
	setAttr -av -k on ".cch";
	setAttr -av -cb on ".ihi";
	setAttr -av -k on ".nds";
	setAttr -cb on ".bnm";
	setAttr -k on ".o" 1;
	setAttr -av -k on ".unw" 1;
	setAttr -k on ".etw";
	setAttr -av -k on ".tps";
	setAttr -av -k on ".tms";
select -ne :hardwareRenderingGlobals;
	setAttr -k on ".ihi";
	setAttr ".otfna" -type "stringArray" 22 "NURBS Curves" "NURBS Surfaces" "Polygons" "Subdiv Surface" "Particles" "Particle Instance" "Fluids" "Strokes" "Image Planes" "UI" "Lights" "Cameras" "Locators" "Joints" "IK Handles" "Deformers" "Motion Trails" "Components" "Hair Systems" "Follicles" "Misc. UI" "Ornaments"  ;
	setAttr ".otfva" -type "Int32Array" 22 0 1 1 1 1 1
		 1 1 1 0 0 0 0 0 0 0 0 0
		 0 0 0 0 ;
	setAttr -av ".aoam";
	setAttr -av ".aora";
	setAttr -av ".mbe";
	setAttr -av -k on ".mbsof";
	setAttr ".fprt" yes;
select -ne :renderPartition;
	setAttr -av -k on ".cch";
	setAttr -cb on ".ihi";
	setAttr -av -k on ".nds";
	setAttr -cb on ".bnm";
	setAttr -s 2 ".st";
	setAttr -cb on ".an";
	setAttr -cb on ".pt";
select -ne :renderGlobalsList1;
	setAttr -k on ".cch";
	setAttr -cb on ".ihi";
	setAttr -k on ".nds";
	setAttr -cb on ".bnm";
select -ne :defaultShaderList1;
	setAttr -k on ".cch";
	setAttr -cb on ".ihi";
	setAttr -k on ".nds";
	setAttr -cb on ".bnm";
	setAttr -s 6 ".s";
select -ne :postProcessList1;
	setAttr -k on ".cch";
	setAttr -cb on ".ihi";
	setAttr -k on ".nds";
	setAttr -cb on ".bnm";
	setAttr -s 2 ".p";
select -ne :defaultRenderingList1;
	setAttr -k on ".ihi";
select -ne :initialShadingGroup;
	setAttr -av -k on ".cch";
	setAttr -cb on ".ihi";
	setAttr -av -k on ".nds";
	setAttr -cb on ".bnm";
	setAttr -k on ".mwc";
	setAttr -cb on ".an";
	setAttr -cb on ".il";
	setAttr -cb on ".vo";
	setAttr -cb on ".eo";
	setAttr -cb on ".fo";
	setAttr -cb on ".epo";
	setAttr -k on ".ro" yes;
select -ne :initialParticleSE;
	setAttr -av -k on ".cch";
	setAttr -cb on ".ihi";
	setAttr -av -k on ".nds";
	setAttr -cb on ".bnm";
	setAttr -k on ".mwc";
	setAttr -cb on ".an";
	setAttr -cb on ".il";
	setAttr -cb on ".vo";
	setAttr -cb on ".eo";
	setAttr -cb on ".fo";
	setAttr -cb on ".epo";
	setAttr -k on ".ro" yes;
select -ne :defaultResolution;
	setAttr -av -k on ".cch";
	setAttr -av -k on ".ihi";
	setAttr -av -k on ".nds";
	setAttr -k on ".bnm";
	setAttr -av -k on ".w";
	setAttr -av -k on ".h";
	setAttr -av -k on ".pa" 1;
	setAttr -av -k on ".al";
	setAttr -av -k on ".dar";
	setAttr -av -k on ".ldar";
	setAttr -av -k on ".dpi";
	setAttr -av -k on ".off";
	setAttr -av -k on ".fld";
	setAttr -av -k on ".zsl";
	setAttr -av -k on ".isu";
	setAttr -av -k on ".pdu";
select -ne :hardwareRenderGlobals;
	setAttr -k on ".cch";
	setAttr -cb on ".ihi";
	setAttr -k on ".nds";
	setAttr -cb on ".bnm";
	setAttr -k off -cb on ".ctrs" 256;
	setAttr -av -k off -cb on ".btrs" 512;
	setAttr -k off -cb on ".fbfm";
	setAttr -k off -cb on ".ehql";
	setAttr -k off -cb on ".eams";
	setAttr -k off -cb on ".eeaa";
	setAttr -k off -cb on ".engm";
	setAttr -k off -cb on ".mes";
	setAttr -k off -cb on ".emb";
	setAttr -av -k off -cb on ".mbbf";
	setAttr -k off -cb on ".mbs";
	setAttr -k off -cb on ".trm";
	setAttr -k off -cb on ".tshc";
	setAttr -k off -cb on ".enpt";
	setAttr -k off -cb on ".clmt";
	setAttr -k off -cb on ".tcov";
	setAttr -k off -cb on ".lith";
	setAttr -k off -cb on ".sobc";
	setAttr -k off -cb on ".cuth";
	setAttr -k off -cb on ".hgcd";
	setAttr -k off -cb on ".hgci";
	setAttr -k off -cb on ".mgcs";
	setAttr -k off -cb on ".twa";
	setAttr -k off -cb on ".twz";
	setAttr -cb on ".hwcc";
	setAttr -cb on ".hwdp";
	setAttr -cb on ".hwql";
	setAttr -k on ".hwfr";
	setAttr -k on ".soll";
	setAttr -k on ".sosl";
	setAttr -k on ".bswa";
	setAttr -k on ".shml";
	setAttr -k on ".hwel";
connectAttr "multiplyDivide2.ox" "SpiderGirl_Hair_XgS.awTT" -l on;
connectAttr "SpiderGirl_Hair_XgS.lwTT" "multiplyDivide2.i1x";
connectAttr "SpiderGirl_Hair_XgS.msg" ":defaultShaderList1.s" -na;
connectAttr "SpiderGirl_Hair_XgS.oc" ":internal_standInSE.ss";
// End of SpiderGirl_Hair_XgS.ma
