//Maya ASCII 2018ff09 scene
//Name: example_shot.ma
//Last modified: Mon, Sep 14, 2020 01:04:27 PM
//Codeset: 1252
requires maya "2018ff09";
requires "stereoCamera" "10.0";
currentUnit -l centimeter -a degree -t film;
fileInfo "application" "maya";
fileInfo "product" "Maya 2018";
fileInfo "version" "2018";
fileInfo "cutIdentifier" "201903222215-65bada0e52";
fileInfo "osv" "Microsoft Windows 8 Business Edition, 64-bit  (Build 9200)\n";
createNode transform -s -n "persp";
	rename -uid "9E7A8FA6-4FCA-C743-9DFC-479E3EF2EB13";
	setAttr ".v" no;
	setAttr ".t" -type "double3" -43.275438407484181 20.417458592677583 14.494552633293051 ;
	setAttr ".r" -type "double3" -23.138352729602726 -68.600000000000321 4.3583955159512187e-15 ;
createNode camera -s -n "perspShape" -p "persp";
	rename -uid "5775F3C3-4840-B0B1-D270-F6B462BF9AFF";
	setAttr -k off ".v" no;
	setAttr ".fl" 34.999999999999993;
	setAttr ".coi" 48.850360401441861;
	setAttr ".imn" -type "string" "persp";
	setAttr ".den" -type "string" "persp_depth";
	setAttr ".man" -type "string" "persp_mask";
	setAttr ".hc" -type "string" "viewSet -p %camera";
createNode transform -s -n "top";
	rename -uid "93710D7E-4D26-9760-2341-DC8E9A824080";
	setAttr ".v" no;
	setAttr ".t" -type "double3" 0 1000.1 0 ;
	setAttr ".r" -type "double3" -89.999999999999986 0 0 ;
createNode camera -s -n "topShape" -p "top";
	rename -uid "2BFD3D4D-494B-07EB-2D21-A799A92A6347";
	setAttr -k off ".v" no;
	setAttr ".rnd" no;
	setAttr ".coi" 1000.1;
	setAttr ".ow" 30;
	setAttr ".imn" -type "string" "top";
	setAttr ".den" -type "string" "top_depth";
	setAttr ".man" -type "string" "top_mask";
	setAttr ".hc" -type "string" "viewSet -t %camera";
	setAttr ".o" yes;
createNode transform -s -n "front";
	rename -uid "9292A7BA-4860-C3F0-CF64-DC94FA62814D";
	setAttr ".v" no;
	setAttr ".t" -type "double3" 0 0 1000.1 ;
createNode camera -s -n "frontShape" -p "front";
	rename -uid "BE04FCFF-41E7-EAFC-2812-2D97ED9D0300";
	setAttr -k off ".v" no;
	setAttr ".rnd" no;
	setAttr ".coi" 1000.1;
	setAttr ".ow" 30;
	setAttr ".imn" -type "string" "front";
	setAttr ".den" -type "string" "front_depth";
	setAttr ".man" -type "string" "front_mask";
	setAttr ".hc" -type "string" "viewSet -f %camera";
	setAttr ".o" yes;
createNode transform -s -n "side";
	rename -uid "25191920-42BB-7318-FA1E-DF8F3AFC4969";
	setAttr ".v" no;
	setAttr ".t" -type "double3" 1000.1 0 0 ;
	setAttr ".r" -type "double3" 0 89.999999999999986 0 ;
createNode camera -s -n "sideShape" -p "side";
	rename -uid "CFF57264-486F-9A7D-7CF9-B8812B7C6337";
	setAttr -k off ".v" no;
	setAttr ".rnd" no;
	setAttr ".coi" 1000.1;
	setAttr ".ow" 30;
	setAttr ".imn" -type "string" "side";
	setAttr ".den" -type "string" "side_depth";
	setAttr ".man" -type "string" "side_mask";
	setAttr ".hc" -type "string" "viewSet -s %camera";
	setAttr ".o" yes;
createNode transform -n "pSphere1";
	rename -uid "F49C52A9-4E5C-61C1-4B50-AEB98E8BA24A";
createNode mesh -n "pSphereShape1" -p "pSphere1";
	rename -uid "C1989775-4D74-9B0E-F7C8-7796EC4A9774";
	setAttr -k off ".v";
	setAttr ".vir" yes;
	setAttr ".vif" yes;
	setAttr ".uvst[0].uvsn" -type "string" "map1";
	setAttr ".cuvs" -type "string" "map1";
	setAttr ".dcc" -type "string" "Ambient+Diffuse";
	setAttr ".covm[0]"  0 1 1;
	setAttr ".cdvm[0]"  0 1 1;
createNode transform -n "camera1";
	rename -uid "AD60DB1A-4007-52E8-6745-C5BB71F2FC99";
	setAttr ".t" -type "double3" -32.109269978449483 17.041574985486772 30.549996865351144 ;
	setAttr ".r" -type "double3" -22.800000000000235 -51.20000000000018 2.5379311646203658e-15 ;
createNode camera -n "cameraShape1" -p "camera1";
	rename -uid "7F4793EE-4556-CE08-582E-B0A1C314E278";
	setAttr -k off ".v";
	setAttr ".rnd" no;
	setAttr ".cap" -type "double2" 1.41732 0.94488 ;
	setAttr ".ff" 0;
	setAttr ".coi" 44.247203855218231;
	setAttr ".ow" 30;
	setAttr ".imn" -type "string" "camera1";
	setAttr ".den" -type "string" "camera1_depth";
	setAttr ".man" -type "string" "camera1_mask";
createNode transform -n "camera2";
	rename -uid "681D7DBD-4026-0D62-AACB-0FB6074B7439";
	setAttr ".t" -type "double3" -3.8124228108544322 1.6750046684391002 20.216009056538617 ;
	setAttr ".r" -type "double3" -11.400000000000025 -26.000000000000036 4.4233641379796961e-16 ;
createNode camera -n "cameraShape2" -p "camera2";
	rename -uid "1AF637B7-4489-2FF5-E100-46B7BC65A881";
	setAttr -k off ".v";
	setAttr ".rnd" no;
	setAttr ".cap" -type "double2" 1.41732 0.94488 ;
	setAttr ".ff" 0;
	setAttr ".coi" 8.6725472674521846;
	setAttr ".ow" 30;
	setAttr ".imn" -type "string" "camera2";
	setAttr ".den" -type "string" "camera2_depth";
	setAttr ".man" -type "string" "camera2_mask";
createNode lightLinker -s -n "lightLinker1";
	rename -uid "8F3AEDB0-45A4-C45A-7A6E-59BE3FC29E59";
	setAttr -s 2 ".lnk";
	setAttr -s 2 ".slnk";
createNode shapeEditorManager -n "shapeEditorManager";
	rename -uid "9E4DEF45-4A1E-938F-98F6-E9A639980695";
createNode poseInterpolatorManager -n "poseInterpolatorManager";
	rename -uid "87EB5607-471B-9F1E-C100-A5BBEDDB6432";
createNode displayLayerManager -n "layerManager";
	rename -uid "FF89B814-424D-4B64-32E0-459B568F2AB8";
createNode displayLayer -n "defaultLayer";
	rename -uid "5CD2EB34-4A82-F579-A439-DA8642BA0CD6";
createNode renderLayerManager -n "renderLayerManager";
	rename -uid "D1C5EC05-4446-950B-D76C-7589918B9D73";
createNode renderLayer -n "defaultRenderLayer";
	rename -uid "1AB6554C-4D85-1B01-6051-7FA8DAAB68B1";
	setAttr ".g" yes;
createNode sequencer -n "sequencer1";
	rename -uid "D0D263EB-45F0-2F4C-D999-F0B6D20913C4";
	setAttr ".mnf" 1001;
	setAttr ".mxf" 1040;
	setAttr -s 2 ".shts";
createNode trackInfoManager -n "trackInfoManager1";
	rename -uid "677554E9-453D-D5BB-AAEA-49A312AAE5A6";
	setAttr -s 2 ".ti";
	setAttr ".ti[0].t" -type "string" "";
	setAttr ".ti[1].t" -type "string" "";
createNode shot -n "s0010";
	rename -uid "042D61D6-4191-DF9C-1C2E-13858B0C2786";
	setAttr ".sf" 1001;
	setAttr ".ef" 1020;
	setAttr ".ssf" 1001;
	setAttr ".cv" no;
	setAttr ".sn" -type "string" "s0010";
	setAttr ".wres" 1024;
	setAttr ".ca" 1;
createNode polySphere -n "polySphere1";
	rename -uid "D644ECA0-4A59-C08A-8253-7AB1972C2728";
createNode animCurveTU -n "pSphere1_visibility";
	rename -uid "46B09BA1-410C-4F9D-D233-8E8C29C28C4C";
	setAttr ".tan" 9;
	setAttr -s 2 ".ktv[0:1]"  1001 1 1020 1;
	setAttr -s 2 ".kot[0:1]"  5 5;
createNode animCurveTL -n "pSphere1_translateX";
	rename -uid "F9EC9964-4233-D67B-B52E-DD8F305B9C32";
	setAttr ".tan" 18;
	setAttr -s 2 ".ktv[0:1]"  1001 0 1020 0;
createNode animCurveTL -n "pSphere1_translateY";
	rename -uid "523A6031-4B3E-0BF4-029A-B599C9D4D1A0";
	setAttr ".tan" 18;
	setAttr -s 2 ".ktv[0:1]"  1001 0 1020 0;
createNode animCurveTL -n "pSphere1_translateZ";
	rename -uid "3383AD64-4CFA-F9F4-E1DD-F4949738B8F1";
	setAttr ".tan" 18;
	setAttr -s 2 ".ktv[0:1]"  1001 0 1020 13.856450832879895;
createNode animCurveTA -n "pSphere1_rotateX";
	rename -uid "BD5EE270-4C89-3E6D-44A4-E5ADDECC84C6";
	setAttr ".tan" 18;
	setAttr -s 2 ".ktv[0:1]"  1001 0 1020 0;
createNode animCurveTA -n "pSphere1_rotateY";
	rename -uid "5DF7F971-4065-1C2E-F6F7-D089AA2328CF";
	setAttr ".tan" 18;
	setAttr -s 2 ".ktv[0:1]"  1001 0 1020 0;
createNode animCurveTA -n "pSphere1_rotateZ";
	rename -uid "696F8274-4903-C7A6-BFB8-47BD42905E45";
	setAttr ".tan" 18;
	setAttr -s 2 ".ktv[0:1]"  1001 0 1020 0;
createNode animCurveTU -n "pSphere1_scaleX";
	rename -uid "CCF78C4B-4D8A-210D-C6A5-769882B00FA9";
	setAttr ".tan" 18;
	setAttr -s 2 ".ktv[0:1]"  1001 1 1020 1;
createNode animCurveTU -n "pSphere1_scaleY";
	rename -uid "286C0FDC-4147-532B-FC99-D3991D35B76D";
	setAttr ".tan" 18;
	setAttr -s 2 ".ktv[0:1]"  1001 1 1020 1;
createNode animCurveTU -n "pSphere1_scaleZ";
	rename -uid "1CE2E80D-4A33-9D05-D576-EEA60F4BC161";
	setAttr ".tan" 18;
	setAttr -s 2 ".ktv[0:1]"  1001 1 1020 1;
createNode shot -n "shot";
	rename -uid "DAA56EA5-4BF7-03ED-B919-FFBEB8ABA96D";
	setAttr ".sf" 1001;
	setAttr ".ef" 1020;
	setAttr ".ssf" 1021;
	setAttr ".cv" no;
	setAttr ".sn" -type "string" "shot";
	setAttr ".wres" 1024;
createNode script -n "sceneConfigurationScriptNode";
	rename -uid "9AF5BA09-469F-5501-EF60-899E0B7419D7";
	setAttr ".b" -type "string" "playbackOptions -min 1001 -max 1020 -ast 1001 -aet 1020 ";
	setAttr ".st" 6;
select -ne :time1;
	setAttr ".o" 1002;
	setAttr ".unw" 1002;
select -ne :sequenceManager1;
	setAttr ".o" 1002;
select -ne :hardwareRenderingGlobals;
	setAttr ".otfna" -type "stringArray" 22 "NURBS Curves" "NURBS Surfaces" "Polygons" "Subdiv Surface" "Particles" "Particle Instance" "Fluids" "Strokes" "Image Planes" "UI" "Lights" "Cameras" "Locators" "Joints" "IK Handles" "Deformers" "Motion Trails" "Components" "Hair Systems" "Follicles" "Misc. UI" "Ornaments"  ;
	setAttr ".otfva" -type "Int32Array" 22 0 1 1 1 1 1
		 1 1 1 0 0 0 0 0 0 0 0 0
		 0 0 0 0 ;
	setAttr ".cons" no;
	setAttr ".ta" 0;
	setAttr ".tmr" 1024;
	setAttr ".fprt" yes;
select -ne :renderPartition;
	setAttr -s 2 ".st";
select -ne :renderGlobalsList1;
select -ne :defaultShaderList1;
	setAttr -s 4 ".s";
select -ne :postProcessList1;
	setAttr -s 2 ".p";
select -ne :defaultRenderingList1;
select -ne :initialShadingGroup;
	setAttr ".ro" yes;
select -ne :initialParticleSE;
	setAttr ".ro" yes;
select -ne :defaultResolution;
	setAttr ".pa" 1;
select -ne :hardwareRenderGlobals;
	setAttr ".ctrs" 256;
	setAttr ".btrs" 512;
select -ne :ikSystem;
	setAttr -s 4 ".sol";
connectAttr "pSphere1_visibility.o" "pSphere1.v";
connectAttr "pSphere1_translateX.o" "pSphere1.tx";
connectAttr "pSphere1_translateY.o" "pSphere1.ty";
connectAttr "pSphere1_translateZ.o" "pSphere1.tz";
connectAttr "pSphere1_rotateX.o" "pSphere1.rx";
connectAttr "pSphere1_rotateY.o" "pSphere1.ry";
connectAttr "pSphere1_rotateZ.o" "pSphere1.rz";
connectAttr "pSphere1_scaleX.o" "pSphere1.sx";
connectAttr "pSphere1_scaleY.o" "pSphere1.sy";
connectAttr "pSphere1_scaleZ.o" "pSphere1.sz";
connectAttr "polySphere1.out" "pSphereShape1.i";
relationship "link" ":lightLinker1" ":initialShadingGroup.message" ":defaultLightSet.message";
relationship "link" ":lightLinker1" ":initialParticleSE.message" ":defaultLightSet.message";
relationship "shadowLink" ":lightLinker1" ":initialShadingGroup.message" ":defaultLightSet.message";
relationship "shadowLink" ":lightLinker1" ":initialParticleSE.message" ":defaultLightSet.message";
connectAttr "layerManager.dli[0]" "defaultLayer.id";
connectAttr "renderLayerManager.rlmi[0]" "defaultRenderLayer.rlid";
connectAttr "s0010.msg" "sequencer1.shts" -na;
connectAttr "shot.msg" "sequencer1.shts" -na;
connectAttr "cameraShape1.msg" "s0010.ccm";
connectAttr "cameraShape2.msg" "shot.ccm";
connectAttr "sequencer1.msg" ":sequenceManager1.seqts" -na;
connectAttr "trackInfoManager1.msg" ":sequenceManager1.tim";
connectAttr "defaultRenderLayer.msg" ":defaultRenderingList1.r" -na;
connectAttr "pSphereShape1.iog" ":initialShadingGroup.dsm" -na;
// End of example_shot.ma
