//Maya ASCII 2018ff09 scene
//Name: skirtTmp.ma
//Last modified: Wed, Nov 04, 2020 12:18:44 PM
//Codeset: 1252
requires maya "2018ff09";
requires "stereoCamera" "10.0";
requires "mtoa" "3.3.0.2";
currentUnit -l centimeter -a degree -t film;
fileInfo "application" "maya";
fileInfo "product" "Maya 2018";
fileInfo "version" "2018";
fileInfo "cutIdentifier" "201903222215-65bada0e52";
fileInfo "osv" "Microsoft Windows 8 Business Edition, 64-bit  (Build 9200)\n";
createNode transform -s -n "persp";
	rename -uid "F4EA197E-46E8-9B7F-E461-4A87B4E9F390";
	setAttr ".v" no;
	setAttr ".t" -type "double3" 55.945144189166257 128.16991747952486 290.74284377619369 ;
	setAttr ".r" -type "double3" -22.538352729609304 9.0000000000033218 1.0063127173886285e-15 ;
createNode camera -s -n "perspShape" -p "persp";
	rename -uid "47054F7B-4C7F-C644-6729-B3AEACA2A6A1";
	setAttr -k off ".v" no;
	setAttr ".fl" 34.999999999999993;
	setAttr ".coi" 320.00294147626357;
	setAttr ".imn" -type "string" "persp";
	setAttr ".den" -type "string" "persp_depth";
	setAttr ".man" -type "string" "persp_mask";
	setAttr ".tp" -type "double3" -7.9656236486869147e-06 5.6094117395415584 -2.4303111283927343 ;
	setAttr ".hc" -type "string" "viewSet -p %camera";
	setAttr ".ai_translator" -type "string" "perspective";
createNode transform -s -n "top";
	rename -uid "2A461318-4DF5-BE0C-6BB4-3BB7FB735BF9";
	setAttr ".v" no;
	setAttr ".t" -type "double3" 0 1000.1 0 ;
	setAttr ".r" -type "double3" -89.999999999999986 0 0 ;
createNode camera -s -n "topShape" -p "top";
	rename -uid "DA96F306-4295-AD1F-2B2D-818EDB84B345";
	setAttr -k off ".v" no;
	setAttr ".rnd" no;
	setAttr ".coi" 1000.1;
	setAttr ".ow" 32.298850574712638;
	setAttr ".imn" -type "string" "top";
	setAttr ".den" -type "string" "top_depth";
	setAttr ".man" -type "string" "top_mask";
	setAttr ".hc" -type "string" "viewSet -t %camera";
	setAttr ".o" yes;
	setAttr ".ai_translator" -type "string" "orthographic";
createNode transform -s -n "front";
	rename -uid "1195DD90-4806-8DC2-662C-5A871F2231EF";
	setAttr ".v" no;
	setAttr ".t" -type "double3" 0 0 1000.1 ;
createNode camera -s -n "frontShape" -p "front";
	rename -uid "CA41624E-45C4-AB80-E251-E19C6D3EFD58";
	setAttr -k off ".v" no;
	setAttr ".rnd" no;
	setAttr ".coi" 1000.1;
	setAttr ".ow" 30;
	setAttr ".imn" -type "string" "front";
	setAttr ".den" -type "string" "front_depth";
	setAttr ".man" -type "string" "front_mask";
	setAttr ".hc" -type "string" "viewSet -f %camera";
	setAttr ".o" yes;
	setAttr ".ai_translator" -type "string" "orthographic";
createNode transform -s -n "side";
	rename -uid "94DCE324-4226-67DA-BBC3-FDBB711BC056";
	setAttr ".v" no;
	setAttr ".t" -type "double3" 1000.1 0 0 ;
	setAttr ".r" -type "double3" 0 89.999999999999986 0 ;
createNode camera -s -n "sideShape" -p "side";
	rename -uid "B29E01C8-4DB3-3AFD-356F-6CA38728006F";
	setAttr -k off ".v" no;
	setAttr ".rnd" no;
	setAttr ".coi" 1000.1;
	setAttr ".ow" 30;
	setAttr ".imn" -type "string" "side";
	setAttr ".den" -type "string" "side_depth";
	setAttr ".man" -type "string" "side_mask";
	setAttr ".hc" -type "string" "viewSet -s %camera";
	setAttr ".o" yes;
	setAttr ".ai_translator" -type "string" "orthographic";
createNode transform -n "legNnrlRig_grp";
	rename -uid "0F8E3D69-4E4F-404E-A1EE-918FC77B3616";
createNode transform -n "skirtTmp_Grp";
	rename -uid "A4694FAD-484D-8DC0-606B-CCA1279562AA";
createNode joint -n "pelvisNnRlSkin_Jnt" -p "skirtTmp_Grp";
	rename -uid "25694434-41DF-CAB9-22B7-B3B5435AD77A";
	setAttr ".t" -type "double3" 0 27.184093479083121 0 ;
	setAttr ".r" -type "double3" 0 180 0 ;
	setAttr ".mnrl" -type "double3" -360 -360 -360 ;
	setAttr ".mxrl" -type "double3" 360 360 360 ;
	setAttr ".jo" -type "double3" 0 180 0 ;
	setAttr ".radi" 80.300000000000011;
createNode joint -n "upLegNnRl_L_Jnt" -p "pelvisNnRlSkin_Jnt";
	rename -uid "06962CD0-4E6B-E9BF-1139-93A3E1897B8C";
	setAttr ".t" -type "double3" 18.5940840687527 -9.8695184544299792 -2.4303122567854745 ;
	setAttr ".jo" -type "double3" 1.7185981165996411e-30 -1.4033418597069752e-14 180 ;
	setAttr ".radi" 78.1;
createNode joint -n "lowLegNnRl_L_Jnt" -p "upLegNnRl_L_Jnt";
	rename -uid "B982C0C5-4F52-3E25-74F3-CEB49ADC3696";
	setAttr ".t" -type "double3" -2.6968977195177091e-15 22.021841084265237 0 ;
	setAttr ".radi" 78.1;
createNode joint -n "upLegNnRl_R_Jnt" -p "pelvisNnRlSkin_Jnt";
	rename -uid "5893A305-4B64-21D7-EEB0-D19707C2512B";
	setAttr ".t" -type "double3" -18.5941 -9.8694934790831219 -2.4303099999999955 ;
	setAttr ".jo" -type "double3" 0 180 0 ;
	setAttr ".radi" 78.1;
createNode joint -n "lowLegNnRl_R_Jnt" -p "upLegNnRl_R_Jnt";
	rename -uid "E12BC901-4E60-B60C-9E3E-E8AA73D8D36F";
	setAttr ".t" -type "double3" 0 -22.02187 0 ;
	setAttr ".radi" 78.1;
createNode joint -n "upLeg_L_jnt" -p "skirtTmp_Grp";
	rename -uid "EB6B2DB7-4D76-844A-C202-1E9171C1E155";
	setAttr ".t" -type "double3" 18.5940840687527 17.314575024653141 -2.43031225678547 ;
	setAttr ".jo" -type "double3" 1.7185981165996411e-30 -1.4033418597069752e-14 180 ;
	setAttr ".radi" 52.5;
createNode joint -n "lowLeg_L_jnt" -p "upLeg_L_jnt";
	rename -uid "9ECD259F-43D3-52F6-C166-7E8AE400D24B";
	setAttr ".t" -type "double3" -2.6968977195177091e-15 22.021841084265237 0 ;
	setAttr ".radi" 52.5;
createNode joint -n "upLeg_R_jnt" -p "skirtTmp_Grp";
	rename -uid "34BB4497-4767-CB9F-1EE2-EA828B5A2094";
	setAttr ".t" -type "double3" -18.5941 17.3146 -2.43031 ;
	setAttr ".r" -type "double3" 0 359.99999999999994 0 ;
	setAttr ".jo" -type "double3" 0 180 0 ;
	setAttr ".radi" 52.5;
createNode joint -n "lowLeg_R_jnt" -p "upLeg_R_jnt";
	rename -uid "6EA38B72-4265-A6F6-0258-2697073AC893";
	setAttr ".t" -type "double3" 0 -22.02187 0 ;
	setAttr ".radi" 52.5;
createNode lightLinker -s -n "lightLinker1";
	rename -uid "B11770FE-4E93-1049-5B1F-A8A232822A25";
	setAttr -s 2 ".lnk";
	setAttr -s 2 ".slnk";
createNode shapeEditorManager -n "shapeEditorManager";
	rename -uid "3B120ED6-4BBD-06BE-6E40-9395D86C4BE4";
createNode poseInterpolatorManager -n "poseInterpolatorManager";
	rename -uid "16A418C2-4C3F-1CEA-2BBE-A3A7B5983F4D";
createNode displayLayerManager -n "layerManager";
	rename -uid "81129D3D-418E-F4D2-28FC-44B82BF4C13D";
createNode displayLayer -n "defaultLayer";
	rename -uid "571512CE-4C6C-A831-6F04-668FAD147BEC";
createNode renderLayerManager -n "renderLayerManager";
	rename -uid "CEA83764-4227-274B-33A4-2A91FE2528A0";
createNode renderLayer -n "defaultRenderLayer";
	rename -uid "A10F74D2-4B20-10D2-4E87-B38664D9E8EB";
	setAttr ".g" yes;
createNode script -n "sceneConfigurationScriptNode";
	rename -uid "8DCFCD5F-4517-B31B-081E-82BB4C1655F7";
	setAttr ".b" -type "string" "playbackOptions -min 1 -max 120 -ast 1 -aet 200 ";
	setAttr ".st" 6;
createNode multiplyDivide -n "skirtNonRlAutoStrLFT_mdv";
	rename -uid "57F52691-4EB0-187D-3FF6-1CBFACBE8CAF";
	setAttr ".op" 2;
	setAttr ".i2" -type "float3" 22.021841 1 1 ;
createNode multDoubleLinear -n "skirtNonRlAutoStrLFT_mul";
	rename -uid "3510A80F-4B5E-434B-9068-D09E5B20B42F";
	setAttr ".i2" 22.021841084265233;
createNode blendTwoAttr -n "skirtNonRlAutoStrLFT_bln";
	rename -uid "7BF7A7CF-445F-A00D-A3A8-F49987842B75";
	addAttr -ci true -k true -sn "default" -ln "default" -at "double";
	setAttr -s 2 ".i";
	setAttr -s 2 ".i";
	setAttr -k on ".default" 22.021841084265233;
createNode multDoubleLinear -n "skirtNonRlStrLFT_mul";
	rename -uid "282BA67D-4505-A874-5FDF-C3BF355FB865";
	addAttr -ci true -k true -sn "default" -ln "default" -dv 22.021841084265233 -at "double";
	setAttr -k on ".default";
createNode multDoubleLinear -n "skirtNonRlStrAmpLFT_mul";
	rename -uid "600B5128-402D-6539-F445-149FA6733D81";
	addAttr -ci true -k true -sn "amp" -ln "amp" -dv 0.1 -at "double";
	setAttr -k on ".amp";
createNode multiplyDivide -n "skirtNonRlAutoStrRGT_mdv";
	rename -uid "A5E859DE-4F30-5716-2874-5BBEB801387A";
	setAttr ".op" 2;
	setAttr ".i2" -type "float3" 22.02187 1 1 ;
createNode multDoubleLinear -n "skirtNonRlAutoStrRGT_mul";
	rename -uid "BFEA64BD-4867-477B-410C-11BA7DA561EA";
	setAttr ".i2" -22.02187;
createNode blendTwoAttr -n "skirtNonRlAutoStrRGT_bln";
	rename -uid "AB434347-4792-DF2C-0F3E-D7A5A7CE72B5";
	addAttr -ci true -k true -sn "default" -ln "default" -at "double";
	setAttr -s 2 ".i";
	setAttr -s 2 ".i";
	setAttr -k on ".default" -22.02187;
createNode multDoubleLinear -n "skirtNonRlStrRGT_mul";
	rename -uid "723E6DCA-4BF2-812F-FC81-F1AF43F7BDDF";
	addAttr -ci true -k true -sn "default" -ln "default" -dv -22.02187 -at "double";
	setAttr -k on ".default";
createNode multDoubleLinear -n "skirtNonRlStrAmpRGT_mul";
	rename -uid "B5C61F4C-4463-4A0C-D19E-68BD2D9EF114";
	addAttr -ci true -k true -sn "amp" -ln "amp" -dv 0.1 -at "double";
	setAttr -k on ".amp";
createNode nodeGraphEditorInfo -n "MayaNodeEditorSavedTabsInfo";
	rename -uid "B985E9A2-4657-D372-8621-D3999299BF80";
	setAttr ".tgi[0].tn" -type "string" "Untitled_1";
	setAttr ".tgi[0].vl" -type "double2" -910.11901145416743 -199.40475398112898 ;
	setAttr ".tgi[0].vh" -type "double2" 867.26187030001438 752.97616055560616 ;
	setAttr -s 8 ".tgi[0].ni";
	setAttr ".tgi[0].ni[0].x" -1941.4285888671875;
	setAttr ".tgi[0].ni[0].y" 1472.857177734375;
	setAttr ".tgi[0].ni[0].nvs" 18304;
	setAttr ".tgi[0].ni[1].x" -1634.2857666015625;
	setAttr ".tgi[0].ni[1].y" 1545.7142333984375;
	setAttr ".tgi[0].ni[1].nvs" 18304;
	setAttr ".tgi[0].ni[2].x" 1261.4285888671875;
	setAttr ".tgi[0].ni[2].y" 1828.5714111328125;
	setAttr ".tgi[0].ni[2].nvs" 18304;
	setAttr ".tgi[0].ni[3].x" -1327.142822265625;
	setAttr ".tgi[0].ni[3].y" 1605.7142333984375;
	setAttr ".tgi[0].ni[3].nvs" 18304;
	setAttr ".tgi[0].ni[4].x" -612.85711669921875;
	setAttr ".tgi[0].ni[4].y" 310;
	setAttr ".tgi[0].ni[4].nvs" 18304;
	setAttr ".tgi[0].ni[5].x" -115.71428680419922;
	setAttr ".tgi[0].ni[5].y" 175.71427917480469;
	setAttr ".tgi[0].ni[5].nvs" 18304;
	setAttr ".tgi[0].ni[6].x" 1694.2857666015625;
	setAttr ".tgi[0].ni[6].y" 1828.5714111328125;
	setAttr ".tgi[0].ni[6].nvs" 18304;
	setAttr ".tgi[0].ni[7].x" -300;
	setAttr ".tgi[0].ni[7].y" 554.28570556640625;
	setAttr ".tgi[0].ni[7].nvs" 18304;
select -ne :time1;
	setAttr -av -k on ".cch";
	setAttr -av -cb on ".ihi";
	setAttr -av -k on ".nds";
	setAttr -cb on ".bnm";
	setAttr -k on ".o" 1;
	setAttr -av -k on ".unw" 1;
	setAttr -av -k on ".etw";
	setAttr -av -k on ".tps";
	setAttr -av -k on ".tms";
select -ne :hardwareRenderingGlobals;
	setAttr -av -k on ".ihi";
	setAttr ".otfna" -type "stringArray" 22 "NURBS Curves" "NURBS Surfaces" "Polygons" "Subdiv Surface" "Particles" "Particle Instance" "Fluids" "Strokes" "Image Planes" "UI" "Lights" "Cameras" "Locators" "Joints" "IK Handles" "Deformers" "Motion Trails" "Components" "Hair Systems" "Follicles" "Misc. UI" "Ornaments"  ;
	setAttr ".otfva" -type "Int32Array" 22 0 1 1 1 1 1
		 1 1 1 0 0 0 0 0 0 0 0 0
		 0 0 0 0 ;
	setAttr -av ".ta";
	setAttr -av ".tq";
	setAttr -av ".tmr";
	setAttr -av ".aoam";
	setAttr -av ".aora";
	setAttr -av ".hfd";
	setAttr -av ".hfs";
	setAttr -av ".hfe";
	setAttr -av ".hfcr";
	setAttr -av ".hfcg";
	setAttr -av ".hfcb";
	setAttr -av ".hfa";
	setAttr -av ".mbe";
	setAttr -av -k on ".mbsof";
	setAttr ".fprt" yes;
select -ne :renderPartition;
	setAttr -av -k on ".cch";
	setAttr -cb on ".ihi";
	setAttr -av -k on ".nds";
	setAttr -cb on ".bnm";
	setAttr -s 2 ".st";
	setAttr -cb on ".an";
	setAttr -cb on ".pt";
select -ne :renderGlobalsList1;
	setAttr -k on ".cch";
	setAttr -cb on ".ihi";
	setAttr -k on ".nds";
	setAttr -cb on ".bnm";
select -ne :defaultShaderList1;
	setAttr -k on ".cch";
	setAttr -cb on ".ihi";
	setAttr -k on ".nds";
	setAttr -cb on ".bnm";
	setAttr -s 4 ".s";
select -ne :postProcessList1;
	setAttr -k on ".cch";
	setAttr -cb on ".ihi";
	setAttr -k on ".nds";
	setAttr -cb on ".bnm";
	setAttr -s 2 ".p";
select -ne :defaultRenderingList1;
	setAttr -k on ".ihi";
select -ne :initialShadingGroup;
	setAttr -av -k on ".cch";
	setAttr -k on ".fzn";
	setAttr -cb on ".ihi";
	setAttr -av -k on ".nds";
	setAttr -cb on ".bnm";
	setAttr -k on ".bbx";
	setAttr -k on ".vwm";
	setAttr -k on ".tpv";
	setAttr -k on ".uit";
	setAttr -k on ".mwc";
	setAttr -cb on ".an";
	setAttr -cb on ".il";
	setAttr -cb on ".vo";
	setAttr -cb on ".eo";
	setAttr -cb on ".fo";
	setAttr -cb on ".epo";
	setAttr -k on ".ro" yes;
select -ne :initialParticleSE;
	setAttr -av -k on ".cch";
	setAttr -cb on ".ihi";
	setAttr -av -k on ".nds";
	setAttr -cb on ".bnm";
	setAttr -k on ".mwc";
	setAttr -cb on ".an";
	setAttr -cb on ".il";
	setAttr -cb on ".vo";
	setAttr -cb on ".eo";
	setAttr -cb on ".fo";
	setAttr -cb on ".epo";
	setAttr -k on ".ro" yes;
select -ne :defaultRenderGlobals;
	setAttr -av -k on ".cch";
	setAttr -cb on ".ihi";
	setAttr -av -k on ".nds";
	setAttr -cb on ".bnm";
	setAttr -av -k on ".macc";
	setAttr -av -k on ".macd";
	setAttr -av -k on ".macq";
	setAttr -av -k on ".mcfr";
	setAttr -cb on ".ifg";
	setAttr -av -k on ".clip";
	setAttr -av -k on ".edm";
	setAttr -av -k on ".edl";
	setAttr -cb on ".ren" -type "string" "arnold";
	setAttr -av -k on ".esr";
	setAttr -av -k on ".ors";
	setAttr -cb on ".sdf";
	setAttr -av -k on ".outf";
	setAttr -av -cb on ".imfkey";
	setAttr -av -k on ".gama";
	setAttr -k on ".exrc";
	setAttr -k on ".expt";
	setAttr -av -k on ".an";
	setAttr -cb on ".ar";
	setAttr -k on ".fs";
	setAttr -av -k on ".ef";
	setAttr -av -k on ".bfs";
	setAttr -cb on ".me";
	setAttr -cb on ".se";
	setAttr -av -k on ".be";
	setAttr -av -cb on ".ep";
	setAttr -av -k on ".fec";
	setAttr -av -k on ".ofc";
	setAttr -cb on ".ofe";
	setAttr -cb on ".efe";
	setAttr -cb on ".oft";
	setAttr -cb on ".umfn";
	setAttr -cb on ".ufe";
	setAttr -av -cb on ".pff";
	setAttr -av -cb on ".peie";
	setAttr -av -cb on ".ifp";
	setAttr -k on ".rv";
	setAttr -av -k on ".comp";
	setAttr -av -k on ".cth";
	setAttr -av -k on ".soll";
	setAttr -cb on ".sosl";
	setAttr -av -k on ".rd";
	setAttr -av -k on ".lp";
	setAttr -av -k on ".sp";
	setAttr -av -k on ".shs";
	setAttr -av -k on ".lpr";
	setAttr -cb on ".gv";
	setAttr -cb on ".sv";
	setAttr -av -k on ".mm";
	setAttr -av -k on ".npu";
	setAttr -av -k on ".itf";
	setAttr -av -k on ".shp";
	setAttr -cb on ".isp";
	setAttr -av -k on ".uf";
	setAttr -av -k on ".oi";
	setAttr -av -k on ".rut";
	setAttr -av -k on ".mot";
	setAttr -av -cb on ".mb";
	setAttr -av -k on ".mbf";
	setAttr -av -k on ".mbso";
	setAttr -av -k on ".mbsc";
	setAttr -av -k on ".afp";
	setAttr -av -k on ".pfb";
	setAttr -k on ".pram";
	setAttr -k on ".poam";
	setAttr -k on ".prlm";
	setAttr -k on ".polm";
	setAttr -cb on ".prm";
	setAttr -cb on ".pom";
	setAttr -cb on ".pfrm";
	setAttr -cb on ".pfom";
	setAttr -av -k on ".bll";
	setAttr -av -k on ".bls";
	setAttr -av -k on ".smv";
	setAttr -av -k on ".ubc";
	setAttr -av -k on ".mbc";
	setAttr -cb on ".mbt";
	setAttr -av -k on ".udbx";
	setAttr -av -k on ".smc";
	setAttr -av -k on ".kmv";
	setAttr -cb on ".isl";
	setAttr -cb on ".ism";
	setAttr -cb on ".imb";
	setAttr -av -k on ".rlen";
	setAttr -av -k on ".frts";
	setAttr -av -k on ".tlwd";
	setAttr -av -k on ".tlht";
	setAttr -av -k on ".jfc";
	setAttr -cb on ".rsb";
	setAttr -av -cb on ".ope";
	setAttr -av -cb on ".oppf";
	setAttr -av -k on ".rcp";
	setAttr -av -k on ".icp";
	setAttr -av -k on ".ocp";
	setAttr -cb on ".hbl";
select -ne :defaultResolution;
	setAttr -av -k on ".cch";
	setAttr -av -k on ".ihi";
	setAttr -av -k on ".nds";
	setAttr -k on ".bnm";
	setAttr -av -k on ".w";
	setAttr -av -k on ".h";
	setAttr -av -k on ".pa" 1;
	setAttr -av -k on ".al";
	setAttr -av -k on ".dar";
	setAttr -av -k on ".ldar";
	setAttr -av -k on ".dpi";
	setAttr -av -k on ".off";
	setAttr -av -k on ".fld";
	setAttr -av -k on ".zsl";
	setAttr -av -k on ".isu";
	setAttr -av -k on ".pdu";
select -ne :hardwareRenderGlobals;
	setAttr -av -k on ".cch";
	setAttr -cb on ".ihi";
	setAttr -av -k on ".nds";
	setAttr -cb on ".bnm";
	setAttr -av -k off -cb on ".ctrs" 256;
	setAttr -av -k off -cb on ".btrs" 512;
	setAttr -av -k off -cb on ".fbfm";
	setAttr -av -k off -cb on ".ehql";
	setAttr -av -k off -cb on ".eams";
	setAttr -av -k off -cb on ".eeaa";
	setAttr -av -k off -cb on ".engm";
	setAttr -av -k off -cb on ".mes";
	setAttr -av -k off -cb on ".emb";
	setAttr -av -k off -cb on ".mbbf";
	setAttr -av -k off -cb on ".mbs";
	setAttr -av -k off -cb on ".trm";
	setAttr -av -k off -cb on ".tshc";
	setAttr -av -k off -cb on ".enpt";
	setAttr -av -k off -cb on ".clmt";
	setAttr -av -k off -cb on ".tcov";
	setAttr -av -k off -cb on ".lith";
	setAttr -av -k off -cb on ".sobc";
	setAttr -av -k off -cb on ".cuth";
	setAttr -av -k off -cb on ".hgcd";
	setAttr -av -k off -cb on ".hgci";
	setAttr -av -k off -cb on ".mgcs";
	setAttr -av -k off -cb on ".twa";
	setAttr -av -k off -cb on ".twz";
	setAttr -k on ".hwcc";
	setAttr -k on ".hwdp";
	setAttr -k on ".hwql";
	setAttr -k on ".hwfr";
	setAttr -k on ".soll";
	setAttr -k on ".sosl";
	setAttr -k on ".bswa";
	setAttr -k on ".shml";
	setAttr -k on ".hwel";
connectAttr "pelvisNnRlSkin_Jnt.s" "upLegNnRl_L_Jnt.is";
connectAttr "upLegNnRl_L_Jnt.s" "lowLegNnRl_L_Jnt.is";
connectAttr "pelvisNnRlSkin_Jnt.s" "upLegNnRl_R_Jnt.is";
connectAttr "upLegNnRl_R_Jnt.s" "lowLegNnRl_R_Jnt.is";
connectAttr "pelvisNnRlSkin_Jnt.s" "upLeg_L_jnt.is";
connectAttr "upLeg_L_jnt.s" "lowLeg_L_jnt.is";
connectAttr "pelvisNnRlSkin_Jnt.s" "upLeg_R_jnt.is";
connectAttr "upLeg_R_jnt.s" "lowLeg_R_jnt.is";
relationship "link" ":lightLinker1" ":initialShadingGroup.message" ":defaultLightSet.message";
relationship "link" ":lightLinker1" ":initialParticleSE.message" ":defaultLightSet.message";
relationship "shadowLink" ":lightLinker1" ":initialShadingGroup.message" ":defaultLightSet.message";
relationship "shadowLink" ":lightLinker1" ":initialParticleSE.message" ":defaultLightSet.message";
connectAttr "layerManager.dli[0]" "defaultLayer.id";
connectAttr "renderLayerManager.rlmi[0]" "defaultRenderLayer.rlid";
connectAttr "skirtNonRlAutoStrLFT_mdv.ox" "skirtNonRlAutoStrLFT_mul.i1";
connectAttr "skirtNonRlAutoStrLFT_bln.default" "skirtNonRlAutoStrLFT_bln.i[0]";
connectAttr "skirtNonRlAutoStrLFT_mul.o" "skirtNonRlAutoStrLFT_bln.i[1]";
connectAttr "skirtNonRlStrLFT_mul.default" "skirtNonRlStrLFT_mul.i1";
connectAttr "skirtNonRlStrAmpLFT_mul.o" "skirtNonRlStrLFT_mul.i2";
connectAttr "skirtNonRlStrAmpLFT_mul.amp" "skirtNonRlStrAmpLFT_mul.i1";
connectAttr "skirtNonRlAutoStrRGT_mdv.ox" "skirtNonRlAutoStrRGT_mul.i1";
connectAttr "skirtNonRlAutoStrRGT_bln.default" "skirtNonRlAutoStrRGT_bln.i[0]";
connectAttr "skirtNonRlAutoStrRGT_mul.o" "skirtNonRlAutoStrRGT_bln.i[1]";
connectAttr "skirtNonRlStrRGT_mul.default" "skirtNonRlStrRGT_mul.i1";
connectAttr "skirtNonRlStrAmpRGT_mul.o" "skirtNonRlStrRGT_mul.i2";
connectAttr "skirtNonRlStrAmpRGT_mul.amp" "skirtNonRlStrAmpRGT_mul.i1";
connectAttr "pelvisNnRlSkin_Jnt.msg" "MayaNodeEditorSavedTabsInfo.tgi[0].ni[0].dn"
		;
connectAttr "upLegNnRl_L_Jnt.msg" "MayaNodeEditorSavedTabsInfo.tgi[0].ni[1].dn";
connectAttr "upLegNnRl_R_Jnt.msg" "MayaNodeEditorSavedTabsInfo.tgi[0].ni[2].dn";
connectAttr "lowLegNnRl_L_Jnt.msg" "MayaNodeEditorSavedTabsInfo.tgi[0].ni[3].dn"
		;
connectAttr "skirtTmp_Grp.msg" "MayaNodeEditorSavedTabsInfo.tgi[0].ni[4].dn";
connectAttr "legNnrlRig_grp.msg" "MayaNodeEditorSavedTabsInfo.tgi[0].ni[5].dn";
connectAttr "lowLegNnRl_R_Jnt.msg" "MayaNodeEditorSavedTabsInfo.tgi[0].ni[6].dn"
		;
connectAttr "upLeg_L_jnt.msg" "MayaNodeEditorSavedTabsInfo.tgi[0].ni[7].dn";
connectAttr "defaultRenderLayer.msg" ":defaultRenderingList1.r" -na;
// End of skirtTmp.ma
