+ MAYAVERSION:2014 retargetBlendshape 0.8.2 C:/Users/duangkamol.j/Downloads/maya-retarget-blendshape/maya-retarget-blendshape
+ MAYAVERSION:2015 retargetBlendshape 0.8.2 C:/Users/duangkamol.j/Downloads/maya-retarget-blendshape/maya-retarget-blendshape
+ MAYAVERSION:2016 retargetBlendshape 0.8.2 C:/Users/duangkamol.j/Downloads/maya-retarget-blendshape/maya-retarget-blendshape
+ MAYAVERSION:2017 retargetBlendshape 0.8.2 C:/Users/duangkamol.j/Downloads/maya-retarget-blendshape/maya-retarget-blendshape
+ MAYAVERSION:2018 retargetBlendshape 0.8.2 C:/Users/duangkamol.j/Downloads/maya-retarget-blendshape/maya-retarget-blendshape
+ MAYAVERSION:2019 retargetBlendshape 0.8.2 C:/Users/duangkamol.j/Downloads/maya-retarget-blendshape/maya-retarget-blendshape
