//Maya ASCII 2018ff09 scene
//Name: maya.ma
//Last modified: Fri, Nov 08, 2019 05:59:11 PM
//Codeset: 1252
requires maya "2018ff09";
currentUnit -l centimeter -a degree -t film;
fileInfo "application" "maya";
fileInfo "product" "Maya 2018";
fileInfo "version" "2018";
fileInfo "cutIdentifier" "201807191615-2c29512b8a";
fileInfo "osv" "Microsoft Windows 8 Business Edition, 64-bit  (Build 9200)\n";
createNode transform -s -n "persp";
	rename -uid "C3DAFE8B-4EF9-D783-AF67-2A9495B0A175";
	setAttr ".v" no;
	setAttr ".t" -type "double3" 28 21 28 ;
	setAttr ".r" -type "double3" -27.938352729602379 44.999999999999972 -5.172681101354183e-14 ;
createNode camera -s -n "perspShape" -p "persp";
	rename -uid "057543FC-4374-7C55-998E-C1AE133FDF56";
	setAttr -k off ".v" no;
	setAttr ".fl" 34.999999999999993;
	setAttr ".coi" 44.82186966202994;
	setAttr ".imn" -type "string" "persp";
	setAttr ".den" -type "string" "persp_depth";
	setAttr ".man" -type "string" "persp_mask";
	setAttr ".hc" -type "string" "viewSet -p %camera";
createNode transform -s -n "top";
	rename -uid "373C9605-4F3C-BF98-EAF4-E0A51728B166";
	setAttr ".v" no;
	setAttr ".t" -type "double3" 0 1000.1 0 ;
	setAttr ".r" -type "double3" -89.999999999999986 0 0 ;
createNode camera -s -n "topShape" -p "top";
	rename -uid "CB0F534F-4F1D-D2A2-EBC6-36AE38C83975";
	setAttr -k off ".v" no;
	setAttr ".rnd" no;
	setAttr ".coi" 1000.1;
	setAttr ".ow" 30;
	setAttr ".imn" -type "string" "top";
	setAttr ".den" -type "string" "top_depth";
	setAttr ".man" -type "string" "top_mask";
	setAttr ".hc" -type "string" "viewSet -t %camera";
	setAttr ".o" yes;
createNode transform -s -n "front";
	rename -uid "4883A3C0-4BAD-E499-178F-C28DECF81040";
	setAttr ".v" no;
	setAttr ".t" -type "double3" 0 0 1000.1 ;
createNode camera -s -n "frontShape" -p "front";
	rename -uid "C7D60997-45B4-C405-6212-8195696BD05A";
	setAttr -k off ".v" no;
	setAttr ".rnd" no;
	setAttr ".coi" 1000.1;
	setAttr ".ow" 30;
	setAttr ".imn" -type "string" "front";
	setAttr ".den" -type "string" "front_depth";
	setAttr ".man" -type "string" "front_mask";
	setAttr ".hc" -type "string" "viewSet -f %camera";
	setAttr ".o" yes;
createNode transform -s -n "side";
	rename -uid "FC696341-4051-8789-C831-3DB50DC55FB7";
	setAttr ".v" no;
	setAttr ".t" -type "double3" 1000.1 0 0 ;
	setAttr ".r" -type "double3" 0 89.999999999999986 0 ;
createNode camera -s -n "sideShape" -p "side";
	rename -uid "0604E106-4788-BA70-FF59-0BBB94A2CA39";
	setAttr -k off ".v" no;
	setAttr ".rnd" no;
	setAttr ".coi" 1000.1;
	setAttr ".ow" 30;
	setAttr ".imn" -type "string" "side";
	setAttr ".den" -type "string" "side_depth";
	setAttr ".man" -type "string" "side_mask";
	setAttr ".hc" -type "string" "viewSet -s %camera";
	setAttr ".o" yes;
createNode lightLinker -s -n "lightLinker1";
	rename -uid "4A1E8F6E-49A2-C30B-533E-C28530BC9A5B";
	setAttr -s 2 ".lnk";
	setAttr -s 2 ".slnk";
createNode shapeEditorManager -n "shapeEditorManager";
	rename -uid "C26571DD-4A3B-EA50-E761-7BACE0E958B8";
createNode poseInterpolatorManager -n "poseInterpolatorManager";
	rename -uid "F6D4F7AF-41AA-F14F-8F3B-0F8215363B6F";
createNode displayLayerManager -n "layerManager";
	rename -uid "77BB137D-4E67-3D2C-1BC0-559A8FCD706D";
createNode displayLayer -n "defaultLayer";
	rename -uid "42FB8145-4862-1803-9D77-06B6136AE0B9";
createNode renderLayerManager -n "renderLayerManager";
	rename -uid "41C9A913-45C4-1CFE-70D7-538711B7301C";
createNode renderLayer -n "defaultRenderLayer";
	rename -uid "E07E866D-4672-45F4-20CE-DB9F73E95509";
	setAttr ".g" yes;
createNode script -n "sceneConfigurationScriptNode";
	rename -uid "4ABEC987-4F8E-BD12-C4CE-7CB15601686A";
	setAttr ".b" -type "string" "playbackOptions -min 1 -max 120 -ast 1 -aet 200 ";
	setAttr ".st" 6;
select -ne :time1;
	setAttr ".o" 1;
	setAttr ".unw" 1;
select -ne :hardwareRenderingGlobals;
	setAttr ".otfna" -type "stringArray" 22 "NURBS Curves" "NURBS Surfaces" "Polygons" "Subdiv Surface" "Particles" "Particle Instance" "Fluids" "Strokes" "Image Planes" "UI" "Lights" "Cameras" "Locators" "Joints" "IK Handles" "Deformers" "Motion Trails" "Components" "Hair Systems" "Follicles" "Misc. UI" "Ornaments"  ;
	setAttr ".otfva" -type "Int32Array" 22 0 1 1 1 1 1
		 1 1 1 0 0 0 0 0 0 0 0 0
		 0 0 0 0 ;
	setAttr ".cons" no;
	setAttr ".ta" 0;
	setAttr ".tmr" 1024;
	setAttr ".fprt" yes;
select -ne :renderPartition;
	setAttr -s 2 ".st";
select -ne :renderGlobalsList1;
select -ne :defaultShaderList1;
	setAttr -s 4 ".s";
select -ne :postProcessList1;
	setAttr -s 2 ".p";
select -ne :defaultRenderingList1;
select -ne :initialShadingGroup;
	setAttr ".ro" yes;
select -ne :initialParticleSE;
	setAttr ".ro" yes;
select -ne :defaultResolution;
	setAttr ".pa" 1;
select -ne :hardwareRenderGlobals;
	setAttr ".ctrs" 256;
	setAttr ".btrs" 512;
relationship "link" ":lightLinker1" ":initialShadingGroup.message" ":defaultLightSet.message";
relationship "link" ":lightLinker1" ":initialParticleSE.message" ":defaultLightSet.message";
relationship "shadowLink" ":lightLinker1" ":initialShadingGroup.message" ":defaultLightSet.message";
relationship "shadowLink" ":lightLinker1" ":initialParticleSE.message" ":defaultLightSet.message";
connectAttr "layerManager.dli[0]" "defaultLayer.id";
connectAttr "renderLayerManager.rlmi[0]" "defaultRenderLayer.rlid";
connectAttr "defaultRenderLayer.msg" ":defaultRenderingList1.r" -na;
// End of maya.ma
