//Maya ASCII 2016 scene
//Name: frd_deerWhite_rig_skele.ma
//Last modified: Fri, Nov 18, 2016 10:47:44 AM
//Codeset: 1252
requires maya "2016";
requires -nodeType "mentalrayFramebuffer" -nodeType "mentalrayOptions" -nodeType "mentalrayGlobals"
		 -nodeType "mentalrayItemsList" -dataType "byteArray" "Mayatomr" "2016.0 - 3.13.1.10 ";
requires -nodeType "VRaySettingsNode" "vrayformaya" "3.10.01";
requires "stereoCamera" "10.0";
requires "stereoCamera" "10.0";
requires "pfOptions.py" "1.0";
requires "mtoa" "0.25.2";
requires "PO_Reader_v2012_64" "1.0";
currentUnit -l centimeter -a degree -t film;
fileInfo "application" "maya";
fileInfo "product" "Maya 2016";
fileInfo "version" "2016";
fileInfo "cutIdentifier" "201603180400-990260";
fileInfo "osv" "Microsoft Windows 8 Business Edition, 64-bit  (Build 9200)\n";
createNode transform -s -n "persp";
	rename -uid "C9CFFC48-46BA-159A-C601-D0947D78A537";
	setAttr ".v" no;
	setAttr ".t" -type "double3" 19.138931326642563 7.815614520212316 23.370756527312768 ;
	setAttr ".r" -type "double3" -2.138352729511686 41.399999999987969 0 ;
createNode camera -s -n "perspShape" -p "persp";
	rename -uid "09CE0E42-4A8A-AE30-279B-3A8E051D1F6B";
	setAttr -k off ".v" no;
	setAttr ".fl" 34.999999999999993;
	setAttr ".coi" 31.259389588675681;
	setAttr ".imn" -type "string" "persp";
	setAttr ".den" -type "string" "persp_depth";
	setAttr ".man" -type "string" "persp_mask";
	setAttr ".tp" -type "double3" 0.73734145934158435 2.563531303257705 -1.8118218766500933 ;
	setAttr ".hc" -type "string" "viewSet -p %camera";
createNode transform -s -n "top";
	rename -uid "788AE679-48A1-5961-04AC-0B8B68E4E0B5";
	setAttr ".v" no;
	setAttr ".t" -type "double3" 1.5744702016961054 100.11151164824562 1.634651156133875 ;
	setAttr ".r" -type "double3" -89.999999999999986 0 0 ;
createNode camera -s -n "topShape" -p "top";
	rename -uid "E82B74D9-476C-6A79-7AF0-0684FD369DB7";
	setAttr -k off ".v" no;
	setAttr ".rnd" no;
	setAttr ".coi" 100.1;
	setAttr ".ow" 3.2051544595232278;
	setAttr ".imn" -type "string" "top";
	setAttr ".den" -type "string" "top_depth";
	setAttr ".man" -type "string" "top_mask";
	setAttr ".hc" -type "string" "viewSet -t %camera";
	setAttr ".o" yes;
createNode transform -s -n "front";
	rename -uid "3969B873-41D9-B78B-68C8-05BC633E2A33";
	setAttr ".v" no;
	setAttr ".t" -type "double3" 0.67702038324172809 2.6238523793575608 101.51524743994484 ;
createNode camera -s -n "frontShape" -p "front";
	rename -uid "A2278EB8-4DBE-7850-615E-7EB664867406";
	setAttr -k off ".v" no;
	setAttr ".rnd" no;
	setAttr ".coi" 100.1;
	setAttr ".ow" 11.561539585805702;
	setAttr ".imn" -type "string" "front";
	setAttr ".den" -type "string" "front_depth";
	setAttr ".man" -type "string" "front_mask";
	setAttr ".hc" -type "string" "viewSet -f %camera";
	setAttr ".o" yes;
createNode transform -s -n "side";
	rename -uid "F3F9043A-470E-48D0-245E-73B5F3B8F472";
	setAttr ".v" no;
	setAttr ".t" -type "double3" 100.9990869576212 6.5883698920309808 1.3982228603965197 ;
	setAttr ".r" -type "double3" 0 89.999999999999986 0 ;
createNode camera -s -n "sideShape" -p "side";
	rename -uid "6D0E8BBA-4D4C-1E7D-557E-89A3C86E1F76";
	setAttr -k off ".v" no;
	setAttr ".rnd" no;
	setAttr ".coi" 100.1;
	setAttr ".ow" 7.252631578947371;
	setAttr ".imn" -type "string" "side";
	setAttr ".den" -type "string" "side_depth";
	setAttr ".man" -type "string" "side_mask";
	setAttr ".hc" -type "string" "viewSet -s %camera";
	setAttr ".o" yes;
createNode transform -n "tmpJnt_grp";
	rename -uid "B1654513-4065-44B8-C37D-BCB30B3D6A68";
createNode joint -n "root_tmpJnt" -p "tmpJnt_grp";
	rename -uid "4F321E00-455E-05CE-DE75-12AEB2E02277";
	addAttr -ci true -sn "liw" -ln "lockInfluenceWeights" -min 0 -max 1 -at "bool";
	setAttr ".oc" 4;
	setAttr ".t" -type "double3" 0 5.0521667552006031 0.020142644658461911 ;
	setAttr ".bps" -type "matrix" 1 0 0 0 0 1 0 0 0 0 1 0 0 2.2681063555405769 -1.4032304947659555 1;
	setAttr ".radi" 0.2;
	setAttr ".liw" yes;
createNode joint -n "spine1_tmpJnt" -p "root_tmpJnt";
	rename -uid "7F39AEB3-4008-8D0B-EA13-608A5C433505";
	addAttr -ci true -sn "liw" -ln "lockInfluenceWeights" -min 0 -max 1 -at "bool";
	setAttr ".oc" 4;
	setAttr ".t" -type "double3" 0 0.35238390226155403 -0.39326695628170216 ;
	setAttr ".bps" -type "matrix" 1 0 0 0 0 1 0 0 0 0 1 0 0 2.2817444172682317 -0.69265775134565211 1;
	setAttr ".radi" 0.2;
createNode joint -n "spine2_tmpJnt" -p "spine1_tmpJnt";
	rename -uid "FF1E95AC-4AF6-3AA3-C30B-0DB2E0CCF8A6";
	addAttr -ci true -sn "liw" -ln "lockInfluenceWeights" -min 0 -max 1 -at "bool";
	setAttr ".oc" 4;
	setAttr ".t" -type "double3" 0 0.11046554462340907 1.1949362684419658 ;
	setAttr ".jo" -type "double3" 0.00049210753691731593 0 0 ;
	setAttr ".bps" -type "matrix" 1 0 0 0 0 1 0 0 0 0 1 0 0 2.2817444172682317 -0.079682590673699427 1;
	setAttr ".radi" 0.2;
	setAttr ".liw" yes;
createNode joint -n "spine3_tmpJnt" -p "spine2_tmpJnt";
	rename -uid "85202D2C-4429-ED2E-BA8F-C4BE2681AD83";
	addAttr -ci true -sn "liw" -ln "lockInfluenceWeights" -min 0 -max 1 -at "bool";
	setAttr ".oc" 4;
	setAttr ".t" -type "double3" 7.4351863798988841e-017 0.33612439699618246 1.2862132045036274 ;
	setAttr ".jo" -type "double3" -0.43087203909404886 0 0 ;
	setAttr ".bps" -type "matrix" -1 1.2246467991473532e-016 0 0 -1.1272293194626998e-018 -0.0092045259110424826 0.99995763745408384 0
		 1.2245949199910933e-016 0.99995763745408384 0.0092045259110423716 0 0 2.484142088865982 1.2954842808324858 1;
	setAttr ".radi" 0.2;
	setAttr ".liw" yes;
createNode joint -n "neck1_tmpJnt" -p "spine3_tmpJnt";
	rename -uid "271F381C-48A8-DB6D-D76F-97985C2E9475";
	addAttr -ci true -sn "liw" -ln "lockInfluenceWeights" -min 0 -max 1 -at "bool";
	setAttr ".oc" 4;
	setAttr ".t" -type "double3" 2.0514079250479654e-023 7.1054273576010019e-015 -2.6645352591003757e-015 ;
	setAttr ".jo" -type "double3" -7.3386108717179059 0 0 ;
	setAttr ".bps" -type "matrix" -1 1.2246467991473532e-016 0 0 -1.1272293194626998e-018 -0.0092045259110424826 0.99995763745408384 0
		 1.2245949199910933e-016 0.99995763745408384 0.0092045259110423716 0 0 2.484142088865982 1.2954842808324858 1;
	setAttr ".radi" 0.2;
	setAttr ".liw" yes;
createNode joint -n "head1_tmpJnt" -p "neck1_tmpJnt";
	rename -uid "6C3AD4C8-40F4-9D99-E797-C9B26C692190";
	addAttr -ci true -sn "liw" -ln "lockInfluenceWeights" -min 0 -max 1 -at "bool";
	setAttr -av ".v";
	setAttr ".t" -type "double3" -6.007167358800569e-018 2.9112513624173033 4.4408920985006262e-016 ;
	setAttr ".jo" -type "double3" 7.7689908032750381 0 0 ;
	setAttr ".bps" -type "matrix" 1 -1.2133745059527262e-016 -1.2245949199910933e-016 0
		 1.2133745059527262e-016 1 -1.1102230246251565e-016 0 1.2245949199910933e-016 -1.1102230246251565e-016 1 0
		 1.3866695599588098e-032 2.5039856023436458 1.8096544968355393 1;
	setAttr ".radi" 0.2;
	setAttr ".liw" yes;
createNode joint -n "lowerJaw1_tmpJnt" -p "head1_tmpJnt";
	rename -uid "5BA8A65E-4977-CB96-42BD-7B9549A1EF31";
	addAttr -ci true -sn "liw" -ln "lockInfluenceWeights" -min 0 -max 1 -at "bool";
	setAttr ".t" -type "double3" 2.6227362816030917e-016 -0.087474637798596433 0.88139521426903311 ;
	setAttr ".bps" -type "matrix" 1 -1.2133745059527262e-016 -1.2245949199910933e-016 0
		 1.2133745059527262e-016 1 -1.1102230246251565e-016 0 1.2245949199910933e-016 -1.1102230246251565e-016 1 0
		 -3.6457697358874226e-017 2.1219404074191202 1.8904868802126782 1;
	setAttr ".radi" 0.2;
	setAttr ".liw" yes;
createNode joint -n "lowerJaw2_tmpJnt" -p "lowerJaw1_tmpJnt";
	rename -uid "F7B8299A-4E8B-8B39-099E-F7A4BE718B4B";
	addAttr -ci true -sn "liw" -ln "lockInfluenceWeights" -min 0 -max 1 -at "bool";
	setAttr ".t" -type "double3" -1.6544773752902978e-016 -0.69726001049487696 1.0383099917466083 ;
	setAttr ".bps" -type "matrix" 1 -1.2133745059527262e-016 -1.2245949199910933e-016 0
		 1.2133745059527262e-016 1 -1.1102230246251565e-016 0 1.2245949199910933e-016 -1.1102230246251565e-016 1 0
		 -1.3558546808486143e-031 1.9729135286842563 2.4706924894068463 1;
	setAttr ".radi" 0.2;
	setAttr ".liw" yes;
createNode joint -n "lowerJaw3_tmpJnt" -p "lowerJaw2_tmpJnt";
	rename -uid "609CE029-4D72-3682-88B6-37A97E6888B3";
	addAttr -ci true -sn "liw" -ln "lockInfluenceWeights" -min 0 -max 1 -at "bool";
	setAttr ".t" -type "double3" -4.3101173425501486e-017 -0.13859661243187738 0.79446715825441183 ;
	setAttr ".bps" -type "matrix" 1 -1.2133745059527262e-016 -1.2245949199910933e-016 0
		 1.2133745059527262e-016 1 -1.1102230246251565e-016 0 1.2245949199910933e-016 -1.1102230246251565e-016 1 0
		 1.9016352676435449e-017 1.7432994409501552 2.8534896081732022 1;
	setAttr ".radi" 0.2;
	setAttr ".liw" yes;
createNode joint -n "upperJaw1_tmpJnt" -p "head1_tmpJnt";
	rename -uid "E8B6DEF1-437B-7CD3-0B19-8CA1D743FD0C";
	addAttr -ci true -sn "liw" -ln "lockInfluenceWeights" -min 0 -max 1 -at "bool";
	setAttr ".t" -type "double3" 5.2297892687967303e-018 -0.64769048189728551 1.9833283665482866 ;
	setAttr ".bps" -type "matrix" -1 2.4380213051000794e-016 1.2245949199910931e-016 0
		 -2.4380213051000794e-016 -1 1.1102230246251568e-016 0 1.2245949199910933e-016 -1.1102230246251565e-016 1 0
		 6.9822913909625412e-017 2.1938846105615246 2.5591670662971193 1;
	setAttr ".radi" 0.2;
	setAttr ".liw" yes;
createNode joint -n "upperJaw2_tmpJnt" -p "upperJaw1_tmpJnt";
	rename -uid "B85E5E5D-4B72-D1B8-7BFE-06A1D95F1546";
	addAttr -ci true -sn "liw" -ln "lockInfluenceWeights" -min 0 -max 1 -at "bool";
	setAttr ".t" -type "double3" -1.2210812433126547e-016 -0.15969650088746867 0.78654545093687922 ;
	setAttr ".bps" -type "matrix" -1 2.4380213051000794e-016 1.2245949199910931e-016 0
		 -2.4380213051000794e-016 -1 1.1102230246251568e-016 0 1.2245949199910933e-016 -1.1102230246251565e-016 1 0
		 1.113952368336395e-016 1.9267185764694514 3.163363337068307 1;
	setAttr ".radi" 0.2;
	setAttr ".liw" yes;
createNode joint -n "eyeLFT_tmpJnt" -p "head1_tmpJnt";
	rename -uid "D007FDBF-4953-17B2-D3FE-48BBCA096347";
	addAttr -ci true -sn "liw" -ln "lockInfluenceWeights" -min 0 -max 1 -at "bool";
	setAttr ".t" -type "double3" 0.44669775685998897 0.44566046442773555 0.96867650212732093 ;
	setAttr ".mnrl" -type "double3" -360 -360 -360 ;
	setAttr ".mxrl" -type "double3" 360 360 360 ;
	setAttr ".bps" -type "matrix" 1 0 0 0 0 1 0 0 0 0 1 0 0.38214995609631658 11.20326751514413 0.61374760757769653 1;
	setAttr -k on -cb off ".radi" 0.2;
	setAttr ".liw" yes;
createNode joint -n "irisLFT_tmpJnt" -p "eyeLFT_tmpJnt";
	rename -uid "47B0F7CB-40E3-2FB1-E5FB-E0B9FB9E87F1";
	addAttr -ci true -sn "liw" -ln "lockInfluenceWeights" -min 0 -max 1 -at "bool";
	setAttr ".t" -type "double3" 0.36163546123769774 -0.025147629840439834 0.41593852917790741 ;
	setAttr ".mnrl" -type "double3" -360 -360 -360 ;
	setAttr ".mxrl" -type "double3" 360 360 360 ;
	setAttr ".bps" -type "matrix" 1 0 0 0 0 1 0 0 0 0 1 0 0.38214995609631658 11.20326751514413 0.61374760757769653 1;
	setAttr -k on -cb off ".radi" 0.2;
	setAttr ".liw" yes;
createNode joint -n "pupilLFT_tmpJnt" -p "irisLFT_tmpJnt";
	rename -uid "118C1746-44D3-DCFA-E3E2-9E9BCC3A9517";
	addAttr -ci true -sn "liw" -ln "lockInfluenceWeights" -min 0 -max 1 -at "bool";
	setAttr ".t" -type "double3" 0 0 3.1086244689504383e-015 ;
	setAttr ".mnrl" -type "double3" -360 -360 -360 ;
	setAttr ".mxrl" -type "double3" 360 360 360 ;
	setAttr ".bps" -type "matrix" 1 0 0 0 0 1 0 0 0 0 1 0 0.38214995609631658 11.20326751514413 0.61374760757769653 1;
	setAttr -k on -cb off ".radi" 0.2;
	setAttr ".liw" yes;
createNode joint -n "eyeSpecLFT_tmpJnt" -p "eyeLFT_tmpJnt";
	rename -uid "5F892957-46F6-7557-71BA-17BA02CC207C";
	addAttr -ci true -sn "liw" -ln "lockInfluenceWeights" -min 0 -max 1 -at "bool";
	setAttr ".t" -type "double3" 0.4375221280124475 0.11367111100428673 0.33773246686101288 ;
	setAttr ".mnrl" -type "double3" -360 -360 -360 ;
	setAttr ".mxrl" -type "double3" 360 360 360 ;
	setAttr ".bps" -type "matrix" 1 0 0 0 0 1 0 0 0 0 1 0 0.38214995609631658 11.20326751514413 0.61374760757769653 1;
	setAttr -k on -cb off ".radi" 0.2;
	setAttr ".liw" yes;
createNode joint -n "eyeRGT_tmpJnt" -p "head1_tmpJnt";
	rename -uid "3E1E764D-40F0-8C59-F9E6-D68FF043E9CA";
	addAttr -ci true -sn "liw" -ln "lockInfluenceWeights" -min 0 -max 1 -at "bool";
	setAttr ".t" -type "double3" -0.44669800000000004 0.44566103588124051 0.96867301104155645 ;
	setAttr ".mnrl" -type "double3" -360 -360 -360 ;
	setAttr ".mxrl" -type "double3" 360 360 360 ;
	setAttr ".jo" -type "double3" 8.5377364625159387e-007 0 0 ;
	setAttr ".bps" -type "matrix" 1 0 0 0 0 1 0 0 0 0 1 0 0.38214995609631658 11.20326751514413 0.61374760757769653 1;
	setAttr -k on -cb off ".radi" 0.2;
	setAttr ".liw" yes;
createNode joint -n "irisRGT_tmpJnt" -p "eyeRGT_tmpJnt";
	rename -uid "8BE8BB7A-4DF9-53E3-A3A3-DD95C63D0EAA";
	addAttr -ci true -sn "liw" -ln "lockInfluenceWeights" -min 0 -max 1 -at "bool";
	setAttr ".t" -type "double3" -0.361635 -0.025150000000000006 0.41594 ;
	setAttr ".mnrl" -type "double3" -360 -360 -360 ;
	setAttr ".mxrl" -type "double3" 360 360 360 ;
	setAttr ".jo" -type "double3" 8.5377364625159387e-007 0 0 ;
	setAttr ".bps" -type "matrix" 1 0 0 0 0 1 0 0 0 0 1 0 0.38214995609631658 11.20326751514413 0.61374760757769653 1;
	setAttr -k on -cb off ".radi" 0.2;
	setAttr ".liw" yes;
createNode joint -n "pupilRGT_tmpJnt" -p "irisRGT_tmpJnt";
	rename -uid "F1745E9D-4391-2B08-111D-87B218808EDC";
	addAttr -ci true -sn "liw" -ln "lockInfluenceWeights" -min 0 -max 1 -at "bool";
	setAttr ".t" -type "double3" 0 0 -8.8817841970012523e-016 ;
	setAttr ".mnrl" -type "double3" -360 -360 -360 ;
	setAttr ".mxrl" -type "double3" 360 360 360 ;
	setAttr ".jo" -type "double3" 8.5377364625159387e-007 0 0 ;
	setAttr ".bps" -type "matrix" 1 0 0 0 0 1 0 0 0 0 1 0 0.38214995609631658 11.20326751514413 0.61374760757769653 1;
	setAttr -k on -cb off ".radi" 0.2;
	setAttr ".liw" yes;
createNode joint -n "eyeSpecRGT_tmpJnt" -p "eyeRGT_tmpJnt";
	rename -uid "9D476A20-40A4-3683-3200-D489049711F3";
	addAttr -ci true -sn "liw" -ln "lockInfluenceWeights" -min 0 -max 1 -at "bool";
	setAttr ".t" -type "double3" -0.22615403933715822 0.098747443847656768 0.50612909301757814 ;
	setAttr ".mnrl" -type "double3" -360 -360 -360 ;
	setAttr ".mxrl" -type "double3" 360 360 360 ;
	setAttr ".jo" -type "double3" 8.5377364625159387e-007 0 0 ;
	setAttr ".bps" -type "matrix" 1 0 0 0 0 1 0 0 0 0 1 0 0.38214995609631658 11.20326751514413 0.61374760757769653 1;
	setAttr -k on -cb off ".radi" 0.2;
	setAttr ".liw" yes;
createNode joint -n "eyeTrgt_tmpJnt" -p "head1_tmpJnt";
	rename -uid "F1B3C293-497F-E4BB-EB40-B98674C340C0";
	addAttr -ci true -sn "liw" -ln "lockInfluenceWeights" -min 0 -max 1 -at "bool";
	setAttr ".t" -type "double3" -1.2157000554742163e-007 0.44566075015448803 6.2855130110415542 ;
	setAttr ".bps" -type "matrix" 1 -1.2133745059527262e-016 -1.2245949199910933e-016 0
		 1.2133745059527262e-016 1 -1.1102230246251565e-016 0 1.2245949199910933e-016 -1.1102230246251565e-016 1 0
		 1.3866695599588098e-032 2.5745714526959635 5.4630198684791083 1;
	setAttr ".radi" 0.2;
createNode joint -n "eyeTrgtLFT_tmpJnt" -p "eyeTrgt_tmpJnt";
	rename -uid "39C9A8DC-4E96-F826-0D8B-03B5EEEDE151";
	addAttr -ci true -sn "liw" -ln "lockInfluenceWeights" -min 0 -max 1 -at "bool";
	setAttr ".t" -type "double3" 0.80833333966769227 0.013355057039806439 -9.7699626167013776e-015 ;
	setAttr ".bps" -type "matrix" 1 -1.2133745059527262e-016 -1.2245949199910933e-016 0
		 1.2133745059527262e-016 1 -1.1102230246251565e-016 0 1.2245949199910933e-016 -1.1102230246251565e-016 1 0
		 0.35710078607398044 2.5745714526959635 5.4630198684791083 1;
	setAttr ".radi" 0.2;
createNode joint -n "eyeTrgtRGT_tmpJnt" -p "eyeTrgt_tmpJnt";
	rename -uid "7807E79F-4AF8-242D-B991-AA8294163B33";
	addAttr -ci true -sn "liw" -ln "lockInfluenceWeights" -min 0 -max 1 -at "bool";
	setAttr ".t" -type "double3" -0.80833287842999446 0.013352680064224742 -9.1421217955911516e-006 ;
	setAttr ".bps" -type "matrix" 1 -1.2133745059527262e-016 -1.2245949199910933e-016 0
		 1.2133745059527262e-016 1 -1.1102230246251565e-016 0 1.2245949199910933e-016 -1.1102230246251565e-016 1 0
		 0.35710078607398044 2.5745714526959635 5.4630198684791083 1;
	setAttr ".radi" 0.2;
createNode joint -n "head2_tmpJnt" -p "head1_tmpJnt";
	rename -uid "3EC7D6C9-427E-A8ED-184A-0481AB8B1ED4";
	addAttr -ci true -sn "liw" -ln "lockInfluenceWeights" -min 0 -max 1 -at "bool";
	setAttr ".t" -type "double3" 5.1552460118565686e-016 1.9666167328839812 0.01300014116437298 ;
	setAttr ".bps" -type "matrix" 1 -1.2133745059527262e-016 -1.2245949199910933e-016 0
		 1.2133745059527262e-016 1 -1.1102230246251565e-016 0 1.2245949199910933e-016 -1.1102230246251565e-016 1 0
		 -6.0089014264881759e-032 3.1725972375063907 2.2718551036147074 1;
	setAttr ".radi" 0.2;
	setAttr ".liw" yes;
createNode joint -n "scapLFT_tmpJnt" -p "spine2_tmpJnt";
	rename -uid "7C836237-4F00-DDD7-4DC5-7B8E7A906DC0";
	addAttr -ci true -sn "liw" -ln "lockInfluenceWeights" -min 0 -max 1 -at "bool";
	setAttr ".oc" 4;
	setAttr ".t" -type "double3" 1.1198304846200884 0.47504393654390675 0.96929197938932077 ;
	setAttr ".jo" -type "double3" 0 0 -180 ;
	setAttr ".bps" -type "matrix" -1 1.2246467991473532e-016 0 0 -1.2246467991473532e-016 -1 0 0
		 -8.2814987608651142e-033 -1.1102230246251565e-016 1 0 0.38848196657751932 2.7562746830564069 0.50409996780936239 1;
	setAttr ".radi" 0.2;
	setAttr ".liw" yes;
createNode joint -n "upLegFrontLFT_tmpJnt" -p "scapLFT_tmpJnt";
	rename -uid "67344D4B-4535-E85B-DBEA-0292171A6F8A";
	addAttr -ci true -sn "liw" -ln "lockInfluenceWeights" -min 0 -max 1 -at "bool";
	setAttr ".oc" 4;
	setAttr ".t" -type "double3" 0.24333643405203853 0.4885264499903661 0.58211639177329766 ;
	setAttr ".r" -type "double3" 9.7062825972397362e-020 -5.5531474567764188e-037 6.4922293500486011e-014 ;
	setAttr ".jo" -type "double3" 0.00049210753691731593 4.9734508644783588e-019 -6.4922293498350205e-014 ;
	setAttr ".bps" -type "matrix" -1 6.1629758220391547e-033 -1.2246467991473532e-016 0
		 6.7382576257635954e-017 0.83501940802582664 -0.55022049054919608 0 1.0226038452647463e-016 -0.55022049054919608 -0.83501940802582664 0
		 -0.32716547777573768 2.4213499995501007 -2.136026252564474 1;
	setAttr ".radi" 0.2;
	setAttr ".liw" yes;
createNode joint -n "midLegFrontLFT_tmpJnt" -p "upLegFrontLFT_tmpJnt";
	rename -uid "F0155207-4582-49FF-D9F9-46B2879BE5B8";
	addAttr -ci true -sn "liw" -ln "lockInfluenceWeights" -min 0 -max 1 -at "bool";
	setAttr ".oc" 4;
	setAttr ".t" -type "double3" -4.4408920985006262e-016 1.5741439905348713 -0.83081769408334427 ;
	setAttr ".bps" -type "matrix" -1 6.1629758220391547e-033 -1.2246467991473532e-016 0
		 -1.2325951644078309e-032 1 1.1102230246251565e-016 0 1.2246467991473532e-016 1.1102230246251565e-016 -1 0
		 -0.38283433956488172 1.9074766582936462 -1.8789237141124455 1;
	setAttr ".radi" 0.2;
	setAttr ".liw" yes;
createNode joint -n "kneeIkFrontPivLFT_tmpJnt" -p "midLegFrontLFT_tmpJnt";
	rename -uid "05C8A1EE-43D0-1882-278A-23B054954E53";
	addAttr -ci true -sn "liw" -ln "lockInfluenceWeights" -min 0 -max 1 -at "bool";
	setAttr ".oc" 4;
	setAttr ".t" -type "double3" 2.1760371282653068e-014 0.73100000000000032 -2.4104788859760218 ;
	setAttr ".jo" -type "double3" 0 0 180 ;
	setAttr ".bps" -type "matrix" -1 6.1629758220391547e-033 -1.2246467991473532e-016 0
		 -1.2325951644078309e-032 1 1.1102230246251565e-016 0 1.2246467991473532e-016 1.1102230246251565e-016 -1 0
		 -0.38283433956488172 1.1010778298253303 -3.3082450673688855 1;
	setAttr ".radi" 0.2;
	setAttr ".liw" yes;
createNode joint -n "lowLegFrontLFT_tmpJnt" -p "midLegFrontLFT_tmpJnt";
	rename -uid "5E1BC28E-4773-CD03-B9DF-369DE4EA316C";
	addAttr -ci true -sn "liw" -ln "lockInfluenceWeights" -min 0 -max 1 -at "bool";
	setAttr ".oc" 4;
	setAttr ".t" -type "double3" -6.6613381477509392e-015 1.5407045829345303 -0.025940506079253467 ;
	setAttr ".bps" -type "matrix" -1 6.1629758220391547e-033 -1.2246467991473532e-016 0
		 -1.2325951644078309e-032 1 1.1102230246251565e-016 0 1.2246467991473532e-016 1.1102230246251565e-016 -1 0
		 -0.38283433956488183 1.1010778298253308 -2.5135384701396681 1;
	setAttr ".radi" 0.2;
	setAttr ".liw" yes;
createNode joint -n "ankleFrontLFT_tmpJnt" -p "lowLegFrontLFT_tmpJnt";
	rename -uid "CF5B3394-4332-142D-3C92-A1BB8740239B";
	addAttr -ci true -sn "liw" -ln "lockInfluenceWeights" -min 0 -max 1 -at "bool";
	setAttr ".oc" 4;
	setAttr ".t" -type "double3" 6.6613381477509392e-015 1.1679456159333306 -0.13948179230042368 ;
	setAttr ".bps" -type "matrix" -1 6.1629758220391547e-033 -1.2246467991473532e-016 0
		 -1.2325951644078309e-032 1 1.1102230246251565e-016 0 1.2246467991473532e-016 1.1102230246251565e-016 -1 0
		 -0.38283433956488178 0.36023071464011025 -2.5217957670556412 1;
	setAttr ".radi" 0.2;
	setAttr ".liw" yes;
createNode joint -n "ballFrontLFT_tmpJnt" -p "ankleFrontLFT_tmpJnt";
	rename -uid "F6FCAAA3-4E47-026E-7A1A-99B2568632D5";
	addAttr -ci true -sn "liw" -ln "lockInfluenceWeights" -min 0 -max 1 -at "bool";
	setAttr ".oc" 4;
	setAttr ".t" -type "double3" -6.6613381477509392e-016 0.78938292374706087 0.37749784303153633 ;
	setAttr ".jo" -type "double3" 0 0 179.99999999999994 ;
	setAttr ".bps" -type "matrix" -1 6.1629758220391547e-033 -1.2246467991473532e-016 0
		 1.2246467991473535e-016 3.3306690738754696e-016 -1.0000000000000002 0 3.9518573113016136e-032 -1.0000000000000002 -3.3306690738754696e-016 0
		 -0.38283433956488172 0.041925526452767148 -2.4638186919244189 1;
	setAttr ".radi" 0.2;
	setAttr ".liw" yes;
createNode joint -n "toeFrontLFT_tmpJnt" -p "ballFrontLFT_tmpJnt";
	rename -uid "00A1FF0E-43D9-8779-9481-83B1B737ADBF";
	addAttr -ci true -sn "liw" -ln "lockInfluenceWeights" -min 0 -max 1 -at "bool";
	setAttr ".oc" 4;
	setAttr ".t" -type "double3" 1.7763568394002505e-015 -0.42934325060342737 0.85509778037611928 ;
	setAttr ".jo" -type "double3" 89.999999999999986 0 -179.99999999999997 ;
	setAttr ".bps" -type "matrix" -1 6.1629758220391547e-033 -1.2246467991473532e-016 0
		 1.2246467991473535e-016 3.3306690738754696e-016 -1.0000000000000002 0 3.9518573113016136e-032 -1.0000000000000002 -3.3306690738754696e-016 0
		 -0.38283433956488178 0.041925526452767183 -2.1364449597638258 1;
	setAttr ".radi" 0.2;
	setAttr ".liw" yes;
createNode joint -n "heelFrontLFT_tmpJnt" -p "ballFrontLFT_tmpJnt";
	rename -uid "30B4B36A-446B-E5CC-5B80-77A71B1C00E7";
	addAttr -ci true -sn "liw" -ln "lockInfluenceWeights" -min 0 -max 1 -at "bool";
	setAttr ".oc" 4;
	setAttr ".t" -type "double3" -1.5543122344752192e-015 -0.42934325060342737 -0.28603653020839093 ;
	setAttr ".jo" -type "double3" 89.999999999999986 0 -179.99999999999997 ;
	setAttr ".bps" -type "matrix" -1 6.1629758220391547e-033 -1.2246467991473532e-016 0
		 -1.2325951644078309e-032 1 1.1102230246251565e-016 0 1.2246467991473532e-016 1.1102230246251565e-016 -1 0
		 -0.38283433956488172 0.041925526452767148 -2.8893624700391225 1;
	setAttr ".radi" 0.2;
	setAttr ".liw" yes;
createNode joint -n "footInFrontLFT_tmpJnt" -p "ballFrontLFT_tmpJnt";
	rename -uid "DA027819-44CE-4F3F-0624-EBB4F3F6E6DC";
	addAttr -ci true -sn "liw" -ln "lockInfluenceWeights" -min 0 -max 1 -at "bool";
	setAttr ".oc" 4;
	setAttr ".t" -type "double3" -0.53139809088878909 -0.42934325060342771 0.32723117902677346 ;
	setAttr ".jo" -type "double3" 89.999999999999986 0 -179.99999999999997 ;
	setAttr ".bps" -type "matrix" -1 6.1629758220391547e-033 -1.2246467991473532e-016 0
		 -1.2325951644078309e-032 1 1.1102230246251565e-016 0 1.2246467991473532e-016 1.1102230246251565e-016 -1 0
		 -0.049943445303958833 0.041925526452794681 -2.4638186919244189 1;
	setAttr ".radi" 0.2;
	setAttr ".liw" yes;
createNode joint -n "footOutFrontLFT_tmpJnt" -p "ballFrontLFT_tmpJnt";
	rename -uid "F1A78C23-48AF-8653-815A-2F8419CCAD3E";
	addAttr -ci true -sn "liw" -ln "lockInfluenceWeights" -min 0 -max 1 -at "bool";
	setAttr ".oc" 4;
	setAttr ".t" -type "double3" 0.55965245001192809 -0.42934325060342682 0.32723117902677168 ;
	setAttr ".jo" -type "double3" 89.999999999999986 0 -179.99999999999997 ;
	setAttr ".bps" -type "matrix" -1 6.1629758220391547e-033 -1.2246467991473532e-016 0
		 -1.2325951644078309e-032 1 1.1102230246251565e-016 0 1.2246467991473532e-016 1.1102230246251565e-016 -1 0
		 -0.78441848476528131 0.041925526452792017 -2.4638186919244189 1;
	setAttr ".radi" 0.2;
	setAttr ".liw" yes;
createNode joint -n "scapRGT_tmpJnt" -p "spine2_tmpJnt";
	rename -uid "47EA3DBD-451D-0D5F-DC71-AD88CA7F8090";
	addAttr -ci true -sn "liw" -ln "lockInfluenceWeights" -min 0 -max 1 -at "bool";
	setAttr ".oc" 4;
	setAttr ".t" -type "double3" -1.11983 0.47504212309776772 0.96929396312925886 ;
	setAttr ".jo" -type "double3" 0 180 0 ;
	setAttr ".bps" -type "matrix" -1 1.2246467991473532e-016 0 0 -1.2246467991473532e-016 -1 0 0
		 -8.2814987608651142e-033 -1.1102230246251565e-016 1 0 0.38848196657751932 2.7562746830564069 0.50409996780936239 1;
	setAttr ".radi" 0.2;
	setAttr ".liw" yes;
createNode joint -n "upLegFrontRGT_tmpJnt" -p "scapRGT_tmpJnt";
	rename -uid "18426D1A-4B34-6432-476A-70BD7C65A720";
	addAttr -ci true -sn "liw" -ln "lockInfluenceWeights" -min 0 -max 1 -at "bool";
	setAttr ".oc" 4;
	setAttr ".t" -type "double3" -0.24333600000000022 -0.48852500029926915 -0.58211419591227909 ;
	setAttr ".r" -type "double3" 9.7062825972397362e-020 -5.5531474567764188e-037 6.4922293500486011e-014 ;
	setAttr ".jo" -type "double3" 0.0004921070125632357 6.0265986584394571e-020 -6.0265468968830068e-020 ;
	setAttr ".bps" -type "matrix" -1 6.1629758220391547e-033 -1.2246467991473532e-016 0
		 6.7382576257635954e-017 0.83501940802582664 -0.55022049054919608 0 1.0226038452647463e-016 -0.55022049054919608 -0.83501940802582664 0
		 -0.32716547777573768 2.4213499995501007 -2.136026252564474 1;
	setAttr ".radi" 0.2;
	setAttr ".liw" yes;
createNode joint -n "midLegFrontRGT_tmpJnt" -p "upLegFrontRGT_tmpJnt";
	rename -uid "813A44C2-437D-7677-5D21-D0BB2910B241";
	addAttr -ci true -sn "liw" -ln "lockInfluenceWeights" -min 0 -max 1 -at "bool";
	setAttr ".oc" 4;
	setAttr ".t" -type "double3" 1.1102230246251565e-016 -1.5741400000076036 0.83081999998559386 ;
	setAttr ".jo" -type "double3" 8.5377364625159387e-007 1.0455621905367519e-022 -1.045580135543009e-022 ;
	setAttr ".bps" -type "matrix" -1 6.1629758220391547e-033 -1.2246467991473532e-016 0
		 -1.2325951644078309e-032 1 1.1102230246251565e-016 0 1.2246467991473532e-016 1.1102230246251565e-016 -1 0
		 -0.38283433956488172 1.9074766582936462 -1.8789237141124455 1;
	setAttr ".radi" 0.2;
	setAttr ".liw" yes;
createNode joint -n "kneeIkFrontPivRGT_tmpJnt" -p "midLegFrontRGT_tmpJnt";
	rename -uid "B6F7C510-4C9A-FA34-B656-0C803CBBA8B2";
	addAttr -ci true -sn "liw" -ln "lockInfluenceWeights" -min 0 -max 1 -at "bool";
	setAttr ".oc" 4;
	setAttr ".t" -type "double3" 3.3306690738754696e-016 -0.73100000002206 2.4104759999933103 ;
	setAttr ".jo" -type "double3" -8.537736532683031e-007 -2.1050248426671894e-014 180 ;
	setAttr ".bps" -type "matrix" -1 6.1629758220391547e-033 -1.2246467991473532e-016 0
		 -1.2325951644078309e-032 1 1.1102230246251565e-016 0 1.2246467991473532e-016 1.1102230246251565e-016 -1 0
		 -0.38283433956488172 1.1010778298253303 -3.3082450673688855 1;
	setAttr ".radi" 0.2;
	setAttr ".liw" yes;
createNode joint -n "lowLegFrontRGT_tmpJnt" -p "midLegFrontRGT_tmpJnt";
	rename -uid "B58DB2E9-447B-0F8F-72A1-059510303BA3";
	addAttr -ci true -sn "liw" -ln "lockInfluenceWeights" -min 0 -max 1 -at "bool";
	setAttr ".oc" 4;
	setAttr ".t" -type "double3" 0 -1.5407100000002374 0.02593999998590002 ;
	setAttr ".jo" -type "double3" 8.5377364625159387e-007 1.0455621905367519e-022 -1.045580135543009e-022 ;
	setAttr ".bps" -type "matrix" -1 6.1629758220391547e-033 -1.2246467991473532e-016 0
		 -1.2325951644078309e-032 1 1.1102230246251565e-016 0 1.2246467991473532e-016 1.1102230246251565e-016 -1 0
		 -0.38283433956488183 1.1010778298253308 -2.5135384701396681 1;
	setAttr ".radi" 0.2;
	setAttr ".liw" yes;
createNode joint -n "ankleFrontRGT_tmpJnt" -p "lowLegFrontRGT_tmpJnt";
	rename -uid "85FE4663-4B8C-4AB0-41B0-CF81D42AC733";
	addAttr -ci true -sn "liw" -ln "lockInfluenceWeights" -min 0 -max 1 -at "bool";
	setAttr ".oc" 4;
	setAttr ".t" -type "double3" 0 -1.167940000001277 0.13947999998931104 ;
	setAttr ".jo" -type "double3" 8.5377364625159387e-007 1.0455621905367519e-022 -1.045580135543009e-022 ;
	setAttr ".bps" -type "matrix" -1 6.1629758220391547e-033 -1.2246467991473532e-016 0
		 -1.2325951644078309e-032 1 1.1102230246251565e-016 0 1.2246467991473532e-016 1.1102230246251565e-016 -1 0
		 -0.38283433956488178 0.36023071464011025 -2.5217957670556412 1;
	setAttr ".radi" 0.2;
	setAttr ".liw" yes;
createNode joint -n "ballFrontRGT_tmpJnt" -p "ankleFrontRGT_tmpJnt";
	rename -uid "2AAA92F8-43E7-5048-F581-4499E52781E2";
	addAttr -ci true -sn "liw" -ln "lockInfluenceWeights" -min 0 -max 1 -at "bool";
	setAttr ".oc" 4;
	setAttr ".t" -type "double3" 0 -0.78938699999654527 -0.37750000000722417 ;
	setAttr ".jo" -type "double3" -8.537736532683031e-007 -2.1050249185906664e-014 179.99999999999989 ;
	setAttr ".bps" -type "matrix" -1 6.1629758220391547e-033 -1.2246467991473532e-016 0
		 1.2246467991473535e-016 3.3306690738754696e-016 -1.0000000000000002 0 3.9518573113016136e-032 -1.0000000000000002 -3.3306690738754696e-016 0
		 -0.38283433956488172 0.041925526452767148 -2.4638186919244189 1;
	setAttr ".radi" 0.2;
	setAttr ".liw" yes;
createNode joint -n "toeFrontRGT_tmpJnt" -p "ballFrontRGT_tmpJnt";
	rename -uid "52B3977A-48CF-536E-6C10-CEB9B9542551";
	addAttr -ci true -sn "liw" -ln "lockInfluenceWeights" -min 0 -max 1 -at "bool";
	setAttr ".oc" 4;
	setAttr ".t" -type "double3" -6.6613381477509392e-016 0.42934299999217335 -0.85510000000392883 ;
	setAttr ".jo" -type "double3" 90.000000000524352 -8.3349901121970876e-014 -179.99999999999991 ;
	setAttr ".bps" -type "matrix" -1 6.1629758220391547e-033 -1.2246467991473532e-016 0
		 1.2246467991473535e-016 3.3306690738754696e-016 -1.0000000000000002 0 3.9518573113016136e-032 -1.0000000000000002 -3.3306690738754696e-016 0
		 -0.38283433956488178 0.041925526452767183 -2.1364449597638258 1;
	setAttr ".radi" 0.2;
	setAttr ".liw" yes;
createNode joint -n "heelFrontRGT_tmpJnt" -p "ballFrontRGT_tmpJnt";
	rename -uid "8BD7118A-4F83-199E-32C2-7BB178B15170";
	addAttr -ci true -sn "liw" -ln "lockInfluenceWeights" -min 0 -max 1 -at "bool";
	setAttr ".oc" 4;
	setAttr ".t" -type "double3" -7.7715611723760958e-016 0.42934300000261671 0.28603999999607099 ;
	setAttr ".jo" -type "double3" 90.000000000524352 -8.3349901121970876e-014 -179.99999999999991 ;
	setAttr ".bps" -type "matrix" -1 6.1629758220391547e-033 -1.2246467991473532e-016 0
		 -1.2325951644078309e-032 1 1.1102230246251565e-016 0 1.2246467991473532e-016 1.1102230246251565e-016 -1 0
		 -0.38283433956488172 0.041925526452767148 -2.8893624700391225 1;
	setAttr ".radi" 0.2;
	setAttr ".liw" yes;
createNode joint -n "footInFrontRGT_tmpJnt" -p "ballFrontRGT_tmpJnt";
	rename -uid "B93D33ED-4B05-BAD0-F223-0A8B6315055E";
	addAttr -ci true -sn "liw" -ln "lockInfluenceWeights" -min 0 -max 1 -at "bool";
	setAttr ".oc" 4;
	setAttr ".t" -type "double3" 0.53139799999999926 0.42934299999700509 -0.32723000000392921 ;
	setAttr ".jo" -type "double3" 90.000000000524352 -8.3349901121970876e-014 -179.99999999999991 ;
	setAttr ".bps" -type "matrix" -1 6.1629758220391547e-033 -1.2246467991473532e-016 0
		 -1.2325951644078309e-032 1 1.1102230246251565e-016 0 1.2246467991473532e-016 1.1102230246251565e-016 -1 0
		 -0.049943445303958833 0.041925526452794681 -2.4638186919244189 1;
	setAttr ".radi" 0.2;
	setAttr ".liw" yes;
createNode joint -n "footOutFrontRGT_tmpJnt" -p "ballFrontRGT_tmpJnt";
	rename -uid "68790E22-4E3E-3EE9-6CEC-D296E27C7078";
	addAttr -ci true -sn "liw" -ln "lockInfluenceWeights" -min 0 -max 1 -at "bool";
	setAttr ".oc" 4;
	setAttr ".t" -type "double3" -0.55965600000000082 0.42934299999700315 -0.32723000000392921 ;
	setAttr ".jo" -type "double3" 90.000000000524352 -8.3349901121970876e-014 -179.99999999999991 ;
	setAttr ".bps" -type "matrix" -1 6.1629758220391547e-033 -1.2246467991473532e-016 0
		 -1.2325951644078309e-032 1 1.1102230246251565e-016 0 1.2246467991473532e-016 1.1102230246251565e-016 -1 0
		 -0.78441848476528131 0.041925526452792017 -2.4638186919244189 1;
	setAttr ".radi" 0.2;
	setAttr ".liw" yes;
createNode joint -n "pelvis_tmpJnt" -p "root_tmpJnt";
	rename -uid "FC9DC2AF-4B65-9769-E180-FFB4CB129E64";
	addAttr -ci true -sn "liw" -ln "lockInfluenceWeights" -min 0 -max 1 -at "bool";
	setAttr ".oc" 4;
	setAttr ".t" -type "double3" 0 0.34561912555040131 -0.53161781510093764 ;
	setAttr ".bps" -type "matrix" 1 0 0 0 0 1 0 0 0 0 1 0 0.013800355568307943 2.5363534650677999 -2.0149672370396443 1;
	setAttr ".radi" 0.2;
createNode joint -n "hipLFT_tmpJnt" -p "pelvis_tmpJnt";
	rename -uid "3BE30494-4C06-E650-EF39-AD8A815DD326";
	addAttr -ci true -sn "liw" -ln "lockInfluenceWeights" -min 0 -max 1 -at "bool";
	setAttr ".oc" 4;
	setAttr ".t" -type "double3" 0.54736376329656067 0.24592695606537696 -1.1978253804296024 ;
	setAttr ".jo" -type "double3" 0 0 179.99999999999994 ;
	setAttr ".bps" -type "matrix" -1 6.1629758220391547e-033 -1.2246467991473532e-016 0
		 6.7382576257635954e-017 0.83501940802582664 -0.55022049054919608 0 1.0226038452647463e-016 -0.55022049054919608 -0.83501940802582664 0
		 -0.32716547777573768 2.4213499995501007 -2.136026252564474 1;
	setAttr ".radi" 0.2;
	setAttr ".liw" yes;
createNode joint -n "upLegBackLFT_tmpJnt" -p "hipLFT_tmpJnt";
	rename -uid "DD7C651A-4C7F-E104-BAE7-D491C3CF9A6B";
	addAttr -ci true -sn "liw" -ln "lockInfluenceWeights" -min 0 -max 1 -at "bool";
	setAttr ".oc" 4;
	setAttr ".t" -type "double3" -0.17585051648345262 0.34345023030096833 -0.82516464891673458 ;
	setAttr ".bps" -type "matrix" -1 6.1629758220391547e-033 -1.2246467991473532e-016 0
		 6.7382576257635954e-017 0.83501940802582664 -0.55022049054919608 0 1.0226038452647463e-016 -0.55022049054919608 -0.83501940802582664 0
		 -0.32716547777573768 2.4213499995501007 -2.136026252564474 1;
	setAttr ".radi" 0.2;
	setAttr ".liw" yes;
createNode joint -n "midLegBackLFT_tmpJnt" -p "upLegBackLFT_tmpJnt";
	rename -uid "BB6DD125-4E72-81C3-DD25-A998A82C1E1A";
	addAttr -ci true -sn "liw" -ln "lockInfluenceWeights" -min 0 -max 1 -at "bool";
	setAttr ".oc" 4;
	setAttr ".t" -type "double3" 0 1.3681717115483503 0.27092214051060326 ;
	setAttr ".bps" -type "matrix" -1 6.1629758220391547e-033 -1.2246467991473532e-016 0
		 -1.2325951644078309e-032 1 1.1102230246251565e-016 0 1.2246467991473532e-016 1.1102230246251565e-016 -1 0
		 -0.38283433956488172 1.9074766582936462 -1.8789237141124455 1;
	setAttr ".radi" 0.2;
	setAttr ".liw" yes;
createNode joint -n "kneeIkBackPivLFT_tmpJnt" -p "midLegBackLFT_tmpJnt";
	rename -uid "C15663DD-443F-9B20-6D9E-47926715471B";
	addAttr -ci true -sn "liw" -ln "lockInfluenceWeights" -min 0 -max 1 -at "bool";
	setAttr ".oc" 4;
	setAttr ".t" -type "double3" 5.773159728050814e-015 0.52502584544400799 2.4442479132886268 ;
	setAttr ".bps" -type "matrix" -1 6.1629758220391547e-033 -1.2246467991473532e-016 0
		 -1.2325951644078309e-032 1 1.1102230246251565e-016 0 1.2246467991473532e-016 1.1102230246251565e-016 -1 0
		 -0.38283433956488172 1.1010778298253303 -3.3082450673688855 1;
	setAttr ".radi" 0.2;
	setAttr ".liw" yes;
createNode joint -n "lowLegBackLFT_tmpJnt" -p "midLegBackLFT_tmpJnt";
	rename -uid "2D96CB42-45FE-2B8C-0B72-E8A9E0F2AF66";
	addAttr -ci true -sn "liw" -ln "lockInfluenceWeights" -min 0 -max 1 -at "bool";
	setAttr ".oc" 4;
	setAttr ".t" -type "double3" -2.6645352591003757e-015 1.1578796777657709 -0.81351941924787408 ;
	setAttr ".bps" -type "matrix" -1 6.1629758220391547e-033 -1.2246467991473532e-016 0
		 -1.2325951644078309e-032 1 1.1102230246251565e-016 0 1.2246467991473532e-016 1.1102230246251565e-016 -1 0
		 -0.38283433956488183 1.1010778298253308 -2.5135384701396681 1;
	setAttr ".radi" 0.2;
	setAttr ".liw" yes;
createNode joint -n "ankleBackLFT_tmpJnt" -p "lowLegBackLFT_tmpJnt";
	rename -uid "C6777FCE-4035-E7AB-12E0-A3A35B023AB9";
	addAttr -ci true -sn "liw" -ln "lockInfluenceWeights" -min 0 -max 1 -at "bool";
	setAttr ".oc" 4;
	setAttr ".t" -type "double3" -1.6653345369377348e-015 1.9066778626801524 -0.52965109730339988 ;
	setAttr ".bps" -type "matrix" -1 6.1629758220391547e-033 -1.2246467991473532e-016 0
		 -1.2325951644078309e-032 1 1.1102230246251565e-016 0 1.2246467991473532e-016 1.1102230246251565e-016 -1 0
		 -0.38283433956488178 0.36023071464011025 -2.5217957670556412 1;
	setAttr ".radi" 0.2;
	setAttr ".liw" yes;
createNode joint -n "ballBackLFT_tmpJnt" -p "ankleBackLFT_tmpJnt";
	rename -uid "6EB09C56-4CC0-B94A-0DF9-7FBA2BDB65FF";
	addAttr -ci true -sn "liw" -ln "lockInfluenceWeights" -min 0 -max 1 -at "bool";
	setAttr ".oc" 4;
	setAttr ".t" -type "double3" -7.7715611723760958e-016 0.48854008456475317 0.16068004365228505 ;
	setAttr ".jo" -type "double3" 0 0 179.99999999999994 ;
	setAttr ".bps" -type "matrix" -1 6.1629758220391547e-033 -1.2246467991473532e-016 0
		 1.2246467991473535e-016 3.3306690738754696e-016 -1.0000000000000002 0 3.9518573113016136e-032 -1.0000000000000002 -3.3306690738754696e-016 0
		 -0.38283433956488172 0.041925526452767148 -2.4638186919244189 1;
	setAttr ".radi" 0.2;
	setAttr ".liw" yes;
createNode joint -n "toeBackLFT_tmpJnt" -p "ballBackLFT_tmpJnt";
	rename -uid "6FD5F4CB-4C1F-2DE1-B27F-AD82EA61921D";
	addAttr -ci true -sn "liw" -ln "lockInfluenceWeights" -min 0 -max 1 -at "bool";
	setAttr ".oc" 4;
	setAttr ".t" -type "double3" 1.7763568394002505e-015 -0.37899326995638766 0.86529154454450907 ;
	setAttr ".jo" -type "double3" 89.999999999999986 0 -179.99999999999997 ;
	setAttr ".bps" -type "matrix" -1 6.1629758220391547e-033 -1.2246467991473532e-016 0
		 1.2246467991473535e-016 3.3306690738754696e-016 -1.0000000000000002 0 3.9518573113016136e-032 -1.0000000000000002 -3.3306690738754696e-016 0
		 -0.38283433956488178 0.041925526452767183 -2.1364449597638258 1;
	setAttr ".radi" 0.2;
	setAttr ".liw" yes;
createNode joint -n "heelBackLFT_tmpJnt" -p "ballBackLFT_tmpJnt";
	rename -uid "CDD164FE-460A-D27F-B907-8F9AAE2CCCE2";
	addAttr -ci true -sn "liw" -ln "lockInfluenceWeights" -min 0 -max 1 -at "bool";
	setAttr ".oc" 4;
	setAttr ".t" -type "double3" -1.5543122344752192e-015 -0.37899326995638766 -0.2681974429137175 ;
	setAttr ".jo" -type "double3" 89.999999999999986 0 -179.99999999999997 ;
	setAttr ".bps" -type "matrix" -1 6.1629758220391547e-033 -1.2246467991473532e-016 0
		 -1.2325951644078309e-032 1 1.1102230246251565e-016 0 1.2246467991473532e-016 1.1102230246251565e-016 -1 0
		 -0.38283433956488172 0.041925526452767148 -2.8893624700391225 1;
	setAttr ".radi" 0.2;
	setAttr ".liw" yes;
createNode joint -n "footInBackLFT_tmpJnt" -p "ballBackLFT_tmpJnt";
	rename -uid "A41B9D7D-4324-27C1-3C34-7186D83C0C90";
	addAttr -ci true -sn "liw" -ln "lockInfluenceWeights" -min 0 -max 1 -at "bool";
	setAttr ".oc" 4;
	setAttr ".t" -type "double3" -0.53139809088878909 -0.3789932699563886 0.32723117902678212 ;
	setAttr ".jo" -type "double3" 89.999999999999986 0 -179.99999999999997 ;
	setAttr ".bps" -type "matrix" -1 6.1629758220391547e-033 -1.2246467991473532e-016 0
		 -1.2325951644078309e-032 1 1.1102230246251565e-016 0 1.2246467991473532e-016 1.1102230246251565e-016 -1 0
		 -0.049943445303958833 0.041925526452794681 -2.4638186919244189 1;
	setAttr ".radi" 0.2;
	setAttr ".liw" yes;
createNode joint -n "footOutBackLFT_tmpJnt" -p "ballBackLFT_tmpJnt";
	rename -uid "82085F67-4266-D273-52C3-01A891E4CA99";
	addAttr -ci true -sn "liw" -ln "lockInfluenceWeights" -min 0 -max 1 -at "bool";
	setAttr ".oc" 4;
	setAttr ".t" -type "double3" 0.5596524500119282 -0.37899326995638649 0.32723117902678034 ;
	setAttr ".jo" -type "double3" 89.999999999999986 0 -179.99999999999997 ;
	setAttr ".bps" -type "matrix" -1 6.1629758220391547e-033 -1.2246467991473532e-016 0
		 -1.2325951644078309e-032 1 1.1102230246251565e-016 0 1.2246467991473532e-016 1.1102230246251565e-016 -1 0
		 -0.78441848476528131 0.041925526452792017 -2.4638186919244189 1;
	setAttr ".radi" 0.2;
	setAttr ".liw" yes;
createNode joint -n "hipRGT_tmpJnt" -p "pelvis_tmpJnt";
	rename -uid "1EC0B056-4966-C75E-E968-66A7D96319F5";
	addAttr -ci true -sn "liw" -ln "lockInfluenceWeights" -min 0 -max 1 -at "bool";
	setAttr ".oc" 4;
	setAttr ".t" -type "double3" -0.547364 0.24592411924899515 -1.1978248295575242 ;
	setAttr ".jo" -type "double3" 0 180 0 ;
	setAttr ".bps" -type "matrix" -1 6.1629758220391547e-033 -1.2246467991473532e-016 0
		 6.7382576257635954e-017 0.83501940802582664 -0.55022049054919608 0 1.0226038452647463e-016 -0.55022049054919608 -0.83501940802582664 0
		 -0.32716547777573768 2.4213499995501007 -2.136026252564474 1;
	setAttr ".radi" 0.2;
	setAttr ".liw" yes;
createNode joint -n "upLegBackRGT_tmpJnt" -p "hipRGT_tmpJnt";
	rename -uid "60693A72-438D-2BE2-BBF0-3FA90CB3DE72";
	addAttr -ci true -sn "liw" -ln "lockInfluenceWeights" -min 0 -max 1 -at "bool";
	setAttr ".oc" 4;
	setAttr ".t" -type "double3" 0.17585000000000017 -0.34344999999999981 0.82517 ;
	setAttr ".bps" -type "matrix" -1 6.1629758220391547e-033 -1.2246467991473532e-016 0
		 6.7382576257635954e-017 0.83501940802582664 -0.55022049054919608 0 1.0226038452647463e-016 -0.55022049054919608 -0.83501940802582664 0
		 -0.32716547777573768 2.4213499995501007 -2.136026252564474 1;
	setAttr ".radi" 0.2;
	setAttr ".liw" yes;
createNode joint -n "midLegBackRGT_tmpJnt" -p "upLegBackRGT_tmpJnt";
	rename -uid "7B5DE6DB-4359-3AB9-0384-FD978BDCFC93";
	addAttr -ci true -sn "liw" -ln "lockInfluenceWeights" -min 0 -max 1 -at "bool";
	setAttr ".oc" 4;
	setAttr ".t" -type "double3" -1.1102230246251565e-016 -1.3681699999999997 -0.27092999999999989 ;
	setAttr ".bps" -type "matrix" -1 6.1629758220391547e-033 -1.2246467991473532e-016 0
		 -1.2325951644078309e-032 1 1.1102230246251565e-016 0 1.2246467991473532e-016 1.1102230246251565e-016 -1 0
		 -0.38283433956488172 1.9074766582936462 -1.8789237141124455 1;
	setAttr ".radi" 0.2;
	setAttr ".liw" yes;
createNode joint -n "kneeIkBackPivRGT_tmpJnt" -p "midLegBackRGT_tmpJnt";
	rename -uid "A9193E13-4E5E-6ED6-945B-87BD0936BACE";
	addAttr -ci true -sn "liw" -ln "lockInfluenceWeights" -min 0 -max 1 -at "bool";
	setAttr ".oc" 4;
	setAttr ".t" -type "double3" -1.1102230246251565e-016 -0.52502 -2.444245 ;
	setAttr ".bps" -type "matrix" -1 6.1629758220391547e-033 -1.2246467991473532e-016 0
		 -1.2325951644078309e-032 1 1.1102230246251565e-016 0 1.2246467991473532e-016 1.1102230246251565e-016 -1 0
		 -0.38283433956488172 1.1010778298253303 -3.3082450673688855 1;
	setAttr ".radi" 0.2;
	setAttr ".liw" yes;
createNode joint -n "lowLegBackRGT_tmpJnt" -p "midLegBackRGT_tmpJnt";
	rename -uid "2CE71DF3-4EE0-E601-EA5E-48A6CBC1C5BB";
	addAttr -ci true -sn "liw" -ln "lockInfluenceWeights" -min 0 -max 1 -at "bool";
	setAttr ".oc" 4;
	setAttr ".t" -type "double3" 2.2204460492503131e-016 -1.15788 0.81352 ;
	setAttr ".bps" -type "matrix" -1 6.1629758220391547e-033 -1.2246467991473532e-016 0
		 -1.2325951644078309e-032 1 1.1102230246251565e-016 0 1.2246467991473532e-016 1.1102230246251565e-016 -1 0
		 -0.38283433956488183 1.1010778298253308 -2.5135384701396681 1;
	setAttr ".radi" 0.2;
	setAttr ".liw" yes;
createNode joint -n "ankleBackRGT_tmpJnt" -p "lowLegBackRGT_tmpJnt";
	rename -uid "542E9DED-4227-2290-279B-40B74B366D2D";
	addAttr -ci true -sn "liw" -ln "lockInfluenceWeights" -min 0 -max 1 -at "bool";
	setAttr ".oc" 4;
	setAttr ".t" -type "double3" 1.1102230246251565e-016 -1.9066770000000002 0.52965000000000018 ;
	setAttr ".bps" -type "matrix" -1 6.1629758220391547e-033 -1.2246467991473532e-016 0
		 -1.2325951644078309e-032 1 1.1102230246251565e-016 0 1.2246467991473532e-016 1.1102230246251565e-016 -1 0
		 -0.38283433956488178 0.36023071464011025 -2.5217957670556412 1;
	setAttr ".radi" 0.2;
	setAttr ".liw" yes;
createNode joint -n "ballBackRGT_tmpJnt" -p "ankleBackRGT_tmpJnt";
	rename -uid "2FCDE801-49D1-BA1A-3C73-06AFD6D64682";
	addAttr -ci true -sn "liw" -ln "lockInfluenceWeights" -min 0 -max 1 -at "bool";
	setAttr ".oc" 4;
	setAttr ".t" -type "double3" 0 -0.48853999999999986 -0.16068000000000016 ;
	setAttr ".jo" -type "double3" 7.0167092985349044e-015 -2.1050127895604614e-014 179.99999999999977 ;
	setAttr ".bps" -type "matrix" -1 6.1629758220391547e-033 -1.2246467991473532e-016 0
		 1.2246467991473535e-016 3.3306690738754696e-016 -1.0000000000000002 0 3.9518573113016136e-032 -1.0000000000000002 -3.3306690738754696e-016 0
		 -0.38283433956488172 0.041925526452767148 -2.4638186919244189 1;
	setAttr ".radi" 0.2;
	setAttr ".liw" yes;
createNode joint -n "toeBackRGT_tmpJnt" -p "ballBackRGT_tmpJnt";
	rename -uid "E2BA4AAA-4960-6096-0D5A-4DA06C73B6AF";
	addAttr -ci true -sn "liw" -ln "lockInfluenceWeights" -min 0 -max 1 -at "bool";
	setAttr ".oc" 4;
	setAttr ".t" -type "double3" -1.4432899320127035e-015 0.37899300000000141 -0.86528999999999989 ;
	setAttr ".jo" -type "double3" 89.999999999999972 -1.4564991541171391e-013 -179.99999999999986 ;
	setAttr ".bps" -type "matrix" -1 6.1629758220391547e-033 -1.2246467991473532e-016 0
		 1.2246467991473535e-016 3.3306690738754696e-016 -1.0000000000000002 0 3.9518573113016136e-032 -1.0000000000000002 -3.3306690738754696e-016 0
		 -0.38283433956488178 0.041925526452767183 -2.1364449597638258 1;
	setAttr ".radi" 0.2;
	setAttr ".liw" yes;
createNode joint -n "heelBackRGT_tmpJnt" -p "ballBackRGT_tmpJnt";
	rename -uid "D402C680-4D35-D436-C320-E9BD9CE6DDFD";
	addAttr -ci true -sn "liw" -ln "lockInfluenceWeights" -min 0 -max 1 -at "bool";
	setAttr ".oc" 4;
	setAttr ".t" -type "double3" -1.5543122344752192e-015 0.37899300000000141 0.26820000000000022 ;
	setAttr ".jo" -type "double3" 89.999999999999972 -1.4564991541171391e-013 -179.99999999999986 ;
	setAttr ".bps" -type "matrix" -1 6.1629758220391547e-033 -1.2246467991473532e-016 0
		 -1.2325951644078309e-032 1 1.1102230246251565e-016 0 1.2246467991473532e-016 1.1102230246251565e-016 -1 0
		 -0.38283433956488172 0.041925526452767148 -2.8893624700391225 1;
	setAttr ".radi" 0.2;
	setAttr ".liw" yes;
createNode joint -n "footInBackRGT_tmpJnt" -p "ballBackRGT_tmpJnt";
	rename -uid "BF6197D5-471B-5FDA-87C3-E29F82DF569B";
	addAttr -ci true -sn "liw" -ln "lockInfluenceWeights" -min 0 -max 1 -at "bool";
	setAttr ".oc" 4;
	setAttr ".t" -type "double3" 0.53139799999999848 0.37899300000000352 -0.32723000000000013 ;
	setAttr ".jo" -type "double3" 89.999999999999972 -1.4564991541171391e-013 -179.99999999999986 ;
	setAttr ".bps" -type "matrix" -1 6.1629758220391547e-033 -1.2246467991473532e-016 0
		 -1.2325951644078309e-032 1 1.1102230246251565e-016 0 1.2246467991473532e-016 1.1102230246251565e-016 -1 0
		 -0.049943445303958833 0.041925526452794681 -2.4638186919244189 1;
	setAttr ".radi" 0.2;
	setAttr ".liw" yes;
createNode joint -n "footOutBackRGT_tmpJnt" -p "ballBackRGT_tmpJnt";
	rename -uid "213291C9-4B22-6573-965A-59B8CAB0F839";
	addAttr -ci true -sn "liw" -ln "lockInfluenceWeights" -min 0 -max 1 -at "bool";
	setAttr ".oc" 4;
	setAttr ".t" -type "double3" -0.55965600000000149 0.37899299999999908 -0.32723000000000013 ;
	setAttr ".jo" -type "double3" 89.999999999999972 -1.4564991541171391e-013 -179.99999999999986 ;
	setAttr ".bps" -type "matrix" -1 6.1629758220391547e-033 -1.2246467991473532e-016 0
		 -1.2325951644078309e-032 1 1.1102230246251565e-016 0 1.2246467991473532e-016 1.1102230246251565e-016 -1 0
		 -0.78441848476528131 0.041925526452792017 -2.4638186919244189 1;
	setAttr ".radi" 0.2;
	setAttr ".liw" yes;
createNode joint -n "chestIkPiv_jnt" -p "tmpJnt_grp";
	rename -uid "77D3E141-4518-2D97-06F8-ED8B8498D30E";
	setAttr ".t" -type "double3" 3.7175942156534046e-017 5.6830728770012282 1.4649200025156948 ;
	setAttr ".radi" 0.2;
createNode transform -n "addJnt_grp";
	rename -uid "CFD9A393-4070-74C5-6021-38BC0FCF859B";
	setAttr ".rp" -type "double3" -5.1849609564288987e-007 1.967634334424389 0.63326639711461397 ;
	setAttr ".sp" -type "double3" -5.1849609564288987e-007 1.967634334424389 0.63326639711461397 ;
createNode joint -n "tongue1_jnt" -p "addJnt_grp";
	rename -uid "79E5FC3A-44DA-3376-41E8-F6B4048D1210";
	addAttr -ci true -sn "liw" -ln "lockInfluenceWeights" -min 0 -max 1 -at "bool";
	setAttr ".t" -type "double3" 8.7870084233243478e-018 7.9745668270121879 3.0304025236372252 ;
	setAttr ".jo" -type "double3" 89.593935536341803 0 0 ;
	setAttr ".bps" -type "matrix" 1 0 0 0 0 0.84443606484883982 0.53565635661551347 0
		 0 -0.53565635661551347 0.84443606484883982 0 0 222.64327363418465 -1.3727481207023438 1;
	setAttr ".radi" 0.2;
	setAttr ".liw" yes;
createNode joint -n "tongue2_jnt" -p "tongue1_jnt";
	rename -uid "D5ED3EEF-4121-FC93-FBD2-459A3396FF78";
	addAttr -ci true -sn "liw" -ln "lockInfluenceWeights" -min 0 -max 1 -at "bool";
	setAttr ".t" -type "double3" 8.443276876193642e-031 0.41428369626046857 0 ;
	setAttr ".jo" -type "double3" 9.710504159777285 0 0 ;
	setAttr ".bps" -type "matrix" 1 0 0 0 0 0.084133709421899183 0.99645447409247523 0
		 0 -0.99645447409247523 0.084133709421899183 0 0 225.5005072402341 0.43969856072858127 1;
	setAttr ".radi" 0.2;
	setAttr ".liw" yes;
createNode joint -n "tongue3_jnt" -p "tongue2_jnt";
	rename -uid "5F65B4A7-44D6-2A4F-07DE-398B0F869CDC";
	addAttr -ci true -sn "liw" -ln "lockInfluenceWeights" -min 0 -max 1 -at "bool";
	setAttr ".t" -type "double3" 4.3213841687632059e-017 0.3688448009372709 3.5527136788005009e-015 ;
	setAttr ".jo" -type "double3" 0.15094790784301271 0 0 ;
	setAttr ".bps" -type "matrix" 1 0 0 0 0 -0.081552711316839971 0.99666902995772477 0
		 0 -0.99666902995772477 -0.081552711316839971 0 0 225.71745581610085 3.0091725629561377 1;
	setAttr ".radi" 0.2;
	setAttr ".liw" yes;
createNode joint -n "tongue4_jnt" -p "tongue3_jnt";
	rename -uid "19E71C4E-4357-03AF-A602-C78F1D0B1768";
	addAttr -ci true -sn "liw" -ln "lockInfluenceWeights" -min 0 -max 1 -at "bool";
	setAttr ".t" -type "double3" -7.8565057962049812e-017 0.44431332996837947 1.4210854715202004e-014 ;
	setAttr ".bps" -type "matrix" 1 0 0 0 0 -0.098936905545293025 0.99509370851248047 0
		 0 -0.99509370851248047 -0.098936905545293025 0 0 225.47154161508337 6.0145302539939607 1;
	setAttr ".radi" 0.2;
	setAttr ".liw" yes;
createNode joint -n "upperTeeth_jnt" -p "addJnt_grp";
	rename -uid "393449D2-4C7B-C707-AF68-129B76C735D2";
	addAttr -ci true -sn "liw" -ln "lockInfluenceWeights" -min 0 -max 1 -at "bool";
	setAttr ".t" -type "double3" 1.6551266332098359e-006 8.1605954888210022 3.8383779802546494 ;
	setAttr ".bps" -type "matrix" 1 0 0 0 0 1 0 0 0 0 1 0 -2.5021681837478968e-030 226.2211830093936 12.418563328530155 1;
	setAttr ".radi" 0.2;
createNode joint -n "lowerTeeth_jnt" -p "addJnt_grp";
	rename -uid "BD16CAA6-479C-38B9-EE8E-71ABED1EA4C1";
	addAttr -ci true -sn "liw" -ln "lockInfluenceWeights" -min 0 -max 1 -at "bool";
	setAttr ".t" -type "double3" 1.5050172805786133e-006 7.940310271255405 3.8797374418045623 ;
	setAttr ".bps" -type "matrix" 1 0 0 0 0 1 0 0 0 0 1 0 0 223.88262395048474 12.418563328530155 1;
	setAttr ".radi" 0.2;
createNode joint -n "tail1_jnt" -p "addJnt_grp";
	rename -uid "CF977C16-47F8-E7AF-142E-A4B5AA20DF73";
	addAttr -ci true -sn "liw" -ln "lockInfluenceWeights" -min 0 -max 1 -at "bool";
	setAttr ".t" -type "double3" 0 5.8190536893905689 -2.3004671703124209 ;
	setAttr ".mnrl" -type "double3" -360 -360 -360 ;
	setAttr ".mxrl" -type "double3" 360 360 360 ;
	setAttr ".jo" -type "double3" 14.32839822982497 0 0 ;
	setAttr ".bps" -type "matrix" 7.7715611723760958e-016 0 -1 0 0 1 0 0 1 0 7.7715611723760958e-016 0
		 -1.6159875875260426e-016 3.1139771143121062 -2.7026852981320961 1;
	setAttr ".radi" 0.2;
createNode joint -n "tail2_jnt" -p "tail1_jnt";
	rename -uid "B7B178A2-4D41-47D6-9EE2-BFA089A2CC65";
	addAttr -ci true -sn "liw" -ln "lockInfluenceWeights" -min 0 -max 1 -at "bool";
	setAttr ".t" -type "double3" 9.6495480509629958e-017 -1.7763568394002505e-015 -0.21738818277964045 ;
	setAttr ".mnrl" -type "double3" -360 -360 -360 ;
	setAttr ".mxrl" -type "double3" 360 360 360 ;
	setAttr ".jo" -type "double3" 43.265827795912386 0 0 ;
	setAttr ".bps" -type "matrix" 7.7715611723760958e-016 0 -1 0 0 1 0 0 1 0 7.7715611723760958e-016 0
		 5.0453505602249006e-016 3.1139771143121062 -3.4636923909359028 1;
	setAttr ".radi" 0.2;
createNode joint -n "tail3_jnt" -p "tail2_jnt";
	rename -uid "FCE28F4F-4D62-DF21-4DD8-2BBCCC899B14";
	addAttr -ci true -sn "liw" -ln "lockInfluenceWeights" -min 0 -max 1 -at "bool";
	setAttr ".t" -type "double3" -6.0117103183496879e-017 1.9984014443252818e-015 -0.71994257197188904 ;
	setAttr ".mnrl" -type "double3" -360 -360 -360 ;
	setAttr ".mxrl" -type "double3" 360 360 360 ;
	setAttr ".jo" -type "double3" -60.463858257183446 -3.5311250384401269e-031 -180 ;
	setAttr ".bps" -type "matrix" 7.7715611723760958e-016 0 -1 0 0 1 0 0 1 0 7.7715611723760958e-016 0
		 5.0748322744794901e-016 3.1139771143121062 -4.2246994837397089 1;
	setAttr ".radi" 0.2;
createNode joint -n "tail4_jnt" -p "tail3_jnt";
	rename -uid "848FDB33-46F6-7F24-BD2D-89A4A63AEA25";
	addAttr -ci true -sn "liw" -ln "lockInfluenceWeights" -min 0 -max 1 -at "bool";
	setAttr ".t" -type "double3" 5.4137250089915407e-017 -8.8817841970012523e-016 -0.51209314355052626 ;
	setAttr ".mnrl" -type "double3" -360 -360 -360 ;
	setAttr ".mxrl" -type "double3" 360 360 360 ;
	setAttr ".jo" -type "double3" -41.8206168487065 0 0 ;
	setAttr ".bps" -type "matrix" 7.7715611723760958e-016 0 -1 0 0 1 0 0 1 0 7.7715611723760958e-016 0
		 5.1043139887340796e-016 3.1139771143121062 -4.9857065765435156 1;
	setAttr ".radi" 0.2;
createNode joint -n "tail5_jnt" -p "tail4_jnt";
	rename -uid "6222E8A8-48D9-EDC1-8888-759A932C7D84";
	addAttr -ci true -sn "liw" -ln "lockInfluenceWeights" -min 0 -max 1 -at "bool";
	setAttr ".t" -type "double3" 2.0846755107482768e-017 1.7763568394002505e-015 -0.48397667963006175 ;
	setAttr ".mnrl" -type "double3" -360 -360 -360 ;
	setAttr ".mxrl" -type "double3" 360 360 360 ;
	setAttr ".radi" 0.2;
createNode joint -n "nose_jnt" -p "addJnt_grp";
	rename -uid "3F44E4C3-4A26-8EAA-8BA1-12B91902258C";
	addAttr -ci true -sn "liw" -ln "lockInfluenceWeights" -min 0 -max 1 -at "bool";
	setAttr ".t" -type "double3" 1.3577605204633977e-008 8.4488972876700341 4.472477510618976 ;
	setAttr ".bps" -type "matrix" 1 0 0 0 0 1 0 0 0 0 1 0 -2.5021681837478968e-030 226.2211830093936 12.418563328530155 1;
	setAttr ".radi" 0.2;
createNode joint -n "ear1LFT_jnt" -p "addJnt_grp";
	rename -uid "46A971C8-45BF-85B0-CA07-35ADA49394B6";
	addAttr -ci true -sn "liw" -ln "lockInfluenceWeights" -min 0 -max 1 -at "bool";
	setAttr ".t" -type "double3" 0.97394398848215735 9.7797016567654076 2.0658899943033853 ;
	setAttr ".mnrl" -type "double3" -360 -360 -360 ;
	setAttr ".mxrl" -type "double3" 360 360 360 ;
	setAttr ".jo" -type "double3" -35.476506197811183 2.0310721746189624 -87.153012942710049 ;
	setAttr ".radi" 0.2;
createNode joint -n "ear2LFT_jnt" -p "ear1LFT_jnt";
	rename -uid "A00E8D38-45D4-2B05-4C0E-468DD647DD0C";
	addAttr -ci true -sn "liw" -ln "lockInfluenceWeights" -min 0 -max 1 -at "bool";
	setAttr ".t" -type "double3" -3.5527136788005009e-015 0.40317751361615167 -1.7763568394002505e-015 ;
	setAttr ".mnrl" -type "double3" -360 -360 -360 ;
	setAttr ".mxrl" -type "double3" 360 360 360 ;
	setAttr ".jo" -type "double3" 0.56508307025415883 -0.36258879507734959 29.18873441931763 ;
	setAttr ".radi" 0.2;
createNode joint -n "ear3LFT_jnt" -p "ear2LFT_jnt";
	rename -uid "A77EF40B-4EC5-BD69-DB57-96900B7AD535";
	addAttr -ci true -sn "liw" -ln "lockInfluenceWeights" -min 0 -max 1 -at "bool";
	setAttr ".t" -type "double3" 1.7763568394002505e-015 0.68275132475007538 0 ;
	setAttr ".mnrl" -type "double3" -360 -360 -360 ;
	setAttr ".mxrl" -type "double3" 360 360 360 ;
	setAttr ".jo" -type "double3" -0.45780896131550908 0.37149623041426671 6.3700859140171806 ;
	setAttr ".radi" 0.2;
createNode joint -n "ear4LFT_jnt" -p "ear3LFT_jnt";
	rename -uid "AAA01EC3-462C-5F35-768C-BB8C65A2ED61";
	addAttr -ci true -sn "liw" -ln "lockInfluenceWeights" -min 0 -max 1 -at "bool";
	setAttr ".t" -type "double3" 1.0658141036401503e-014 0.7178624117229786 2.2204460492503131e-015 ;
	setAttr ".mnrl" -type "double3" -360 -360 -360 ;
	setAttr ".mxrl" -type "double3" 360 360 360 ;
	setAttr ".jo" -type "double3" 0.012178193092521895 -0.011774019692273912 4.9744401150131834 ;
	setAttr ".radi" 0.2;
createNode joint -n "ear5LFT_jnt" -p "ear4LFT_jnt";
	rename -uid "F417D40A-4803-3C6C-ABA8-B9A5D54B39A9";
	addAttr -ci true -sn "liw" -ln "lockInfluenceWeights" -min 0 -max 1 -at "bool";
	setAttr ".t" -type "double3" 1.723066134218243e-013 0.94657036555384444 -2.6645352591003757e-015 ;
	setAttr ".mnrl" -type "double3" -360 -360 -360 ;
	setAttr ".mxrl" -type "double3" 360 360 360 ;
	setAttr ".radi" 0.2;
createNode joint -n "ear1RGT_jnt" -p "addJnt_grp";
	rename -uid "578D76F5-4BC7-2760-27A6-868CDC2F42CE";
	addAttr -ci true -sn "liw" -ln "lockInfluenceWeights" -min 0 -max 1 -at "bool";
	setAttr ".t" -type "double3" -0.973944 9.7797 2.06589 ;
	setAttr ".mnrl" -type "double3" -360 -360 -360 ;
	setAttr ".mxrl" -type "double3" 360 360 360 ;
	setAttr ".jo" -type "double3" 144.52349380218882 -2.0310721746189655 87.153012942710049 ;
	setAttr ".radi" 0.2;
createNode joint -n "ear2RGT_jnt" -p "ear1RGT_jnt";
	rename -uid "CAE7C8B2-409F-0C28-0730-348FC876FB57";
	addAttr -ci true -sn "liw" -ln "lockInfluenceWeights" -min 0 -max 1 -at "bool";
	setAttr ".t" -type "double3" -5.3815755940433974e-007 -0.40317805485486735 -6.2574918988644868e-006 ;
	setAttr ".mnrl" -type "double3" -360 -360 -360 ;
	setAttr ".mxrl" -type "double3" 360 360 360 ;
	setAttr ".jo" -type "double3" 0.56508307025503368 -0.36258879507736019 29.188734419317655 ;
	setAttr ".radi" 0.2;
createNode joint -n "ear3RGT_jnt" -p "ear2RGT_jnt";
	rename -uid "B56FFA39-46D2-D28B-7952-09ABE1986AA9";
	addAttr -ci true -sn "liw" -ln "lockInfluenceWeights" -min 0 -max 1 -at "bool";
	setAttr ".t" -type "double3" -1.0272128234234401e-005 -0.68274499847012482 7.6491325446959024e-006 ;
	setAttr ".mnrl" -type "double3" -360 -360 -360 ;
	setAttr ".mxrl" -type "double3" 360 360 360 ;
	setAttr ".jo" -type "double3" -0.45780896131939536 0.37149623041436736 6.3700859140171335 ;
	setAttr ".radi" 0.2;
createNode joint -n "ear4RGT_jnt" -p "ear3RGT_jnt";
	rename -uid "66810260-47D9-CC11-FB96-46B1995BE789";
	addAttr -ci true -sn "liw" -ln "lockInfluenceWeights" -min 0 -max 1 -at "bool";
	setAttr ".t" -type "double3" 5.0236371444078998e-005 -0.71789879312741345 1.5844497891492892e-006 ;
	setAttr ".mnrl" -type "double3" -360 -360 -360 ;
	setAttr ".mxrl" -type "double3" 360 360 360 ;
	setAttr ".jo" -type "double3" 0.012178193011816838 -0.011774019692538554 4.9744401150131887 ;
	setAttr ".radi" 0.2;
createNode joint -n "ear5RGT_jnt" -p "ear4RGT_jnt";
	rename -uid "D1D982AC-4FDB-48DF-F829-43AED29B7E1C";
	addAttr -ci true -sn "liw" -ln "lockInfluenceWeights" -min 0 -max 1 -at "bool";
	setAttr ".t" -type "double3" -2.748999268575858e-005 -0.94654362435798056 -7.4822899298609968e-007 ;
	setAttr ".mnrl" -type "double3" -360 -360 -360 ;
	setAttr ".mxrl" -type "double3" 360 360 360 ;
	setAttr ".jo" -type "double3" 8.5377364625159377e-007 4.0284864401118205e-022 -1.4218187098154767e-022 ;
	setAttr ".radi" 0.2;
createNode joint -n "hornLFT_jnt" -p "addJnt_grp";
	rename -uid "607C1A92-41A8-F664-4E68-33A6B5709DE1";
	setAttr ".t" -type "double3" 0.57329688780009747 10.414254903793335 2.0625906735658646 ;
	setAttr ".mnrl" -type "double3" -360 -360 -360 ;
	setAttr ".mxrl" -type "double3" 360 360 360 ;
	setAttr ".jo" -type "double3" -25.739226684744786 0 -21.983284828998727 ;
	setAttr ".radi" 0.2;
createNode joint -n "hornRGT_jnt" -p "addJnt_grp";
	rename -uid "6784F832-40E6-2CD0-A4CD-479AC275EB0F";
	setAttr ".t" -type "double3" -0.57329688780009747 10.414254903793335 2.0625906735658646 ;
	setAttr ".mnrl" -type "double3" -360 -360 -360 ;
	setAttr ".mxrl" -type "double3" 360 360 360 ;
	setAttr ".jo" -type "double3" -25.739226684744796 -7.9513867036587919e-016 21.983 ;
	setAttr ".radi" 0.2;
createNode mentalrayItemsList -s -n "mentalrayItemsList";
	rename -uid "4FDF5A7D-420B-3C46-073A-7CAE479D507B";
createNode mentalrayGlobals -s -n "mentalrayGlobals";
	rename -uid "850AE90C-4621-F3A8-E779-C88AAC79D4E3";
createNode mentalrayOptions -s -n "miDefaultOptions";
	rename -uid "B12598BA-41A1-33FF-C9AA-F8A632013979";
	addAttr -ci true -m -sn "stringOptions" -ln "stringOptions" -at "compound" -nc 
		3;
	addAttr -ci true -sn "name" -ln "name" -dt "string" -p "stringOptions";
	addAttr -ci true -sn "value" -ln "value" -dt "string" -p "stringOptions";
	addAttr -ci true -sn "type" -ln "type" -dt "string" -p "stringOptions";
	setAttr -s 82 ".stringOptions";
	setAttr ".stringOptions[0].name" -type "string" "rast motion factor";
	setAttr ".stringOptions[0].value" -type "string" "1.0";
	setAttr ".stringOptions[0].type" -type "string" "scalar";
	setAttr ".stringOptions[1].name" -type "string" "rast transparency depth";
	setAttr ".stringOptions[1].value" -type "string" "8";
	setAttr ".stringOptions[1].type" -type "string" "integer";
	setAttr ".stringOptions[2].name" -type "string" "rast useopacity";
	setAttr ".stringOptions[2].value" -type "string" "true";
	setAttr ".stringOptions[2].type" -type "string" "boolean";
	setAttr ".stringOptions[3].name" -type "string" "importon";
	setAttr ".stringOptions[3].value" -type "string" "false";
	setAttr ".stringOptions[3].type" -type "string" "boolean";
	setAttr ".stringOptions[4].name" -type "string" "importon density";
	setAttr ".stringOptions[4].value" -type "string" "1.0";
	setAttr ".stringOptions[4].type" -type "string" "scalar";
	setAttr ".stringOptions[5].name" -type "string" "importon merge";
	setAttr ".stringOptions[5].value" -type "string" "0.0";
	setAttr ".stringOptions[5].type" -type "string" "scalar";
	setAttr ".stringOptions[6].name" -type "string" "importon trace depth";
	setAttr ".stringOptions[6].value" -type "string" "0";
	setAttr ".stringOptions[6].type" -type "string" "integer";
	setAttr ".stringOptions[7].name" -type "string" "importon traverse";
	setAttr ".stringOptions[7].value" -type "string" "true";
	setAttr ".stringOptions[7].type" -type "string" "boolean";
	setAttr ".stringOptions[8].name" -type "string" "shadowmap pixel samples";
	setAttr ".stringOptions[8].value" -type "string" "3";
	setAttr ".stringOptions[8].type" -type "string" "integer";
	setAttr ".stringOptions[9].name" -type "string" "ambient occlusion";
	setAttr ".stringOptions[9].value" -type "string" "false";
	setAttr ".stringOptions[9].type" -type "string" "boolean";
	setAttr ".stringOptions[10].name" -type "string" "ambient occlusion rays";
	setAttr ".stringOptions[10].value" -type "string" "64";
	setAttr ".stringOptions[10].type" -type "string" "integer";
	setAttr ".stringOptions[11].name" -type "string" "ambient occlusion cache";
	setAttr ".stringOptions[11].value" -type "string" "false";
	setAttr ".stringOptions[11].type" -type "string" "boolean";
	setAttr ".stringOptions[12].name" -type "string" "ambient occlusion cache density";
	setAttr ".stringOptions[12].value" -type "string" "1.0";
	setAttr ".stringOptions[12].type" -type "string" "scalar";
	setAttr ".stringOptions[13].name" -type "string" "ambient occlusion cache points";
	setAttr ".stringOptions[13].value" -type "string" "64";
	setAttr ".stringOptions[13].type" -type "string" "integer";
	setAttr ".stringOptions[14].name" -type "string" "irradiance particles";
	setAttr ".stringOptions[14].value" -type "string" "false";
	setAttr ".stringOptions[14].type" -type "string" "boolean";
	setAttr ".stringOptions[15].name" -type "string" "irradiance particles rays";
	setAttr ".stringOptions[15].value" -type "string" "256";
	setAttr ".stringOptions[15].type" -type "string" "integer";
	setAttr ".stringOptions[16].name" -type "string" "irradiance particles interpolate";
	setAttr ".stringOptions[16].value" -type "string" "1";
	setAttr ".stringOptions[16].type" -type "string" "integer";
	setAttr ".stringOptions[17].name" -type "string" "irradiance particles interppoints";
	setAttr ".stringOptions[17].value" -type "string" "64";
	setAttr ".stringOptions[17].type" -type "string" "integer";
	setAttr ".stringOptions[18].name" -type "string" "irradiance particles indirect passes";
	setAttr ".stringOptions[18].value" -type "string" "0";
	setAttr ".stringOptions[18].type" -type "string" "integer";
	setAttr ".stringOptions[19].name" -type "string" "irradiance particles scale";
	setAttr ".stringOptions[19].value" -type "string" "1.0";
	setAttr ".stringOptions[19].type" -type "string" "scalar";
	setAttr ".stringOptions[20].name" -type "string" "irradiance particles env";
	setAttr ".stringOptions[20].value" -type "string" "true";
	setAttr ".stringOptions[20].type" -type "string" "boolean";
	setAttr ".stringOptions[21].name" -type "string" "irradiance particles env rays";
	setAttr ".stringOptions[21].value" -type "string" "256";
	setAttr ".stringOptions[21].type" -type "string" "integer";
	setAttr ".stringOptions[22].name" -type "string" "irradiance particles env scale";
	setAttr ".stringOptions[22].value" -type "string" "1";
	setAttr ".stringOptions[22].type" -type "string" "integer";
	setAttr ".stringOptions[23].name" -type "string" "irradiance particles rebuild";
	setAttr ".stringOptions[23].value" -type "string" "true";
	setAttr ".stringOptions[23].type" -type "string" "boolean";
	setAttr ".stringOptions[24].name" -type "string" "irradiance particles file";
	setAttr ".stringOptions[24].value" -type "string" "";
	setAttr ".stringOptions[24].type" -type "string" "string";
	setAttr ".stringOptions[25].name" -type "string" "geom displace motion factor";
	setAttr ".stringOptions[25].value" -type "string" "1.0";
	setAttr ".stringOptions[25].type" -type "string" "scalar";
	setAttr ".stringOptions[26].name" -type "string" "contrast all buffers";
	setAttr ".stringOptions[26].value" -type "string" "true";
	setAttr ".stringOptions[26].type" -type "string" "boolean";
	setAttr ".stringOptions[27].name" -type "string" "finalgather normal tolerance";
	setAttr ".stringOptions[27].value" -type "string" "25.842";
	setAttr ".stringOptions[27].type" -type "string" "scalar";
	setAttr ".stringOptions[28].name" -type "string" "trace camera clip";
	setAttr ".stringOptions[28].value" -type "string" "false";
	setAttr ".stringOptions[28].type" -type "string" "boolean";
	setAttr ".stringOptions[29].name" -type "string" "unified sampling";
	setAttr ".stringOptions[29].value" -type "string" "true";
	setAttr ".stringOptions[29].type" -type "string" "boolean";
	setAttr ".stringOptions[30].name" -type "string" "samples quality";
	setAttr ".stringOptions[30].value" -type "string" "0.25 0.25 0.25 0.25";
	setAttr ".stringOptions[30].type" -type "string" "color";
	setAttr ".stringOptions[31].name" -type "string" "samples min";
	setAttr ".stringOptions[31].value" -type "string" "1.0";
	setAttr ".stringOptions[31].type" -type "string" "scalar";
	setAttr ".stringOptions[32].name" -type "string" "samples max";
	setAttr ".stringOptions[32].value" -type "string" "100.0";
	setAttr ".stringOptions[32].type" -type "string" "scalar";
	setAttr ".stringOptions[33].name" -type "string" "samples error cutoff";
	setAttr ".stringOptions[33].value" -type "string" "0.0 0.0 0.0 0.0";
	setAttr ".stringOptions[33].type" -type "string" "color";
	setAttr ".stringOptions[34].name" -type "string" "samples per object";
	setAttr ".stringOptions[34].value" -type "string" "false";
	setAttr ".stringOptions[34].type" -type "string" "boolean";
	setAttr ".stringOptions[35].name" -type "string" "progressive";
	setAttr ".stringOptions[35].value" -type "string" "false";
	setAttr ".stringOptions[35].type" -type "string" "boolean";
	setAttr ".stringOptions[36].name" -type "string" "progressive max time";
	setAttr ".stringOptions[36].value" -type "string" "0";
	setAttr ".stringOptions[36].type" -type "string" "integer";
	setAttr ".stringOptions[37].name" -type "string" "progressive subsampling size";
	setAttr ".stringOptions[37].value" -type "string" "4";
	setAttr ".stringOptions[37].type" -type "string" "integer";
	setAttr ".stringOptions[38].name" -type "string" "iray";
	setAttr ".stringOptions[38].value" -type "string" "false";
	setAttr ".stringOptions[38].type" -type "string" "boolean";
	setAttr ".stringOptions[39].name" -type "string" "light relative scale";
	setAttr ".stringOptions[39].value" -type "string" "0.31831";
	setAttr ".stringOptions[39].type" -type "string" "scalar";
	setAttr ".stringOptions[40].name" -type "string" "trace camera motion vectors";
	setAttr ".stringOptions[40].value" -type "string" "false";
	setAttr ".stringOptions[40].type" -type "string" "boolean";
	setAttr ".stringOptions[41].name" -type "string" "ray differentials";
	setAttr ".stringOptions[41].value" -type "string" "true";
	setAttr ".stringOptions[41].type" -type "string" "boolean";
	setAttr ".stringOptions[42].name" -type "string" "environment lighting mode";
	setAttr ".stringOptions[42].value" -type "string" "off";
	setAttr ".stringOptions[42].type" -type "string" "string";
	setAttr ".stringOptions[43].name" -type "string" "environment lighting quality";
	setAttr ".stringOptions[43].value" -type "string" "0.2";
	setAttr ".stringOptions[43].type" -type "string" "scalar";
	setAttr ".stringOptions[44].name" -type "string" "environment lighting shadow";
	setAttr ".stringOptions[44].value" -type "string" "transparent";
	setAttr ".stringOptions[44].type" -type "string" "string";
	setAttr ".stringOptions[45].name" -type "string" "environment lighting resolution";
	setAttr ".stringOptions[45].value" -type "string" "512";
	setAttr ".stringOptions[45].type" -type "string" "integer";
	setAttr ".stringOptions[46].name" -type "string" "environment lighting shader samples";
	setAttr ".stringOptions[46].value" -type "string" "2";
	setAttr ".stringOptions[46].type" -type "string" "integer";
	setAttr ".stringOptions[47].name" -type "string" "environment lighting scale";
	setAttr ".stringOptions[47].value" -type "string" "1 1 1";
	setAttr ".stringOptions[47].type" -type "string" "color";
	setAttr ".stringOptions[48].name" -type "string" "environment lighting caustic photons";
	setAttr ".stringOptions[48].value" -type "string" "0";
	setAttr ".stringOptions[48].type" -type "string" "integer";
	setAttr ".stringOptions[49].name" -type "string" "environment lighting global illum photons";
	setAttr ".stringOptions[49].value" -type "string" "0";
	setAttr ".stringOptions[49].type" -type "string" "integer";
	setAttr ".stringOptions[50].name" -type "string" "light importance sampling";
	setAttr ".stringOptions[50].value" -type "string" "all";
	setAttr ".stringOptions[50].type" -type "string" "string";
	setAttr ".stringOptions[51].name" -type "string" "light importance sampling quality";
	setAttr ".stringOptions[51].value" -type "string" "1.0";
	setAttr ".stringOptions[51].type" -type "string" "scalar";
	setAttr ".stringOptions[52].name" -type "string" "light importance sampling samples";
	setAttr ".stringOptions[52].value" -type "string" "4";
	setAttr ".stringOptions[52].type" -type "string" "integer";
	setAttr ".stringOptions[53].name" -type "string" "light importance sampling resolution";
	setAttr ".stringOptions[53].value" -type "string" "1.0";
	setAttr ".stringOptions[53].type" -type "string" "scalar";
	setAttr ".stringOptions[54].name" -type "string" "light importance sampling precomputed";
	setAttr ".stringOptions[54].value" -type "string" "false";
	setAttr ".stringOptions[54].type" -type "string" "boolean";
	setAttr ".stringOptions[55].name" -type "string" "mila quality";
	setAttr ".stringOptions[55].value" -type "string" "1.0";
	setAttr ".stringOptions[55].type" -type "string" "scalar";
	setAttr ".stringOptions[56].name" -type "string" "mila glossy quality";
	setAttr ".stringOptions[56].value" -type "string" "1.0";
	setAttr ".stringOptions[56].type" -type "string" "scalar";
	setAttr ".stringOptions[57].name" -type "string" "mila scatter quality";
	setAttr ".stringOptions[57].value" -type "string" "1.0";
	setAttr ".stringOptions[57].type" -type "string" "scalar";
	setAttr ".stringOptions[58].name" -type "string" "mila scatter scale";
	setAttr ".stringOptions[58].value" -type "string" "1.0";
	setAttr ".stringOptions[58].type" -type "string" "scalar";
	setAttr ".stringOptions[59].name" -type "string" "mila diffuse quality";
	setAttr ".stringOptions[59].value" -type "string" "1.0";
	setAttr ".stringOptions[59].type" -type "string" "scalar";
	setAttr ".stringOptions[60].name" -type "string" "mila diffuse detail";
	setAttr ".stringOptions[60].value" -type "string" "false";
	setAttr ".stringOptions[60].type" -type "string" "boolean";
	setAttr ".stringOptions[61].name" -type "string" "mila diffuse detail distance";
	setAttr ".stringOptions[61].value" -type "string" "10.0";
	setAttr ".stringOptions[61].type" -type "string" "scalar";
	setAttr ".stringOptions[62].name" -type "string" "mila use max distance inside";
	setAttr ".stringOptions[62].value" -type "string" "true";
	setAttr ".stringOptions[62].type" -type "string" "boolean";
	setAttr ".stringOptions[63].name" -type "string" "mila clamp output";
	setAttr ".stringOptions[63].value" -type "string" "false";
	setAttr ".stringOptions[63].type" -type "string" "boolean";
	setAttr ".stringOptions[64].name" -type "string" "mila clamp level";
	setAttr ".stringOptions[64].value" -type "string" "1.0";
	setAttr ".stringOptions[64].type" -type "string" "scalar";
	setAttr ".stringOptions[65].name" -type "string" "gi gpu";
	setAttr ".stringOptions[65].value" -type "string" "off";
	setAttr ".stringOptions[65].type" -type "string" "string";
	setAttr ".stringOptions[66].name" -type "string" "gi gpu rays";
	setAttr ".stringOptions[66].value" -type "string" "34";
	setAttr ".stringOptions[66].type" -type "string" "integer";
	setAttr ".stringOptions[67].name" -type "string" "gi gpu passes";
	setAttr ".stringOptions[67].value" -type "string" "4";
	setAttr ".stringOptions[67].type" -type "string" "integer";
	setAttr ".stringOptions[68].name" -type "string" "gi gpu presample density";
	setAttr ".stringOptions[68].value" -type "string" "1.0";
	setAttr ".stringOptions[68].type" -type "string" "scalar";
	setAttr ".stringOptions[69].name" -type "string" "gi gpu presample depth";
	setAttr ".stringOptions[69].value" -type "string" "2";
	setAttr ".stringOptions[69].type" -type "string" "integer";
	setAttr ".stringOptions[70].name" -type "string" "gi gpu filter";
	setAttr ".stringOptions[70].value" -type "string" "1.0";
	setAttr ".stringOptions[70].type" -type "string" "integer";
	setAttr ".stringOptions[71].name" -type "string" "gi gpu depth";
	setAttr ".stringOptions[71].value" -type "string" "3";
	setAttr ".stringOptions[71].type" -type "string" "integer";
	setAttr ".stringOptions[72].name" -type "string" "gi gpu devices";
	setAttr ".stringOptions[72].value" -type "string" "0";
	setAttr ".stringOptions[72].type" -type "string" "integer";
	setAttr ".stringOptions[73].name" -type "string" "shutter shape function";
	setAttr ".stringOptions[73].value" -type "string" "none";
	setAttr ".stringOptions[73].type" -type "string" "string";
	setAttr ".stringOptions[74].name" -type "string" "shutter full open";
	setAttr ".stringOptions[74].value" -type "string" "0.2";
	setAttr ".stringOptions[74].type" -type "string" "scalar";
	setAttr ".stringOptions[75].name" -type "string" "shutter full close";
	setAttr ".stringOptions[75].value" -type "string" "0.8";
	setAttr ".stringOptions[75].type" -type "string" "scalar";
	setAttr ".stringOptions[76].name" -type "string" "gi";
	setAttr ".stringOptions[76].value" -type "string" "off";
	setAttr ".stringOptions[76].type" -type "string" "boolean";
	setAttr ".stringOptions[77].name" -type "string" "gi rays";
	setAttr ".stringOptions[77].value" -type "string" "100";
	setAttr ".stringOptions[77].type" -type "string" "integer";
	setAttr ".stringOptions[78].name" -type "string" "gi depth";
	setAttr ".stringOptions[78].value" -type "string" "0";
	setAttr ".stringOptions[78].type" -type "string" "integer";
	setAttr ".stringOptions[79].name" -type "string" "gi freeze";
	setAttr ".stringOptions[79].value" -type "string" "off";
	setAttr ".stringOptions[79].type" -type "string" "boolean";
	setAttr ".stringOptions[80].name" -type "string" "gi filter";
	setAttr ".stringOptions[80].value" -type "string" "1.0";
	setAttr ".stringOptions[80].type" -type "string" "scalar";
	setAttr ".stringOptions[81].name" -type "string" "environment lighting globillum photons";
	setAttr ".stringOptions[81].value" -type "string" "0";
	setAttr ".stringOptions[81].type" -type "string" "integer";
createNode mentalrayFramebuffer -s -n "miDefaultFramebuffer";
	rename -uid "B43471F5-4641-D655-386A-48A0A79F3138";
createNode lightLinker -s -n "lightLinker1";
	rename -uid "03732E81-4397-3ED3-BB20-278F3F290448";
	setAttr -s 9 ".lnk";
	setAttr -s 9 ".slnk";
createNode displayLayerManager -n "layerManager";
	rename -uid "58439F08-423E-3CBC-32B4-21874179BF53";
createNode displayLayer -n "defaultLayer";
	rename -uid "5EFD7CE3-4C45-390D-D2D9-8F9B3BB27302";
createNode renderLayerManager -n "renderLayerManager";
	rename -uid "37F11E1E-49E5-FF29-D857-559EFE0BF915";
createNode renderLayer -n "defaultRenderLayer";
	rename -uid "D035EA89-40F1-1E84-43C0-2D9BBD5C2047";
	setAttr ".g" yes;
createNode script -n "sceneConfigurationScriptNode";
	rename -uid "39C5B2AC-4B08-8B7E-6112-C5B6069D6B07";
	setAttr ".b" -type "string" "playbackOptions -min 1 -max 120 -ast 1 -aet 200 ";
	setAttr ".st" 6;
createNode VRaySettingsNode -s -n "vraySettings";
	rename -uid "6B97E5D0-4130-2C5A-335A-7A92EBF1BD83";
	setAttr ".cfile" -type "string" "";
	setAttr ".cfile2" -type "string" "";
	setAttr ".casf" -type "string" "";
	setAttr ".casf2" -type "string" "";
	setAttr ".msr" 2;
	setAttr ".aaft" 6;
	setAttr ".dma" 3;
	setAttr ".fsz" 0.06;
	setAttr ".pft" no;
	setAttr ".fnm" -type "string" "";
	setAttr ".lcfnm" -type "string" "";
	setAttr ".asf" -type "string" "";
	setAttr ".lcasf" -type "string" "";
	setAttr ".icits" 10;
	setAttr ".ifile" -type "string" "";
	setAttr ".ifile2" -type "string" "";
	setAttr ".iasf" -type "string" "";
	setAttr ".iasf2" -type "string" "";
	setAttr ".ofn" -type "string" "";
	setAttr ".pmfile" -type "string" "";
	setAttr ".pmfile2" -type "string" "";
	setAttr ".pmasf" -type "string" "";
	setAttr ".pmasf2" -type "string" "";
	setAttr ".dmcsaa" 0.367089;
	setAttr ".dmcsat" 0.2;
	setAttr ".dmcsams" 7;
	setAttr ".cmtp" 6;
	setAttr ".cmco" yes;
	setAttr ".cmcl" 5;
	setAttr ".cmao" 1;
	setAttr ".cmlw" yes;
	setAttr ".cg" 2.2000000476837158;
	setAttr ".cmas" yes;
	setAttr ".caet1" -type "float3" 0.50000799 0.50000799 0.50000799 ;
	setAttr ".caet3" -type "float3" 1 1 1 ;
	setAttr ".caoet" yes;
	setAttr ".vrscfile" -type "string" "";
	setAttr ".mtah" yes;
	setAttr ".mpp" -type "string" "";
	setAttr ".ddms" 2;
	setAttr ".srml" 60;
	setAttr ".srdml" 14400;
	setAttr ".srdfgt" 1;
	setAttr ".srgx" 16;
	setAttr ".srgy" 16;
	setAttr ".smth" 90;
	setAttr ".seu" yes;
	setAttr ".gorvs" yes;
	setAttr ".golddl" no;
	setAttr ".goldhl" 0;
	setAttr ".gormio" yes;
	setAttr ".wi" 1280;
	setAttr ".he" 720;
	setAttr ".aspr" 1.7777777910232544;
	setAttr ".fnprx" -type "string" "<Scene>";
	setAttr ".defd" -type "string" "";
	setAttr ".fnes" -type "string" "vraySettings.";
	setAttr ".exratr" -type "string" "";
	setAttr ".jpegq" 100;
	setAttr ".animtp" 1;
	setAttr ".animbo" yes;
	setAttr ".imgfs" -type "string" "exr (multichannel)";
	setAttr ".bkc" -type "string" "map1";
	setAttr ".vfbOn" yes;
	setAttr ".vfbSA" -type "Int32Array" 251 998 14 239 162 1316 814
		 1568 205 10 205 8471617 1 60 205 1 551 251 189
		 73 453 -858993459 1071353036 -95443718 1071009700 1717986918 1069737574 1240768330 1069151391 886 1
		 3 1 0 0 0 0 1 0 5 0 1065353216 3
		 1 0 0 0 0 1 0 5 0 1065353216 3 1
		 1065353216 0 0 0 1 0 5 0 1065353216 1 3 2
		 1065353216 1065353216 1065353216 1065353216 1 0 5 0 0 0 0 1
		 0 5 0 1065353216 1 137531 65536 1 1313131313 65536 944879383 0
		 -525502228 1065353216 1621981420 1034147594 1053609164 1065353216 2 0 0 -1097805629 -1097805629 1049678019
		 1049678019 0 2 1065353216 1065353216 -1097805629 -1097805629 1049678019 1049678019 0 2 1
		 2 -1 0 0 0 1869111636 24941 21432696 0 0 0 16
		 0 0 8 1343986960 0 1 0 1060818944 0 1060819007 1065353216 1065353216
		 0 99670469 0 99670457 0 21432696 16777215 0 70 1 32 53
		 1632775510 1868963961 1632444530 622879097 2036429430 1936876918 544108393 1701978236 1919247470 1835627552 1915035749 1701080677
		 1835627634 12901 1378702848 1713404257 1293972079 543258977 808529459 540094510 1701978236 1919247470 1835627552 807411813
		 807411816 858857581 7550766 16777216 16777216 0 0 0 0 1 1 0
		 0 0 0 1 1 0 0 11 1936614732 1701209669 7566435 1
		 0 1 0 1101004800 1101004800 1082130432 0 0 0 1077936128 0 0
		 0 1 0 1 1112014848 1101004800 1 0 0 0 0 82176
		 0 16576 0 0 0 0 16448 0 65536 65536 0 0
		 0 65536 0 0 0 0 0 0 0 0 0 0
		 0 0 65536 536870912 536888779 ;
	setAttr ".sRGBOn" yes;
	setAttr ".reur" yes;
	setAttr ".mSceneName" -type "string" "P:/Lego_FRDCG/asset/3D/character/animal/frd_deerWhite/rig/rig_md/scenes/frd_deerWhite_rig_skele.ma";
	setAttr ".shMode" 0;
	setAttr ".shFileName" -type "string" "";
	setAttr ".shFileFormat" 0;
	setAttr ".shAdaptiveThresh" 0.10000000149011612;
	setAttr ".shAdaptiveEdge" 1;
	setAttr ".shrFileName" -type "string" "";
	setAttr ".rt_traceDepth" 3;
	setAttr ".rt_giDepth" 1;
	setAttr ".rt_maxNoise" 0.0010000000474974513;
createNode renderGlobals -s -n "swiffworksRenderGlobals";
	rename -uid "46237FF8-4F67-4E0B-773A-2E86A9150FF5";
	addAttr -ci true -sn "rm" -ln "renderMode" -at "short";
	addAttr -ci true -sn "twos" -ln "twoSided" -dv 1 -min 0 -max 1 -at "bool";
	addAttr -ci true -sn "ctc" -ln "convertToCurves" -dv 1 -min 0 -max 1 -at "bool";
	addAttr -ci true -sn "cqlty" -ln "curveQuality" -at "short";
	addAttr -ci true -sn "inttype" -ln "intersType" -at "short";
	addAttr -ci true -sn "dlt" -ln "defaultLineThickness" -dv 0.2 -at "float";
	addAttr -ci true -sn "dlo" -ln "defaultLineOpacity" -dv 1 -at "float";
	addAttr -ci true -sn "dlcr" -ln "defaultLineColorR" -at "float";
	addAttr -ci true -sn "dlcg" -ln "defaultLineColorG" -at "float";
	addAttr -ci true -sn "dlcb" -ln "defaultLineColorB" -at "float";
	addAttr -ci true -sn "bw" -ln "bandwidth" -dv 14400 -at "float";
	addAttr -ci true -sn "oswg" -ln "onlySWG" -min 0 -max 1 -at "bool";
	addAttr -ci true -sn "fa" -ln "defaultFoldAngle" -dv 45 -at "float";
	addAttr -ci true -sn "df" -ln "defaultDisplayFolds" -at "short";
createNode renderGlobals -s -n "inkPaintRenderGlobals";
	rename -uid "D7EA744F-486C-35D3-80F9-049640D3904C";
	addAttr -ci true -sn "regMode" -ln "regionMode" -at "short";
	addAttr -ci true -sn "dpi" -ln "dpiValue" -dv 100 -at "short";
createNode renderGlobals -s -n "inkworksRenderGlobals";
	rename -uid "8788FEF5-4FDD-6F2E-4422-5D990A1EE61D";
	addAttr -ci true -sn "bb" -ln "blendBackgr" -dv 1 -min 0 -max 1 -at "bool";
	addAttr -ci true -sn "rm" -ln "renderMode" -at "short";
	addAttr -ci true -sn "as" -ln "adaptiveSubdv" -dv 1 -min 0 -max 1 -at "bool";
	addAttr -ci true -sn "twos" -ln "twoSided" -dv 1 -min 0 -max 1 -at "bool";
	addAttr -ci true -sn "oiw" -ln "onlyIW" -min 0 -max 1 -at "bool";
createNode mentalrayOptions -s -n "miContourPreset";
	rename -uid "56206B09-435E-3C04-DC4B-758391EAD298";
	setAttr ".splck" yes;
	setAttr ".fil" 0;
	setAttr ".rflr" 1;
	setAttr ".rfrr" 1;
	setAttr ".maxr" 1;
	setAttr ".shrd" 2;
createNode mentalrayOptions -s -n "Draft";
	rename -uid "46CBC6FE-4781-F19F-D6FE-74A60E017D0C";
	setAttr ".splck" yes;
	setAttr ".fil" 0;
	setAttr ".rflr" 1;
	setAttr ".rfrr" 1;
	setAttr ".maxr" 2;
	setAttr ".shrd" 2;
createNode mentalrayOptions -s -n "DraftMotionBlur";
	rename -uid "4E050AC8-4A8E-A91B-31A2-8BB0D9F95CE9";
	setAttr ".splck" yes;
	setAttr ".fil" 0;
	setAttr ".rflr" 1;
	setAttr ".rfrr" 1;
	setAttr ".maxr" 2;
	setAttr ".shrd" 2;
	setAttr ".mb" 1;
	setAttr ".tconr" 1;
	setAttr ".tcong" 1;
	setAttr ".tconb" 1;
	setAttr ".tcona" 1;
createNode mentalrayOptions -s -n "DraftRapidMotion";
	rename -uid "333FE2DA-4A77-311A-D6DB-81AB239C0139";
	setAttr ".splck" yes;
	setAttr ".fil" 0;
	setAttr ".scan" 3;
	setAttr ".rapc" 1;
	setAttr ".raps" 0.25;
	setAttr ".rflr" 1;
	setAttr ".rfrr" 1;
	setAttr ".maxr" 2;
	setAttr ".shrd" 2;
	setAttr ".mb" 1;
	setAttr ".tconr" 1;
	setAttr ".tcong" 1;
	setAttr ".tconb" 1;
	setAttr ".tcona" 1;
createNode mentalrayOptions -s -n "Preview";
	rename -uid "270F3079-45D4-8E7C-A5F9-029F11F0203F";
	setAttr ".splck" yes;
	setAttr ".minsp" -1;
	setAttr ".maxsp" 1;
	setAttr ".fil" 1;
	setAttr ".rflr" 2;
	setAttr ".rfrr" 2;
	setAttr ".maxr" 4;
	setAttr ".shrd" 2;
createNode mentalrayOptions -s -n "PreviewMotionblur";
	rename -uid "9E473CA7-4773-05AC-0130-6EB42617A986";
	setAttr ".splck" yes;
	setAttr ".minsp" -1;
	setAttr ".maxsp" 1;
	setAttr ".fil" 1;
	setAttr ".rflr" 2;
	setAttr ".rfrr" 2;
	setAttr ".maxr" 4;
	setAttr ".shrd" 2;
	setAttr ".mb" 1;
	setAttr ".tconr" 0.5;
	setAttr ".tcong" 0.5;
	setAttr ".tconb" 0.5;
	setAttr ".tcona" 0.5;
createNode mentalrayOptions -s -n "PreviewRapidMotion";
	rename -uid "4049B1AE-4CB8-211A-1A09-0482636FE1C1";
	setAttr ".splck" yes;
	setAttr ".minsp" -1;
	setAttr ".maxsp" 1;
	setAttr ".fil" 1;
	setAttr ".scan" 3;
	setAttr ".rapc" 3;
	setAttr ".rflr" 2;
	setAttr ".rfrr" 2;
	setAttr ".maxr" 4;
	setAttr ".shrd" 2;
	setAttr ".mb" 1;
	setAttr ".tconr" 0.5;
	setAttr ".tcong" 0.5;
	setAttr ".tconb" 0.5;
	setAttr ".tcona" 0.5;
createNode mentalrayOptions -s -n "PreviewCaustics";
	rename -uid "45F443BD-4323-A641-C76B-5A8A8C235998";
	setAttr ".splck" yes;
	setAttr ".minsp" -1;
	setAttr ".maxsp" 1;
	setAttr ".fil" 1;
	setAttr ".rflr" 2;
	setAttr ".rfrr" 2;
	setAttr ".maxr" 4;
	setAttr ".shrd" 2;
	setAttr ".ca" yes;
	setAttr ".cc" 1;
	setAttr ".cr" 1;
createNode mentalrayOptions -s -n "PreviewGlobalIllum";
	rename -uid "B4C80210-4C92-9675-0BC8-799318D8C026";
	setAttr ".splck" yes;
	setAttr ".minsp" -1;
	setAttr ".maxsp" 1;
	setAttr ".fil" 1;
	setAttr ".rflr" 2;
	setAttr ".rfrr" 2;
	setAttr ".maxr" 4;
	setAttr ".shrd" 2;
	setAttr ".gi" yes;
	setAttr ".gc" 1;
	setAttr ".gr" 1;
createNode mentalrayOptions -s -n "PreviewFinalGather";
	rename -uid "6E66F6FF-4999-C985-C412-F691936FFBC3";
	setAttr ".splck" yes;
	setAttr ".minsp" -1;
	setAttr ".maxsp" 1;
	setAttr ".fil" 1;
	setAttr ".rflr" 2;
	setAttr ".rfrr" 2;
	setAttr ".maxr" 4;
	setAttr ".shrd" 2;
	setAttr ".fg" yes;
createNode mentalrayOptions -s -n "Production";
	rename -uid "FBFD13D6-46CE-4062-EA8C-6CA264630D16";
	setAttr ".splck" yes;
	setAttr ".minsp" 0;
	setAttr ".maxsp" 2;
	setAttr ".rflr" 10;
	setAttr ".rfrr" 10;
	setAttr ".maxr" 20;
	setAttr ".shrd" 2;
createNode mentalrayOptions -s -n "ProductionMotionblur";
	rename -uid "9F336CF4-49FC-BCF0-76B6-F18B63C098E2";
	setAttr ".splck" yes;
	setAttr ".minsp" 0;
	setAttr ".maxsp" 2;
	setAttr ".rflr" 10;
	setAttr ".rfrr" 10;
	setAttr ".maxr" 20;
	setAttr ".shrd" 2;
	setAttr ".mb" 2;
createNode mentalrayOptions -s -n "ProductionRapidMotion";
	rename -uid "C4D97F43-4F8D-34FA-C1F5-5798BF386809";
	setAttr ".splck" yes;
	setAttr ".minsp" 0;
	setAttr ".maxsp" 2;
	setAttr ".scan" 3;
	setAttr ".rapc" 8;
	setAttr ".raps" 2;
	setAttr ".rflr" 10;
	setAttr ".rfrr" 10;
	setAttr ".maxr" 20;
	setAttr ".shrd" 2;
	setAttr ".mb" 2;
createNode mentalrayOptions -s -n "ProductionFineTrace";
	rename -uid "6B5EFD30-4291-1A4C-4111-6C82C5674DB9";
	setAttr ".conr" 0.019999999552965164;
	setAttr ".cong" 0.019999999552965164;
	setAttr ".conb" 0.019999999552965164;
	setAttr ".splck" yes;
	setAttr ".minsp" 1;
	setAttr ".maxsp" 2;
	setAttr ".fil" 1;
	setAttr ".filw" 0.75;
	setAttr ".filh" 0.75;
	setAttr ".jit" yes;
	setAttr ".rflr" 1;
	setAttr ".rfrr" 1;
	setAttr ".maxr" 1;
	setAttr ".shrd" 2;
createNode mentalrayOptions -s -n "ProductionRapidFur";
	rename -uid "6064D456-4104-FA5A-9807-2F889B9A997B";
	setAttr ".conr" 0.039999999105930328;
	setAttr ".cong" 0.029999999329447746;
	setAttr ".conb" 0.070000000298023224;
	setAttr ".splck" yes;
	setAttr ".minsp" 0;
	setAttr ".maxsp" 2;
	setAttr ".fil" 1;
	setAttr ".filw" 1.1449999809265137;
	setAttr ".filh" 1.1449999809265137;
	setAttr ".jit" yes;
	setAttr ".scan" 3;
	setAttr ".rapc" 3;
	setAttr ".raps" 0.25;
	setAttr ".ray" no;
	setAttr ".rflr" 1;
	setAttr ".rfrr" 1;
	setAttr ".maxr" 1;
	setAttr ".shrd" 2;
	setAttr ".mbsm" no;
	setAttr ".bism" 0.019999999552965164;
createNode mentalrayOptions -s -n "ProductionRapidHair";
	rename -uid "7843B890-4DE6-5995-36D3-41BA6FC5F14C";
	setAttr ".conr" 0.039999999105930328;
	setAttr ".cong" 0.029999999329447746;
	setAttr ".conb" 0.070000000298023224;
	setAttr ".splck" yes;
	setAttr ".minsp" 0;
	setAttr ".maxsp" 2;
	setAttr ".fil" 1;
	setAttr ".filw" 1.1449999809265137;
	setAttr ".filh" 1.1449999809265137;
	setAttr ".jit" yes;
	setAttr ".scan" 3;
	setAttr ".rapc" 6;
	setAttr ".ray" no;
	setAttr ".rflr" 1;
	setAttr ".rfrr" 1;
	setAttr ".maxr" 1;
	setAttr ".shrd" 2;
	setAttr ".mbsm" no;
	setAttr ".bism" 0.019999999552965164;
createNode mentalrayOptions -s -n "PreviewImrRayTracyOff";
	rename -uid "15D77B92-4463-29D0-48AC-C299C6695CFF";
	setAttr ".minsp" 0;
	setAttr ".fil" 1;
	setAttr ".ray" no;
	setAttr ".rflr" 1;
	setAttr ".rfrr" 1;
	setAttr ".maxr" 1;
	setAttr ".shrd" 2;
createNode mentalrayOptions -s -n "PreviewImrRayTracyOn";
	rename -uid "8AD200AE-468A-5244-8CB8-5B9DF348CDBD";
	setAttr ".minsp" 0;
	setAttr ".fil" 1;
	setAttr ".rflr" 1;
	setAttr ".rfrr" 2;
	setAttr ".maxr" 3;
	setAttr ".shrd" 1;
select -ne :time1;
	setAttr -av -k on ".cch";
	setAttr -av -cb on ".ihi";
	setAttr -av -k on ".nds";
	setAttr -cb on ".bnm";
	setAttr -k on ".o" 1;
	setAttr -av ".unw" 1;
	setAttr -k on ".etw";
	setAttr -k on ".tps";
	setAttr -av -k on ".tms";
select -ne :hardwareRenderingGlobals;
	setAttr ".otfna" -type "stringArray" 22 "NURBS Curves" "NURBS Surfaces" "Polygons" "Subdiv Surface" "Particles" "Particle Instance" "Fluids" "Strokes" "Image Planes" "UI" "Lights" "Cameras" "Locators" "Joints" "IK Handles" "Deformers" "Motion Trails" "Components" "Hair Systems" "Follicles" "Misc. UI" "Ornaments"  ;
	setAttr ".otfva" -type "Int32Array" 22 0 1 1 1 1 1
		 1 1 1 0 0 0 0 0 0 0 0 0
		 0 0 0 0 ;
	setAttr ".fprt" yes;
select -ne :renderPartition;
	setAttr -k on ".cch";
	setAttr -cb on ".ihi";
	setAttr -k on ".nds";
	setAttr -cb on ".bnm";
	setAttr -s 2 ".st";
	setAttr -cb on ".an";
	setAttr -cb on ".pt";
select -ne :renderGlobalsList1;
	setAttr -k on ".cch";
	setAttr -cb on ".ihi";
	setAttr -k on ".nds";
	setAttr -cb on ".bnm";
select -ne :defaultShaderList1;
	setAttr -k on ".cch";
	setAttr -cb on ".ihi";
	setAttr -k on ".nds";
	setAttr -cb on ".bnm";
	setAttr -s 4 ".s";
select -ne :postProcessList1;
	setAttr -k on ".cch";
	setAttr -cb on ".ihi";
	setAttr -k on ".nds";
	setAttr -cb on ".bnm";
	setAttr -s 2 ".p";
select -ne :defaultRenderingList1;
	setAttr -k on ".ihi";
select -ne :initialShadingGroup;
	setAttr -av -k on ".cch";
	setAttr -cb on ".ihi";
	setAttr -av -k on ".nds";
	setAttr -cb on ".bnm";
	setAttr -k on ".mwc";
	setAttr -cb on ".an";
	setAttr -cb on ".il";
	setAttr -cb on ".vo";
	setAttr -cb on ".eo";
	setAttr -cb on ".fo";
	setAttr -cb on ".epo";
	setAttr -k on ".ro" yes;
	setAttr -cb on ".mimt";
	setAttr -cb on ".miop";
	setAttr -k on ".mico";
	setAttr -cb on ".mise";
	setAttr -cb on ".mism";
	setAttr -cb on ".mice";
	setAttr -av -cb on ".micc";
	setAttr -k on ".micr";
	setAttr -k on ".micg";
	setAttr -k on ".micb";
	setAttr -cb on ".mica";
	setAttr -av -cb on ".micw";
	setAttr -cb on ".mirw";
select -ne :initialParticleSE;
	setAttr -av -k on ".cch";
	setAttr -cb on ".ihi";
	setAttr -av -k on ".nds";
	setAttr -cb on ".bnm";
	setAttr -k on ".mwc";
	setAttr -cb on ".an";
	setAttr -cb on ".il";
	setAttr -cb on ".vo";
	setAttr -cb on ".eo";
	setAttr -cb on ".fo";
	setAttr -cb on ".epo";
	setAttr -k on ".ro" yes;
	setAttr -cb on ".mimt";
	setAttr -cb on ".miop";
	setAttr -k on ".mico";
	setAttr -cb on ".mise";
	setAttr -cb on ".mism";
	setAttr -cb on ".mice";
	setAttr -av -cb on ".micc";
	setAttr -k on ".micr";
	setAttr -k on ".micg";
	setAttr -k on ".micb";
	setAttr -cb on ".mica";
	setAttr -av -cb on ".micw";
	setAttr -cb on ".mirw";
select -ne :defaultResolution;
	setAttr -av -k on ".cch";
	setAttr -k on ".ihi";
	setAttr -av -k on ".nds";
	setAttr -k on ".bnm";
	setAttr -av -k on ".w";
	setAttr -av -k on ".h";
	setAttr -av -k on ".pa" 1;
	setAttr -av -k on ".al";
	setAttr -av -k on ".dar";
	setAttr -av -k on ".ldar";
	setAttr -k on ".dpi";
	setAttr -av -k on ".off";
	setAttr -av -k on ".fld";
	setAttr -av -k on ".zsl";
	setAttr -k on ".isu";
	setAttr -k on ".pdu";
select -ne :hardwareRenderGlobals;
	setAttr -k on ".cch";
	setAttr -cb on ".ihi";
	setAttr -k on ".nds";
	setAttr -cb on ".bnm";
	setAttr -k off -cb on ".ctrs" 256;
	setAttr -av -k off -cb on ".btrs" 512;
	setAttr -k off -cb on ".fbfm";
	setAttr -k off -cb on ".ehql";
	setAttr -k off -cb on ".eams";
	setAttr -k off -cb on ".eeaa";
	setAttr -k off -cb on ".engm";
	setAttr -k off -cb on ".mes";
	setAttr -k off -cb on ".emb";
	setAttr -av -k off -cb on ".mbbf";
	setAttr -k off -cb on ".mbs";
	setAttr -k off -cb on ".trm";
	setAttr -k off -cb on ".tshc";
	setAttr -k off -cb on ".enpt";
	setAttr -k off -cb on ".clmt";
	setAttr -k off -cb on ".tcov";
	setAttr -k off -cb on ".lith";
	setAttr -k off -cb on ".sobc";
	setAttr -k off -cb on ".cuth";
	setAttr -k off -cb on ".hgcd";
	setAttr -k off -cb on ".hgci";
	setAttr -k off -cb on ".mgcs";
	setAttr -k off -cb on ".twa";
	setAttr -k off -cb on ".twz";
	setAttr -k on ".hwcc";
	setAttr -k on ".hwdp";
	setAttr -k on ".hwql";
	setAttr -k on ".hwfr";
	setAttr -k on ".soll";
	setAttr -k on ".sosl";
	setAttr -k on ".bswa";
	setAttr -k on ".shml";
	setAttr -k on ".hwel";
select -ne :ikSystem;
	setAttr -s 4 ".sol";
connectAttr "root_tmpJnt.s" "spine1_tmpJnt.is";
connectAttr "spine1_tmpJnt.s" "spine2_tmpJnt.is";
connectAttr "spine2_tmpJnt.s" "spine3_tmpJnt.is";
connectAttr "spine3_tmpJnt.s" "neck1_tmpJnt.is";
connectAttr "neck1_tmpJnt.s" "head1_tmpJnt.is";
connectAttr "head1_tmpJnt.s" "lowerJaw1_tmpJnt.is";
connectAttr "lowerJaw1_tmpJnt.s" "lowerJaw2_tmpJnt.is";
connectAttr "lowerJaw2_tmpJnt.s" "lowerJaw3_tmpJnt.is";
connectAttr "head1_tmpJnt.s" "upperJaw1_tmpJnt.is";
connectAttr "upperJaw1_tmpJnt.s" "upperJaw2_tmpJnt.is";
connectAttr "head1_tmpJnt.s" "eyeLFT_tmpJnt.is";
connectAttr "eyeLFT_tmpJnt.s" "irisLFT_tmpJnt.is";
connectAttr "irisLFT_tmpJnt.s" "pupilLFT_tmpJnt.is";
connectAttr "eyeLFT_tmpJnt.s" "eyeSpecLFT_tmpJnt.is";
connectAttr "head1_tmpJnt.s" "eyeRGT_tmpJnt.is";
connectAttr "eyeRGT_tmpJnt.s" "irisRGT_tmpJnt.is";
connectAttr "irisRGT_tmpJnt.s" "pupilRGT_tmpJnt.is";
connectAttr "eyeRGT_tmpJnt.s" "eyeSpecRGT_tmpJnt.is";
connectAttr "head1_tmpJnt.s" "eyeTrgt_tmpJnt.is";
connectAttr "eyeTrgt_tmpJnt.s" "eyeTrgtLFT_tmpJnt.is";
connectAttr "eyeTrgt_tmpJnt.s" "eyeTrgtRGT_tmpJnt.is";
connectAttr "head1_tmpJnt.s" "head2_tmpJnt.is";
connectAttr "spine2_tmpJnt.s" "scapLFT_tmpJnt.is";
connectAttr "scapLFT_tmpJnt.s" "upLegFrontLFT_tmpJnt.is";
connectAttr "upLegFrontLFT_tmpJnt.s" "midLegFrontLFT_tmpJnt.is";
connectAttr "midLegFrontLFT_tmpJnt.s" "kneeIkFrontPivLFT_tmpJnt.is";
connectAttr "midLegFrontLFT_tmpJnt.s" "lowLegFrontLFT_tmpJnt.is";
connectAttr "lowLegFrontLFT_tmpJnt.s" "ankleFrontLFT_tmpJnt.is";
connectAttr "ankleFrontLFT_tmpJnt.s" "ballFrontLFT_tmpJnt.is";
connectAttr "ballFrontLFT_tmpJnt.s" "toeFrontLFT_tmpJnt.is";
connectAttr "ballFrontLFT_tmpJnt.s" "heelFrontLFT_tmpJnt.is";
connectAttr "ballFrontLFT_tmpJnt.s" "footInFrontLFT_tmpJnt.is";
connectAttr "ballFrontLFT_tmpJnt.s" "footOutFrontLFT_tmpJnt.is";
connectAttr "spine2_tmpJnt.s" "scapRGT_tmpJnt.is";
connectAttr "scapRGT_tmpJnt.s" "upLegFrontRGT_tmpJnt.is";
connectAttr "upLegFrontRGT_tmpJnt.s" "midLegFrontRGT_tmpJnt.is";
connectAttr "midLegFrontRGT_tmpJnt.s" "kneeIkFrontPivRGT_tmpJnt.is";
connectAttr "midLegFrontRGT_tmpJnt.s" "lowLegFrontRGT_tmpJnt.is";
connectAttr "lowLegFrontRGT_tmpJnt.s" "ankleFrontRGT_tmpJnt.is";
connectAttr "ankleFrontRGT_tmpJnt.s" "ballFrontRGT_tmpJnt.is";
connectAttr "ballFrontRGT_tmpJnt.s" "toeFrontRGT_tmpJnt.is";
connectAttr "ballFrontRGT_tmpJnt.s" "heelFrontRGT_tmpJnt.is";
connectAttr "ballFrontRGT_tmpJnt.s" "footInFrontRGT_tmpJnt.is";
connectAttr "ballFrontRGT_tmpJnt.s" "footOutFrontRGT_tmpJnt.is";
connectAttr "root_tmpJnt.s" "pelvis_tmpJnt.is";
connectAttr "pelvis_tmpJnt.s" "hipLFT_tmpJnt.is";
connectAttr "hipLFT_tmpJnt.s" "upLegBackLFT_tmpJnt.is";
connectAttr "upLegBackLFT_tmpJnt.s" "midLegBackLFT_tmpJnt.is";
connectAttr "midLegBackLFT_tmpJnt.s" "kneeIkBackPivLFT_tmpJnt.is";
connectAttr "midLegBackLFT_tmpJnt.s" "lowLegBackLFT_tmpJnt.is";
connectAttr "lowLegBackLFT_tmpJnt.s" "ankleBackLFT_tmpJnt.is";
connectAttr "ankleBackLFT_tmpJnt.s" "ballBackLFT_tmpJnt.is";
connectAttr "ballBackLFT_tmpJnt.s" "toeBackLFT_tmpJnt.is";
connectAttr "ballBackLFT_tmpJnt.s" "heelBackLFT_tmpJnt.is";
connectAttr "ballBackLFT_tmpJnt.s" "footInBackLFT_tmpJnt.is";
connectAttr "ballBackLFT_tmpJnt.s" "footOutBackLFT_tmpJnt.is";
connectAttr "pelvis_tmpJnt.s" "hipRGT_tmpJnt.is";
connectAttr "hipRGT_tmpJnt.s" "upLegBackRGT_tmpJnt.is";
connectAttr "upLegBackRGT_tmpJnt.s" "midLegBackRGT_tmpJnt.is";
connectAttr "midLegBackRGT_tmpJnt.s" "kneeIkBackPivRGT_tmpJnt.is";
connectAttr "midLegBackRGT_tmpJnt.s" "lowLegBackRGT_tmpJnt.is";
connectAttr "lowLegBackRGT_tmpJnt.s" "ankleBackRGT_tmpJnt.is";
connectAttr "ankleBackRGT_tmpJnt.s" "ballBackRGT_tmpJnt.is";
connectAttr "ballBackRGT_tmpJnt.s" "toeBackRGT_tmpJnt.is";
connectAttr "ballBackRGT_tmpJnt.s" "heelBackRGT_tmpJnt.is";
connectAttr "ballBackRGT_tmpJnt.s" "footInBackRGT_tmpJnt.is";
connectAttr "ballBackRGT_tmpJnt.s" "footOutBackRGT_tmpJnt.is";
connectAttr "tongue1_jnt.s" "tongue2_jnt.is";
connectAttr "tongue2_jnt.s" "tongue3_jnt.is";
connectAttr "tongue3_jnt.s" "tongue4_jnt.is";
connectAttr "tail1_jnt.s" "tail2_jnt.is";
connectAttr "tail2_jnt.s" "tail3_jnt.is";
connectAttr "tail3_jnt.s" "tail4_jnt.is";
connectAttr "tail4_jnt.s" "tail5_jnt.is";
connectAttr "ear1LFT_jnt.s" "ear2LFT_jnt.is";
connectAttr "ear2LFT_jnt.s" "ear3LFT_jnt.is";
connectAttr "ear3LFT_jnt.s" "ear4LFT_jnt.is";
connectAttr "ear4LFT_jnt.s" "ear5LFT_jnt.is";
connectAttr "ear1RGT_jnt.s" "ear2RGT_jnt.is";
connectAttr "ear2RGT_jnt.s" "ear3RGT_jnt.is";
connectAttr "ear3RGT_jnt.s" "ear4RGT_jnt.is";
connectAttr "ear4RGT_jnt.s" "ear5RGT_jnt.is";
connectAttr ":mentalrayGlobals.msg" ":mentalrayItemsList.glb";
connectAttr ":miDefaultOptions.msg" ":mentalrayItemsList.opt" -na;
connectAttr ":miDefaultFramebuffer.msg" ":mentalrayItemsList.fb" -na;
connectAttr ":miDefaultOptions.msg" ":mentalrayGlobals.opt";
connectAttr ":miDefaultFramebuffer.msg" ":mentalrayGlobals.fb";
relationship "link" ":lightLinker1" ":initialShadingGroup.message" ":defaultLightSet.message";
relationship "link" ":lightLinker1" ":initialParticleSE.message" ":defaultLightSet.message";
relationship "shadowLink" ":lightLinker1" ":initialShadingGroup.message" ":defaultLightSet.message";
relationship "shadowLink" ":lightLinker1" ":initialParticleSE.message" ":defaultLightSet.message";
connectAttr "layerManager.dli[0]" "defaultLayer.id";
connectAttr "renderLayerManager.rlmi[0]" "defaultRenderLayer.rlid";
connectAttr "defaultRenderLayer.msg" ":defaultRenderingList1.r" -na;
// End of frd_deerWhite_rig_skele.ma
