//Maya ASCII 2017ff05 scene
//Name: ericShade.ma
//Last modified: Mon, Dec 11, 2017 04:18:39 PM
//Codeset: 1252
requires maya "2017ff05";
requires -nodeType "hairPhysicalShader" "hairPhysicalShader" "1.0";
requires "stereoCamera" "10.0";
requires "PO_Reader_v2012_64" "1.0";
requires "TurtleForMaya2009" "5.0.0.5";
requires "arkMayaExporter_2013_5" "1.21.ma3.s2.me5.a7";
requires "pfOptions.py" "1.0";
currentUnit -l centimeter -a degree -t pal;
fileInfo "application" "maya";
fileInfo "product" "Maya 2017";
fileInfo "version" "2017";
fileInfo "cutIdentifier" "201706020738-1017329";
fileInfo "osv" "Microsoft Windows 8 Business Edition, 64-bit  (Build 9200)\n";
createNode transform -s -n "persp";
	rename -uid "062B2586-433C-1BE5-1A56-1182165B63F9";
	setAttr ".v" no;
	setAttr ".t" -type "double3" 28 21 28 ;
	setAttr ".r" -type "double3" -27.938352729602379 44.999999999999972 -5.172681101354183e-014 ;
createNode camera -s -n "perspShape" -p "persp";
	rename -uid "D5ED5507-4E64-2955-8629-8FBCDA5F4D12";
	setAttr -k off ".v" no;
	setAttr ".fl" 34.999999999999993;
	setAttr ".coi" 44.82186966202994;
	setAttr ".imn" -type "string" "persp";
	setAttr ".den" -type "string" "persp_depth";
	setAttr ".man" -type "string" "persp_mask";
	setAttr ".hc" -type "string" "viewSet -p %camera";
	setAttr ".ai_translator" -type "string" "perspective";
createNode transform -s -n "top";
	rename -uid "9C5C8D33-4448-93BB-64E7-B8A7721BC1DD";
	setAttr ".v" no;
	setAttr ".t" -type "double3" 0 1000.1 0 ;
	setAttr ".r" -type "double3" -89.999999999999986 0 0 ;
createNode camera -s -n "topShape" -p "top";
	rename -uid "D126E0F3-4622-33CC-FE2B-D6A09E8C44EC";
	setAttr -k off ".v" no;
	setAttr ".rnd" no;
	setAttr ".coi" 1000.1;
	setAttr ".ow" 30;
	setAttr ".imn" -type "string" "top";
	setAttr ".den" -type "string" "top_depth";
	setAttr ".man" -type "string" "top_mask";
	setAttr ".hc" -type "string" "viewSet -t %camera";
	setAttr ".o" yes;
	setAttr ".ai_translator" -type "string" "orthographic";
createNode transform -s -n "front";
	rename -uid "F8F5C445-4324-963B-BF8D-6396263395D2";
	setAttr ".v" no;
	setAttr ".t" -type "double3" 0 0 1000.1 ;
createNode camera -s -n "frontShape" -p "front";
	rename -uid "8071D342-4685-0A5D-8E36-7F9423C92B78";
	setAttr -k off ".v" no;
	setAttr ".rnd" no;
	setAttr ".coi" 1000.1;
	setAttr ".ow" 30;
	setAttr ".imn" -type "string" "front";
	setAttr ".den" -type "string" "front_depth";
	setAttr ".man" -type "string" "front_mask";
	setAttr ".hc" -type "string" "viewSet -f %camera";
	setAttr ".o" yes;
	setAttr ".ai_translator" -type "string" "orthographic";
createNode transform -s -n "side";
	rename -uid "F5D82AD8-409F-B946-3ABF-0783333C85CF";
	setAttr ".v" no;
	setAttr ".t" -type "double3" 1000.1 0 0 ;
	setAttr ".r" -type "double3" 0 89.999999999999986 0 ;
createNode camera -s -n "sideShape" -p "side";
	rename -uid "CB3DD3CD-4245-67DE-67EA-BABF5B75220D";
	setAttr -k off ".v" no;
	setAttr ".rnd" no;
	setAttr ".coi" 1000.1;
	setAttr ".ow" 30;
	setAttr ".imn" -type "string" "side";
	setAttr ".den" -type "string" "side_depth";
	setAttr ".man" -type "string" "side_mask";
	setAttr ".hc" -type "string" "viewSet -s %camera";
	setAttr ".o" yes;
	setAttr ".ai_translator" -type "string" "orthographic";
createNode hairPhysicalShader -n "ericSRU_shader";
	rename -uid "AB311F0C-4A93-32F2-43C0-21BED8D336C6";
	setAttr ".rcD" -type "float3" 0.015996011 0.005605381 0 ;
	setAttr ".tcD" -type "float3" 0.063011274 0.022174019 0 ;
	setAttr ".iD" 0.6577380895614624;
	setAttr ".ac" -type "float3" 0.23511904 0.23511904 0.23511904 ;
	setAttr ".iR" 0.2589285671710968;
	setAttr ".lsR" -4.7619047164916992;
	setAttr ".lwR" 3.2738094329833984;
	setAttr ".cTRT" -type "float3" 0.70238096 0.30807847 0.11044308 ;
	setAttr ".lsTRT" -2.4404761791229248;
	setAttr ".iG" 0.1428571492433548;
createNode lightLinker -s -n "lightLinker1";
	rename -uid "FA184FE8-48CE-D0E8-CDBC-ABB54395C4D8";
	setAttr -s 2 ".lnk";
	setAttr -s 2 ".slnk";
createNode shapeEditorManager -n "shapeEditorManager";
	rename -uid "F5F496C3-4A9E-A80E-E158-8CA8660A89AA";
createNode poseInterpolatorManager -n "poseInterpolatorManager";
	rename -uid "21F5B450-47CB-9A5D-B3B7-F6926E5E86C9";
createNode displayLayerManager -n "layerManager";
	rename -uid "422D0A58-420F-B033-0539-7EBDE0F54611";
createNode displayLayer -n "defaultLayer";
	rename -uid "60C9E47D-4A94-3A62-B260-AC9527F3434F";
createNode renderLayerManager -n "renderLayerManager";
	rename -uid "399D26DC-45F9-4745-1F67-438D933C9C25";
createNode renderLayer -n "defaultRenderLayer";
	rename -uid "6C71DE3A-486B-0203-7694-1AA1BFDB2A69";
	setAttr ".g" yes;
createNode script -n "uiConfigurationScriptNode";
	rename -uid "74DEF745-4AEF-727A-D481-B4ABEE05C3A4";
	setAttr ".b" -type "string" (
		"// Maya Mel UI Configuration File.\n//\n//  This script is machine generated.  Edit at your own risk.\n//\n//\n\nglobal string $gMainPane;\nif (`paneLayout -exists $gMainPane`) {\n\n\tglobal int $gUseScenePanelConfig;\n\tint    $useSceneConfig = $gUseScenePanelConfig;\n\tint    $menusOkayInPanels = `optionVar -q allowMenusInPanels`;\tint    $nVisPanes = `paneLayout -q -nvp $gMainPane`;\n\tint    $nPanes = 0;\n\tstring $editorName;\n\tstring $panelName;\n\tstring $itemFilterName;\n\tstring $panelConfig;\n\n\t//\n\t//  get current state of the UI\n\t//\n\tsceneUIReplacement -update $gMainPane;\n\n\t$panelName = `sceneUIReplacement -getNextPanel \"modelPanel\" (localizedPanelLabel(\"Top View\")) `;\n\tif (\"\" != $panelName) {\n\t\t$label = `panel -q -label $panelName`;\n\t\tmodelPanel -edit -l (localizedPanelLabel(\"Top View\")) -mbv $menusOkayInPanels  $panelName;\n\t\t$editorName = $panelName;\n        modelEditor -e \n            -camera \"persp\" \n            -useInteractiveMode 0\n            -displayLights \"default\" \n            -displayAppearance \"smoothShaded\" \n            -activeOnly 0\n"
		+ "            -ignorePanZoom 0\n            -wireframeOnShaded 0\n            -headsUpDisplay 1\n            -holdOuts 1\n            -selectionHiliteDisplay 1\n            -useDefaultMaterial 0\n            -bufferMode \"double\" \n            -twoSidedLighting 0\n            -backfaceCulling 0\n            -xray 0\n            -jointXray 1\n            -activeComponentsXray 0\n            -displayTextures 1\n            -smoothWireframe 0\n            -lineWidth 1\n            -textureAnisotropic 0\n            -textureHilight 1\n            -textureSampling 2\n            -textureDisplay \"modulate\" \n            -textureMaxSize 16384\n            -fogging 0\n            -fogSource \"fragment\" \n            -fogMode \"linear\" \n            -fogStart 0\n            -fogEnd 100\n            -fogDensity 0.1\n            -fogColor 0.5 0.5 0.5 1 \n            -depthOfFieldPreview 1\n            -maxConstantTransparency 1\n            -rendererName \"vp2Renderer\" \n            -objectFilterShowInHUD 1\n            -isFiltered 0\n            -colorResolution 256 256 \n"
		+ "            -bumpResolution 512 512 \n            -textureCompression 0\n            -transparencyAlgorithm \"frontAndBackCull\" \n            -transpInShadows 0\n            -cullingOverride \"none\" \n            -lowQualityLighting 0\n            -maximumNumHardwareLights 1\n            -occlusionCulling 0\n            -shadingModel 0\n            -useBaseRenderer 0\n            -useReducedRenderer 0\n            -smallObjectCulling 0\n            -smallObjectThreshold -1 \n            -interactiveDisableShadows 0\n            -interactiveBackFaceCull 0\n            -sortTransparent 1\n            -nurbsCurves 1\n            -nurbsSurfaces 1\n            -polymeshes 1\n            -subdivSurfaces 1\n            -planes 1\n            -lights 1\n            -cameras 1\n            -controlVertices 1\n            -hulls 1\n            -grid 1\n            -imagePlane 1\n            -joints 1\n            -ikHandles 1\n            -deformers 1\n            -dynamics 1\n            -particleInstancers 1\n            -fluids 1\n            -hairSystems 1\n"
		+ "            -follicles 1\n            -nCloths 1\n            -nParticles 1\n            -nRigids 1\n            -dynamicConstraints 1\n            -locators 1\n            -manipulators 1\n            -pluginShapes 1\n            -dimensions 1\n            -handles 1\n            -pivots 1\n            -textures 1\n            -strokes 1\n            -motionTrails 1\n            -clipGhosts 1\n            -greasePencils 1\n            -shadows 0\n            -captureSequenceNumber -1\n            -width 1\n            -height 1\n            -sceneRenderFilter 0\n            $editorName;\n        modelEditor -e -viewSelected 0 $editorName;\n        modelEditor -e \n            -pluginObjects \"gpuCacheDisplayFilter\" 1 \n            $editorName;\n\t\tif (!$useSceneConfig) {\n\t\t\tpanel -e -l $label $panelName;\n\t\t}\n\t}\n\n\n\t$panelName = `sceneUIReplacement -getNextPanel \"modelPanel\" (localizedPanelLabel(\"Side View\")) `;\n\tif (\"\" != $panelName) {\n\t\t$label = `panel -q -label $panelName`;\n\t\tmodelPanel -edit -l (localizedPanelLabel(\"Side View\")) -mbv $menusOkayInPanels  $panelName;\n"
		+ "\t\t$editorName = $panelName;\n        modelEditor -e \n            -camera \"side\" \n            -useInteractiveMode 0\n            -displayLights \"default\" \n            -displayAppearance \"smoothShaded\" \n            -activeOnly 0\n            -ignorePanZoom 0\n            -wireframeOnShaded 0\n            -headsUpDisplay 1\n            -holdOuts 1\n            -selectionHiliteDisplay 1\n            -useDefaultMaterial 0\n            -bufferMode \"double\" \n            -twoSidedLighting 0\n            -backfaceCulling 0\n            -xray 0\n            -jointXray 1\n            -activeComponentsXray 0\n            -displayTextures 0\n            -smoothWireframe 0\n            -lineWidth 1\n            -textureAnisotropic 0\n            -textureHilight 1\n            -textureSampling 2\n            -textureDisplay \"modulate\" \n            -textureMaxSize 16384\n            -fogging 0\n            -fogSource \"fragment\" \n            -fogMode \"linear\" \n            -fogStart 0\n            -fogEnd 100\n            -fogDensity 0.1\n            -fogColor 0.5 0.5 0.5 1 \n"
		+ "            -depthOfFieldPreview 1\n            -maxConstantTransparency 1\n            -rendererName \"vp2Renderer\" \n            -objectFilterShowInHUD 1\n            -isFiltered 0\n            -colorResolution 256 256 \n            -bumpResolution 512 512 \n            -textureCompression 0\n            -transparencyAlgorithm \"frontAndBackCull\" \n            -transpInShadows 0\n            -cullingOverride \"none\" \n            -lowQualityLighting 0\n            -maximumNumHardwareLights 1\n            -occlusionCulling 0\n            -shadingModel 0\n            -useBaseRenderer 0\n            -useReducedRenderer 0\n            -smallObjectCulling 0\n            -smallObjectThreshold -1 \n            -interactiveDisableShadows 0\n            -interactiveBackFaceCull 0\n            -sortTransparent 1\n            -nurbsCurves 1\n            -nurbsSurfaces 1\n            -polymeshes 1\n            -subdivSurfaces 1\n            -planes 1\n            -lights 1\n            -cameras 1\n            -controlVertices 1\n            -hulls 1\n            -grid 1\n"
		+ "            -imagePlane 1\n            -joints 1\n            -ikHandles 1\n            -deformers 1\n            -dynamics 1\n            -particleInstancers 1\n            -fluids 1\n            -hairSystems 1\n            -follicles 1\n            -nCloths 1\n            -nParticles 1\n            -nRigids 1\n            -dynamicConstraints 1\n            -locators 1\n            -manipulators 1\n            -pluginShapes 1\n            -dimensions 1\n            -handles 1\n            -pivots 1\n            -textures 1\n            -strokes 1\n            -motionTrails 1\n            -clipGhosts 1\n            -greasePencils 1\n            -shadows 0\n            -captureSequenceNumber -1\n            -width 1\n            -height 1\n            -sceneRenderFilter 0\n            $editorName;\n        modelEditor -e -viewSelected 0 $editorName;\n        modelEditor -e \n            -pluginObjects \"gpuCacheDisplayFilter\" 1 \n            $editorName;\n\t\tif (!$useSceneConfig) {\n\t\t\tpanel -e -l $label $panelName;\n\t\t}\n\t}\n\n\n\t$panelName = `sceneUIReplacement -getNextPanel \"modelPanel\" (localizedPanelLabel(\"Front View\")) `;\n"
		+ "\tif (\"\" != $panelName) {\n\t\t$label = `panel -q -label $panelName`;\n\t\tmodelPanel -edit -l (localizedPanelLabel(\"Front View\")) -mbv $menusOkayInPanels  $panelName;\n\t\t$editorName = $panelName;\n        modelEditor -e \n            -camera \"front\" \n            -useInteractiveMode 0\n            -displayLights \"default\" \n            -displayAppearance \"smoothShaded\" \n            -activeOnly 0\n            -ignorePanZoom 0\n            -wireframeOnShaded 0\n            -headsUpDisplay 1\n            -holdOuts 1\n            -selectionHiliteDisplay 1\n            -useDefaultMaterial 0\n            -bufferMode \"double\" \n            -twoSidedLighting 0\n            -backfaceCulling 0\n            -xray 0\n            -jointXray 1\n            -activeComponentsXray 0\n            -displayTextures 0\n            -smoothWireframe 0\n            -lineWidth 1\n            -textureAnisotropic 0\n            -textureHilight 1\n            -textureSampling 2\n            -textureDisplay \"modulate\" \n            -textureMaxSize 16384\n            -fogging 0\n"
		+ "            -fogSource \"fragment\" \n            -fogMode \"linear\" \n            -fogStart 0\n            -fogEnd 100\n            -fogDensity 0.1\n            -fogColor 0.5 0.5 0.5 1 \n            -depthOfFieldPreview 1\n            -maxConstantTransparency 1\n            -rendererName \"vp2Renderer\" \n            -objectFilterShowInHUD 1\n            -isFiltered 0\n            -colorResolution 256 256 \n            -bumpResolution 512 512 \n            -textureCompression 0\n            -transparencyAlgorithm \"frontAndBackCull\" \n            -transpInShadows 0\n            -cullingOverride \"none\" \n            -lowQualityLighting 0\n            -maximumNumHardwareLights 1\n            -occlusionCulling 0\n            -shadingModel 0\n            -useBaseRenderer 0\n            -useReducedRenderer 0\n            -smallObjectCulling 0\n            -smallObjectThreshold -1 \n            -interactiveDisableShadows 0\n            -interactiveBackFaceCull 0\n            -sortTransparent 1\n            -nurbsCurves 1\n            -nurbsSurfaces 1\n"
		+ "            -polymeshes 1\n            -subdivSurfaces 1\n            -planes 1\n            -lights 1\n            -cameras 1\n            -controlVertices 1\n            -hulls 1\n            -grid 1\n            -imagePlane 1\n            -joints 1\n            -ikHandles 1\n            -deformers 1\n            -dynamics 1\n            -particleInstancers 1\n            -fluids 1\n            -hairSystems 1\n            -follicles 1\n            -nCloths 1\n            -nParticles 1\n            -nRigids 1\n            -dynamicConstraints 1\n            -locators 1\n            -manipulators 1\n            -pluginShapes 1\n            -dimensions 1\n            -handles 1\n            -pivots 1\n            -textures 1\n            -strokes 1\n            -motionTrails 1\n            -clipGhosts 1\n            -greasePencils 1\n            -shadows 0\n            -captureSequenceNumber -1\n            -width 1\n            -height 1\n            -sceneRenderFilter 0\n            $editorName;\n        modelEditor -e -viewSelected 0 $editorName;\n"
		+ "        modelEditor -e \n            -pluginObjects \"gpuCacheDisplayFilter\" 1 \n            $editorName;\n\t\tif (!$useSceneConfig) {\n\t\t\tpanel -e -l $label $panelName;\n\t\t}\n\t}\n\n\n\t$panelName = `sceneUIReplacement -getNextPanel \"modelPanel\" (localizedPanelLabel(\"Persp View\")) `;\n\tif (\"\" != $panelName) {\n\t\t$label = `panel -q -label $panelName`;\n\t\tmodelPanel -edit -l (localizedPanelLabel(\"Persp View\")) -mbv $menusOkayInPanels  $panelName;\n\t\t$editorName = $panelName;\n        modelEditor -e \n            -camera \"persp\" \n            -useInteractiveMode 0\n            -displayLights \"default\" \n            -displayAppearance \"smoothShaded\" \n            -activeOnly 0\n            -ignorePanZoom 0\n            -wireframeOnShaded 0\n            -headsUpDisplay 1\n            -holdOuts 1\n            -selectionHiliteDisplay 1\n            -useDefaultMaterial 0\n            -bufferMode \"double\" \n            -twoSidedLighting 0\n            -backfaceCulling 0\n            -xray 0\n            -jointXray 1\n            -activeComponentsXray 0\n"
		+ "            -displayTextures 1\n            -smoothWireframe 0\n            -lineWidth 1\n            -textureAnisotropic 0\n            -textureHilight 1\n            -textureSampling 2\n            -textureDisplay \"modulate\" \n            -textureMaxSize 16384\n            -fogging 0\n            -fogSource \"fragment\" \n            -fogMode \"linear\" \n            -fogStart 0\n            -fogEnd 100\n            -fogDensity 0.1\n            -fogColor 0.5 0.5 0.5 1 \n            -depthOfFieldPreview 1\n            -maxConstantTransparency 1\n            -rendererName \"vp2Renderer\" \n            -objectFilterShowInHUD 1\n            -isFiltered 0\n            -colorResolution 256 256 \n            -bumpResolution 512 512 \n            -textureCompression 0\n            -transparencyAlgorithm \"frontAndBackCull\" \n            -transpInShadows 0\n            -cullingOverride \"none\" \n            -lowQualityLighting 0\n            -maximumNumHardwareLights 1\n            -occlusionCulling 0\n            -shadingModel 0\n            -useBaseRenderer 0\n"
		+ "            -useReducedRenderer 0\n            -smallObjectCulling 0\n            -smallObjectThreshold -1 \n            -interactiveDisableShadows 0\n            -interactiveBackFaceCull 0\n            -sortTransparent 1\n            -nurbsCurves 1\n            -nurbsSurfaces 1\n            -polymeshes 1\n            -subdivSurfaces 1\n            -planes 1\n            -lights 0\n            -cameras 1\n            -controlVertices 1\n            -hulls 1\n            -grid 1\n            -imagePlane 1\n            -joints 1\n            -ikHandles 1\n            -deformers 1\n            -dynamics 1\n            -particleInstancers 1\n            -fluids 1\n            -hairSystems 1\n            -follicles 1\n            -nCloths 1\n            -nParticles 1\n            -nRigids 1\n            -dynamicConstraints 1\n            -locators 1\n            -manipulators 1\n            -pluginShapes 1\n            -dimensions 1\n            -handles 1\n            -pivots 1\n            -textures 1\n            -strokes 1\n            -motionTrails 1\n"
		+ "            -clipGhosts 1\n            -greasePencils 1\n            -shadows 0\n            -captureSequenceNumber -1\n            -width 716\n            -height 609\n            -sceneRenderFilter 0\n            $editorName;\n        modelEditor -e -viewSelected 0 $editorName;\n        modelEditor -e \n            -pluginObjects \"gpuCacheDisplayFilter\" 1 \n            $editorName;\n\t\tif (!$useSceneConfig) {\n\t\t\tpanel -e -l $label $panelName;\n\t\t}\n\t}\n\n\n\t$panelName = `sceneUIReplacement -getNextPanel \"outlinerPanel\" (localizedPanelLabel(\"ToggledOutliner\")) `;\n\tif (\"\" != $panelName) {\n\t\t$label = `panel -q -label $panelName`;\n\t\toutlinerPanel -edit -l (localizedPanelLabel(\"ToggledOutliner\")) -mbv $menusOkayInPanels  $panelName;\n\t\t$editorName = $panelName;\n        outlinerEditor -e \n            -docTag \"isolOutln_fromSeln\" \n            -showShapes 0\n            -showAssignedMaterials 0\n            -showTimeEditor 1\n            -showReferenceNodes 0\n            -showReferenceMembers 0\n            -showAttributes 0\n            -showConnected 0\n"
		+ "            -showAnimCurvesOnly 0\n            -showMuteInfo 0\n            -organizeByLayer 1\n            -showAnimLayerWeight 1\n            -autoExpandLayers 1\n            -autoExpand 0\n            -showDagOnly 1\n            -showAssets 1\n            -showContainedOnly 1\n            -showPublishedAsConnected 0\n            -showContainerContents 1\n            -ignoreDagHierarchy 0\n            -expandConnections 0\n            -showUpstreamCurves 1\n            -showUnitlessCurves 1\n            -showCompounds 1\n            -showLeafs 1\n            -showNumericAttrsOnly 0\n            -highlightActive 1\n            -autoSelectNewObjects 0\n            -doNotSelectNewObjects 0\n            -dropIsParent 1\n            -transmitFilters 0\n            -setFilter \"defaultSetFilter\" \n            -showSetMembers 1\n            -allowMultiSelection 1\n            -alwaysToggleSelect 0\n            -directSelect 0\n            -isSet 0\n            -isSetMember 0\n            -displayMode \"DAG\" \n            -expandObjects 0\n            -setsIgnoreFilters 1\n"
		+ "            -containersIgnoreFilters 0\n            -editAttrName 0\n            -showAttrValues 0\n            -highlightSecondary 0\n            -showUVAttrsOnly 0\n            -showTextureNodesOnly 0\n            -attrAlphaOrder \"default\" \n            -animLayerFilterOptions \"allAffecting\" \n            -sortOrder \"none\" \n            -longNames 0\n            -niceNames 1\n            -showNamespace 1\n            -showPinIcons 0\n            -mapMotionTrails 0\n            -ignoreHiddenAttribute 0\n            -ignoreOutlinerColor 0\n            -renderFilterVisible 0\n            -renderFilterIndex 0\n            -selectionOrder \"chronological\" \n            -expandAttribute 0\n            $editorName;\n\t\tif (!$useSceneConfig) {\n\t\t\tpanel -e -l $label $panelName;\n\t\t}\n\t}\n\n\n\t$panelName = `sceneUIReplacement -getNextPanel \"outlinerPanel\" (localizedPanelLabel(\"Outliner\")) `;\n\tif (\"\" != $panelName) {\n\t\t$label = `panel -q -label $panelName`;\n\t\toutlinerPanel -edit -l (localizedPanelLabel(\"Outliner\")) -mbv $menusOkayInPanels  $panelName;\n"
		+ "\t\t$editorName = $panelName;\n        outlinerEditor -e \n            -docTag \"isolOutln_fromSeln\" \n            -showShapes 0\n            -showAssignedMaterials 0\n            -showTimeEditor 1\n            -showReferenceNodes 1\n            -showReferenceMembers 1\n            -showAttributes 0\n            -showConnected 0\n            -showAnimCurvesOnly 0\n            -showMuteInfo 0\n            -organizeByLayer 1\n            -showAnimLayerWeight 1\n            -autoExpandLayers 1\n            -autoExpand 0\n            -showDagOnly 1\n            -showAssets 1\n            -showContainedOnly 1\n            -showPublishedAsConnected 0\n            -showContainerContents 1\n            -ignoreDagHierarchy 0\n            -expandConnections 0\n            -showUpstreamCurves 1\n            -showUnitlessCurves 1\n            -showCompounds 1\n            -showLeafs 1\n            -showNumericAttrsOnly 0\n            -highlightActive 1\n            -autoSelectNewObjects 0\n            -doNotSelectNewObjects 0\n            -dropIsParent 1\n"
		+ "            -transmitFilters 0\n            -setFilter \"defaultSetFilter\" \n            -showSetMembers 1\n            -allowMultiSelection 1\n            -alwaysToggleSelect 0\n            -directSelect 0\n            -displayMode \"DAG\" \n            -expandObjects 0\n            -setsIgnoreFilters 1\n            -containersIgnoreFilters 0\n            -editAttrName 0\n            -showAttrValues 0\n            -highlightSecondary 0\n            -showUVAttrsOnly 0\n            -showTextureNodesOnly 0\n            -attrAlphaOrder \"default\" \n            -animLayerFilterOptions \"allAffecting\" \n            -sortOrder \"none\" \n            -longNames 0\n            -niceNames 1\n            -showNamespace 1\n            -showPinIcons 0\n            -mapMotionTrails 0\n            -ignoreHiddenAttribute 0\n            -ignoreOutlinerColor 0\n            -renderFilterVisible 0\n            $editorName;\n\t\tif (!$useSceneConfig) {\n\t\t\tpanel -e -l $label $panelName;\n\t\t}\n\t}\n\n\n\t$panelName = `sceneUIReplacement -getNextScriptedPanel \"graphEditor\" (localizedPanelLabel(\"Graph Editor\")) `;\n"
		+ "\tif (\"\" != $panelName) {\n\t\t$label = `panel -q -label $panelName`;\n\t\tscriptedPanel -edit -l (localizedPanelLabel(\"Graph Editor\")) -mbv $menusOkayInPanels  $panelName;\n\n\t\t\t$editorName = ($panelName+\"OutlineEd\");\n            outlinerEditor -e \n                -showShapes 1\n                -showAssignedMaterials 0\n                -showTimeEditor 1\n                -showReferenceNodes 0\n                -showReferenceMembers 0\n                -showAttributes 1\n                -showConnected 1\n                -showAnimCurvesOnly 1\n                -showMuteInfo 0\n                -organizeByLayer 1\n                -showAnimLayerWeight 1\n                -autoExpandLayers 1\n                -autoExpand 1\n                -showDagOnly 0\n                -showAssets 1\n                -showContainedOnly 0\n                -showPublishedAsConnected 0\n                -showContainerContents 0\n                -ignoreDagHierarchy 0\n                -expandConnections 1\n                -showUpstreamCurves 1\n                -showUnitlessCurves 1\n"
		+ "                -showCompounds 0\n                -showLeafs 1\n                -showNumericAttrsOnly 1\n                -highlightActive 0\n                -autoSelectNewObjects 1\n                -doNotSelectNewObjects 0\n                -dropIsParent 1\n                -transmitFilters 1\n                -setFilter \"0\" \n                -showSetMembers 0\n                -allowMultiSelection 1\n                -alwaysToggleSelect 0\n                -directSelect 0\n                -displayMode \"DAG\" \n                -expandObjects 0\n                -setsIgnoreFilters 1\n                -containersIgnoreFilters 0\n                -editAttrName 0\n                -showAttrValues 0\n                -highlightSecondary 0\n                -showUVAttrsOnly 0\n                -showTextureNodesOnly 0\n                -attrAlphaOrder \"default\" \n                -animLayerFilterOptions \"allAffecting\" \n                -sortOrder \"none\" \n                -longNames 0\n                -niceNames 1\n                -showNamespace 1\n                -showPinIcons 1\n"
		+ "                -mapMotionTrails 1\n                -ignoreHiddenAttribute 0\n                -ignoreOutlinerColor 0\n                -renderFilterVisible 0\n                $editorName;\n\n\t\t\t$editorName = ($panelName+\"GraphEd\");\n            animCurveEditor -e \n                -displayKeys 1\n                -displayTangents 0\n                -displayActiveKeys 0\n                -displayActiveKeyTangents 1\n                -displayInfinities 0\n                -displayValues 0\n                -autoFit 1\n                -snapTime \"integer\" \n                -snapValue \"none\" \n                -showResults \"off\" \n                -showBufferCurves \"off\" \n                -smoothness \"fine\" \n                -resultSamples 1\n                -resultScreenSamples 0\n                -resultUpdate \"delayed\" \n                -showUpstreamCurves 1\n                -showCurveNames 0\n                -showActiveCurveNames 0\n                -stackedCurves 0\n                -stackedCurvesMin -1\n                -stackedCurvesMax 1\n                -stackedCurvesSpace 0.2\n"
		+ "                -displayNormalized 0\n                -preSelectionHighlight 0\n                -constrainDrag 0\n                -classicMode 1\n                -valueLinesToggle 1\n                -outliner \"graphEditor1OutlineEd\" \n                $editorName;\n\t\tif (!$useSceneConfig) {\n\t\t\tpanel -e -l $label $panelName;\n\t\t}\n\t}\n\n\n\t$panelName = `sceneUIReplacement -getNextScriptedPanel \"dopeSheetPanel\" (localizedPanelLabel(\"Dope Sheet\")) `;\n\tif (\"\" != $panelName) {\n\t\t$label = `panel -q -label $panelName`;\n\t\tscriptedPanel -edit -l (localizedPanelLabel(\"Dope Sheet\")) -mbv $menusOkayInPanels  $panelName;\n\n\t\t\t$editorName = ($panelName+\"OutlineEd\");\n            outlinerEditor -e \n                -showShapes 1\n                -showAssignedMaterials 0\n                -showTimeEditor 1\n                -showReferenceNodes 0\n                -showReferenceMembers 0\n                -showAttributes 1\n                -showConnected 1\n                -showAnimCurvesOnly 1\n                -showMuteInfo 0\n                -organizeByLayer 1\n"
		+ "                -showAnimLayerWeight 1\n                -autoExpandLayers 1\n                -autoExpand 0\n                -showDagOnly 0\n                -showAssets 1\n                -showContainedOnly 0\n                -showPublishedAsConnected 0\n                -showContainerContents 0\n                -ignoreDagHierarchy 0\n                -expandConnections 1\n                -showUpstreamCurves 1\n                -showUnitlessCurves 0\n                -showCompounds 1\n                -showLeafs 1\n                -showNumericAttrsOnly 1\n                -highlightActive 0\n                -autoSelectNewObjects 0\n                -doNotSelectNewObjects 1\n                -dropIsParent 1\n                -transmitFilters 0\n                -setFilter \"0\" \n                -showSetMembers 0\n                -allowMultiSelection 1\n                -alwaysToggleSelect 0\n                -directSelect 0\n                -displayMode \"DAG\" \n                -expandObjects 0\n                -setsIgnoreFilters 1\n                -containersIgnoreFilters 0\n"
		+ "                -editAttrName 0\n                -showAttrValues 0\n                -highlightSecondary 0\n                -showUVAttrsOnly 0\n                -showTextureNodesOnly 0\n                -attrAlphaOrder \"default\" \n                -animLayerFilterOptions \"allAffecting\" \n                -sortOrder \"none\" \n                -longNames 0\n                -niceNames 1\n                -showNamespace 1\n                -showPinIcons 0\n                -mapMotionTrails 1\n                -ignoreHiddenAttribute 0\n                -ignoreOutlinerColor 0\n                -renderFilterVisible 0\n                $editorName;\n\n\t\t\t$editorName = ($panelName+\"DopeSheetEd\");\n            dopeSheetEditor -e \n                -displayKeys 1\n                -displayTangents 0\n                -displayActiveKeys 0\n                -displayActiveKeyTangents 0\n                -displayInfinities 0\n                -displayValues 0\n                -autoFit 0\n                -snapTime \"integer\" \n                -snapValue \"none\" \n                -outliner \"dopeSheetPanel1OutlineEd\" \n"
		+ "                -showSummary 1\n                -showScene 0\n                -hierarchyBelow 0\n                -showTicks 1\n                -selectionWindow 0 0 0 0 \n                $editorName;\n\t\tif (!$useSceneConfig) {\n\t\t\tpanel -e -l $label $panelName;\n\t\t}\n\t}\n\n\n\t$panelName = `sceneUIReplacement -getNextScriptedPanel \"timeEditorPanel\" (localizedPanelLabel(\"Time Editor\")) `;\n\tif (\"\" != $panelName) {\n\t\t$label = `panel -q -label $panelName`;\n\t\tscriptedPanel -edit -l (localizedPanelLabel(\"Time Editor\")) -mbv $menusOkayInPanels  $panelName;\n\t\tif (!$useSceneConfig) {\n\t\t\tpanel -e -l $label $panelName;\n\t\t}\n\t}\n\n\n\t$panelName = `sceneUIReplacement -getNextScriptedPanel \"clipEditorPanel\" (localizedPanelLabel(\"Trax Editor\")) `;\n\tif (\"\" != $panelName) {\n\t\t$label = `panel -q -label $panelName`;\n\t\tscriptedPanel -edit -l (localizedPanelLabel(\"Trax Editor\")) -mbv $menusOkayInPanels  $panelName;\n\n\t\t\t$editorName = clipEditorNameFromPanel($panelName);\n            clipEditor -e \n                -displayKeys 0\n                -displayTangents 0\n"
		+ "                -displayActiveKeys 0\n                -displayActiveKeyTangents 0\n                -displayInfinities 0\n                -displayValues 0\n                -autoFit 0\n                -snapTime \"none\" \n                -snapValue \"none\" \n                -initialized 0\n                -manageSequencer 0 \n                $editorName;\n\t\tif (!$useSceneConfig) {\n\t\t\tpanel -e -l $label $panelName;\n\t\t}\n\t}\n\n\n\t$panelName = `sceneUIReplacement -getNextScriptedPanel \"sequenceEditorPanel\" (localizedPanelLabel(\"Camera Sequencer\")) `;\n\tif (\"\" != $panelName) {\n\t\t$label = `panel -q -label $panelName`;\n\t\tscriptedPanel -edit -l (localizedPanelLabel(\"Camera Sequencer\")) -mbv $menusOkayInPanels  $panelName;\n\n\t\t\t$editorName = sequenceEditorNameFromPanel($panelName);\n            clipEditor -e \n                -displayKeys 0\n                -displayTangents 0\n                -displayActiveKeys 0\n                -displayActiveKeyTangents 0\n                -displayInfinities 0\n                -displayValues 0\n                -autoFit 0\n"
		+ "                -snapTime \"none\" \n                -snapValue \"none\" \n                -initialized 0\n                -manageSequencer 1 \n                $editorName;\n\t\tif (!$useSceneConfig) {\n\t\t\tpanel -e -l $label $panelName;\n\t\t}\n\t}\n\n\n\t$panelName = `sceneUIReplacement -getNextScriptedPanel \"hyperGraphPanel\" (localizedPanelLabel(\"Hypergraph Hierarchy\")) `;\n\tif (\"\" != $panelName) {\n\t\t$label = `panel -q -label $panelName`;\n\t\tscriptedPanel -edit -l (localizedPanelLabel(\"Hypergraph Hierarchy\")) -mbv $menusOkayInPanels  $panelName;\n\n\t\t\t$editorName = ($panelName+\"HyperGraphEd\");\n            hyperGraph -e \n                -graphLayoutStyle \"hierarchicalLayout\" \n                -orientation \"horiz\" \n                -mergeConnections 0\n                -zoom 1\n                -animateTransition 0\n                -showRelationships 1\n                -showShapes 0\n                -showDeformers 0\n                -showExpressions 0\n                -showConstraints 0\n                -showConnectionFromSelected 0\n                -showConnectionToSelected 0\n"
		+ "                -showConstraintLabels 0\n                -showUnderworld 0\n                -showInvisible 0\n                -transitionFrames 1\n                -opaqueContainers 0\n                -freeform 0\n                -image \"C:/Animation for Maya/sourceimages/backImage.jpg\" \n                -imagePosition 0 0 \n                -imageScale 1\n                -imageEnabled 0\n                -graphType \"DAG\" \n                -heatMapDisplay 0\n                -updateSelection 1\n                -updateNodeAdded 1\n                -useDrawOverrideColor 0\n                -limitGraphTraversal -1\n                -range 0 0 \n                -iconSize \"smallIcons\" \n                -showCachedConnections 0\n                $editorName;\n\t\tif (!$useSceneConfig) {\n\t\t\tpanel -e -l $label $panelName;\n\t\t}\n\t}\n\n\n\t$panelName = `sceneUIReplacement -getNextScriptedPanel \"visorPanel\" (localizedPanelLabel(\"Visor\")) `;\n\tif (\"\" != $panelName) {\n\t\t$label = `panel -q -label $panelName`;\n\t\tscriptedPanel -edit -l (localizedPanelLabel(\"Visor\")) -mbv $menusOkayInPanels  $panelName;\n"
		+ "\t\tif (!$useSceneConfig) {\n\t\t\tpanel -e -l $label $panelName;\n\t\t}\n\t}\n\n\n\t$panelName = `sceneUIReplacement -getNextScriptedPanel \"createNodePanel\" (localizedPanelLabel(\"Create Node\")) `;\n\tif (\"\" != $panelName) {\n\t\t$label = `panel -q -label $panelName`;\n\t\tscriptedPanel -edit -l (localizedPanelLabel(\"Create Node\")) -mbv $menusOkayInPanels  $panelName;\n\t\tif (!$useSceneConfig) {\n\t\t\tpanel -e -l $label $panelName;\n\t\t}\n\t}\n\n\n\t$panelName = `sceneUIReplacement -getNextScriptedPanel \"polyTexturePlacementPanel\" (localizedPanelLabel(\"UV Editor\")) `;\n\tif (\"\" != $panelName) {\n\t\t$label = `panel -q -label $panelName`;\n\t\tscriptedPanel -edit -l (localizedPanelLabel(\"UV Editor\")) -mbv $menusOkayInPanels  $panelName;\n\t\tif (!$useSceneConfig) {\n\t\t\tpanel -e -l $label $panelName;\n\t\t}\n\t}\n\n\n\t$panelName = `sceneUIReplacement -getNextScriptedPanel \"renderWindowPanel\" (localizedPanelLabel(\"Render View\")) `;\n\tif (\"\" != $panelName) {\n\t\t$label = `panel -q -label $panelName`;\n\t\tscriptedPanel -edit -l (localizedPanelLabel(\"Render View\")) -mbv $menusOkayInPanels  $panelName;\n"
		+ "\t\tif (!$useSceneConfig) {\n\t\t\tpanel -e -l $label $panelName;\n\t\t}\n\t}\n\n\n\t$panelName = `sceneUIReplacement -getNextPanel \"shapePanel\" (localizedPanelLabel(\"Shape Editor\")) `;\n\tif (\"\" != $panelName) {\n\t\t$label = `panel -q -label $panelName`;\n\t\tshapePanel -edit -l (localizedPanelLabel(\"Shape Editor\")) -mbv $menusOkayInPanels  $panelName;\n\t\tif (!$useSceneConfig) {\n\t\t\tpanel -e -l $label $panelName;\n\t\t}\n\t}\n\n\n\t$panelName = `sceneUIReplacement -getNextPanel \"posePanel\" (localizedPanelLabel(\"Pose Editor\")) `;\n\tif (\"\" != $panelName) {\n\t\t$label = `panel -q -label $panelName`;\n\t\tposePanel -edit -l (localizedPanelLabel(\"Pose Editor\")) -mbv $menusOkayInPanels  $panelName;\n\t\tif (!$useSceneConfig) {\n\t\t\tpanel -e -l $label $panelName;\n\t\t}\n\t}\n\n\n\t$panelName = `sceneUIReplacement -getNextScriptedPanel \"dynRelEdPanel\" (localizedPanelLabel(\"Dynamic Relationships\")) `;\n\tif (\"\" != $panelName) {\n\t\t$label = `panel -q -label $panelName`;\n\t\tscriptedPanel -edit -l (localizedPanelLabel(\"Dynamic Relationships\")) -mbv $menusOkayInPanels  $panelName;\n"
		+ "\t\tif (!$useSceneConfig) {\n\t\t\tpanel -e -l $label $panelName;\n\t\t}\n\t}\n\n\n\t$panelName = `sceneUIReplacement -getNextScriptedPanel \"relationshipPanel\" (localizedPanelLabel(\"Relationship Editor\")) `;\n\tif (\"\" != $panelName) {\n\t\t$label = `panel -q -label $panelName`;\n\t\tscriptedPanel -edit -l (localizedPanelLabel(\"Relationship Editor\")) -mbv $menusOkayInPanels  $panelName;\n\t\tif (!$useSceneConfig) {\n\t\t\tpanel -e -l $label $panelName;\n\t\t}\n\t}\n\n\n\t$panelName = `sceneUIReplacement -getNextScriptedPanel \"referenceEditorPanel\" (localizedPanelLabel(\"Reference Editor\")) `;\n\tif (\"\" != $panelName) {\n\t\t$label = `panel -q -label $panelName`;\n\t\tscriptedPanel -edit -l (localizedPanelLabel(\"Reference Editor\")) -mbv $menusOkayInPanels  $panelName;\n\t\tif (!$useSceneConfig) {\n\t\t\tpanel -e -l $label $panelName;\n\t\t}\n\t}\n\n\n\t$panelName = `sceneUIReplacement -getNextScriptedPanel \"componentEditorPanel\" (localizedPanelLabel(\"Component Editor\")) `;\n\tif (\"\" != $panelName) {\n\t\t$label = `panel -q -label $panelName`;\n\t\tscriptedPanel -edit -l (localizedPanelLabel(\"Component Editor\")) -mbv $menusOkayInPanels  $panelName;\n"
		+ "\t\tif (!$useSceneConfig) {\n\t\t\tpanel -e -l $label $panelName;\n\t\t}\n\t}\n\n\n\t$panelName = `sceneUIReplacement -getNextScriptedPanel \"dynPaintScriptedPanelType\" (localizedPanelLabel(\"Paint Effects\")) `;\n\tif (\"\" != $panelName) {\n\t\t$label = `panel -q -label $panelName`;\n\t\tscriptedPanel -edit -l (localizedPanelLabel(\"Paint Effects\")) -mbv $menusOkayInPanels  $panelName;\n\t\tif (!$useSceneConfig) {\n\t\t\tpanel -e -l $label $panelName;\n\t\t}\n\t}\n\n\n\t$panelName = `sceneUIReplacement -getNextScriptedPanel \"scriptEditorPanel\" (localizedPanelLabel(\"Script Editor\")) `;\n\tif (\"\" != $panelName) {\n\t\t$label = `panel -q -label $panelName`;\n\t\tscriptedPanel -edit -l (localizedPanelLabel(\"Script Editor\")) -mbv $menusOkayInPanels  $panelName;\n\t\tif (!$useSceneConfig) {\n\t\t\tpanel -e -l $label $panelName;\n\t\t}\n\t}\n\n\n\t$panelName = `sceneUIReplacement -getNextScriptedPanel \"profilerPanel\" (localizedPanelLabel(\"Profiler Tool\")) `;\n\tif (\"\" != $panelName) {\n\t\t$label = `panel -q -label $panelName`;\n\t\tscriptedPanel -edit -l (localizedPanelLabel(\"Profiler Tool\")) -mbv $menusOkayInPanels  $panelName;\n"
		+ "\t\tif (!$useSceneConfig) {\n\t\t\tpanel -e -l $label $panelName;\n\t\t}\n\t}\n\n\n\t$panelName = `sceneUIReplacement -getNextScriptedPanel \"contentBrowserPanel\" (localizedPanelLabel(\"Content Browser\")) `;\n\tif (\"\" != $panelName) {\n\t\t$label = `panel -q -label $panelName`;\n\t\tscriptedPanel -edit -l (localizedPanelLabel(\"Content Browser\")) -mbv $menusOkayInPanels  $panelName;\n\t\tif (!$useSceneConfig) {\n\t\t\tpanel -e -l $label $panelName;\n\t\t}\n\t}\n\n\n\t$panelName = `sceneUIReplacement -getNextScriptedPanel \"Stereo\" (localizedPanelLabel(\"Stereo\")) `;\n\tif (\"\" != $panelName) {\n\t\t$label = `panel -q -label $panelName`;\n\t\tscriptedPanel -edit -l (localizedPanelLabel(\"Stereo\")) -mbv $menusOkayInPanels  $panelName;\nstring $editorName = ($panelName+\"Editor\");\n            stereoCameraView -e \n                -camera \"persp\" \n                -useInteractiveMode 0\n                -displayLights \"default\" \n                -displayAppearance \"wireframe\" \n                -activeOnly 0\n                -ignorePanZoom 0\n                -wireframeOnShaded 0\n"
		+ "                -headsUpDisplay 1\n                -holdOuts 1\n                -selectionHiliteDisplay 1\n                -useDefaultMaterial 0\n                -bufferMode \"double\" \n                -twoSidedLighting 1\n                -backfaceCulling 0\n                -xray 0\n                -jointXray 0\n                -activeComponentsXray 0\n                -displayTextures 0\n                -smoothWireframe 0\n                -lineWidth 1\n                -textureAnisotropic 0\n                -textureHilight 1\n                -textureSampling 2\n                -textureDisplay \"modulate\" \n                -textureMaxSize 16384\n                -fogging 0\n                -fogSource \"fragment\" \n                -fogMode \"linear\" \n                -fogStart 0\n                -fogEnd 100\n                -fogDensity 0.1\n                -fogColor 0.5 0.5 0.5 1 \n                -depthOfFieldPreview 1\n                -maxConstantTransparency 1\n                -objectFilterShowInHUD 1\n                -isFiltered 0\n                -colorResolution 4 4 \n"
		+ "                -bumpResolution 4 4 \n                -textureCompression 0\n                -transparencyAlgorithm \"frontAndBackCull\" \n                -transpInShadows 0\n                -cullingOverride \"none\" \n                -lowQualityLighting 0\n                -maximumNumHardwareLights 0\n                -occlusionCulling 0\n                -shadingModel 0\n                -useBaseRenderer 0\n                -useReducedRenderer 0\n                -smallObjectCulling 0\n                -smallObjectThreshold -1 \n                -interactiveDisableShadows 0\n                -interactiveBackFaceCull 0\n                -sortTransparent 1\n                -nurbsCurves 1\n                -nurbsSurfaces 1\n                -polymeshes 1\n                -subdivSurfaces 1\n                -planes 1\n                -lights 1\n                -cameras 1\n                -controlVertices 1\n                -hulls 1\n                -grid 1\n                -imagePlane 1\n                -joints 1\n                -ikHandles 1\n                -deformers 1\n"
		+ "                -dynamics 1\n                -particleInstancers 1\n                -fluids 1\n                -hairSystems 1\n                -follicles 1\n                -nCloths 1\n                -nParticles 1\n                -nRigids 1\n                -dynamicConstraints 1\n                -locators 1\n                -manipulators 1\n                -pluginShapes 1\n                -dimensions 1\n                -handles 1\n                -pivots 1\n                -textures 1\n                -strokes 1\n                -motionTrails 1\n                -clipGhosts 1\n                -greasePencils 1\n                -shadows 0\n                -captureSequenceNumber -1\n                -width 0\n                -height 0\n                -sceneRenderFilter 0\n                -displayMode \"centerEye\" \n                -viewColor 0 0 0 1 \n                -useCustomBackground 1\n                $editorName;\n            stereoCameraView -e -viewSelected 0 $editorName;\n            stereoCameraView -e \n                -pluginObjects \"gpuCacheDisplayFilter\" 1 \n"
		+ "                $editorName;\n\t\tif (!$useSceneConfig) {\n\t\t\tpanel -e -l $label $panelName;\n\t\t}\n\t}\n\n\n\t$panelName = `sceneUIReplacement -getNextScriptedPanel \"hyperShadePanel\" (localizedPanelLabel(\"Hypershade\")) `;\n\tif (\"\" != $panelName) {\n\t\t$label = `panel -q -label $panelName`;\n\t\tscriptedPanel -edit -l (localizedPanelLabel(\"Hypershade\")) -mbv $menusOkayInPanels  $panelName;\n\t\tif (!$useSceneConfig) {\n\t\t\tpanel -e -l $label $panelName;\n\t\t}\n\t}\n\n\n\t$panelName = `sceneUIReplacement -getNextScriptedPanel \"nodeEditorPanel\" (localizedPanelLabel(\"Node Editor\")) `;\n\tif (\"\" != $panelName) {\n\t\t$label = `panel -q -label $panelName`;\n\t\tscriptedPanel -edit -l (localizedPanelLabel(\"Node Editor\")) -mbv $menusOkayInPanels  $panelName;\n\n\t\t\t$editorName = ($panelName+\"NodeEditorEd\");\n            nodeEditor -e \n                -allAttributes 0\n                -allNodes 0\n                -autoSizeNodes 1\n                -consistentNameSize 1\n                -createNodeCommand \"nodeEdCreateNodeCommand\" \n                -defaultPinnedState 0\n"
		+ "                -additiveGraphingMode 0\n                -settingsChangedCallback \"nodeEdSyncControls\" \n                -traversalDepthLimit -1\n                -keyPressCommand \"nodeEdKeyPressCommand\" \n                -nodeTitleMode \"name\" \n                -gridSnap 0\n                -gridVisibility 1\n                -popupMenuScript \"nodeEdBuildPanelMenus\" \n                -showNamespace 1\n                -showShapes 1\n                -showSGShapes 0\n                -showTransforms 1\n                -useAssets 1\n                -syncedSelection 1\n                -extendToShapes 1\n                -activeTab -1\n                -editorMode \"default\" \n                $editorName;\n\t\tif (!$useSceneConfig) {\n\t\t\tpanel -e -l $label $panelName;\n\t\t}\n\t}\n\n\n\tif ($useSceneConfig) {\n        string $configName = `getPanel -cwl (localizedPanelLabel(\"Current Layout\"))`;\n        if (\"\" != $configName) {\n\t\t\tpanelConfiguration -edit -label (localizedPanelLabel(\"Current Layout\")) \n\t\t\t\t-userCreated false\n\t\t\t\t-defaultImage \"vacantCell.xP:/\"\n"
		+ "\t\t\t\t-image \"\"\n\t\t\t\t-sc false\n\t\t\t\t-configString \"global string $gMainPane; paneLayout -e -cn \\\"single\\\" -ps 1 100 100 $gMainPane;\"\n\t\t\t\t-removeAllPanels\n\t\t\t\t-ap false\n\t\t\t\t\t(localizedPanelLabel(\"Persp View\")) \n\t\t\t\t\t\"modelPanel\"\n"
		+ "\t\t\t\t\t\"$panelName = `modelPanel -unParent -l (localizedPanelLabel(\\\"Persp View\\\")) -mbv $menusOkayInPanels `;\\n$editorName = $panelName;\\nmodelEditor -e \\n    -cam `findStartUpCamera persp` \\n    -useInteractiveMode 0\\n    -displayLights \\\"default\\\" \\n    -displayAppearance \\\"smoothShaded\\\" \\n    -activeOnly 0\\n    -ignorePanZoom 0\\n    -wireframeOnShaded 0\\n    -headsUpDisplay 1\\n    -holdOuts 1\\n    -selectionHiliteDisplay 1\\n    -useDefaultMaterial 0\\n    -bufferMode \\\"double\\\" \\n    -twoSidedLighting 0\\n    -backfaceCulling 0\\n    -xray 0\\n    -jointXray 1\\n    -activeComponentsXray 0\\n    -displayTextures 1\\n    -smoothWireframe 0\\n    -lineWidth 1\\n    -textureAnisotropic 0\\n    -textureHilight 1\\n    -textureSampling 2\\n    -textureDisplay \\\"modulate\\\" \\n    -textureMaxSize 16384\\n    -fogging 0\\n    -fogSource \\\"fragment\\\" \\n    -fogMode \\\"linear\\\" \\n    -fogStart 0\\n    -fogEnd 100\\n    -fogDensity 0.1\\n    -fogColor 0.5 0.5 0.5 1 \\n    -depthOfFieldPreview 1\\n    -maxConstantTransparency 1\\n    -rendererName \\\"vp2Renderer\\\" \\n    -objectFilterShowInHUD 1\\n    -isFiltered 0\\n    -colorResolution 256 256 \\n    -bumpResolution 512 512 \\n    -textureCompression 0\\n    -transparencyAlgorithm \\\"frontAndBackCull\\\" \\n    -transpInShadows 0\\n    -cullingOverride \\\"none\\\" \\n    -lowQualityLighting 0\\n    -maximumNumHardwareLights 1\\n    -occlusionCulling 0\\n    -shadingModel 0\\n    -useBaseRenderer 0\\n    -useReducedRenderer 0\\n    -smallObjectCulling 0\\n    -smallObjectThreshold -1 \\n    -interactiveDisableShadows 0\\n    -interactiveBackFaceCull 0\\n    -sortTransparent 1\\n    -nurbsCurves 1\\n    -nurbsSurfaces 1\\n    -polymeshes 1\\n    -subdivSurfaces 1\\n    -planes 1\\n    -lights 0\\n    -cameras 1\\n    -controlVertices 1\\n    -hulls 1\\n    -grid 1\\n    -imagePlane 1\\n    -joints 1\\n    -ikHandles 1\\n    -deformers 1\\n    -dynamics 1\\n    -particleInstancers 1\\n    -fluids 1\\n    -hairSystems 1\\n    -follicles 1\\n    -nCloths 1\\n    -nParticles 1\\n    -nRigids 1\\n    -dynamicConstraints 1\\n    -locators 1\\n    -manipulators 1\\n    -pluginShapes 1\\n    -dimensions 1\\n    -handles 1\\n    -pivots 1\\n    -textures 1\\n    -strokes 1\\n    -motionTrails 1\\n    -clipGhosts 1\\n    -greasePencils 1\\n    -shadows 0\\n    -captureSequenceNumber -1\\n    -width 716\\n    -height 609\\n    -sceneRenderFilter 0\\n    $editorName;\\nmodelEditor -e -viewSelected 0 $editorName;\\nmodelEditor -e \\n    -pluginObjects \\\"gpuCacheDisplayFilter\\\" 1 \\n    $editorName\"\n"
		+ "\t\t\t\t\t\"modelPanel -edit -l (localizedPanelLabel(\\\"Persp View\\\")) -mbv $menusOkayInPanels  $panelName;\\n$editorName = $panelName;\\nmodelEditor -e \\n    -cam `findStartUpCamera persp` \\n    -useInteractiveMode 0\\n    -displayLights \\\"default\\\" \\n    -displayAppearance \\\"smoothShaded\\\" \\n    -activeOnly 0\\n    -ignorePanZoom 0\\n    -wireframeOnShaded 0\\n    -headsUpDisplay 1\\n    -holdOuts 1\\n    -selectionHiliteDisplay 1\\n    -useDefaultMaterial 0\\n    -bufferMode \\\"double\\\" \\n    -twoSidedLighting 0\\n    -backfaceCulling 0\\n    -xray 0\\n    -jointXray 1\\n    -activeComponentsXray 0\\n    -displayTextures 1\\n    -smoothWireframe 0\\n    -lineWidth 1\\n    -textureAnisotropic 0\\n    -textureHilight 1\\n    -textureSampling 2\\n    -textureDisplay \\\"modulate\\\" \\n    -textureMaxSize 16384\\n    -fogging 0\\n    -fogSource \\\"fragment\\\" \\n    -fogMode \\\"linear\\\" \\n    -fogStart 0\\n    -fogEnd 100\\n    -fogDensity 0.1\\n    -fogColor 0.5 0.5 0.5 1 \\n    -depthOfFieldPreview 1\\n    -maxConstantTransparency 1\\n    -rendererName \\\"vp2Renderer\\\" \\n    -objectFilterShowInHUD 1\\n    -isFiltered 0\\n    -colorResolution 256 256 \\n    -bumpResolution 512 512 \\n    -textureCompression 0\\n    -transparencyAlgorithm \\\"frontAndBackCull\\\" \\n    -transpInShadows 0\\n    -cullingOverride \\\"none\\\" \\n    -lowQualityLighting 0\\n    -maximumNumHardwareLights 1\\n    -occlusionCulling 0\\n    -shadingModel 0\\n    -useBaseRenderer 0\\n    -useReducedRenderer 0\\n    -smallObjectCulling 0\\n    -smallObjectThreshold -1 \\n    -interactiveDisableShadows 0\\n    -interactiveBackFaceCull 0\\n    -sortTransparent 1\\n    -nurbsCurves 1\\n    -nurbsSurfaces 1\\n    -polymeshes 1\\n    -subdivSurfaces 1\\n    -planes 1\\n    -lights 0\\n    -cameras 1\\n    -controlVertices 1\\n    -hulls 1\\n    -grid 1\\n    -imagePlane 1\\n    -joints 1\\n    -ikHandles 1\\n    -deformers 1\\n    -dynamics 1\\n    -particleInstancers 1\\n    -fluids 1\\n    -hairSystems 1\\n    -follicles 1\\n    -nCloths 1\\n    -nParticles 1\\n    -nRigids 1\\n    -dynamicConstraints 1\\n    -locators 1\\n    -manipulators 1\\n    -pluginShapes 1\\n    -dimensions 1\\n    -handles 1\\n    -pivots 1\\n    -textures 1\\n    -strokes 1\\n    -motionTrails 1\\n    -clipGhosts 1\\n    -greasePencils 1\\n    -shadows 0\\n    -captureSequenceNumber -1\\n    -width 716\\n    -height 609\\n    -sceneRenderFilter 0\\n    $editorName;\\nmodelEditor -e -viewSelected 0 $editorName;\\nmodelEditor -e \\n    -pluginObjects \\\"gpuCacheDisplayFilter\\\" 1 \\n    $editorName\"\n"
		+ "\t\t\t\t$configName;\n\n            setNamedPanelLayout (localizedPanelLabel(\"Current Layout\"));\n        }\n\n        panelHistory -e -clear mainPanelHistory;\n        sceneUIReplacement -clear;\n\t}\n\n\ngrid -spacing 5 -size 12 -divisions 5 -displayAxes yes -displayGridLines yes -displayDivisionLines yes -displayPerspectiveLabels no -displayOrthographicLabels no -displayAxesBold yes -perspectiveLabelPosition axis -orthographicLabelPosition edge;\nviewManip -drawCompass 0 -compassAngle 0 -frontParameters \"\" -homeParameters \"\" -selectionLockParameters \"\";\n}\n");
	setAttr ".st" 3;
createNode script -n "sceneConfigurationScriptNode";
	rename -uid "1B8CF479-4CC4-EA1B-48D8-F0AFF15A3741";
	setAttr ".b" -type "string" "playbackOptions -min 0 -max 200 -ast 0 -aet 200 ";
	setAttr ".st" 6;
createNode nodeGraphEditorInfo -n "hyperShadePrimaryNodeEditorSavedTabsInfo";
	rename -uid "A7D9897D-46E7-4987-35A9-2A9C2384E287";
	setAttr ".tgi[0].tn" -type "string" "Untitled_1";
	setAttr ".tgi[0].vl" -type "double2" -330.95236780151544 -323.80951094248991 ;
	setAttr ".tgi[0].vh" -type "double2" 463.09521969348731 338.09522466054096 ;
select -ne :time1;
	setAttr -av -k on ".cch";
	setAttr -av -cb on ".ihi";
	setAttr -av -k on ".nds";
	setAttr -cb on ".bnm";
	setAttr -k on ".o" 145;
	setAttr -av -k on ".unw" 145;
	setAttr -k on ".etw";
	setAttr -av -k on ".tps";
	setAttr -av -k on ".tms";
select -ne :hardwareRenderingGlobals;
	setAttr -k on ".ihi";
	setAttr ".otfna" -type "stringArray" 22 "NURBS Curves" "NURBS Surfaces" "Polygons" "Subdiv Surface" "Particles" "Particle Instance" "Fluids" "Strokes" "Image Planes" "UI" "Lights" "Cameras" "Locators" "Joints" "IK Handles" "Deformers" "Motion Trails" "Components" "Hair Systems" "Follicles" "Misc. UI" "Ornaments"  ;
	setAttr ".otfva" -type "Int32Array" 22 0 1 1 1 1 1
		 1 1 1 0 0 0 0 0 0 0 0 0
		 0 0 0 0 ;
	setAttr ".hwi" yes;
	setAttr ".tmr" 2048;
	setAttr -av ".aoam";
	setAttr -av ".aora";
	setAttr -av -k on ".mbsof";
	setAttr ".msaa" yes;
	setAttr ".fprt" yes;
select -ne :renderPartition;
	setAttr -k on ".cch";
	setAttr -cb on ".ihi";
	setAttr -k on ".nds";
	setAttr -cb on ".bnm";
	setAttr -s 2 ".st";
	setAttr -cb on ".an";
	setAttr -cb on ".pt";
select -ne :renderGlobalsList1;
	setAttr -k on ".cch";
	setAttr -cb on ".ihi";
	setAttr -k on ".nds";
	setAttr -cb on ".bnm";
select -ne :defaultShaderList1;
	setAttr -k on ".cch";
	setAttr -cb on ".ihi";
	setAttr -k on ".nds";
	setAttr -cb on ".bnm";
	setAttr -s 5 ".s";
select -ne :postProcessList1;
	setAttr -k on ".cch";
	setAttr -cb on ".ihi";
	setAttr -k on ".nds";
	setAttr -cb on ".bnm";
	setAttr -s 2 ".p";
select -ne :defaultRenderingList1;
	setAttr -k on ".ihi";
select -ne :initialShadingGroup;
	addAttr -ci true -h true -sn "aal" -ln "attributeAliasList" -dt "attributeAlias";
	setAttr -av -k on ".cch";
	setAttr -cb on ".ihi";
	setAttr -av -k on ".nds";
	setAttr -cb on ".bnm";
	setAttr -k on ".mwc";
	setAttr -cb on ".an";
	setAttr -cb on ".il";
	setAttr -cb on ".vo";
	setAttr -cb on ".eo";
	setAttr -cb on ".fo";
	setAttr -cb on ".epo";
	setAttr -k on ".ro" yes;
	setAttr ".ai_surface_shader" -type "float3" -7.3932283e-039 8.9122582e-043 -1.#INF ;
	setAttr ".ai_volume_shader" -type "float3" -7.3932283e-039 8.9122582e-043 -1.#INF ;
	setAttr ".aal" -type "attributeAlias" {"ai_aov_N","aiCustomAOVs[0]","ai_aov_direct_specular_2"
		,"aiCustomAOVs[10]","ai_aov_indirect_backlight","aiCustomAOVs[11]","ai_aov_indirect_diffuse"
		,"aiCustomAOVs[12]","ai_aov_indirect_diffuse_raw","aiCustomAOVs[13]","ai_aov_indirect_specular"
		,"aiCustomAOVs[14]","ai_aov_indirect_specular_2","aiCustomAOVs[15]","ai_aov_refraction"
		,"aiCustomAOVs[16]","ai_aov_single_scatter","aiCustomAOVs[17]","ai_aov_sss","aiCustomAOVs[18]"
		,"ai_aov_uv","aiCustomAOVs[19]","ai_aov_P","aiCustomAOVs[1]","ai_aov_depth","aiCustomAOVs[20]"
		,"ai_aov_id_1","aiCustomAOVs[21]","ai_aov_id_8","aiCustomAOVs[22]","ai_aov_id_2","aiCustomAOVs[23]"
		,"ai_aov_direct_glint","aiCustomAOVs[24]","ai_aov_direct_global","aiCustomAOVs[25]"
		,"ai_aov_direct_local","aiCustomAOVs[26]","ai_aov_direct_transmission","aiCustomAOVs[27]"
		,"ai_aov_indirect_glint","aiCustomAOVs[28]","ai_aov_indirect_global","aiCustomAOVs[29]"
		,"ai_aov_Z","aiCustomAOVs[2]","ai_aov_indirect_local","aiCustomAOVs[30]","ai_aov_indirect_transmission"
		,"aiCustomAOVs[31]","ai_aov_id_3","aiCustomAOVs[32]","ai_aov_crypto_asset","aiCustomAOVs[3]"
		,"ai_aov_crypto_material","aiCustomAOVs[4]","ai_aov_diffuse_color","aiCustomAOVs[5]"
		,"ai_aov_direct_backlight","aiCustomAOVs[6]","ai_aov_direct_diffuse","aiCustomAOVs[7]"
		,"ai_aov_direct_diffuse_raw","aiCustomAOVs[8]","ai_aov_direct_specular","aiCustomAOVs[9]"
		} ;
select -ne :initialParticleSE;
	addAttr -ci true -h true -sn "aal" -ln "attributeAliasList" -dt "attributeAlias";
	setAttr -av -k on ".cch";
	setAttr -cb on ".ihi";
	setAttr -av -k on ".nds";
	setAttr -cb on ".bnm";
	setAttr -k on ".mwc";
	setAttr -cb on ".an";
	setAttr -cb on ".il";
	setAttr -cb on ".vo";
	setAttr -cb on ".eo";
	setAttr -cb on ".fo";
	setAttr -cb on ".epo";
	setAttr -k on ".ro" yes;
	setAttr ".ai_surface_shader" -type "float3" -7.3932283e-039 8.9122582e-043 -1.#INF ;
	setAttr ".ai_volume_shader" -type "float3" -7.3932283e-039 8.9122582e-043 -1.#INF ;
	setAttr ".aal" -type "attributeAlias" {"ai_aov_N","aiCustomAOVs[0]","ai_aov_direct_specular_2"
		,"aiCustomAOVs[10]","ai_aov_indirect_backlight","aiCustomAOVs[11]","ai_aov_indirect_diffuse"
		,"aiCustomAOVs[12]","ai_aov_indirect_diffuse_raw","aiCustomAOVs[13]","ai_aov_indirect_specular"
		,"aiCustomAOVs[14]","ai_aov_indirect_specular_2","aiCustomAOVs[15]","ai_aov_refraction"
		,"aiCustomAOVs[16]","ai_aov_single_scatter","aiCustomAOVs[17]","ai_aov_sss","aiCustomAOVs[18]"
		,"ai_aov_uv","aiCustomAOVs[19]","ai_aov_P","aiCustomAOVs[1]","ai_aov_depth","aiCustomAOVs[20]"
		,"ai_aov_id_1","aiCustomAOVs[21]","ai_aov_id_8","aiCustomAOVs[22]","ai_aov_id_2","aiCustomAOVs[23]"
		,"ai_aov_direct_glint","aiCustomAOVs[24]","ai_aov_direct_global","aiCustomAOVs[25]"
		,"ai_aov_direct_local","aiCustomAOVs[26]","ai_aov_direct_transmission","aiCustomAOVs[27]"
		,"ai_aov_indirect_glint","aiCustomAOVs[28]","ai_aov_indirect_global","aiCustomAOVs[29]"
		,"ai_aov_Z","aiCustomAOVs[2]","ai_aov_indirect_local","aiCustomAOVs[30]","ai_aov_indirect_transmission"
		,"aiCustomAOVs[31]","ai_aov_id_3","aiCustomAOVs[32]","ai_aov_crypto_asset","aiCustomAOVs[3]"
		,"ai_aov_crypto_material","aiCustomAOVs[4]","ai_aov_diffuse_color","aiCustomAOVs[5]"
		,"ai_aov_direct_backlight","aiCustomAOVs[6]","ai_aov_direct_diffuse","aiCustomAOVs[7]"
		,"ai_aov_direct_diffuse_raw","aiCustomAOVs[8]","ai_aov_direct_specular","aiCustomAOVs[9]"
		} ;
select -ne :defaultRenderGlobals;
	addAttr -ci true -sn "shave_old_preRenderMel" -ln "shave_old_preRenderMel" -dt "string";
	addAttr -ci true -sn "shave_old_postRenderMel" -ln "shave_old_postRenderMel" -dt "string";
	setAttr -k on ".cch";
	setAttr -cb on ".ihi";
	setAttr -k on ".nds";
	setAttr -cb on ".bnm";
	setAttr -k on ".macc";
	setAttr -k on ".macd";
	setAttr -k on ".macq";
	setAttr -k on ".mcfr" 25;
	setAttr -cb on ".ifg";
	setAttr -k on ".clip";
	setAttr -k on ".edm";
	setAttr -k on ".edl" no;
	setAttr -cb on ".ren" -type "string" "arnold";
	setAttr -av -k on ".esr";
	setAttr -k on ".ors";
	setAttr -cb on ".sdf";
	setAttr -av -k on ".outf" 51;
	setAttr -cb on ".imfkey" -type "string" "exr";
	setAttr -k on ".gama";
	setAttr -k on ".an" yes;
	setAttr -k on ".ar";
	setAttr -k on ".fs" 11;
	setAttr -k on ".ef" 11;
	setAttr -av -k on ".bfs";
	setAttr -k on ".me";
	setAttr -k on ".se";
	setAttr -k on ".be";
	setAttr -cb on ".ep";
	setAttr -k on ".fec";
	setAttr -av -k on ".ofc";
	setAttr -cb on ".ofe";
	setAttr -cb on ".efe";
	setAttr -k on ".oft";
	setAttr -k on ".umfn";
	setAttr -k on ".ufe";
	setAttr -cb on ".pff" yes;
	setAttr -k on ".peie" 2;
	setAttr -cb on ".ifp" -type "string" "lookdev/sunnySRU/<RenderLayer>/<RenderLayer>";
	setAttr -k on ".rv";
	setAttr -k on ".comp";
	setAttr -k on ".cth";
	setAttr -k on ".soll";
	setAttr -cb on ".sosl";
	setAttr -k on ".rd";
	setAttr -k on ".lp";
	setAttr -av -k on ".sp";
	setAttr -k on ".shs";
	setAttr -av -k on ".lpr";
	setAttr -cb on ".gv";
	setAttr -cb on ".sv";
	setAttr -k on ".mm";
	setAttr -k on ".npu";
	setAttr -k on ".itf";
	setAttr -k on ".shp";
	setAttr -cb on ".isp";
	setAttr -k on ".uf";
	setAttr -k on ".oi";
	setAttr -k on ".rut";
	setAttr -k on ".mot";
	setAttr -av -k on ".mb";
	setAttr -av -k on ".mbf";
	setAttr -k on ".mbso";
	setAttr -k on ".mbsc";
	setAttr -k on ".afp";
	setAttr -k on ".pfb";
	setAttr -k on ".pram";
	setAttr -k on ".poam";
	setAttr -k on ".prlm";
	setAttr -k on ".polm";
	setAttr -cb on ".prm" -type "string" "";
	setAttr -cb on ".pom" -type "string" "";
	setAttr -cb on ".pfrm";
	setAttr -cb on ".pfom";
	setAttr -av -k on ".bll";
	setAttr -av -k on ".bls";
	setAttr -av -k on ".smv";
	setAttr -k on ".ubc";
	setAttr -k on ".mbc";
	setAttr -cb on ".mbt";
	setAttr -k on ".udbx";
	setAttr -k on ".smc";
	setAttr -k on ".kmv";
	setAttr -cb on ".isl";
	setAttr -cb on ".ism";
	setAttr -cb on ".imb";
	setAttr -k on ".rlen";
	setAttr -av -k on ".frts";
	setAttr -k on ".tlwd";
	setAttr -k on ".tlht";
	setAttr -k on ".jfc";
	setAttr -cb on ".rsb";
	setAttr -k on ".ope";
	setAttr -k on ".oppf";
	setAttr -k on ".rcp";
	setAttr -k on ".icp";
	setAttr -k on ".ocp";
	setAttr -cb on ".hbl";
	setAttr ".shave_old_preRenderMel" -type "string" "";
	setAttr ".shave_old_postRenderMel" -type "string" "";
select -ne :defaultResolution;
	setAttr -av -k on ".cch";
	setAttr -av -k on ".ihi";
	setAttr -av -k on ".nds";
	setAttr -k on ".bnm";
	setAttr -av -k on ".w";
	setAttr -av -k on ".h" 1100;
	setAttr -av -k on ".pa" 1;
	setAttr -av -k on ".al";
	setAttr -av -k on ".dar" 0.87272727489471436;
	setAttr -av -k on ".ldar";
	setAttr -av -k on ".dpi";
	setAttr -av -k on ".off";
	setAttr -av -k on ".fld";
	setAttr -av -k on ".zsl";
	setAttr -av -k on ".isu";
	setAttr -av -k on ".pdu";
select -ne :hardwareRenderGlobals;
	setAttr -k on ".cch";
	setAttr -cb on ".ihi";
	setAttr -k on ".nds";
	setAttr -cb on ".bnm";
	setAttr -k off -cb on ".ctrs" 256;
	setAttr -av -k off -cb on ".btrs" 512;
	setAttr -k off -cb on ".fbfm";
	setAttr -k off -cb on ".ehql";
	setAttr -k off -cb on ".eams";
	setAttr -k off -cb on ".eeaa";
	setAttr -k off -cb on ".engm";
	setAttr -k off -cb on ".mes";
	setAttr -k off -cb on ".emb";
	setAttr -av -k off -cb on ".mbbf";
	setAttr -k off -cb on ".mbs";
	setAttr -k off -cb on ".trm";
	setAttr -k off -cb on ".tshc";
	setAttr -k off -cb on ".enpt";
	setAttr -k off -cb on ".clmt";
	setAttr -k off -cb on ".tcov";
	setAttr -k off -cb on ".lith";
	setAttr -k off -cb on ".sobc";
	setAttr -k off -cb on ".cuth";
	setAttr -k off -cb on ".hgcd";
	setAttr -k off -cb on ".hgci";
	setAttr -k off -cb on ".mgcs";
	setAttr -k off -cb on ".twa";
	setAttr -k off -cb on ".twz";
	setAttr -cb on ".hwcc";
	setAttr -cb on ".hwdp";
	setAttr -cb on ".hwql";
	setAttr -k on ".hwfr" 25;
	setAttr -k on ".soll";
	setAttr -k on ".sosl";
	setAttr -k on ".bswa";
	setAttr -k on ".shml";
	setAttr -k on ".hwel";
relationship "link" ":lightLinker1" ":initialShadingGroup.message" ":defaultLightSet.message";
relationship "link" ":lightLinker1" ":initialParticleSE.message" ":defaultLightSet.message";
relationship "shadowLink" ":lightLinker1" ":initialShadingGroup.message" ":defaultLightSet.message";
relationship "shadowLink" ":lightLinker1" ":initialParticleSE.message" ":defaultLightSet.message";
connectAttr "layerManager.dli[0]" "defaultLayer.id";
connectAttr "renderLayerManager.rlmi[0]" "defaultRenderLayer.rlid";
connectAttr "ericSRU_shader.msg" ":defaultShaderList1.s" -na;
connectAttr "defaultRenderLayer.msg" ":defaultRenderingList1.r" -na;
connectAttr "ericSRU_shader.oc" ":internal_standInSE.ss";
// End of ericShade.ma
