//Maya ASCII 2017ff05 scene
//Name: shade.ma
//Last modified: Thu, Nov 16, 2017 03:27:10 PM
//Codeset: 1252
requires maya "2017ff05";
requires -nodeType "hairPhysicalShader" "hairPhysicalShader" "1.0";
requires -dataType "xgmGuideData" -dataType "igmDescriptionData" -dataType "xgmSplineData"
		 -dataType "xgmMeshData" -dataType "xgmSplineTweakData" -dataType "xgmSplineBoundInfoData"
		 -dataType "xgmGuideRefData" "xgenToolkit" "1.0";
requires "stereoCamera" "10.0";
requires "PO_Reader_v2012_64" "1.0";
requires "arkMayaExporter_2013_5" "1.21.ma3.s2.me5.a7";
requires "TurtleForMaya2009" "5.0.0.5";
requires "pfOptions.py" "1.0";
currentUnit -l centimeter -a degree -t film;
fileInfo "application" "maya";
fileInfo "product" "Maya 2017";
fileInfo "version" "2017";
fileInfo "cutIdentifier" "201706020738-1017329";
fileInfo "osv" "Microsoft Windows 8 Business Edition, 64-bit  (Build 9200)\n";
createNode hairPhysicalShader -n "spiderGirlFur_shader";
	rename -uid "7E8BBC59-424C-836D-4138-ABA5353E18CB";
	setAttr ".rcD" -type "float3" 0.002916557 0.01860174 0.11888112 ;
	setAttr ".tcD" -type "float3" 0.022174019 0.1144361 0.72306955 ;
	setAttr -l on ".ac";
	setAttr -l on ".incand";
	setAttr ".cR" -type "float3" 0.049706705 0.29614478 0.99111211 ;
	setAttr ".iR" 0.25;
	setAttr ".cTT" -type "float3" 0.056129687 0.30499458 0.99111211 ;
	setAttr -l on ".lsTT" -4;
	setAttr ".cTRT" -type "float3" 0.02028846 0.19120413 1.0000241 ;
	setAttr -l on ".cG" -type "float3" 0 0 0 ;
	setAttr -l on ".cG";
	setAttr -l on ".iG" 0;
	setAttr -l on ".asG" 0;
	setAttr -l on ".awG" 0;
createNode hairPhysicalShader -n "spiderGirlHair_shader";
	rename -uid "6632F160-41E4-7A61-43FF-2AB8E7212490";
	setAttr ".rcD" -type "float3" 0.021219049 0.010960327 0.061247341 ;
	setAttr ".tcD" -type "float3" 0.14413089 0.1301388 0.60383129 ;
	setAttr -l on ".ac";
	setAttr -l on ".incand";
	setAttr ".cR" -type "float3" 0.59401339 0.58598405 0.89600003 ;
	setAttr ".iR" 0.25;
	setAttr ".cTT" -type "float3" 0.34192038 0.40197501 1.0000241 ;
	setAttr -l on ".lsTT" -4;
	setAttr ".cTRT" -type "float3" 0.16826633 0.20507553 0.69388628 ;
	setAttr -l on ".cG" -type "float3" 0 0 0 ;
	setAttr -l on ".cG";
	setAttr -l on ".iG" 0;
	setAttr -l on ".asG" 0;
	setAttr -l on ".awG" 0;
createNode multiplyDivide -n "multiplyDivide1";
	rename -uid "056963F1-49B7-6531-1275-C8A28B5303C3";
	setAttr ".i2" -type "float3" 2.5 1 1 ;
createNode multiplyDivide -n "multiplyDivide2";
	rename -uid "C1F647E7-45EF-CE0B-1065-DD98B6ABDD67";
	setAttr ".i2" -type "float3" 2.5 1 1 ;
select -ne :time1;
	setAttr -av -k on ".cch";
	setAttr -av -cb on ".ihi";
	setAttr -av -k on ".nds";
	setAttr -cb on ".bnm";
	setAttr -k on ".o" 1;
	setAttr -av -k on ".unw" 1;
	setAttr -k on ".etw";
	setAttr -k on ".tps";
	setAttr -av -k on ".tms";
select -ne :hardwareRenderingGlobals;
	setAttr -k on ".ihi";
	setAttr ".otfna" -type "stringArray" 22 "NURBS Curves" "NURBS Surfaces" "Polygons" "Subdiv Surface" "Particles" "Particle Instance" "Fluids" "Strokes" "Image Planes" "UI" "Lights" "Cameras" "Locators" "Joints" "IK Handles" "Deformers" "Motion Trails" "Components" "Hair Systems" "Follicles" "Misc. UI" "Ornaments"  ;
	setAttr ".otfva" -type "Int32Array" 22 0 1 1 1 1 1
		 1 1 1 0 0 0 0 0 0 0 0 0
		 0 0 0 0 ;
	setAttr ".mhl" 16;
	setAttr ".vac" 2;
	setAttr ".hwi" yes;
	setAttr ".etmr" yes;
	setAttr ".tmr" 6114;
	setAttr -k on ".mbsof";
	setAttr ".msaa" yes;
	setAttr ".aasc" 16;
	setAttr ".laa" yes;
select -ne :renderPartition;
	setAttr -k on ".cch";
	setAttr -cb on ".ihi";
	setAttr -k on ".nds";
	setAttr -cb on ".bnm";
	setAttr -s 9 ".st";
	setAttr -cb on ".an";
	setAttr -cb on ".pt";
select -ne :renderGlobalsList1;
	setAttr -k on ".cch";
	setAttr -cb on ".ihi";
	setAttr -k on ".nds";
	setAttr -cb on ".bnm";
select -ne :defaultShaderList1;
	setAttr -k on ".cch";
	setAttr -cb on ".ihi";
	setAttr -k on ".nds";
	setAttr -cb on ".bnm";
	setAttr -s 12 ".s";
select -ne :postProcessList1;
	setAttr -k on ".cch";
	setAttr -cb on ".ihi";
	setAttr -k on ".nds";
	setAttr -cb on ".bnm";
	setAttr -s 2 ".p";
select -ne :defaultRenderUtilityList1;
	setAttr -k on ".cch";
	setAttr -cb on ".ihi";
	setAttr -av -k on ".nds";
	setAttr -cb on ".bnm";
	setAttr -s 2 ".u";
select -ne :defaultRenderingList1;
	setAttr -k on ".ihi";
select -ne :defaultTextureList1;
	setAttr -k on ".cch";
	setAttr -cb on ".ihi";
	setAttr -k on ".nds";
	setAttr -cb on ".bnm";
	setAttr -s 2 ".tx";
select -ne :initialShadingGroup;
	setAttr -av -k on ".cch";
	setAttr -cb on ".ihi";
	setAttr -av -k on ".nds";
	setAttr -cb on ".bnm";
	setAttr -k on ".mwc";
	setAttr -cb on ".an";
	setAttr -cb on ".il";
	setAttr -cb on ".vo";
	setAttr -cb on ".eo";
	setAttr -cb on ".fo";
	setAttr -cb on ".epo";
	setAttr -k on ".ro" yes;
	setAttr ".ai_surface_shader" -type "float3" 4.4484747e-035 5.3109212e-043 3.4028235e+038 ;
	setAttr ".ai_volume_shader" -type "float3" 4.4484747e-035 5.3109212e-043 3.4028235e+038 ;
select -ne :initialParticleSE;
	setAttr -av -k on ".cch";
	setAttr -cb on ".ihi";
	setAttr -av -k on ".nds";
	setAttr -cb on ".bnm";
	setAttr -k on ".mwc";
	setAttr -cb on ".an";
	setAttr -cb on ".il";
	setAttr -cb on ".vo";
	setAttr -cb on ".eo";
	setAttr -cb on ".fo";
	setAttr -cb on ".epo";
	setAttr -k on ".ro" yes;
	setAttr ".ai_surface_shader" -type "float3" 4.4484747e-035 5.3109212e-043 3.4028235e+038 ;
	setAttr ".ai_volume_shader" -type "float3" 4.4484747e-035 5.3109212e-043 3.4028235e+038 ;
select -ne :defaultRenderGlobals;
	setAttr -k on ".cch";
	setAttr -cb on ".ihi";
	setAttr -k on ".nds";
	setAttr -cb on ".bnm";
	setAttr -k on ".macc";
	setAttr -k on ".macd";
	setAttr -k on ".macq";
	setAttr -k on ".mcfr";
	setAttr -cb on ".ifg";
	setAttr -k on ".clip";
	setAttr -k on ".edm";
	setAttr -k on ".edl" no;
	setAttr -cb on ".ren" -type "string" "arnold";
	setAttr -av -k on ".esr";
	setAttr -k on ".ors";
	setAttr -cb on ".sdf";
	setAttr -av -k on ".outf" 51;
	setAttr -cb on ".imfkey" -type "string" "exr";
	setAttr -k on ".gama";
	setAttr -k on ".an";
	setAttr -k on ".ar";
	setAttr -k on ".fs";
	setAttr -k on ".ef";
	setAttr -av -k on ".bfs";
	setAttr -k on ".me";
	setAttr -k on ".se";
	setAttr -k on ".be";
	setAttr -cb on ".ep";
	setAttr -k on ".fec";
	setAttr -av -k on ".ofc";
	setAttr -cb on ".ofe";
	setAttr -cb on ".efe";
	setAttr -k on ".oft";
	setAttr -k on ".umfn";
	setAttr -k on ".ufe";
	setAttr -cb on ".pff";
	setAttr -k on ".peie";
	setAttr -cb on ".ifp";
	setAttr -k on ".rv";
	setAttr -k on ".comp";
	setAttr -k on ".cth";
	setAttr -k on ".soll";
	setAttr -cb on ".sosl";
	setAttr -k on ".rd";
	setAttr -k on ".lp";
	setAttr -av -k on ".sp";
	setAttr -k on ".shs";
	setAttr -av -k on ".lpr";
	setAttr -cb on ".gv";
	setAttr -cb on ".sv";
	setAttr -k on ".mm";
	setAttr -k on ".npu";
	setAttr -k on ".itf";
	setAttr -k on ".shp";
	setAttr -cb on ".isp";
	setAttr -k on ".uf";
	setAttr -k on ".oi";
	setAttr -k on ".rut";
	setAttr -k on ".mot";
	setAttr -av -k on ".mb";
	setAttr -av -k on ".mbf";
	setAttr -k on ".mbso";
	setAttr -k on ".mbsc";
	setAttr -k on ".afp";
	setAttr -k on ".pfb";
	setAttr -k on ".pram";
	setAttr -k on ".poam";
	setAttr -k on ".prlm";
	setAttr -k on ".polm";
	setAttr -cb on ".prm";
	setAttr -cb on ".pom";
	setAttr -cb on ".pfrm";
	setAttr -cb on ".pfom";
	setAttr -av -k on ".bll";
	setAttr -av -k on ".bls";
	setAttr -av -k on ".smv";
	setAttr -k on ".ubc";
	setAttr -k on ".mbc";
	setAttr -cb on ".mbt";
	setAttr -k on ".udbx";
	setAttr -k on ".smc";
	setAttr -k on ".kmv";
	setAttr -cb on ".isl";
	setAttr -cb on ".ism";
	setAttr -cb on ".imb";
	setAttr -k on ".rlen";
	setAttr -av -k on ".frts";
	setAttr -k on ".tlwd";
	setAttr -k on ".tlht";
	setAttr -k on ".jfc";
	setAttr -cb on ".rsb";
	setAttr -k on ".ope";
	setAttr -k on ".oppf";
	setAttr -k on ".rcp";
	setAttr -k on ".icp";
	setAttr -k on ".ocp";
	setAttr -cb on ".hbl";
select -ne :defaultResolution;
	setAttr -av -k on ".cch";
	setAttr -k on ".ihi";
	setAttr -av -k on ".nds";
	setAttr -k on ".bnm";
	setAttr -av -k on ".w" 1200;
	setAttr -av -k on ".h" 1800;
	setAttr -av -k on ".pa" 1;
	setAttr -av -k on ".al";
	setAttr -av -k on ".dar" 0.66699999570846558;
	setAttr -av -k on ".ldar";
	setAttr -k on ".dpi" 300;
	setAttr -av -k on ".off";
	setAttr -av -k on ".fld";
	setAttr -av -k on ".zsl";
	setAttr -k on ".isu";
	setAttr -k on ".pdu";
select -ne :defaultColorMgtGlobals;
	setAttr ".ote" yes;
select -ne :hardwareRenderGlobals;
	setAttr -k on ".cch";
	setAttr -cb on ".ihi";
	setAttr -k on ".nds";
	setAttr -cb on ".bnm";
	setAttr -k off -cb on ".ctrs" 256;
	setAttr -av -k off -cb on ".btrs" 512;
	setAttr -k off -cb on ".fbfm";
	setAttr -k off -cb on ".ehql";
	setAttr -k off -cb on ".eams";
	setAttr -k off -cb on ".eeaa";
	setAttr -k off -cb on ".engm";
	setAttr -k off -cb on ".mes";
	setAttr -k off -cb on ".emb";
	setAttr -av -k off -cb on ".mbbf";
	setAttr -k off -cb on ".mbs";
	setAttr -k off -cb on ".trm";
	setAttr -k off -cb on ".tshc";
	setAttr -k off -cb on ".enpt";
	setAttr -k off -cb on ".clmt";
	setAttr -k off -cb on ".tcov";
	setAttr -k off -cb on ".lith";
	setAttr -k off -cb on ".sobc";
	setAttr -k off -cb on ".cuth";
	setAttr -k off -cb on ".hgcd";
	setAttr -k off -cb on ".hgci";
	setAttr -k off -cb on ".mgcs";
	setAttr -k off -cb on ".twa";
	setAttr -k off -cb on ".twz";
	setAttr -cb on ".hwcc";
	setAttr -cb on ".hwdp";
	setAttr -cb on ".hwql";
	setAttr -k on ".hwfr";
	setAttr -k on ".soll";
	setAttr -k on ".sosl";
	setAttr -k on ".bswa";
	setAttr -k on ".shml";
	setAttr -k on ".hwel";
connectAttr "multiplyDivide1.ox" "spiderGirlFur_shader.awTT" -l on;
connectAttr "multiplyDivide2.ox" "spiderGirlHair_shader.awTT" -l on;
connectAttr "spiderGirlFur_shader.lwTT" "multiplyDivide1.i1x";
connectAttr "spiderGirlHair_shader.lwTT" "multiplyDivide2.i1x";
connectAttr "spiderGirlFur_shader.msg" ":defaultShaderList1.s" -na;
connectAttr "spiderGirlHair_shader.msg" ":defaultShaderList1.s" -na;
// End of shade.ma
