//Maya ASCII 2012 scene
//Name: TEMPLATE_rigGrp.ma
//Last modified: Wed, Apr 09, 2014 11:36:14 AM
//Codeset: 1252
requires maya "2012";
requires "stereoCamera" "10.0";
currentUnit -l centimeter -a degree -t film;
fileInfo "application" "maya";
fileInfo "product" "Maya 2012";
fileInfo "version" "2012 x64";
fileInfo "cutIdentifier" "001200000000-796618";
fileInfo "osv" "Microsoft Windows 7 Business Edition, 64-bit Windows 7 Service Pack 1 (Build 7601)\n";
createNode transform -s -n "persp";
	setAttr ".v" no;
	setAttr ".t" -type "double3" 3.6729853731472364 16.215539469415098 12.437413674980897 ;
	setAttr ".r" -type "double3" -48.338352729602462 15.399999999999926 -1.6495020448677428e-015 ;
createNode camera -s -n "perspShape" -p "persp";
	setAttr -k off ".v" no;
	setAttr ".fl" 34.999999999999993;
	setAttr ".coi" 20.733411097165007;
	setAttr ".imn" -type "string" "persp";
	setAttr ".den" -type "string" "persp_depth";
	setAttr ".man" -type "string" "persp_mask";
	setAttr ".hc" -type "string" "viewSet -p %camera";
createNode transform -s -n "top";
	setAttr ".v" no;
	setAttr ".t" -type "double3" 0 100.1 0 ;
	setAttr ".r" -type "double3" -89.999999999999986 0 0 ;
createNode camera -s -n "topShape" -p "top";
	setAttr -k off ".v" no;
	setAttr ".rnd" no;
	setAttr ".coi" 100.1;
	setAttr ".ow" 30;
	setAttr ".imn" -type "string" "top";
	setAttr ".den" -type "string" "top_depth";
	setAttr ".man" -type "string" "top_mask";
	setAttr ".hc" -type "string" "viewSet -t %camera";
	setAttr ".o" yes;
createNode transform -s -n "front";
	setAttr ".v" no;
	setAttr ".t" -type "double3" 0 0 100.1 ;
createNode camera -s -n "frontShape" -p "front";
	setAttr -k off ".v" no;
	setAttr ".rnd" no;
	setAttr ".coi" 100.1;
	setAttr ".ow" 30;
	setAttr ".imn" -type "string" "front";
	setAttr ".den" -type "string" "front_depth";
	setAttr ".man" -type "string" "front_mask";
	setAttr ".hc" -type "string" "viewSet -f %camera";
	setAttr ".o" yes;
createNode transform -s -n "side";
	setAttr ".v" no;
	setAttr ".t" -type "double3" 100.1 0 0 ;
	setAttr ".r" -type "double3" 0 89.999999999999986 0 ;
createNode camera -s -n "sideShape" -p "side";
	setAttr -k off ".v" no;
	setAttr ".rnd" no;
	setAttr ".coi" 100.1;
	setAttr ".ow" 30;
	setAttr ".imn" -type "string" "side";
	setAttr ".den" -type "string" "side_depth";
	setAttr ".man" -type "string" "side_mask";
	setAttr ".hc" -type "string" "viewSet -s %camera";
	setAttr ".o" yes;
createNode transform -n "Rig_Grp";
	addAttr -ci true -sn "assetID" -ln "assetID" -min -1 -at "long";
	addAttr -ci true -sn "assetType" -ln "assetType" -dt "string";
	addAttr -ci true -sn "assetSubType" -ln "assetSubType" -dt "string";
	addAttr -ci true -sn "assetName" -ln "assetName" -dt "string";
	addAttr -ci true -sn "assetShader" -ln "assetShader" -dt "string";
	addAttr -ci true -sn "proxies" -ln "proxies" -at "message";
	addAttr -ci true -sn "project" -ln "project" -dt "string";
	addAttr -ci true -sn "cache" -ln "cache" -min 0 -max 1 -at "bool";
	setAttr -k on ".assetType" -type "string" "{assetType}";
	setAttr -k on ".assetSubType" -type "string" "{assetSubType}";
	setAttr -k on ".assetName" -type "string" "{assetName}";
	setAttr -k on ".assetShader" -type "string" "{assetShaderPath}";
	setAttr -k on ".project";
	setAttr -k on ".cache";
createNode transform -n "SuperRoot_Grp" -p "Rig_Grp";
createNode transform -n "SuperRoot_Ctrl" -p "SuperRoot_Grp";
createNode nurbsCurve -n "SuperRoot_CtrlShape" -p "SuperRoot_Ctrl";
	setAttr -k off ".v";
	setAttr ".ove" yes;
	setAttr ".ovc" 17;
	setAttr ".cc" -type "nurbsCurve" 
		1 16 0 no 3
		17 0 1 2 3 4 5 6 7 8 9 10 11 12 13 14 15 16
		17
		0 0 4
		1 0 3
		-1 0 3
		0 0 4
		4 0 0
		3 0 -1
		3 0 1
		4 0 0
		0 0 -4
		-1 0 -3
		1 0 -3
		0 0 -4
		-4 0 0
		-3 0 1
		-3 0 -1
		-4 0 0
		0 0 4
		;
createNode transform -n "Root_Ctrl_Grp" -p "SuperRoot_Ctrl";
createNode transform -n "Root_Ctrl" -p "Root_Ctrl_Grp";
createNode nurbsCurve -n "Root_CtrlShape" -p "Root_Ctrl";
	setAttr -k off ".v";
	setAttr ".ove" yes;
	setAttr ".ovc" 17;
	setAttr ".cc" -type "nurbsCurve" 
		1 7 0 no 3
		8 0 1 2 3 4 5 6 7
		8
		-1 0 -2
		1 0 -2
		1 0 0
		2 0 0
		0 0 2
		-2 0 0
		-1 0 0
		-1 0 -2
		;
createNode transform -n "Anim_Ctrl_Grp" -p "Root_Ctrl";
createNode transform -n "Blocking_Ctrl_Grp" -p "Root_Ctrl";
createNode transform -n "Util_Grp" -p "SuperRoot_Grp";
	setAttr -l on -k off ".tx";
	setAttr -l on -k off ".ty";
	setAttr -l on -k off ".tz";
	setAttr -l on -k off ".rx";
	setAttr -l on -k off ".ry";
	setAttr -l on -k off ".rz";
	setAttr -l on -k off ".sx";
	setAttr -l on -k off ".sy";
	setAttr -l on -k off ".sz";
createNode transform -n "Anim_Util_Grp" -p "Util_Grp";
createNode transform -n "Joint_Grp" -p "Anim_Util_Grp";
	setAttr -l on -k off ".tx";
	setAttr -l on -k off ".ty";
	setAttr -l on -k off ".tz";
	setAttr -l on -k off ".rx";
	setAttr -l on -k off ".ry";
	setAttr -l on -k off ".rz";
	setAttr -l on -k off ".sx";
	setAttr -l on -k off ".sy";
	setAttr -l on -k off ".sz";
createNode transform -n "Curve_Grp" -p "Anim_Util_Grp";
	setAttr -l on -k off ".tx";
	setAttr -l on -k off ".ty";
	setAttr -l on -k off ".tz";
	setAttr -l on -k off ".rx";
	setAttr -l on -k off ".ry";
	setAttr -l on -k off ".rz";
	setAttr -l on -k off ".sx";
	setAttr -l on -k off ".sy";
	setAttr -l on -k off ".sz";
createNode transform -n "Surface_Grp" -p "Anim_Util_Grp";
	setAttr -l on -k off ".tx";
	setAttr -l on -k off ".ty";
	setAttr -l on -k off ".tz";
	setAttr -l on -k off ".rx";
	setAttr -l on -k off ".ry";
	setAttr -l on -k off ".rz";
	setAttr -l on -k off ".sx";
	setAttr -l on -k off ".sy";
	setAttr -l on -k off ".sz";
createNode transform -n "Locator_Grp" -p "Anim_Util_Grp";
	setAttr -l on -k off ".tx";
	setAttr -l on -k off ".ty";
	setAttr -l on -k off ".tz";
	setAttr -l on -k off ".rx";
	setAttr -l on -k off ".ry";
	setAttr -l on -k off ".rz";
	setAttr -l on -k off ".sx";
	setAttr -l on -k off ".sy";
	setAttr -l on -k off ".sz";
createNode transform -n "IkHandle_Grp" -p "Anim_Util_Grp";
	setAttr -l on -k off ".tx";
	setAttr -l on -k off ".ty";
	setAttr -l on -k off ".tz";
	setAttr -l on -k off ".rx";
	setAttr -l on -k off ".ry";
	setAttr -l on -k off ".rz";
	setAttr -l on -k off ".sx";
	setAttr -l on -k off ".sy";
	setAttr -l on -k off ".sz";
createNode transform -n "Cluster_Grp" -p "Anim_Util_Grp";
	setAttr -l on -k off ".tx";
	setAttr -l on -k off ".ty";
	setAttr -l on -k off ".tz";
	setAttr -l on -k off ".rx";
	setAttr -l on -k off ".ry";
	setAttr -l on -k off ".rz";
	setAttr -l on -k off ".sx";
	setAttr -l on -k off ".sy";
	setAttr -l on -k off ".sz";
createNode transform -n "Blocking_Util_Grp" -p "Util_Grp";
createNode transform -n "Joint_Grp" -p "Blocking_Util_Grp";
	setAttr -l on -k off ".tx";
	setAttr -l on -k off ".ty";
	setAttr -l on -k off ".tz";
	setAttr -l on -k off ".rx";
	setAttr -l on -k off ".ry";
	setAttr -l on -k off ".rz";
	setAttr -l on -k off ".sx";
	setAttr -l on -k off ".sy";
	setAttr -l on -k off ".sz";
createNode transform -n "Curve_Grp" -p "Blocking_Util_Grp";
	setAttr -l on -k off ".tx";
	setAttr -l on -k off ".ty";
	setAttr -l on -k off ".tz";
	setAttr -l on -k off ".rx";
	setAttr -l on -k off ".ry";
	setAttr -l on -k off ".rz";
	setAttr -l on -k off ".sx";
	setAttr -l on -k off ".sy";
	setAttr -l on -k off ".sz";
createNode transform -n "Surface_Grp" -p "Blocking_Util_Grp";
	setAttr -l on -k off ".tx";
	setAttr -l on -k off ".ty";
	setAttr -l on -k off ".tz";
	setAttr -l on -k off ".rx";
	setAttr -l on -k off ".ry";
	setAttr -l on -k off ".rz";
	setAttr -l on -k off ".sx";
	setAttr -l on -k off ".sy";
	setAttr -l on -k off ".sz";
createNode transform -n "Locator_Grp" -p "Blocking_Util_Grp";
	setAttr -l on -k off ".tx";
	setAttr -l on -k off ".ty";
	setAttr -l on -k off ".tz";
	setAttr -l on -k off ".rx";
	setAttr -l on -k off ".ry";
	setAttr -l on -k off ".rz";
	setAttr -l on -k off ".sx";
	setAttr -l on -k off ".sy";
	setAttr -l on -k off ".sz";
createNode transform -n "IkHandle_Grp" -p "Blocking_Util_Grp";
	setAttr -l on -k off ".tx";
	setAttr -l on -k off ".ty";
	setAttr -l on -k off ".tz";
	setAttr -l on -k off ".rx";
	setAttr -l on -k off ".ry";
	setAttr -l on -k off ".rz";
	setAttr -l on -k off ".sx";
	setAttr -l on -k off ".sy";
	setAttr -l on -k off ".sz";
createNode transform -n "Cluster_Grp" -p "Blocking_Util_Grp";
	setAttr -l on -k off ".tx";
	setAttr -l on -k off ".ty";
	setAttr -l on -k off ".tz";
	setAttr -l on -k off ".rx";
	setAttr -l on -k off ".ry";
	setAttr -l on -k off ".rz";
	setAttr -l on -k off ".sx";
	setAttr -l on -k off ".sy";
	setAttr -l on -k off ".sz";
createNode transform -n "Texture_Grp" -p "Rig_Grp";
	setAttr -l on -k off ".tx";
	setAttr -l on -k off ".ty";
	setAttr -l on -k off ".tz";
	setAttr -l on -k off ".rx";
	setAttr -l on -k off ".ry";
	setAttr -l on -k off ".rz";
	setAttr -l on -k off ".sx";
	setAttr -l on -k off ".sy";
	setAttr -l on -k off ".sz";
createNode transform -n "Light_Grp" -p "Rig_Grp";
	setAttr -l on -k off ".tx";
	setAttr -l on -k off ".ty";
	setAttr -l on -k off ".tz";
	setAttr -l on -k off ".rx";
	setAttr -l on -k off ".ry";
	setAttr -l on -k off ".rz";
	setAttr -l on -k off ".sx";
	setAttr -l on -k off ".sy";
	setAttr -l on -k off ".sz";
createNode transform -n "Geo_Grp" -p "Rig_Grp";
createNode transform -n "Proxy_Geo_Grp" -p "Geo_Grp";
createNode transform -n "Blocking_Geo_Grp" -p "Geo_Grp";
createNode transform -n "Anim_Geo_Grp" -p "Geo_Grp";
createNode lightLinker -s -n "lightLinker1";
	setAttr -s 2 ".lnk";
	setAttr -s 2 ".slnk";
createNode displayLayerManager -n "layerManager";
createNode displayLayer -n "defaultLayer";
createNode renderLayerManager -n "renderLayerManager";
createNode renderLayer -n "defaultRenderLayer";
	setAttr ".g" yes;
createNode script -n "sceneConfigurationScriptNode";
	setAttr ".b" -type "string" "playbackOptions -min 1 -max 24 -ast 1 -aet 48 ";
	setAttr ".st" 6;
createNode objectSet -n "Proxy_Set";
	addAttr -ci true -sn "proxies" -ln "proxies" -at "message";
	addAttr -ci true -sn "assignShader" -ln "assignShader" -dt "string";
	addAttr -ci true -sn "doMiLabel" -ln "doMiLabel" -min 0 -max 1 -at "bool";
	setAttr ".ihi" 0;
	setAttr -s 3 ".dsm";
	setAttr -k on ".assignShader" -type "string" "";
createNode objectSet -n "Anim_Set";
	addAttr -ci true -sn "proxies" -ln "proxies" -at "message";
	addAttr -ci true -sn "assignShader" -ln "assignShader" -dt "string";
	addAttr -ci true -sn "doMiLabel" -ln "doMiLabel" -min 0 -max 1 -at "bool";
	setAttr ".ihi" 0;
	setAttr -s 3 ".dsm";
	setAttr -k on ".assignShader" -type "string" "";
createNode objectSet -n "Render_Set";
	addAttr -ci true -sn "proxies" -ln "proxies" -at "message";
	addAttr -ci true -sn "assignShader" -ln "assignShader" -dt "string";
	addAttr -ci true -sn "doMiLabel" -ln "doMiLabel" -min 0 -max 1 -at "bool";
	setAttr ".ihi" 0;
	setAttr -k on ".assignShader";
	setAttr ".doMiLabel" yes;
createNode objectSet -n "Blocking_Set";
	addAttr -ci true -sn "proxies" -ln "proxies" -at "message";
	addAttr -ci true -sn "assignShader" -ln "assignShader" -dt "string";
	addAttr -ci true -sn "doMiLabel" -ln "doMiLabel" -min 0 -max 1 -at "bool";
	setAttr ".ihi" 0;
	setAttr -s 3 ".dsm";
	setAttr -k on ".assignShader";
select -ne :time1;
	setAttr -av -k on ".cch";
	setAttr -cb on ".ihi";
	setAttr -av -k on ".nds";
	setAttr -cb on ".bnm";
	setAttr -k on ".o" 1;
	setAttr -av ".unw" 1;
lockNode -l 1 ;
select -ne :renderPartition;
	setAttr -k on ".cch";
	setAttr -cb on ".ihi";
	setAttr -k on ".nds";
	setAttr -cb on ".bnm";
	setAttr -s 2 ".st";
	setAttr -cb on ".an";
	setAttr -cb on ".pt";
lockNode -l 1 ;
select -ne :initialShadingGroup;
	setAttr -av -k on ".cch";
	setAttr -cb on ".ihi";
	setAttr -av -k on ".nds";
	setAttr -cb on ".bnm";
	setAttr -k on ".mwc";
	setAttr -cb on ".an";
	setAttr -cb on ".il";
	setAttr -cb on ".vo";
	setAttr -cb on ".eo";
	setAttr -cb on ".fo";
	setAttr -cb on ".epo";
	setAttr -k on ".ro" yes;
	setAttr -cb on ".mimt";
	setAttr -cb on ".miop";
	setAttr -k on ".mico";
	setAttr -cb on ".mise";
	setAttr -cb on ".mism";
	setAttr -cb on ".mice";
	setAttr -av -cb on ".micc";
	setAttr -k on ".micr";
	setAttr -k on ".micg";
	setAttr -k on ".micb";
	setAttr -cb on ".mica";
	setAttr -av -cb on ".micw";
	setAttr -cb on ".mirw";
lockNode -l 1 ;
select -ne :initialParticleSE;
	setAttr -av -k on ".cch";
	setAttr -cb on ".ihi";
	setAttr -av -k on ".nds";
	setAttr -cb on ".bnm";
	setAttr -k on ".mwc";
	setAttr -cb on ".an";
	setAttr -cb on ".il";
	setAttr -cb on ".vo";
	setAttr -cb on ".eo";
	setAttr -cb on ".fo";
	setAttr -cb on ".epo";
	setAttr -k on ".ro" yes;
	setAttr -cb on ".mimt";
	setAttr -cb on ".miop";
	setAttr -k on ".mico";
	setAttr -cb on ".mise";
	setAttr -cb on ".mism";
	setAttr -cb on ".mice";
	setAttr -av -cb on ".micc";
	setAttr -k on ".micr";
	setAttr -k on ".micg";
	setAttr -k on ".micb";
	setAttr -cb on ".mica";
	setAttr -av -cb on ".micw";
	setAttr -cb on ".mirw";
lockNode -l 1 ;
select -ne :defaultShaderList1;
	setAttr -k on ".cch";
	setAttr -cb on ".ihi";
	setAttr -k on ".nds";
	setAttr -cb on ".bnm";
	setAttr -s 2 ".s";
lockNode -l 1 ;
select -ne :postProcessList1;
	setAttr -k on ".cch";
	setAttr -cb on ".ihi";
	setAttr -k on ".nds";
	setAttr -cb on ".bnm";
	setAttr -s 2 ".p";
lockNode -l 1 ;
select -ne :defaultRenderingList1;
select -ne :renderGlobalsList1;
	setAttr -k on ".cch";
	setAttr -cb on ".ihi";
	setAttr -k on ".nds";
	setAttr -cb on ".bnm";
lockNode -l 1 ;
select -ne :defaultLightSet;
	setAttr -k on ".cch";
	setAttr -k on ".ihi";
	setAttr -av -k on ".nds";
	setAttr -k on ".bnm";
	setAttr -k on ".mwc";
	setAttr -k on ".an";
	setAttr -k on ".il";
	setAttr -k on ".vo";
	setAttr -k on ".eo";
	setAttr -k on ".fo";
	setAttr -k on ".epo";
	setAttr -k on ".ro" yes;
lockNode -l 1 ;
select -ne :defaultObjectSet;
	setAttr -k on ".cch";
	setAttr -k on ".ihi";
	setAttr -k on ".nds";
	setAttr -k on ".bnm";
	setAttr -k on ".mwc";
	setAttr -k on ".an";
	setAttr -k on ".il";
	setAttr -k on ".vo";
	setAttr -k on ".eo";
	setAttr -k on ".fo";
	setAttr -k on ".epo";
	setAttr ".ro" yes;
lockNode -l 1 ;
select -ne :hardwareRenderGlobals;
	setAttr -k on ".cch";
	setAttr -cb on ".ihi";
	setAttr -k on ".nds";
	setAttr -cb on ".bnm";
	setAttr -k off ".ctrs" 256;
	setAttr -av -k off ".btrs" 512;
	setAttr -k off ".fbfm";
	setAttr -k off -cb on ".ehql";
	setAttr -k off -cb on ".eams";
	setAttr -k off -cb on ".eeaa";
	setAttr -k off -cb on ".engm";
	setAttr -k off -cb on ".mes";
	setAttr -k off -cb on ".emb";
	setAttr -av -k off -cb on ".mbbf";
	setAttr -k off -cb on ".mbs";
	setAttr -k off -cb on ".trm";
	setAttr -k off -cb on ".tshc";
	setAttr -k off ".enpt";
	setAttr -k off -cb on ".clmt";
	setAttr -k off -cb on ".tcov";
	setAttr -k off -cb on ".lith";
	setAttr -k off -cb on ".sobc";
	setAttr -k off -cb on ".cuth";
	setAttr -k off -cb on ".hgcd";
	setAttr -k off -cb on ".hgci";
	setAttr -k off -cb on ".mgcs";
	setAttr -k off -cb on ".twa";
	setAttr -k off -cb on ".twz";
	setAttr -k on ".hwcc";
	setAttr -k on ".hwdp";
	setAttr -k on ".hwql";
	setAttr -k on ".hwfr";
	setAttr -k on ".soll";
	setAttr -k on ".sosl";
	setAttr -k on ".bswa";
	setAttr -k on ".shml";
	setAttr -k on ".hwel";
lockNode -l 1 ;
select -ne :defaultHardwareRenderGlobals;
	setAttr -k on ".cch";
	setAttr -cb on ".ihi";
	setAttr -k on ".nds";
	setAttr -cb on ".bnm";
	setAttr -av -k on ".rp";
	setAttr -k on ".cai";
	setAttr -k on ".coi";
	setAttr -cb on ".bc";
	setAttr -av -k on ".bcr";
	setAttr -av -k on ".bcg";
	setAttr -av -k on ".bcb";
	setAttr -k on ".ei";
	setAttr -av -k on ".ex";
	setAttr -av -k on ".es";
	setAttr -av -k on ".ef";
	setAttr -av -k on ".bf";
	setAttr -k on ".fii";
	setAttr -av -k on ".sf";
	setAttr -k on ".gr";
	setAttr -k on ".li";
	setAttr -k on ".ls";
	setAttr -k on ".mb";
	setAttr -k on ".ti";
	setAttr -k on ".txt";
	setAttr -k on ".mpr";
	setAttr -k on ".wzd";
	setAttr -k on ".fn" -type "string" "im";
	setAttr -k on ".if";
	setAttr -k on ".res" -type "string" "ntsc_4d 646 485 1.333";
	setAttr -k on ".as";
	setAttr -k on ".ds";
	setAttr -k on ".lm";
	setAttr -av -k on ".fir";
	setAttr -k on ".aap";
	setAttr -av -k on ".gh";
	setAttr -cb on ".sd";
lockNode -l 1 ;
relationship "link" ":lightLinker1" ":initialShadingGroup.message" ":defaultLightSet.message";
relationship "link" ":lightLinker1" ":initialParticleSE.message" ":defaultLightSet.message";
relationship "shadowLink" ":lightLinker1" ":initialShadingGroup.message" ":defaultLightSet.message";
relationship "shadowLink" ":lightLinker1" ":initialParticleSE.message" ":defaultLightSet.message";
connectAttr "layerManager.dli[0]" "defaultLayer.id";
connectAttr "renderLayerManager.rlmi[0]" "defaultRenderLayer.rlid";
connectAttr "Anim_Ctrl_Grp.iog" "Proxy_Set.dsm" -na;
connectAttr "Anim_Util_Grp.iog" "Proxy_Set.dsm" -na;
connectAttr "Proxy_Geo_Grp.iog" "Proxy_Set.dsm" -na;
connectAttr "Rig_Grp.proxies" "Proxy_Set.proxies";
connectAttr "Anim_Ctrl_Grp.iog" "Anim_Set.dsm" -na;
connectAttr "Anim_Util_Grp.iog" "Anim_Set.dsm" -na;
connectAttr "Anim_Geo_Grp.iog" "Anim_Set.dsm" -na;
connectAttr "Rig_Grp.proxies" "Anim_Set.proxies";
connectAttr "Anim_Geo_Grp.iog" "Render_Set.dsm" -na;
connectAttr "Rig_Grp.proxies" "Render_Set.proxies";
connectAttr "Blocking_Ctrl_Grp.iog" "Blocking_Set.dsm" -na;
connectAttr "Blocking_Geo_Grp.iog" "Blocking_Set.dsm" -na;
connectAttr "Blocking_Util_Grp.iog" "Blocking_Set.dsm" -na;
connectAttr "Rig_Grp.proxies" "Blocking_Set.proxies";
connectAttr "defaultRenderLayer.msg" ":defaultRenderingList1.r" -na;
// End of TEMPLATE_rigGrp.ma
