//Maya ASCII 2015 scene
//Name: TEMPLATE_hiHeelLoc.ma
//Last modified: Tue, Mar 01, 2016 11:22:23 AM
//Codeset: 1252
requires maya "2015";
requires "Mayatomr" "2012.0m - 3.9.1.48 ";
currentUnit -l centimeter -a degree -t film;
fileInfo "application" "maya";
fileInfo "product" "Maya 2015";
fileInfo "version" "2015";
fileInfo "cutIdentifier" "201503261530-955654";
fileInfo "osv" "Microsoft Windows 8 Business Edition, 64-bit  (Build 9200)\n";
createNode transform -s -n "persp";
	setAttr ".v" no;
	setAttr ".t" -type "double3" -0.55061853262803595 4.6470515811914783 15.508584887021728 ;
	setAttr ".r" -type "double3" -17.138352729610617 -3.3999999999985264 -9.9567589887152127e-017 ;
createNode camera -s -n "perspShape" -p "persp";
	setAttr -k off ".v" no;
	setAttr ".fl" 34.999999999999993;
	setAttr ".coi" 15.786588622533461;
	setAttr ".imn" -type "string" "persp";
	setAttr ".den" -type "string" "persp_depth";
	setAttr ".man" -type "string" "persp_mask";
	setAttr ".tp" -type "double3" -1.1102230246251565e-016 -0.40250417846466752 0.35244799892171352 ;
	setAttr ".hc" -type "string" "viewSet -p %camera";
createNode transform -s -n "top";
	setAttr ".v" no;
	setAttr ".t" -type "double3" 0 100.1 0 ;
	setAttr ".r" -type "double3" -89.999999999999986 0 0 ;
createNode camera -s -n "topShape" -p "top";
	setAttr -k off ".v" no;
	setAttr ".rnd" no;
	setAttr ".coi" 100.1;
	setAttr ".ow" 30;
	setAttr ".imn" -type "string" "top";
	setAttr ".den" -type "string" "top_depth";
	setAttr ".man" -type "string" "top_mask";
	setAttr ".hc" -type "string" "viewSet -t %camera";
	setAttr ".o" yes;
createNode transform -s -n "front";
	setAttr ".v" no;
	setAttr ".t" -type "double3" 0 0 100.1 ;
createNode camera -s -n "frontShape" -p "front";
	setAttr -k off ".v" no;
	setAttr ".rnd" no;
	setAttr ".coi" 100.1;
	setAttr ".ow" 30;
	setAttr ".imn" -type "string" "front";
	setAttr ".den" -type "string" "front_depth";
	setAttr ".man" -type "string" "front_mask";
	setAttr ".hc" -type "string" "viewSet -f %camera";
	setAttr ".o" yes;
createNode transform -s -n "side";
	setAttr ".v" no;
	setAttr ".t" -type "double3" 100.1 0 0 ;
	setAttr ".r" -type "double3" 0 89.999999999999986 0 ;
createNode camera -s -n "sideShape" -p "side";
	setAttr -k off ".v" no;
	setAttr ".rnd" no;
	setAttr ".coi" 100.1;
	setAttr ".ow" 30;
	setAttr ".imn" -type "string" "side";
	setAttr ".den" -type "string" "side_depth";
	setAttr ".man" -type "string" "side_mask";
	setAttr ".hc" -type "string" "viewSet -s %camera";
	setAttr ".o" yes;
createNode transform -n "hiHeelLoc_grp";
createNode transform -n "ballLFT_loc" -p "hiHeelLoc_grp";
	setAttr -l on -k off ".v";
	setAttr ".ove" yes;
	setAttr ".ovc" 7;
	setAttr ".t" -type "double3" 0.50903734710215209 0 0.36419345971875783 ;
	setAttr -l on -k off ".rx";
	setAttr -l on -k off ".ry";
	setAttr -l on -k off ".rz";
	setAttr -l on -k off ".sx";
	setAttr -l on -k off ".sy";
	setAttr -l on -k off ".sz";
createNode locator -n "ballLFT_locShape" -p "ballLFT_loc";
	setAttr -k off ".v";
	setAttr ".ove" yes;
	setAttr ".ovc" 6;
	setAttr ".los" -type "double3" 0.05 0.05 0.05 ;
createNode transform -n "annotationLocator5" -p "ballLFT_loc";
	setAttr -l on -k off ".v";
	setAttr -l on -k off ".tx";
	setAttr -l on -k off ".ty";
	setAttr -l on -k off ".tz";
	setAttr -l on -k off ".rx";
	setAttr -l on -k off ".ry";
	setAttr -l on -k off ".rz";
	setAttr -l on -k off ".sx";
	setAttr -l on -k off ".sy";
	setAttr -l on -k off ".sz";
createNode locator -n "annotationLocator5Shape" -p "annotationLocator5";
	setAttr -k off ".v" no;
	setAttr ".tmp" yes;
createNode transform -n "annotation1" -p "annotationLocator5";
createNode annotationShape -n "annotationShape1" -p "|hiHeelLoc_grp|ballLFT_loc|annotationLocator5|annotation1";
	setAttr -k off ".v";
	setAttr ".tmp" yes;
	setAttr ".ove" yes;
	setAttr ".ovc" 22;
	setAttr ".txt" -type "string" "ball";
	setAttr ".dom[0]" -type "matrix" 1 0 0 0 0 1 0 0 0 0 1 0 0.50903734710215198 0 1.0936877792182989 1;
	setAttr ".daro" no;
createNode transform -n "toeLFT_loc" -p "hiHeelLoc_grp";
	setAttr -l on -k off ".v";
	setAttr ".ove" yes;
	setAttr ".ovc" 7;
	setAttr ".t" -type "double3" 0.50903734710215198 0 1.0936877792182989 ;
	setAttr -l on -k off ".rx";
	setAttr -l on -k off ".ry";
	setAttr -l on -k off ".rz";
	setAttr -l on -k off ".sx";
	setAttr -l on -k off ".sy";
	setAttr -l on -k off ".sz";
createNode locator -n "toeLFT_locShape" -p "toeLFT_loc";
	setAttr -k off ".v";
	setAttr ".ove" yes;
	setAttr ".ovc" 6;
	setAttr ".los" -type "double3" 0.05 0.05 0.05 ;
createNode transform -n "annotationLocator1" -p "toeLFT_loc";
	setAttr -l on -k off ".v";
	setAttr -l on -k off ".tx";
	setAttr -l on -k off ".ty";
	setAttr -l on -k off ".tz";
	setAttr -l on -k off ".rx";
	setAttr -l on -k off ".ry";
	setAttr -l on -k off ".rz";
	setAttr -l on -k off ".sx";
	setAttr -l on -k off ".sy";
	setAttr -l on -k off ".sz";
createNode locator -n "annotationLocator1Shape" -p "annotationLocator1";
	setAttr -k off ".v" no;
	setAttr ".tmp" yes;
createNode transform -n "annotation1" -p "annotationLocator1";
createNode annotationShape -n "annotationShape1" -p "|hiHeelLoc_grp|toeLFT_loc|annotationLocator1|annotation1";
	setAttr -k off ".v";
	setAttr ".tmp" yes;
	setAttr ".ove" yes;
	setAttr ".ovc" 22;
	setAttr ".txt" -type "string" "toe";
	setAttr ".daro" no;
createNode transform -n "footInLFT_loc" -p "hiHeelLoc_grp";
	setAttr -l on -k off ".v";
	setAttr ".ove" yes;
	setAttr ".ovc" 7;
	setAttr ".t" -type "double3" 0.23321446672685386 0 0.36419345971875783 ;
	setAttr -l on -k off ".rx";
	setAttr -l on -k off ".ry";
	setAttr -l on -k off ".rz";
	setAttr -l on -k off ".sx";
	setAttr -l on -k off ".sy";
	setAttr -l on -k off ".sz";
createNode locator -n "footInLFT_locShape" -p "footInLFT_loc";
	setAttr -k off ".v";
	setAttr ".ove" yes;
	setAttr ".ovc" 6;
	setAttr ".los" -type "double3" 0.05 0.05 0.05 ;
createNode transform -n "annotationLocator2" -p "footInLFT_loc";
	setAttr -l on -k off ".v";
	setAttr -l on -k off ".tx";
	setAttr -l on -k off ".ty";
	setAttr -l on -k off ".tz";
	setAttr -l on -k off ".rx";
	setAttr -l on -k off ".ry";
	setAttr -l on -k off ".rz";
	setAttr -l on -k off ".sx";
	setAttr -l on -k off ".sy";
	setAttr -l on -k off ".sz";
createNode locator -n "annotationLocator2Shape" -p "annotationLocator2";
	setAttr -k off ".v" no;
	setAttr ".tmp" yes;
createNode transform -n "annotation1" -p "annotationLocator2";
createNode annotationShape -n "annotationShape1" -p "|hiHeelLoc_grp|footInLFT_loc|annotationLocator2|annotation1";
	setAttr -k off ".v";
	setAttr ".tmp" yes;
	setAttr ".ove" yes;
	setAttr ".ovc" 22;
	setAttr ".txt" -type "string" "footIn";
	setAttr ".dom[0]" -type "matrix" 1 0 0 0 0 1 0 0 0 0 1 0 0.50903734710215198 0 1.0936877792182989 1;
	setAttr ".daro" no;
createNode transform -n "footOutLFT_loc" -p "hiHeelLoc_grp";
	setAttr -l on -k off ".v";
	setAttr ".ove" yes;
	setAttr ".ovc" 7;
	setAttr ".t" -type "double3" 0.79487661438455337 0 0.36419345971875783 ;
	setAttr -l on -k off ".rx";
	setAttr -l on -k off ".ry";
	setAttr -l on -k off ".rz";
	setAttr -l on -k off ".sx";
	setAttr -l on -k off ".sy";
	setAttr -l on -k off ".sz";
createNode locator -n "footOutLFT_locShape" -p "footOutLFT_loc";
	setAttr -k off ".v";
	setAttr ".ove" yes;
	setAttr ".ovc" 6;
	setAttr ".los" -type "double3" 0.05 0.05 0.05 ;
createNode transform -n "annotationLocator3" -p "footOutLFT_loc";
	setAttr -l on -k off ".v";
	setAttr -l on -k off ".tx";
	setAttr -l on -k off ".ty";
	setAttr -l on -k off ".tz";
	setAttr -l on -k off ".rx";
	setAttr -l on -k off ".ry";
	setAttr -l on -k off ".rz";
	setAttr -l on -k off ".sx";
	setAttr -l on -k off ".sy";
	setAttr -l on -k off ".sz";
createNode locator -n "annotationLocator3Shape" -p "annotationLocator3";
	setAttr -k off ".v" no;
	setAttr ".tmp" yes;
createNode transform -n "annotation1" -p "annotationLocator3";
createNode annotationShape -n "annotationShape1" -p "|hiHeelLoc_grp|footOutLFT_loc|annotationLocator3|annotation1";
	setAttr -k off ".v";
	setAttr ".tmp" yes;
	setAttr ".ove" yes;
	setAttr ".ovc" 22;
	setAttr ".txt" -type "string" "footOut";
	setAttr ".dom[0]" -type "matrix" 1 0 0 0 0 1 0 0 0 0 1 0 0.50903734710215198 0 1.0936877792182989 1;
	setAttr ".daro" no;
createNode transform -n "heelLFT_loc" -p "hiHeelLoc_grp";
	setAttr -l on -k off ".v";
	setAttr ".ove" yes;
	setAttr ".ovc" 7;
	setAttr ".t" -type "double3" 0.50903734710215187 0 -0.38879178137487136 ;
	setAttr -l on -k off ".rx";
	setAttr -l on -k off ".ry";
	setAttr -l on -k off ".rz";
	setAttr -l on -k off ".sx";
	setAttr -l on -k off ".sy";
	setAttr -l on -k off ".sz";
createNode locator -n "heelLFT_locShape" -p "heelLFT_loc";
	setAttr -k off ".v";
	setAttr ".ove" yes;
	setAttr ".ovc" 6;
	setAttr ".los" -type "double3" 0.05 0.05 0.05 ;
createNode transform -n "annotationLocator4" -p "heelLFT_loc";
	setAttr -l on -k off ".v";
	setAttr -l on -k off ".tx";
	setAttr -l on -k off ".ty";
	setAttr -l on -k off ".tz";
	setAttr -l on -k off ".rx";
	setAttr -l on -k off ".ry";
	setAttr -l on -k off ".rz";
	setAttr -l on -k off ".sx";
	setAttr -l on -k off ".sy";
	setAttr -l on -k off ".sz";
createNode locator -n "annotationLocator4Shape" -p "annotationLocator4";
	setAttr -k off ".v" no;
	setAttr ".tmp" yes;
createNode transform -n "annotation1" -p "annotationLocator4";
createNode annotationShape -n "annotationShape1" -p "|hiHeelLoc_grp|heelLFT_loc|annotationLocator4|annotation1";
	setAttr -k off ".v";
	setAttr ".tmp" yes;
	setAttr ".ove" yes;
	setAttr ".ovc" 22;
	setAttr ".txt" -type "string" "heel";
	setAttr ".dom[0]" -type "matrix" 1 0 0 0 0 1 0 0 0 0 1 0 0.50903734710215198 0 1.0936877792182989 1;
	setAttr ".daro" no;
createNode transform -n "ballRGT_loc" -p "hiHeelLoc_grp";
	setAttr -l on -k off ".v";
	setAttr -k off ".tx";
	setAttr -k off ".ty";
	setAttr -k off ".tz";
	setAttr -l on -k off ".rx";
	setAttr -l on -k off ".ry";
	setAttr -l on -k off ".rz";
	setAttr ".s" -type "double3" 1 1 -1 ;
	setAttr -l on -k off ".sx";
	setAttr -l on -k off ".sy";
	setAttr -l on -k off ".sz";
createNode locator -n "ballRGT_locShape" -p "ballRGT_loc";
	setAttr -k off ".v";
	setAttr ".ove" yes;
	setAttr ".ovc" 15;
	setAttr ".los" -type "double3" 0.05 0.05 0.05 ;
createNode transform -n "toeRGT_loc" -p "hiHeelLoc_grp";
	setAttr -l on -k off ".v";
	setAttr -k off ".tx";
	setAttr -k off ".ty";
	setAttr -k off ".tz";
	setAttr -l on -k off ".rx";
	setAttr -l on -k off ".ry";
	setAttr -l on -k off ".rz";
	setAttr ".s" -type "double3" 1 1 -1 ;
	setAttr -l on -k off ".sx";
	setAttr -l on -k off ".sy";
	setAttr -l on -k off ".sz";
createNode locator -n "toeRGT_locShape" -p "toeRGT_loc";
	setAttr -k off ".v";
	setAttr ".ove" yes;
	setAttr ".ovc" 15;
	setAttr ".los" -type "double3" 0.05 0.05 0.05 ;
createNode transform -n "footInRGT_loc" -p "hiHeelLoc_grp";
	setAttr -l on -k off ".v";
	setAttr -k off ".tx";
	setAttr -k off ".ty";
	setAttr -k off ".tz";
	setAttr -l on -k off ".rx";
	setAttr -l on -k off ".ry";
	setAttr -l on -k off ".rz";
	setAttr ".s" -type "double3" 1 1 -1 ;
	setAttr -l on -k off ".sx";
	setAttr -l on -k off ".sy";
	setAttr -l on -k off ".sz";
createNode locator -n "footInRGT_locShape" -p "footInRGT_loc";
	setAttr -k off ".v";
	setAttr ".ove" yes;
	setAttr ".ovc" 15;
	setAttr ".los" -type "double3" 0.05 0.05 0.05 ;
createNode transform -n "footOutRGT_loc" -p "hiHeelLoc_grp";
	setAttr -l on -k off ".v";
	setAttr -k off ".tx";
	setAttr -k off ".ty";
	setAttr -k off ".tz";
	setAttr -l on -k off ".rx";
	setAttr -l on -k off ".ry";
	setAttr -l on -k off ".rz";
	setAttr ".s" -type "double3" 1 1 -1 ;
	setAttr -l on -k off ".sx";
	setAttr -l on -k off ".sy";
	setAttr -l on -k off ".sz";
createNode locator -n "footOutRGT_locShape" -p "footOutRGT_loc";
	setAttr -k off ".v";
	setAttr ".ove" yes;
	setAttr ".ovc" 15;
	setAttr ".los" -type "double3" 0.05 0.05 0.05 ;
createNode transform -n "heelRGT_loc" -p "hiHeelLoc_grp";
	setAttr -l on -k off ".v";
	setAttr -k off ".tx";
	setAttr -k off ".ty";
	setAttr -k off ".tz";
	setAttr -l on -k off ".rx";
	setAttr -l on -k off ".ry";
	setAttr -l on -k off ".rz";
	setAttr ".s" -type "double3" 1 1.0000000000000002 -1.0000000000000002 ;
	setAttr -l on -k off ".sx";
	setAttr -l on -k off ".sy";
	setAttr -l on -k off ".sz";
createNode locator -n "heelRGT_locShape" -p "heelRGT_loc";
	setAttr -k off ".v";
	setAttr ".ove" yes;
	setAttr ".ovc" 15;
	setAttr ".los" -type "double3" 0.05 0.05 0.05 ;
createNode lightLinker -s -n "lightLinker1";
	setAttr -s 2 ".lnk";
	setAttr -s 2 ".slnk";
createNode displayLayerManager -n "layerManager";
createNode displayLayer -n "defaultLayer";
createNode renderLayerManager -n "renderLayerManager";
createNode renderLayer -n "defaultRenderLayer";
	setAttr ".g" yes;
createNode expression -n "hiHeelLoc_exp";
	setAttr -k on ".nds";
	setAttr -s 15 ".in";
	setAttr -s 15 ".in";
	setAttr -s 15 ".out";
	setAttr ".ixp" -type "string" ".O[0] = .I[0]*-1;\n.O[1] = .I[1];\n.O[2] = .I[2];\n\n.O[3] = .I[3]*-1;\n.O[4] = .I[4];\n.O[5] = .I[5];\n\n.O[6] = .I[6]*-1;\n.O[7] = .I[7];\n.O[8] = .I[8];\n\n.O[9] = .I[9]*-1;\n.O[10] = .I[10];\n.O[11] = .I[11];\n\n.O[12] = .I[12]*-1;\n.O[13] = .I[13];\n.O[14] = .I[14];";
createNode script -n "sceneConfigurationScriptNode";
	setAttr ".b" -type "string" "playbackOptions -min 1 -max 120 -ast 1 -aet 200 ";
	setAttr ".st" 6;
select -ne :time1;
	setAttr -av -k on ".cch";
	setAttr -cb on ".ihi";
	setAttr -av -k on ".nds";
	setAttr -cb on ".bnm";
	setAttr -k on ".o" 1;
	setAttr -av ".unw" 1;
select -ne :renderPartition;
	setAttr -k on ".cch";
	setAttr -cb on ".ihi";
	setAttr -k on ".nds";
	setAttr -cb on ".bnm";
	setAttr -s 2 ".st";
	setAttr -cb on ".an";
	setAttr -cb on ".pt";
select -ne :renderGlobalsList1;
	setAttr -k on ".cch";
	setAttr -cb on ".ihi";
	setAttr -k on ".nds";
	setAttr -cb on ".bnm";
select -ne :defaultShaderList1;
	setAttr -k on ".cch";
	setAttr -cb on ".ihi";
	setAttr -k on ".nds";
	setAttr -cb on ".bnm";
	setAttr -s 2 ".s";
select -ne :postProcessList1;
	setAttr -k on ".cch";
	setAttr -cb on ".ihi";
	setAttr -k on ".nds";
	setAttr -cb on ".bnm";
	setAttr -s 2 ".p";
select -ne :defaultRenderingList1;
	setAttr -k on ".ihi";
select -ne :initialShadingGroup;
	setAttr -av -k on ".cch";
	setAttr -cb on ".ihi";
	setAttr -av -k on ".nds";
	setAttr -cb on ".bnm";
	setAttr -k on ".mwc";
	setAttr -cb on ".an";
	setAttr -cb on ".il";
	setAttr -cb on ".vo";
	setAttr -cb on ".eo";
	setAttr -cb on ".fo";
	setAttr -cb on ".epo";
	setAttr -k on ".ro" yes;
select -ne :initialParticleSE;
	setAttr -av -k on ".cch";
	setAttr -cb on ".ihi";
	setAttr -av -k on ".nds";
	setAttr -cb on ".bnm";
	setAttr -k on ".mwc";
	setAttr -cb on ".an";
	setAttr -cb on ".il";
	setAttr -cb on ".vo";
	setAttr -cb on ".eo";
	setAttr -cb on ".fo";
	setAttr -cb on ".epo";
	setAttr -k on ".ro" yes;
select -ne :defaultResolution;
	setAttr -av -k on ".cch";
	setAttr -k on ".ihi";
	setAttr -av -k on ".nds";
	setAttr -k on ".bnm";
	setAttr -av -k on ".w";
	setAttr -av -k on ".h";
	setAttr -av -k on ".pa" 1;
	setAttr -av -k on ".al";
	setAttr -av -k on ".dar";
	setAttr -av -k on ".ldar";
	setAttr -k on ".dpi";
	setAttr -av -k on ".off";
	setAttr -av -k on ".fld";
	setAttr -av -k on ".zsl";
	setAttr -k on ".isu";
	setAttr -k on ".pdu";
select -ne :hardwareRenderGlobals;
	setAttr -k on ".cch";
	setAttr -cb on ".ihi";
	setAttr -k on ".nds";
	setAttr -cb on ".bnm";
	setAttr -k off -cb on ".ctrs" 256;
	setAttr -av -k off -cb on ".btrs" 512;
	setAttr -k off -cb on ".fbfm";
	setAttr -k off -cb on ".ehql";
	setAttr -k off -cb on ".eams";
	setAttr -k off -cb on ".eeaa";
	setAttr -k off -cb on ".engm";
	setAttr -k off -cb on ".mes";
	setAttr -k off -cb on ".emb";
	setAttr -av -k off -cb on ".mbbf";
	setAttr -k off -cb on ".mbs";
	setAttr -k off -cb on ".trm";
	setAttr -k off -cb on ".tshc";
	setAttr -k off -cb on ".enpt";
	setAttr -k off -cb on ".clmt";
	setAttr -k off -cb on ".tcov";
	setAttr -k off -cb on ".lith";
	setAttr -k off -cb on ".sobc";
	setAttr -k off -cb on ".cuth";
	setAttr -k off -cb on ".hgcd";
	setAttr -k off -cb on ".hgci";
	setAttr -k off -cb on ".mgcs";
	setAttr -k off -cb on ".twa";
	setAttr -k off -cb on ".twz";
	setAttr -k on ".hwcc";
	setAttr -k on ".hwdp";
	setAttr -k on ".hwql";
	setAttr -k on ".hwfr";
	setAttr -k on ".soll";
	setAttr -k on ".sosl";
	setAttr -k on ".bswa";
	setAttr -k on ".shml";
	setAttr -k on ".hwel";
select -ne :hardwareRenderingGlobals;
	setAttr ".otfna" -type "stringArray" 22 "NURBS Curves" "NURBS Surfaces" "Polygons" "Subdiv Surface" "Particles" "Particle Instance" "Fluids" "Strokes" "Image Planes" "UI" "Lights" "Cameras" "Locators" "Joints" "IK Handles" "Deformers" "Motion Trails" "Components" "Hair Systems" "Follicles" "Misc. UI" "Ornaments"  ;
	setAttr ".otfva" -type "Int32Array" 22 0 1 1 1 1 1
		 1 1 1 0 0 0 0 0 0 0 0 0
		 0 0 0 0 ;
select -ne :defaultHardwareRenderGlobals;
	setAttr -k on ".cch";
	setAttr -cb on ".ihi";
	setAttr -k on ".nds";
	setAttr -cb on ".bnm";
	setAttr -av -k on ".rp";
	setAttr -k on ".cai";
	setAttr -k on ".coi";
	setAttr -cb on ".bc";
	setAttr -av -k on ".bcr";
	setAttr -av -k on ".bcg";
	setAttr -av -k on ".bcb";
	setAttr -k on ".ei";
	setAttr -av -k on ".ex";
	setAttr -av -k on ".es";
	setAttr -av -k on ".ef";
	setAttr -av -k on ".bf";
	setAttr -k on ".fii";
	setAttr -av -k on ".sf";
	setAttr -k on ".gr";
	setAttr -k on ".li";
	setAttr -k on ".ls";
	setAttr -av -k on ".mb";
	setAttr -k on ".ti";
	setAttr -k on ".txt";
	setAttr -k on ".mpr";
	setAttr -k on ".wzd";
	setAttr -k on ".fn";
	setAttr -k on ".if";
	setAttr -k on ".res" -type "string" "ntsc_4d 646 485 1.333";
	setAttr -k on ".as";
	setAttr -k on ".ds";
	setAttr -k on ".lm";
	setAttr -av -k on ".fir";
	setAttr -k on ".aap";
	setAttr -av -k on ".gh";
	setAttr -cb on ".sd";
connectAttr "annotationLocator1Shape.wm" "|hiHeelLoc_grp|toeLFT_loc|annotationLocator1|annotation1|annotationShape1.dom"
		 -na;
connectAttr "hiHeelLoc_exp.out[0]" "ballRGT_loc.tx" -l on;
connectAttr "hiHeelLoc_exp.out[1]" "ballRGT_loc.ty" -l on;
connectAttr "hiHeelLoc_exp.out[2]" "ballRGT_loc.tz" -l on;
connectAttr "hiHeelLoc_exp.out[3]" "toeRGT_loc.tx" -l on;
connectAttr "hiHeelLoc_exp.out[4]" "toeRGT_loc.ty" -l on;
connectAttr "hiHeelLoc_exp.out[5]" "toeRGT_loc.tz" -l on;
connectAttr "hiHeelLoc_exp.out[6]" "footInRGT_loc.tx" -l on;
connectAttr "hiHeelLoc_exp.out[7]" "footInRGT_loc.ty" -l on;
connectAttr "hiHeelLoc_exp.out[8]" "footInRGT_loc.tz" -l on;
connectAttr "hiHeelLoc_exp.out[9]" "footOutRGT_loc.tx" -l on;
connectAttr "hiHeelLoc_exp.out[10]" "footOutRGT_loc.ty" -l on;
connectAttr "hiHeelLoc_exp.out[11]" "footOutRGT_loc.tz" -l on;
connectAttr "hiHeelLoc_exp.out[12]" "heelRGT_loc.tx" -l on;
connectAttr "hiHeelLoc_exp.out[13]" "heelRGT_loc.ty" -l on;
connectAttr "hiHeelLoc_exp.out[14]" "heelRGT_loc.tz" -l on;
relationship "link" ":lightLinker1" ":initialShadingGroup.message" ":defaultLightSet.message";
relationship "link" ":lightLinker1" ":initialParticleSE.message" ":defaultLightSet.message";
relationship "shadowLink" ":lightLinker1" ":initialShadingGroup.message" ":defaultLightSet.message";
relationship "shadowLink" ":lightLinker1" ":initialParticleSE.message" ":defaultLightSet.message";
connectAttr "layerManager.dli[0]" "defaultLayer.id";
connectAttr "renderLayerManager.rlmi[0]" "defaultRenderLayer.rlid";
connectAttr "ballLFT_loc.tx" "hiHeelLoc_exp.in[0]";
connectAttr "ballLFT_loc.ty" "hiHeelLoc_exp.in[1]";
connectAttr "ballLFT_loc.tz" "hiHeelLoc_exp.in[2]";
connectAttr "toeLFT_loc.tx" "hiHeelLoc_exp.in[3]";
connectAttr "toeLFT_loc.ty" "hiHeelLoc_exp.in[4]";
connectAttr "toeLFT_loc.tz" "hiHeelLoc_exp.in[5]";
connectAttr "footInLFT_loc.tx" "hiHeelLoc_exp.in[6]";
connectAttr "footInLFT_loc.ty" "hiHeelLoc_exp.in[7]";
connectAttr "footInLFT_loc.tz" "hiHeelLoc_exp.in[8]";
connectAttr "footOutLFT_loc.tx" "hiHeelLoc_exp.in[9]";
connectAttr "footOutLFT_loc.ty" "hiHeelLoc_exp.in[10]";
connectAttr "footOutLFT_loc.tz" "hiHeelLoc_exp.in[11]";
connectAttr "heelLFT_loc.tx" "hiHeelLoc_exp.in[12]";
connectAttr "heelLFT_loc.ty" "hiHeelLoc_exp.in[13]";
connectAttr "heelLFT_loc.tz" "hiHeelLoc_exp.in[14]";
connectAttr ":time1.o" "hiHeelLoc_exp.tim";
connectAttr "defaultRenderLayer.msg" ":defaultRenderingList1.r" -na;
// End of TEMPLATE_hiHeelLoc.ma
