//Maya ASCII 2015 scene
//Name: TEMPLATE_faceDtlLoc_frd.ma
//Last modified: Fri, May 27, 2016 06:23:10 PM
//Codeset: 1252
requires maya "2015";
requires "pfOptions.py" "1.0";
requires "mtoa" "0.25.2";
requires "PO_Reader_v2012_64" "1.0";
requires "Mayatomr" "2012.0m - 3.9.1.48 ";
currentUnit -l centimeter -a degree -t film;
fileInfo "application" "maya";
fileInfo "product" "Maya 2015";
fileInfo "version" "2015";
fileInfo "cutIdentifier" "201503261530-955654";
fileInfo "osv" "Microsoft Windows 8 Business Edition, 64-bit  (Build 9200)\n";
createNode transform -n "faceDtlTmpLoc_grp";
createNode transform -n "eb_grp" -p "faceDtlTmpLoc_grp";
	setAttr ".t" -type "double3" 0 14.247878074645996 1.0363650321960449 ;
createNode locator -n "eb_grpShape" -p "eb_grp";
	setAttr -k off ".v";
	setAttr ".los" -type "double3" 0.025 0.025 0.025 ;
createNode transform -n "upperLip_grp" -p "faceDtlTmpLoc_grp";
	setAttr ".t" -type "double3" 0 13.318816184997559 0.95758998394012451 ;
createNode locator -n "upperLip_grpShape" -p "upperLip_grp";
	setAttr -k off ".v";
	setAttr ".los" -type "double3" 0.0125 0.0125 0.0125 ;
createNode transform -n "gulping_grp" -p "faceDtlTmpLoc_grp";
	setAttr ".t" -type "double3" 0 12.857480606786829 0.25258079682747892 ;
createNode locator -n "gulping_grpShape" -p "gulping_grp";
	setAttr -k off ".v";
	setAttr ".los" -type "double3" 0.025 0.025 0.025 ;
createNode transform -n "eb1LFT_grp" -p "faceDtlTmpLoc_grp";
	setAttr ".t" -type "double3" 0.072930058355470923 14.243773913063796 1.0232605227530509 ;
createNode locator -n "eb1LFT_grpShape" -p "eb1LFT_grp";
	setAttr -k off ".v";
	setAttr ".los" -type "double3" 0.025 0.025 0.025 ;
createNode transform -n "eb2LFT_grp" -p "faceDtlTmpLoc_grp";
	setAttr ".t" -type "double3" 0.16966961674635864 14.295285103810491 1.0098250578761281 ;
createNode locator -n "eb2LFT_grpShape" -p "eb2LFT_grp";
	setAttr -k off ".v";
	setAttr ".los" -type "double3" 0.025 0.025 0.025 ;
createNode transform -n "eb3LFT_grp" -p "faceDtlTmpLoc_grp";
	setAttr ".t" -type "double3" 0.2665970996803147 14.316395385754412 0.98136311367750417 ;
createNode locator -n "eb3LFT_grpShape" -p "eb3LFT_grp";
	setAttr -k off ".v";
	setAttr ".los" -type "double3" 0.025 0.025 0.025 ;
createNode transform -n "eb4LFT_grp" -p "faceDtlTmpLoc_grp";
	setAttr ".t" -type "double3" 0.48347790289467762 14.350664266600795 0.84535361316940894 ;
createNode locator -n "eb4LFT_grpShape" -p "eb4LFT_grp";
	setAttr -k off ".v";
	setAttr ".los" -type "double3" 0.025 0.025 0.025 ;
createNode transform -n "eb5LFT_grp" -p "faceDtlTmpLoc_grp";
	setAttr ".t" -type "double3" 0.6797616032068492 14.278701564698302 0.5650313078951934 ;
createNode locator -n "eb5LFT_grpShape" -p "eb5LFT_grp";
	setAttr -k off ".v";
	setAttr ".los" -type "double3" 0.025 0.025 0.025 ;
createNode transform -n "upperEyeLFT_grp" -p "faceDtlTmpLoc_grp";
	setAttr ".t" -type "double3" 0.18968461453914642 14.205217361450195 0.92650735378265381 ;
createNode locator -n "upperEyeLFT_grpShape" -p "upperEyeLFT_grp";
	setAttr -k off ".v";
	setAttr ".los" -type "double3" 0.025 0.025 0.025 ;
createNode transform -n "innerLidLFT_grp" -p "faceDtlTmpLoc_grp";
	setAttr ".t" -type "double3" 0.18015721170186247 14.044791107222762 0.83345904705210616 ;
createNode locator -n "innerLidLFT_grpShape" -p "innerLidLFT_grp";
	setAttr -k off ".v";
	setAttr ".los" -type "double3" 0.025 0.025 0.025 ;
createNode transform -n "upperLid1LFT_grp" -p "faceDtlTmpLoc_grp";
	setAttr ".t" -type "double3" 0.23843452334403992 14.138381958007813 0.86330336332321167 ;
createNode locator -n "upperLid1LFT_grpShape" -p "upperLid1LFT_grp";
	setAttr -k off ".v";
	setAttr ".los" -type "double3" 0.025 0.025 0.025 ;
createNode transform -n "upperLid2LFT_grp" -p "faceDtlTmpLoc_grp";
	setAttr ".t" -type "double3" 0.35677015781402588 14.179832458496094 0.87369805574417114 ;
createNode locator -n "upperLid2LFT_grpShape" -p "upperLid2LFT_grp";
	setAttr -k off ".v";
	setAttr ".los" -type "double3" 0.025 0.025 0.025 ;
createNode transform -n "upperLid3LFT_grp" -p "faceDtlTmpLoc_grp";
	setAttr ".t" -type "double3" 0.48657217621803284 14.142724990844727 0.80528765916824341 ;
createNode locator -n "upperLid3LFT_grpShape" -p "upperLid3LFT_grp";
	setAttr -k off ".v";
	setAttr ".los" -type "double3" 0.025 0.025 0.025 ;
createNode transform -n "outerLidLFT_grp" -p "faceDtlTmpLoc_grp";
	setAttr ".t" -type "double3" 0.55491962374845205 14.07635365893041 0.71463687110102336 ;
createNode locator -n "outerLidLFT_grpShape" -p "outerLidLFT_grp";
	setAttr -k off ".v";
	setAttr ".los" -type "double3" 0.025 0.025 0.025 ;
createNode transform -n "lowerLid3LFT_grp" -p "faceDtlTmpLoc_grp";
	setAttr ".t" -type "double3" 0.48212498426437378 14.019974708557129 0.78917199373245239 ;
createNode locator -n "lowerLid3LFT_grpShape" -p "lowerLid3LFT_grp";
	setAttr -k off ".v";
	setAttr ".los" -type "double3" 0.025 0.025 0.025 ;
createNode transform -n "lowerLid2LFT_grp" -p "faceDtlTmpLoc_grp";
	setAttr ".t" -type "double3" 0.38005056977272034 13.992500305175781 0.83459603786468506 ;
createNode locator -n "lowerLid2LFT_grpShape" -p "lowerLid2LFT_grp";
	setAttr -k off ".v";
	setAttr ".los" -type "double3" 0.025 0.025 0.025 ;
createNode transform -n "lowerLid1LFT_grp" -p "faceDtlTmpLoc_grp";
	setAttr ".t" -type "double3" 0.2635805606842041 14.00216007232666 0.84229683876037598 ;
createNode locator -n "lowerLid1LFT_grpShape" -p "lowerLid1LFT_grp";
	setAttr -k off ".v";
	setAttr ".los" -type "double3" 0.025 0.025 0.025 ;
createNode transform -n "cheek1LFT_grp" -p "faceDtlTmpLoc_grp";
	setAttr ".t" -type "double3" 0.45615130662918091 13.677301406860352 0.84800761938095093 ;
createNode locator -n "cheek1LFT_grpShape" -p "cheek1LFT_grp";
	setAttr -k off ".v";
	setAttr ".los" -type "double3" 0.025 0.025 0.025 ;
createNode transform -n "cheek2LFT_grp" -p "faceDtlTmpLoc_grp";
	setAttr ".t" -type "double3" 0.63835436105728149 13.406784057617188 0.4191470742225647 ;
createNode locator -n "cheek2LFT_grpShape" -p "cheek2LFT_grp";
	setAttr -k off ".v";
	setAttr ".los" -type "double3" 0.025 0.025 0.025 ;
createNode transform -n "ear1LFT_grp" -p "faceDtlTmpLoc_grp";
	setAttr ".t" -type "double3" 0.78640735149383545 14.147932052612305 -0.35093581676483154 ;
createNode locator -n "ear1LFT_grpShape" -p "ear1LFT_grp";
	setAttr -k off ".v";
	setAttr ".los" -type "double3" 0.025 0.025 0.025 ;
createNode transform -n "ear2LFT_grp" -p "faceDtlTmpLoc_grp";
	setAttr ".t" -type "double3" 0.67736238241195679 13.556035995483398 -0.24395899474620819 ;
createNode locator -n "ear2LFT_grpShape" -p "ear2LFT_grp";
	setAttr -k off ".v";
	setAttr ".los" -type "double3" 0.025 0.025 0.025 ;
createNode transform -n "upperLip1LFT_grp" -p "faceDtlTmpLoc_grp";
	setAttr ".t" -type "double3" 0.074731752276420593 13.324438095092773 0.9459264874458313 ;
createNode locator -n "upperLip1LFT_grpShape" -p "upperLip1LFT_grp";
	setAttr -k off ".v";
	setAttr ".los" -type "double3" 0.0125 0.0125 0.0125 ;
createNode transform -n "upperLip2LFT_grp" -p "faceDtlTmpLoc_grp";
	setAttr ".t" -type "double3" 0.14540180563926697 13.320990562438965 0.91231650114059448 ;
createNode locator -n "upperLip2LFT_grpShape" -p "upperLip2LFT_grp";
	setAttr -k off ".v";
	setAttr ".los" -type "double3" 0.0125 0.0125 0.0125 ;
createNode transform -n "upperLip3LFT_grp" -p "faceDtlTmpLoc_grp";
	setAttr ".t" -type "double3" 0.20157194137573242 13.321168899536133 0.86621880531311035 ;
createNode locator -n "upperLip3LFT_grpShape" -p "upperLip3LFT_grp";
	setAttr -k off ".v";
	setAttr ".los" -type "double3" 0.0125 0.0125 0.0125 ;
createNode transform -n "upperLip4LFT_grp" -p "faceDtlTmpLoc_grp";
	setAttr ".t" -type "double3" 0.24559310078620911 13.323734283447266 0.83567243814468384 ;
createNode locator -n "upperLip4LFT_grpShape" -p "upperLip4LFT_grp";
	setAttr -k off ".v";
	setAttr ".los" -type "double3" 0.0125 0.0125 0.0125 ;
createNode transform -n "upperLip5LFT_grp" -p "faceDtlTmpLoc_grp";
	setAttr ".t" -type "double3" 0.27083107829093933 13.323060035705566 0.8207327127456665 ;
createNode locator -n "upperLip5LFT_grpShape" -p "upperLip5LFT_grp";
	setAttr -k off ".v";
	setAttr ".los" -type "double3" 0.0125 0.0125 0.0125 ;
createNode transform -n "lipLFT_grp" -p "faceDtlTmpLoc_grp";
	setAttr ".t" -type "double3" 0.27444878220558167 13.323066711425781 0.81865888833999634 ;
createNode locator -n "lipLFT_grpShape" -p "lipLFT_grp";
	setAttr -k off ".v";
	setAttr ".los" -type "double3" 0.0125 0.0125 0.0125 ;
createNode transform -n "eb1RGT_grp" -p "faceDtlTmpLoc_grp";
	setAttr ".rp" -type "double3" -0.072930058355470923 14.243773913063796 1.0232605227530509 ;
	setAttr ".sp" -type "double3" -0.072930058355470923 14.243773913063796 1.0232605227530509 ;
createNode locator -n "eb1RGT_grpShape" -p "eb1RGT_grp";
	setAttr -k off ".v";
	setAttr ".lp" -type "double3" -0.072930058355470923 14.243773913063796 1.0232605227530509 ;
	setAttr ".los" -type "double3" 0.025 0.025 0.025 ;
createNode transform -n "eb2RGT_grp" -p "faceDtlTmpLoc_grp";
	setAttr ".rp" -type "double3" -0.16966961674635864 14.295285103810491 1.0098250578761281 ;
	setAttr ".sp" -type "double3" -0.16966961674635864 14.295285103810491 1.0098250578761281 ;
createNode locator -n "eb2RGT_grpShape" -p "eb2RGT_grp";
	setAttr -k off ".v";
	setAttr ".lp" -type "double3" -0.16966961674635864 14.295285103810491 1.0098250578761281 ;
	setAttr ".los" -type "double3" 0.025 0.025 0.025 ;
createNode transform -n "eb3RGT_grp" -p "faceDtlTmpLoc_grp";
	setAttr ".rp" -type "double3" -0.2665970996803147 14.316395385754412 0.98136311367750417 ;
	setAttr ".sp" -type "double3" -0.2665970996803147 14.316395385754412 0.98136311367750417 ;
createNode locator -n "eb3RGT_grpShape" -p "eb3RGT_grp";
	setAttr -k off ".v";
	setAttr ".lp" -type "double3" -0.2665970996803147 14.316395385754412 0.98136311367750417 ;
	setAttr ".los" -type "double3" 0.025 0.025 0.025 ;
createNode transform -n "eb4RGT_grp" -p "faceDtlTmpLoc_grp";
	setAttr ".rp" -type "double3" -0.48347790289467762 14.350664266600795 0.84535361316940894 ;
	setAttr ".sp" -type "double3" -0.48347790289467762 14.350664266600795 0.84535361316940894 ;
createNode locator -n "eb4RGT_grpShape" -p "eb4RGT_grp";
	setAttr -k off ".v";
	setAttr ".lp" -type "double3" -0.48347790289467762 14.350664266600795 0.84535361316940894 ;
	setAttr ".los" -type "double3" 0.025 0.025 0.025 ;
createNode transform -n "eb5RGT_grp" -p "faceDtlTmpLoc_grp";
	setAttr ".rp" -type "double3" -0.6797616032068492 14.278701564698302 0.5650313078951934 ;
	setAttr ".sp" -type "double3" -0.6797616032068492 14.278701564698302 0.5650313078951934 ;
createNode locator -n "eb5RGT_grpShape" -p "eb5RGT_grp";
	setAttr -k off ".v";
	setAttr ".lp" -type "double3" -0.6797616032068492 14.278701564698302 0.5650313078951934 ;
	setAttr ".los" -type "double3" 0.025 0.025 0.025 ;
createNode transform -n "upperEyeRGT_grp" -p "faceDtlTmpLoc_grp";
	setAttr ".rp" -type "double3" -0.18968461453914642 14.205217361450195 0.92650735378265381 ;
	setAttr ".sp" -type "double3" -0.18968461453914642 14.205217361450195 0.92650735378265381 ;
createNode locator -n "upperEyeRGT_grpShape" -p "upperEyeRGT_grp";
	setAttr -k off ".v";
	setAttr ".lp" -type "double3" -0.18968461453914642 14.205217361450195 0.92650735378265381 ;
	setAttr ".los" -type "double3" 0.025 0.025 0.025 ;
createNode transform -n "innerLidRGT_grp" -p "faceDtlTmpLoc_grp";
	setAttr ".rp" -type "double3" -0.18015721170186247 14.044791107222762 0.83345904705210616 ;
	setAttr ".sp" -type "double3" -0.18015721170186247 14.044791107222762 0.83345904705210616 ;
createNode locator -n "innerLidRGT_grpShape" -p "innerLidRGT_grp";
	setAttr -k off ".v";
	setAttr ".lp" -type "double3" -0.18015721170186247 14.044791107222762 0.83345904705210616 ;
	setAttr ".los" -type "double3" 0.025 0.025 0.025 ;
createNode transform -n "upperLid1RGT_grp" -p "faceDtlTmpLoc_grp";
	setAttr ".rp" -type "double3" -0.23843452334403992 14.138381958007813 0.86330336332321167 ;
	setAttr ".sp" -type "double3" -0.23843452334403992 14.138381958007813 0.86330336332321167 ;
createNode locator -n "upperLid1RGT_grpShape" -p "upperLid1RGT_grp";
	setAttr -k off ".v";
	setAttr ".lp" -type "double3" -0.23843452334403992 14.138381958007813 0.86330336332321167 ;
	setAttr ".los" -type "double3" 0.025 0.025 0.025 ;
createNode transform -n "upperLid2RGT_grp" -p "faceDtlTmpLoc_grp";
	setAttr ".rp" -type "double3" -0.35677015781402588 14.179832458496094 0.87369805574417114 ;
	setAttr ".sp" -type "double3" -0.35677015781402588 14.179832458496094 0.87369805574417114 ;
createNode locator -n "upperLid2RGT_grpShape" -p "upperLid2RGT_grp";
	setAttr -k off ".v";
	setAttr ".lp" -type "double3" -0.35677015781402588 14.179832458496094 0.87369805574417114 ;
	setAttr ".los" -type "double3" 0.025 0.025 0.025 ;
createNode transform -n "upperLid3RGT_grp" -p "faceDtlTmpLoc_grp";
	setAttr ".rp" -type "double3" -0.48657217621803284 14.142724990844727 0.80528765916824341 ;
	setAttr ".sp" -type "double3" -0.48657217621803284 14.142724990844727 0.80528765916824341 ;
createNode locator -n "upperLid3RGT_grpShape" -p "upperLid3RGT_grp";
	setAttr -k off ".v";
	setAttr ".lp" -type "double3" -0.48657217621803284 14.142724990844727 0.80528765916824341 ;
	setAttr ".los" -type "double3" 0.025 0.025 0.025 ;
createNode transform -n "outerLidRGT_grp" -p "faceDtlTmpLoc_grp";
	setAttr ".rp" -type "double3" -0.55491962374845205 14.07635365893041 0.71463687110102336 ;
	setAttr ".sp" -type "double3" -0.55491962374845205 14.07635365893041 0.71463687110102336 ;
createNode locator -n "outerLidRGT_grpShape" -p "outerLidRGT_grp";
	setAttr -k off ".v";
	setAttr ".lp" -type "double3" -0.55491962374845205 14.07635365893041 0.71463687110102336 ;
	setAttr ".los" -type "double3" 0.025 0.025 0.025 ;
createNode transform -n "lowerLid3RGT_grp" -p "faceDtlTmpLoc_grp";
	setAttr ".rp" -type "double3" -0.48212498426437378 14.019974708557129 0.78917199373245239 ;
	setAttr ".sp" -type "double3" -0.48212498426437378 14.019974708557129 0.78917199373245239 ;
createNode locator -n "lowerLid3RGT_grpShape" -p "lowerLid3RGT_grp";
	setAttr -k off ".v";
	setAttr ".lp" -type "double3" -0.48212498426437378 14.019974708557129 0.78917199373245239 ;
	setAttr ".los" -type "double3" 0.025 0.025 0.025 ;
createNode transform -n "lowerLid2RGT_grp" -p "faceDtlTmpLoc_grp";
	setAttr ".rp" -type "double3" -0.38005056977272034 13.992500305175781 0.83459603786468506 ;
	setAttr ".sp" -type "double3" -0.38005056977272034 13.992500305175781 0.83459603786468506 ;
createNode locator -n "lowerLid2RGT_grpShape" -p "lowerLid2RGT_grp";
	setAttr -k off ".v";
	setAttr ".lp" -type "double3" -0.38005056977272034 13.992500305175781 0.83459603786468506 ;
	setAttr ".los" -type "double3" 0.025 0.025 0.025 ;
createNode transform -n "lowerLid1RGT_grp" -p "faceDtlTmpLoc_grp";
	setAttr ".rp" -type "double3" -0.2635805606842041 14.00216007232666 0.84229683876037598 ;
	setAttr ".sp" -type "double3" -0.2635805606842041 14.00216007232666 0.84229683876037598 ;
createNode locator -n "lowerLid1RGT_grpShape" -p "lowerLid1RGT_grp";
	setAttr -k off ".v";
	setAttr ".lp" -type "double3" -0.2635805606842041 14.00216007232666 0.84229683876037598 ;
	setAttr ".los" -type "double3" 0.025 0.025 0.025 ;
createNode transform -n "cheek1RGT_grp" -p "faceDtlTmpLoc_grp";
	setAttr ".rp" -type "double3" -0.45615130662918091 13.677301406860352 0.84800761938095093 ;
	setAttr ".sp" -type "double3" -0.45615130662918091 13.677301406860352 0.84800761938095093 ;
createNode locator -n "cheek1RGT_grpShape" -p "cheek1RGT_grp";
	setAttr -k off ".v";
	setAttr ".lp" -type "double3" -0.45615130662918091 13.677301406860352 0.84800761938095093 ;
	setAttr ".los" -type "double3" 0.025 0.025 0.025 ;
createNode transform -n "cheek2RGT_grp" -p "faceDtlTmpLoc_grp";
	setAttr ".rp" -type "double3" -0.63835436105728149 13.406784057617188 0.4191470742225647 ;
	setAttr ".sp" -type "double3" -0.63835436105728149 13.406784057617188 0.4191470742225647 ;
createNode locator -n "cheek2RGT_grpShape" -p "cheek2RGT_grp";
	setAttr -k off ".v";
	setAttr ".lp" -type "double3" -0.63835436105728149 13.406784057617188 0.4191470742225647 ;
	setAttr ".los" -type "double3" 0.025 0.025 0.025 ;
createNode transform -n "ear1RGT_grp" -p "faceDtlTmpLoc_grp";
	setAttr ".rp" -type "double3" -0.78640735149383545 14.147932052612305 -0.35093581676483154 ;
	setAttr ".sp" -type "double3" -0.78640735149383545 14.147932052612305 -0.35093581676483154 ;
createNode locator -n "ear1RGT_grpShape" -p "ear1RGT_grp";
	setAttr -k off ".v";
	setAttr ".lp" -type "double3" -0.78640735149383545 14.147932052612305 -0.35093581676483154 ;
	setAttr ".los" -type "double3" 0.025 0.025 0.025 ;
createNode transform -n "ear2RGT_grp" -p "faceDtlTmpLoc_grp";
	setAttr ".rp" -type "double3" -0.67736238241195679 13.556035995483398 -0.24395899474620819 ;
	setAttr ".sp" -type "double3" -0.67736238241195679 13.556035995483398 -0.24395899474620819 ;
createNode locator -n "ear2RGT_grpShape" -p "ear2RGT_grp";
	setAttr -k off ".v";
	setAttr ".lp" -type "double3" -0.67736238241195679 13.556035995483398 -0.24395899474620819 ;
	setAttr ".los" -type "double3" 0.025 0.025 0.025 ;
createNode transform -n "upperLip1RGT_grp" -p "faceDtlTmpLoc_grp";
	setAttr ".rp" -type "double3" -0.074731752276420593 13.324438095092773 0.9459264874458313 ;
	setAttr ".sp" -type "double3" -0.074731752276420593 13.324438095092773 0.9459264874458313 ;
createNode locator -n "upperLip1RGT_grpShape" -p "upperLip1RGT_grp";
	setAttr -k off ".v";
	setAttr ".lp" -type "double3" -0.074731752276420593 13.324438095092773 0.9459264874458313 ;
	setAttr ".los" -type "double3" 0.0125 0.0125 0.0125 ;
createNode transform -n "upperLip2RGT_grp" -p "faceDtlTmpLoc_grp";
	setAttr ".rp" -type "double3" -0.14540180563926697 13.320990562438965 0.91231650114059448 ;
	setAttr ".sp" -type "double3" -0.14540180563926697 13.320990562438965 0.91231650114059448 ;
createNode locator -n "upperLip2RGT_grpShape" -p "upperLip2RGT_grp";
	setAttr -k off ".v";
	setAttr ".lp" -type "double3" -0.14540180563926697 13.320990562438965 0.91231650114059448 ;
	setAttr ".los" -type "double3" 0.0125 0.0125 0.0125 ;
createNode transform -n "upperLip3RGT_grp" -p "faceDtlTmpLoc_grp";
	setAttr ".rp" -type "double3" -0.20157194137573242 13.321168899536133 0.86621880531311035 ;
	setAttr ".sp" -type "double3" -0.20157194137573242 13.321168899536133 0.86621880531311035 ;
createNode locator -n "upperLip3RGT_grpShape" -p "upperLip3RGT_grp";
	setAttr -k off ".v";
	setAttr ".lp" -type "double3" -0.20157194137573242 13.321168899536133 0.86621880531311035 ;
	setAttr ".los" -type "double3" 0.0125 0.0125 0.0125 ;
createNode transform -n "upperLip4RGT_grp" -p "faceDtlTmpLoc_grp";
	setAttr ".rp" -type "double3" -0.24559310078620911 13.323734283447266 0.83567243814468384 ;
	setAttr ".sp" -type "double3" -0.24559310078620911 13.323734283447266 0.83567243814468384 ;
createNode locator -n "upperLip4RGT_grpShape" -p "upperLip4RGT_grp";
	setAttr -k off ".v";
	setAttr ".lp" -type "double3" -0.24559310078620911 13.323734283447266 0.83567243814468384 ;
	setAttr ".los" -type "double3" 0.0125 0.0125 0.0125 ;
createNode transform -n "upperLip5RGT_grp" -p "faceDtlTmpLoc_grp";
	setAttr ".rp" -type "double3" -0.27083107829093933 13.323060035705566 0.8207327127456665 ;
	setAttr ".sp" -type "double3" -0.27083107829093933 13.323060035705566 0.8207327127456665 ;
createNode locator -n "upperLip5RGT_grpShape" -p "upperLip5RGT_grp";
	setAttr -k off ".v";
	setAttr ".lp" -type "double3" -0.27083107829093933 13.323060035705566 0.8207327127456665 ;
	setAttr ".los" -type "double3" 0.0125 0.0125 0.0125 ;
createNode transform -n "lipRGT_grp" -p "faceDtlTmpLoc_grp";
	setAttr ".rp" -type "double3" -0.27444878220558167 13.323066711425781 0.81865888833999634 ;
	setAttr ".sp" -type "double3" -0.27444878220558167 13.323066711425781 0.81865888833999634 ;
createNode locator -n "lipRGT_grpShape" -p "lipRGT_grp";
	setAttr -k off ".v";
	setAttr ".lp" -type "double3" -0.27444878220558167 13.323066711425781 0.81865888833999634 ;
	setAttr ".los" -type "double3" 0.0125 0.0125 0.0125 ;
createNode transform -n "lowerLip_grp" -p "faceDtlTmpLoc_grp";
	setAttr ".t" -type "double3" 0 13.317754745483398 0.95629298686981201 ;
createNode locator -n "lowerLip_grpShape" -p "lowerLip_grp";
	setAttr -k off ".v";
	setAttr ".los" -type "double3" 0.0125 0.0125 0.0125 ;
createNode transform -n "chin_grp" -p "faceDtlTmpLoc_grp";
	setAttr ".t" -type "double3" 0 12.750110626220703 0.83609700202941895 ;
createNode locator -n "chin_grpShape" -p "chin_grp";
	setAttr -k off ".v";
	setAttr ".los" -type "double3" 0.025 0.025 0.025 ;
createNode transform -n "lowerLip1LFT_grp" -p "faceDtlTmpLoc_grp";
	setAttr ".t" -type "double3" 0.072420649230480194 13.323655128479004 0.94459497928619385 ;
createNode locator -n "lowerLip1LFT_grpShape" -p "lowerLip1LFT_grp";
	setAttr -k off ".v";
	setAttr ".los" -type "double3" 0.0125 0.0125 0.0125 ;
createNode transform -n "lowerLip2LFT_grp" -p "faceDtlTmpLoc_grp";
	setAttr ".t" -type "double3" 0.14540180563926697 13.319717407226563 0.90988636016845703 ;
createNode locator -n "lowerLip2LFT_grpShape" -p "lowerLip2LFT_grp";
	setAttr -k off ".v";
	setAttr ".los" -type "double3" 0.0125 0.0125 0.0125 ;
createNode transform -n "lowerLip3LFT_grp" -p "faceDtlTmpLoc_grp";
	setAttr ".t" -type "double3" 0.20157194137573242 13.31893253326416 0.86854022741317749 ;
createNode locator -n "lowerLip3LFT_grpShape" -p "lowerLip3LFT_grp";
	setAttr -k off ".v";
	setAttr ".los" -type "double3" 0.0125 0.0125 0.0125 ;
createNode transform -n "lowerLip4LFT_grp" -p "faceDtlTmpLoc_grp";
	setAttr ".t" -type "double3" 0.24243487417697906 13.321928977966309 0.83746379613876343 ;
createNode locator -n "lowerLip4LFT_grpShape" -p "lowerLip4LFT_grp";
	setAttr -k off ".v";
	setAttr ".los" -type "double3" 0.0125 0.0125 0.0125 ;
createNode transform -n "lowerLip5LFT_grp" -p "faceDtlTmpLoc_grp";
	setAttr ".t" -type "double3" 0.27059280872344971 13.32301139831543 0.82085829973220825 ;
createNode locator -n "lowerLip5LFT_grpShape" -p "lowerLip5LFT_grp";
	setAttr -k off ".v";
	setAttr ".los" -type "double3" 0.0125 0.0125 0.0125 ;
createNode transform -n "lowerLip1RGT_grp" -p "faceDtlTmpLoc_grp";
	setAttr ".t" -type "double3" -0.072420649230480194 13.323655128479004 0.94459497928619385 ;
	setAttr ".r" -type "double3" 0 180 0 ;
	setAttr ".s" -type "double3" 1 1 -1 ;
createNode locator -n "lowerLip1RGT_grpShape" -p "lowerLip1RGT_grp";
	setAttr -k off ".v";
	setAttr ".los" -type "double3" 0.0125 0.0125 0.0125 ;
createNode transform -n "lowerLip2RGT_grp" -p "faceDtlTmpLoc_grp";
	setAttr ".t" -type "double3" -0.14540180563926697 13.319717407226563 0.90988636016845703 ;
	setAttr ".r" -type "double3" 0 180 0 ;
	setAttr ".s" -type "double3" 1 1 -1 ;
createNode locator -n "lowerLip2RGT_grpShape" -p "lowerLip2RGT_grp";
	setAttr -k off ".v";
	setAttr ".los" -type "double3" 0.0125 0.0125 0.0125 ;
createNode transform -n "lowerLip3RGT_grp" -p "faceDtlTmpLoc_grp";
	setAttr ".t" -type "double3" -0.20157194137573242 13.31893253326416 0.86854022741317749 ;
	setAttr ".r" -type "double3" 0 180 0 ;
	setAttr ".s" -type "double3" 1 1 -1 ;
createNode locator -n "lowerLip3RGT_grpShape" -p "lowerLip3RGT_grp";
	setAttr -k off ".v";
	setAttr ".los" -type "double3" 0.0125 0.0125 0.0125 ;
createNode transform -n "lowerLip4RGT_grp" -p "faceDtlTmpLoc_grp";
	setAttr ".t" -type "double3" -0.24243487417697906 13.321928977966309 0.83746379613876343 ;
	setAttr ".r" -type "double3" 0 180 0 ;
	setAttr ".s" -type "double3" 1 1 -1 ;
createNode locator -n "lowerLip4RGT_grpShape" -p "lowerLip4RGT_grp";
	setAttr -k off ".v";
	setAttr ".los" -type "double3" 0.0125 0.0125 0.0125 ;
createNode transform -n "lowerLip5RGT_grp" -p "faceDtlTmpLoc_grp";
	setAttr ".t" -type "double3" -0.27059280872344971 13.32301139831543 0.82085829973220825 ;
	setAttr ".r" -type "double3" 0 180 0 ;
	setAttr ".s" -type "double3" 1 1 -1 ;
createNode locator -n "lowerLip5RGT_grpShape" -p "lowerLip5RGT_grp";
	setAttr -k off ".v";
	setAttr ".los" -type "double3" 0.0125 0.0125 0.0125 ;
select -ne :time1;
	setAttr -av -k on ".cch";
	setAttr -cb on ".ihi";
	setAttr -av -k on ".nds";
	setAttr -cb on ".bnm";
	setAttr -k on ".o" 1;
	setAttr -av ".unw" 1;
	setAttr -k on ".etw";
	setAttr -k on ".tps";
	setAttr -k on ".tms";
select -ne :renderPartition;
	setAttr -k on ".cch";
	setAttr -cb on ".ihi";
	setAttr -k on ".nds";
	setAttr -cb on ".bnm";
	setAttr -s 2 ".st";
	setAttr -cb on ".an";
	setAttr -cb on ".pt";
select -ne :renderGlobalsList1;
	setAttr -k on ".cch";
	setAttr -cb on ".ihi";
	setAttr -k on ".nds";
	setAttr -cb on ".bnm";
select -ne :defaultShaderList1;
	setAttr -k on ".cch";
	setAttr -cb on ".ihi";
	setAttr -k on ".nds";
	setAttr -cb on ".bnm";
	setAttr -s 2 ".s";
select -ne :postProcessList1;
	setAttr -k on ".cch";
	setAttr -cb on ".ihi";
	setAttr -k on ".nds";
	setAttr -cb on ".bnm";
	setAttr -s 2 ".p";
select -ne :defaultRenderingList1;
	setAttr -k on ".ihi";
	setAttr -s 2 ".r";
select -ne :initialShadingGroup;
	setAttr -av -k on ".cch";
	setAttr -cb on ".ihi";
	setAttr -av -k on ".nds";
	setAttr -cb on ".bnm";
	setAttr -s 9 ".dsm";
	setAttr -k on ".mwc";
	setAttr -cb on ".an";
	setAttr -cb on ".il";
	setAttr -cb on ".vo";
	setAttr -cb on ".eo";
	setAttr -cb on ".fo";
	setAttr -cb on ".epo";
	setAttr -k on ".ro" yes;
	setAttr -s 3 ".gn";
select -ne :initialParticleSE;
	setAttr -av -k on ".cch";
	setAttr -cb on ".ihi";
	setAttr -av -k on ".nds";
	setAttr -cb on ".bnm";
	setAttr -k on ".mwc";
	setAttr -cb on ".an";
	setAttr -cb on ".il";
	setAttr -cb on ".vo";
	setAttr -cb on ".eo";
	setAttr -cb on ".fo";
	setAttr -cb on ".epo";
	setAttr -k on ".ro" yes;
select -ne :defaultResolution;
	setAttr -av -k on ".cch";
	setAttr -k on ".ihi";
	setAttr -av -k on ".nds";
	setAttr -k on ".bnm";
	setAttr -av -k on ".w";
	setAttr -av -k on ".h";
	setAttr -av -k on ".pa" 1;
	setAttr -av -k on ".al";
	setAttr -av -k on ".dar";
	setAttr -av -k on ".ldar";
	setAttr -k on ".dpi";
	setAttr -av -k on ".off";
	setAttr -av -k on ".fld";
	setAttr -av -k on ".zsl";
	setAttr -k on ".isu";
	setAttr -k on ".pdu";
select -ne :hardwareRenderGlobals;
	setAttr -k on ".cch";
	setAttr -cb on ".ihi";
	setAttr -k on ".nds";
	setAttr -cb on ".bnm";
	setAttr -k off -cb on ".ctrs" 256;
	setAttr -av -k off -cb on ".btrs" 512;
	setAttr -k off -cb on ".fbfm";
	setAttr -k off -cb on ".ehql";
	setAttr -k off -cb on ".eams";
	setAttr -k off -cb on ".eeaa";
	setAttr -k off -cb on ".engm";
	setAttr -k off -cb on ".mes";
	setAttr -k off -cb on ".emb";
	setAttr -av -k off -cb on ".mbbf";
	setAttr -k off -cb on ".mbs";
	setAttr -k off -cb on ".trm";
	setAttr -k off -cb on ".tshc";
	setAttr -k off -cb on ".enpt";
	setAttr -k off -cb on ".clmt";
	setAttr -k off -cb on ".tcov";
	setAttr -k off -cb on ".lith";
	setAttr -k off -cb on ".sobc";
	setAttr -k off -cb on ".cuth";
	setAttr -k off -cb on ".hgcd";
	setAttr -k off -cb on ".hgci";
	setAttr -k off -cb on ".mgcs";
	setAttr -k off -cb on ".twa";
	setAttr -k off -cb on ".twz";
	setAttr -k on ".hwcc";
	setAttr -k on ".hwdp";
	setAttr -k on ".hwql";
	setAttr -k on ".hwfr";
	setAttr -k on ".soll";
	setAttr -k on ".sosl";
	setAttr -k on ".bswa";
	setAttr -k on ".shml";
	setAttr -k on ".hwel";
select -ne :hardwareRenderingGlobals;
	setAttr ".otfna" -type "stringArray" 22 "NURBS Curves" "NURBS Surfaces" "Polygons" "Subdiv Surface" "Particles" "Particle Instance" "Fluids" "Strokes" "Image Planes" "UI" "Lights" "Cameras" "Locators" "Joints" "IK Handles" "Deformers" "Motion Trails" "Components" "Hair Systems" "Follicles" "Misc. UI" "Ornaments"  ;
	setAttr ".otfva" -type "Int32Array" 22 0 1 1 1 1 1
		 1 1 1 0 0 0 0 0 0 0 0 0
		 0 0 0 0 ;
select -ne :defaultHardwareRenderGlobals;
	setAttr -k on ".cch";
	setAttr -cb on ".ihi";
	setAttr -k on ".nds";
	setAttr -cb on ".bnm";
	setAttr -av -k on ".rp";
	setAttr -k on ".cai";
	setAttr -k on ".coi";
	setAttr -cb on ".bc";
	setAttr -av -k on ".bcb";
	setAttr -av -k on ".bcg";
	setAttr -av -k on ".bcr";
	setAttr -k on ".ei";
	setAttr -av -k on ".ex";
	setAttr -av -k on ".es";
	setAttr -av -k on ".ef";
	setAttr -av -k on ".bf";
	setAttr -k on ".fii";
	setAttr -av -k on ".sf";
	setAttr -k on ".gr";
	setAttr -k on ".li";
	setAttr -k on ".ls";
	setAttr -av -k on ".mb";
	setAttr -k on ".ti";
	setAttr -k on ".txt";
	setAttr -k on ".mpr";
	setAttr -k on ".wzd";
	setAttr -k on ".fn";
	setAttr -k on ".if";
	setAttr -k on ".res" -type "string" "ntsc_4d 646 485 1.333";
	setAttr -k on ".as";
	setAttr -k on ".ds";
	setAttr -k on ".lm";
	setAttr -av -k on ".fir";
	setAttr -k on ".aap";
	setAttr -av -k on ".gh";
	setAttr -cb on ".sd";
// End of TEMPLATE_faceDtlLoc_frd.ma
