//Maya ASCII 2017ff05 scene
//Name: MouthTmpCrv.ma
//Last modified: Thu, Oct 11, 2018 04:25:20 PM
//Codeset: 1252
requires maya "2017ff05";
requires "stereoCamera" "10.0";
currentUnit -l centimeter -a degree -t film;
fileInfo "application" "maya";
fileInfo "product" "Maya 2017";
fileInfo "version" "2017";
fileInfo "cutIdentifier" "201710312130-1018716";
fileInfo "osv" "Microsoft Windows 8 Business Edition, 64-bit  (Build 9200)\n";
fileInfo "vrayBuild" "3.52.03 b05f456";
createNode transform -s -n "persp";
	rename -uid "4932D62E-4A9A-1F00-9B0A-4583E933D127";
	setAttr ".v" no;
	setAttr ".t" -type "double3" 82.812898309788778 14.698885240666971 24.732100838912853 ;
	setAttr ".r" -type "double3" -5.1383527296057787 74.200000000002433 2.9202950967188938e-015 ;
createNode camera -s -n "perspShape" -p "persp";
	rename -uid "327F37CD-4E2E-1C9F-8670-96B51F9AC6F4";
	setAttr -k off ".v" no;
	setAttr ".fl" 34.999999999999993;
	setAttr ".coi" 87.539386269097008;
	setAttr ".imn" -type "string" "persp";
	setAttr ".den" -type "string" "persp_depth";
	setAttr ".man" -type "string" "persp_mask";
	setAttr ".hc" -type "string" "viewSet -p %camera";
createNode transform -s -n "top";
	rename -uid "1CEC1B64-43B5-BFB2-7E04-DCBD9F77BB8C";
	setAttr ".v" no;
	setAttr ".t" -type "double3" 0 1000.1 0 ;
	setAttr ".r" -type "double3" -89.999999999999986 0 0 ;
createNode camera -s -n "topShape" -p "top";
	rename -uid "27E275B7-4D87-9F25-4D17-679AE7B9955D";
	setAttr -k off ".v" no;
	setAttr ".rnd" no;
	setAttr ".coi" 1000.1;
	setAttr ".ow" 30;
	setAttr ".imn" -type "string" "top";
	setAttr ".den" -type "string" "top_depth";
	setAttr ".man" -type "string" "top_mask";
	setAttr ".hc" -type "string" "viewSet -t %camera";
	setAttr ".o" yes;
createNode transform -s -n "front";
	rename -uid "841E4BE6-45C6-7E6B-62C3-E48726BB3360";
	setAttr ".v" no;
	setAttr ".t" -type "double3" 0 0 1000.1 ;
createNode camera -s -n "frontShape" -p "front";
	rename -uid "B2C84931-41C7-4D5A-A733-8F988F2D00BE";
	setAttr -k off ".v" no;
	setAttr ".rnd" no;
	setAttr ".coi" 1000.1;
	setAttr ".ow" 30;
	setAttr ".imn" -type "string" "front";
	setAttr ".den" -type "string" "front_depth";
	setAttr ".man" -type "string" "front_mask";
	setAttr ".hc" -type "string" "viewSet -f %camera";
	setAttr ".o" yes;
createNode transform -s -n "side";
	rename -uid "7DCC0009-49E7-14B2-0C5D-9E9E44AB89FE";
	setAttr ".v" no;
	setAttr ".t" -type "double3" 1000.1 0 0 ;
	setAttr ".r" -type "double3" 0 89.999999999999986 0 ;
createNode camera -s -n "sideShape" -p "side";
	rename -uid "A5E1CDC7-4200-79C0-F78D-C0AE310502E9";
	setAttr -k off ".v" no;
	setAttr ".rnd" no;
	setAttr ".coi" 1000.1;
	setAttr ".ow" 30;
	setAttr ".imn" -type "string" "side";
	setAttr ".den" -type "string" "side_depth";
	setAttr ".man" -type "string" "side_mask";
	setAttr ".hc" -type "string" "viewSet -s %camera";
	setAttr ".o" yes;
createNode transform -n "Export_Grp";
	rename -uid "A6F138F3-4CBF-95A8-CDE8-62814BC6AC01";
createNode transform -n "LipsIn_CuvTemp" -p "Export_Grp";
	rename -uid "47F6F1C8-407F-C908-456C-009397332E51";
	setAttr ".t" -type "double3" 0 2 0 ;
createNode nurbsCurve -n "LipsIn_CuvTempShape" -p "LipsIn_CuvTemp";
	rename -uid "875B90EB-4E8F-E1B7-8FFC-308B615E30BA";
	setAttr -k off ".v";
	setAttr ".cc" -type "nurbsCurve" 
		3 80 2 no 3
		85 -0.025000000000000001 -0.012500000000000001 0 0.012500000000000001 0.025000000000000001
		 0.037499999999999999 0.050000000000000003 0.0625 0.074999999999999997 0.087499999999999981
		 0.10000000000000001 0.1125 0.125 0.13750000000000001 0.14999999999999999 0.16250000000000001
		 0.17499999999999996 0.1875 0.20000000000000001 0.21249999999999999 0.22500000000000001
		 0.23749999999999999 0.25 0.26250000000000001 0.27500000000000002 0.28749999999999998
		 0.29999999999999999 0.3125 0.32500000000000001 0.33750000000000002 0.34999999999999992
		 0.36249999999999999 0.375 0.38750000000000001 0.40000000000000002 0.41249999999999998
		 0.42499999999999999 0.4375 0.45000000000000001 0.46249999999999997 0.47499999999999998
		 0.48750000000000004 0.5 0.51249999999999996 0.52500000000000002 0.53749999999999998
		 0.55000000000000004 0.5625 0.57499999999999996 0.58750000000000002 0.59999999999999998
		 0.61250000000000004 0.625 0.63749999999999996 0.65000000000000002 0.66249999999999998
		 0.67500000000000004 0.6875 0.69999999999999984 0.71249999999999991 0.72499999999999998
		 0.73750000000000004 0.75 0.76250000000000007 0.77500000000000002 0.78749999999999998
		 0.80000000000000004 0.81249999999999989 0.82499999999999996 0.83750000000000002 0.84999999999999998
		 0.86250000000000004 0.875 0.88749999999999996 0.90000000000000002 0.91249999999999987
		 0.92499999999999993 0.9375 0.94999999999999996 0.96250000000000002 0.97500000000000009
		 0.98750000000000004 1 1.0125 1.0249999999999999
		83
		0.61354586168120717 4.7759637515424624e-016 -7.7997407168625035
		-1.6472794139396699e-015 4.7915503898965337e-016 -7.8251956290296798
		-0.61354586168120184 4.7759637515424624e-016 -7.7997407168625035
		-1.2230124756209102 4.7301906208077842e-016 -7.7249875214651622
		-1.8246918907081606 4.6551898112701274e-016 -7.6025019042408939
		-2.4150602559706664 4.5518735888042355e-016 -7.433773708425039
		-2.990777905926159 4.4212080663209703e-016 -7.2203807161365674
		-3.5486946643838713 4.2642426587652658e-016 -6.9640367520401814
		-4.0855809561615652 4.0818311579607537e-016 -6.6661361639987566
		-4.5978135049922102 3.8744997405435917e-016 -6.32753826367109
		-5.0813947453194057 3.642773540155866e-016 -5.9491006593772422
		-5.5326691946715965 3.3877857403730671e-016 -5.5326739803374769
		-5.9490990075643762 3.1114614950509193e-016 -5.0814022413927713
		-6.327535837974402 2.8153529694077877e-016 -4.5978203207127777
		-6.6661297170883582 2.5016992954665687e-016 -4.085584998398482
		-6.9640278012936179 2.1729505467656134e-016 -3.5486975481886001
		-7.2203780801895086 1.8313269227690224e-016 -2.9907838309691717
		-7.4337811272845356 1.4788038268090842e-016 -2.4150699252040391
		-7.6025115293066765 1.1173076067762124e-016 -1.8247017957408218
		-7.7249783146900119 7.4888262719487728e-017 -1.2230181432169269
		-7.799703635501646 3.7568990469670332e-017 -0.61354817561810382
		-7.8251448172061391 1.3863562235988262e-022 -2.2640915330831551e-006
		-7.7997040383944523 -3.7568714436909147e-017 0.61354366766100898
		-7.7249789748720605 -7.4887988674960937e-017 1.2230136677301711
		-7.6025124544052343 -1.1173048988530234e-016 1.8246973733666529
		-7.4337825683140411 -1.4788012026067943e-016 2.4150656395564694
		-7.2203801803115812 -1.8313244530227896e-016 2.9907797975674835
		-6.9640301835722518 -2.1729481591372762e-016 3.5486936488956022
		-6.6661317629787327 -2.5016968111144185e-016 4.0855809411435251
		-6.3275374930981032 -2.8153503045858377e-016 4.5978159687282778
		-5.9491013758626785 -3.1114591606666447e-016 5.0813984290539409
		-5.5326733108083275 -3.3877843512520035e-016 5.5326717117306154
		-5.0814001782092939 -3.6427731003944627e-016 5.9490999411923475
		-4.5978178226088433 -3.8744984729503653e-016 6.3275361935342378
		-4.0855828651508341 -4.0818277332131208e-016 6.6661305709614389
		-3.5486956453777676 -4.2642379849731074e-016 6.9640291191583579
		-2.9907818809881759 -4.4212072013655443e-016 7.2203793035571628
		-2.4150678001645218 -4.551878604689075e-016 7.4337818999866236
		-1.8246995818887646 -4.6551959681250949e-016 7.6025119591480692
		-1.2230159019360614 -4.7301851621540945e-016 7.7249786068071797
		-0.61354592185750045 -4.7759411618318218e-016 7.7997038250653601
		-3.4858639764276685e-015 -4.7915192753508277e-016 7.8251448151203826
		0.61354592185749557 -4.7759411618318159e-016 7.7997038250653521
		1.2230159019360616 -4.7301851621540935e-016 7.7249786068071673
		1.8246995818887473 -4.655195968125088e-016 7.6025119591480657
		2.4150678001645285 -4.5518786046890789e-016 7.4337818999866245
		2.9907818809881714 -4.4212072013655492e-016 7.2203793035571886
		3.5486956453777707 -4.2642379849731128e-016 6.9640291191583534
		4.0855828651508324 -4.0818277332131233e-016 6.6661305709614558
		4.5978178226088371 -3.8744984729503613e-016 6.3275361935342209
		5.0814001782092868 -3.6427731003944617e-016 5.9490999411923378
		5.532673310808323 -3.387784351252001e-016 5.5326717117306039
		5.9491013758626909 -3.1114591606666447e-016 5.0813984290539409
		6.3275374930980979 -2.8153503045858254e-016 4.5978159687282654
		6.6661317629787602 -2.5016968111144209e-016 4.0855809411435198
		6.9640301835722402 -2.1729481591372612e-016 3.5486936488955916
		7.2203801803115919 -1.8313244530227876e-016 2.9907797975674684
		7.4337825683140357 -1.4788012026067847e-016 2.415065639556456
		7.6025124544052476 -1.1173048988530167e-016 1.8246973733666401
		7.7249789748720632 -7.4887988674960001e-017 1.2230136677301562
		7.799704038394454 -3.756871443690818e-017 0.61354366766099511
		7.825144817206148 1.3863562301634918e-022 -2.2640915440904926e-006
		7.7997036355016434 3.7568990469670801e-017 -0.6135481756181087
		7.7249783146900262 7.4888262719487851e-017 -1.2230181432169358
		7.6025115293066605 1.1173076067762171e-016 -1.8247017957408251
		7.4337811272845471 1.4788038268090846e-016 -2.415069925204044
		7.2203780801895094 1.831326922769032e-016 -2.9907838309691734
		6.9640278012936241 2.1729505467656144e-016 -3.5486975481886027
		6.6661297170883556 2.5016992954665647e-016 -4.0855849983984713
		6.3275358379744118 2.8153529694077788e-016 -4.597820320712783
		5.9490990075643726 3.1114614950509109e-016 -5.0814022413927535
		5.5326691946715991 3.3877857403730661e-016 -5.5326739803374885
		5.0813947453193915 3.6427735401558749e-016 -5.9491006593772182
		4.5978135049922102 3.8744997405435912e-016 -6.3275382636711077
		4.0855809561615537 4.0818311579607587e-016 -6.6661361639987433
		3.548694664383877 4.2642426587652515e-016 -6.9640367520401858
		2.9907779059261554 4.4212080663209698e-016 -7.2203807161365674
		2.4150602559706758 4.5518735888042236e-016 -7.4337737084250408
		1.8246918907081646 4.6551898112701245e-016 -7.6025019042408966
		1.223012475620914 4.7301906208077872e-016 -7.7249875214651622
		0.61354586168120717 4.7759637515424624e-016 -7.7997407168625035
		-1.6472794139396699e-015 4.7915503898965337e-016 -7.8251956290296798
		-0.61354586168120184 4.7759637515424624e-016 -7.7997407168625035
		;
createNode transform -n "LipsOut_CuvTemp" -p "Export_Grp";
	rename -uid "A47BEA59-4C46-C9D1-E8DB-E6BE778CDA76";
createNode nurbsCurve -n "LipsOut_CuvTempShape" -p "LipsOut_CuvTemp";
	rename -uid "83E93894-4AE8-CE9D-D7D8-7DBC4A9B65A4";
	setAttr -k off ".v";
	setAttr ".cc" -type "nurbsCurve" 
		3 80 2 no 3
		85 -0.025000000000000001 -0.012500000000000001 0 0.012500000000000001 0.025000000000000001
		 0.037499999999999999 0.050000000000000003 0.0625 0.074999999999999997 0.087499999999999981
		 0.10000000000000001 0.1125 0.125 0.13750000000000001 0.14999999999999999 0.16250000000000001
		 0.17499999999999996 0.1875 0.20000000000000001 0.21249999999999999 0.22500000000000001
		 0.23749999999999999 0.25 0.26250000000000001 0.27500000000000002 0.28749999999999998
		 0.29999999999999999 0.3125 0.32500000000000001 0.33750000000000002 0.34999999999999992
		 0.36249999999999999 0.375 0.38750000000000001 0.40000000000000002 0.41249999999999998
		 0.42499999999999999 0.4375 0.45000000000000001 0.46249999999999997 0.47499999999999998
		 0.48750000000000004 0.5 0.51249999999999996 0.52500000000000002 0.53749999999999998
		 0.55000000000000004 0.5625 0.57499999999999996 0.58750000000000002 0.59999999999999998
		 0.61250000000000004 0.625 0.63749999999999996 0.65000000000000002 0.66249999999999998
		 0.67500000000000004 0.6875 0.69999999999999984 0.71249999999999991 0.72499999999999998
		 0.73750000000000004 0.75 0.76250000000000007 0.77500000000000002 0.78749999999999998
		 0.80000000000000004 0.81249999999999989 0.82499999999999996 0.83750000000000002 0.84999999999999998
		 0.86250000000000004 0.875 0.88749999999999996 0.90000000000000002 0.91249999999999987
		 0.92499999999999993 0.9375 0.94999999999999996 0.96250000000000002 0.97500000000000009
		 0.98750000000000004 1 1.0125 1.0249999999999999
		83
		0.61354586168120717 4.7759637515424624e-016 -7.7997407168625035
		-1.6472794139396699e-015 4.7915503898965337e-016 -7.8251956290296798
		-0.61354586168120184 4.7759637515424624e-016 -7.7997407168625035
		-1.2230124756209102 4.7301906208077842e-016 -7.7249875214651622
		-1.8246918907081606 4.6551898112701274e-016 -7.6025019042408939
		-2.4150602559706664 4.5518735888042355e-016 -7.433773708425039
		-2.990777905926159 4.4212080663209703e-016 -7.2203807161365674
		-3.5486946643838713 4.2642426587652658e-016 -6.9640367520401814
		-4.0855809561615652 4.0818311579607537e-016 -6.6661361639987566
		-4.5978135049922102 3.8744997405435917e-016 -6.32753826367109
		-5.0813947453194057 3.642773540155866e-016 -5.9491006593772422
		-5.5326691946715965 3.3877857403730671e-016 -5.5326739803374769
		-5.9490990075643762 3.1114614950509193e-016 -5.0814022413927713
		-6.327535837974402 2.8153529694077877e-016 -4.5978203207127777
		-6.6661297170883582 2.5016992954665687e-016 -4.085584998398482
		-6.9640278012936179 2.1729505467656134e-016 -3.5486975481886001
		-7.2203780801895086 1.8313269227690224e-016 -2.9907838309691717
		-7.4337811272845356 1.4788038268090842e-016 -2.4150699252040391
		-7.6025115293066765 1.1173076067762124e-016 -1.8247017957408218
		-7.7249783146900119 7.4888262719487728e-017 -1.2230181432169269
		-7.799703635501646 3.7568990469670332e-017 -0.61354817561810382
		-7.8251448172061391 1.3863562235988262e-022 -2.2640915330831551e-006
		-7.7997040383944523 -3.7568714436909147e-017 0.61354366766100898
		-7.7249789748720605 -7.4887988674960937e-017 1.2230136677301711
		-7.6025124544052343 -1.1173048988530234e-016 1.8246973733666529
		-7.4337825683140411 -1.4788012026067943e-016 2.4150656395564694
		-7.2203801803115812 -1.8313244530227896e-016 2.9907797975674835
		-6.9640301835722518 -2.1729481591372762e-016 3.5486936488956022
		-6.6661317629787327 -2.5016968111144185e-016 4.0855809411435251
		-6.3275374930981032 -2.8153503045858377e-016 4.5978159687282778
		-5.9491013758626785 -3.1114591606666447e-016 5.0813984290539409
		-5.5326733108083275 -3.3877843512520035e-016 5.5326717117306154
		-5.0814001782092939 -3.6427731003944627e-016 5.9490999411923475
		-4.5978178226088433 -3.8744984729503653e-016 6.3275361935342378
		-4.0855828651508341 -4.0818277332131208e-016 6.6661305709614389
		-3.5486956453777676 -4.2642379849731074e-016 6.9640291191583579
		-2.9907818809881759 -4.4212072013655443e-016 7.2203793035571628
		-2.4150678001645218 -4.551878604689075e-016 7.4337818999866236
		-1.8246995818887646 -4.6551959681250949e-016 7.6025119591480692
		-1.2230159019360614 -4.7301851621540945e-016 7.7249786068071797
		-0.61354592185750045 -4.7759411618318218e-016 7.7997038250653601
		-3.4858639764276685e-015 -4.7915192753508277e-016 7.8251448151203826
		0.61354592185749557 -4.7759411618318159e-016 7.7997038250653521
		1.2230159019360616 -4.7301851621540935e-016 7.7249786068071673
		1.8246995818887473 -4.655195968125088e-016 7.6025119591480657
		2.4150678001645285 -4.5518786046890789e-016 7.4337818999866245
		2.9907818809881714 -4.4212072013655492e-016 7.2203793035571886
		3.5486956453777707 -4.2642379849731128e-016 6.9640291191583534
		4.0855828651508324 -4.0818277332131233e-016 6.6661305709614558
		4.5978178226088371 -3.8744984729503613e-016 6.3275361935342209
		5.0814001782092868 -3.6427731003944617e-016 5.9490999411923378
		5.532673310808323 -3.387784351252001e-016 5.5326717117306039
		5.9491013758626909 -3.1114591606666447e-016 5.0813984290539409
		6.3275374930980979 -2.8153503045858254e-016 4.5978159687282654
		6.6661317629787602 -2.5016968111144209e-016 4.0855809411435198
		6.9640301835722402 -2.1729481591372612e-016 3.5486936488955916
		7.2203801803115919 -1.8313244530227876e-016 2.9907797975674684
		7.4337825683140357 -1.4788012026067847e-016 2.415065639556456
		7.6025124544052476 -1.1173048988530167e-016 1.8246973733666401
		7.7249789748720632 -7.4887988674960001e-017 1.2230136677301562
		7.799704038394454 -3.756871443690818e-017 0.61354366766099511
		7.825144817206148 1.3863562301634918e-022 -2.2640915440904926e-006
		7.7997036355016434 3.7568990469670801e-017 -0.6135481756181087
		7.7249783146900262 7.4888262719487851e-017 -1.2230181432169358
		7.6025115293066605 1.1173076067762171e-016 -1.8247017957408251
		7.4337811272845471 1.4788038268090846e-016 -2.415069925204044
		7.2203780801895094 1.831326922769032e-016 -2.9907838309691734
		6.9640278012936241 2.1729505467656144e-016 -3.5486975481886027
		6.6661297170883556 2.5016992954665647e-016 -4.0855849983984713
		6.3275358379744118 2.8153529694077788e-016 -4.597820320712783
		5.9490990075643726 3.1114614950509109e-016 -5.0814022413927535
		5.5326691946715991 3.3877857403730661e-016 -5.5326739803374885
		5.0813947453193915 3.6427735401558749e-016 -5.9491006593772182
		4.5978135049922102 3.8744997405435912e-016 -6.3275382636711077
		4.0855809561615537 4.0818311579607587e-016 -6.6661361639987433
		3.548694664383877 4.2642426587652515e-016 -6.9640367520401858
		2.9907779059261554 4.4212080663209698e-016 -7.2203807161365674
		2.4150602559706758 4.5518735888042236e-016 -7.4337737084250408
		1.8246918907081646 4.6551898112701245e-016 -7.6025019042408966
		1.223012475620914 4.7301906208077872e-016 -7.7249875214651622
		0.61354586168120717 4.7759637515424624e-016 -7.7997407168625035
		-1.6472794139396699e-015 4.7915503898965337e-016 -7.8251956290296798
		-0.61354586168120184 4.7759637515424624e-016 -7.7997407168625035
		;
createNode joint -n "mthJawLwr1_Jnt" -p "Export_Grp";
	rename -uid "62F8B9D2-4D2B-ECF9-D0C5-B9858BCB2B9E";
	setAttr ".t" -type "double3" 0 9.2124730802456671 0 ;
createNode joint -n "mthJawLwr2_Jnt" -p "mthJawLwr1_Jnt";
	rename -uid "380A5338-41C4-B84E-3F5D-CCB3D7256B30";
	setAttr ".t" -type "double3" 0 -5.9366150470830856 7.7666385459011451 ;
createNode joint -n "mthHead_Jnt" -p "Export_Grp";
	rename -uid "DE48179E-412B-5275-7F80-28B69C3CF7AC";
	setAttr ".t" -type "double3" 0 6.0902969028681504 0 ;
createNode transform -n "mthJawLwr1_Loc" -p "Export_Grp";
	rename -uid "10CD3027-46AE-C785-3C9A-42AF58E043D7";
	setAttr ".t" -type "double3" 0 6.0902969028681504 0 ;
	setAttr ".s" -type "double3" 3.658109236886951 3.658109236886951 3.658109236886951 ;
createNode locator -n "mthJawLwr1_LocShape" -p "mthJawLwr1_Loc";
	rename -uid "291C4BA5-4595-B049-882D-D49002B838FF";
	setAttr -k off ".v";
createNode lightLinker -s -n "lightLinker1";
	rename -uid "043AEF6C-4B1D-01DA-C376-F48C8331633A";
	setAttr -s 2 ".lnk";
	setAttr -s 2 ".slnk";
createNode shapeEditorManager -n "shapeEditorManager";
	rename -uid "0B6AE870-4DA2-8588-E300-64B61C1F3207";
createNode poseInterpolatorManager -n "poseInterpolatorManager";
	rename -uid "D133D604-41B6-E7D5-51EE-319B2C14E03D";
createNode displayLayerManager -n "layerManager";
	rename -uid "0D14BDB6-4EAC-2206-C939-0B8B8853A5F6";
createNode displayLayer -n "defaultLayer";
	rename -uid "EF6A43B6-4F99-167A-970E-4685FF5DB2E0";
createNode renderLayerManager -n "renderLayerManager";
	rename -uid "67C7F5A2-4FFE-FCFE-382B-F39BE95E8A62";
createNode renderLayer -n "defaultRenderLayer";
	rename -uid "5D2964A9-43B9-F87B-0FEA-BBB595003EAF";
	setAttr ".g" yes;
createNode script -n "sceneConfigurationScriptNode";
	rename -uid "6BBCE41D-4231-7A5F-A9C1-7DACD628C3D8";
	setAttr ".b" -type "string" "playbackOptions -min 1 -max 120 -ast 1 -aet 200 ";
	setAttr ".st" 6;
createNode nodeGraphEditorInfo -n "hyperShadePrimaryNodeEditorSavedTabsInfo";
	rename -uid "965B3DE9-438F-0E06-CC09-BD9C018B5704";
	setAttr ".tgi[0].tn" -type "string" "Untitled_1";
	setAttr ".tgi[0].vl" -type "double2" -279.76189364516591 -199.99999205271436 ;
	setAttr ".tgi[0].vh" -type "double2" 399.99998410542878 208.3333250549108 ;
select -ne :time1;
	setAttr -av -k on ".cch";
	setAttr -av -cb on ".ihi";
	setAttr -av -k on ".nds";
	setAttr -cb on ".bnm";
	setAttr -k on ".o" 1;
	setAttr -av -k on ".unw" 1;
	setAttr -av -k on ".etw";
	setAttr -av -k on ".tps";
	setAttr -av -k on ".tms";
select -ne :hardwareRenderingGlobals;
	setAttr -k on ".ihi";
	setAttr ".otfna" -type "stringArray" 22 "NURBS Curves" "NURBS Surfaces" "Polygons" "Subdiv Surface" "Particles" "Particle Instance" "Fluids" "Strokes" "Image Planes" "UI" "Lights" "Cameras" "Locators" "Joints" "IK Handles" "Deformers" "Motion Trails" "Components" "Hair Systems" "Follicles" "Misc. UI" "Ornaments"  ;
	setAttr ".otfva" -type "Int32Array" 22 0 1 1 1 1 1
		 1 1 1 0 0 0 0 0 0 0 0 0
		 0 0 0 0 ;
	setAttr ".cons" no;
	setAttr ".ta" 0;
	setAttr ".etmr" yes;
	setAttr ".tmr" 1024;
	setAttr -av ".aoam";
	setAttr -av ".aora";
	setAttr -av ".mbe";
	setAttr -av -k on ".mbsof";
	setAttr ".fprt" yes;
select -ne :renderPartition;
	setAttr -av -k on ".cch";
	setAttr -cb on ".ihi";
	setAttr -av -k on ".nds";
	setAttr -cb on ".bnm";
	setAttr -s 2 ".st";
	setAttr -cb on ".an";
	setAttr -cb on ".pt";
select -ne :renderGlobalsList1;
	setAttr -k on ".cch";
	setAttr -cb on ".ihi";
	setAttr -k on ".nds";
	setAttr -cb on ".bnm";
select -ne :defaultShaderList1;
	setAttr -k on ".cch";
	setAttr -cb on ".ihi";
	setAttr -k on ".nds";
	setAttr -cb on ".bnm";
	setAttr -s 4 ".s";
select -ne :postProcessList1;
	setAttr -k on ".cch";
	setAttr -cb on ".ihi";
	setAttr -k on ".nds";
	setAttr -cb on ".bnm";
	setAttr -s 2 ".p";
select -ne :defaultRenderingList1;
	setAttr -k on ".ihi";
select -ne :initialShadingGroup;
	setAttr -av -k on ".cch";
	setAttr -cb on ".ihi";
	setAttr -av -k on ".nds";
	setAttr -cb on ".bnm";
	setAttr -k on ".mwc";
	setAttr -cb on ".an";
	setAttr -cb on ".il";
	setAttr -cb on ".vo";
	setAttr -cb on ".eo";
	setAttr -cb on ".fo";
	setAttr -cb on ".epo";
	setAttr -k on ".ro" yes;
select -ne :initialParticleSE;
	setAttr -av -k on ".cch";
	setAttr -cb on ".ihi";
	setAttr -av -k on ".nds";
	setAttr -cb on ".bnm";
	setAttr -k on ".mwc";
	setAttr -cb on ".an";
	setAttr -cb on ".il";
	setAttr -cb on ".vo";
	setAttr -cb on ".eo";
	setAttr -cb on ".fo";
	setAttr -cb on ".epo";
	setAttr -k on ".ro" yes;
select -ne :defaultRenderGlobals;
	setAttr -k on ".cch";
	setAttr -cb on ".ihi";
	setAttr -k on ".nds";
	setAttr -cb on ".bnm";
	setAttr -k on ".macc";
	setAttr -k on ".macd";
	setAttr -k on ".macq";
	setAttr -k on ".mcfr";
	setAttr -cb on ".ifg";
	setAttr -k on ".clip";
	setAttr -k on ".edm";
	setAttr -av -k on ".edl";
	setAttr -cb on ".ren";
	setAttr -av -k on ".esr";
	setAttr -k on ".ors";
	setAttr -cb on ".sdf";
	setAttr -av -k on ".outf";
	setAttr -av -cb on ".imfkey";
	setAttr -av -k on ".gama";
	setAttr -av -k on ".an";
	setAttr -cb on ".ar";
	setAttr -k on ".fs";
	setAttr -k on ".ef";
	setAttr -av -k on ".bfs";
	setAttr -cb on ".me";
	setAttr -cb on ".se";
	setAttr -av -k on ".be";
	setAttr -av -cb on ".ep";
	setAttr -k on ".fec";
	setAttr -av -k on ".ofc";
	setAttr -cb on ".ofe";
	setAttr -cb on ".efe";
	setAttr -cb on ".oft";
	setAttr -cb on ".umfn";
	setAttr -cb on ".ufe";
	setAttr -av -k on ".pff";
	setAttr -av -cb on ".peie";
	setAttr -av -cb on ".ifp";
	setAttr -k on ".rv";
	setAttr -k on ".comp";
	setAttr -k on ".cth";
	setAttr -k on ".soll";
	setAttr -cb on ".sosl";
	setAttr -k on ".rd";
	setAttr -k on ".lp";
	setAttr -av -k on ".sp";
	setAttr -k on ".shs";
	setAttr -av -k on ".lpr";
	setAttr -cb on ".gv";
	setAttr -cb on ".sv";
	setAttr -k on ".mm";
	setAttr -k on ".npu";
	setAttr -k on ".itf";
	setAttr -k on ".shp";
	setAttr -cb on ".isp";
	setAttr -k on ".uf";
	setAttr -k on ".oi";
	setAttr -k on ".rut";
	setAttr -k on ".mot";
	setAttr -av -cb on ".mb";
	setAttr -av -k on ".mbf";
	setAttr -k on ".mbso";
	setAttr -k on ".mbsc";
	setAttr -av -k on ".afp";
	setAttr -k on ".pfb";
	setAttr -k on ".pram" -type "string" "pgYetiVRayPreRender";
	setAttr -k on ".poam" -type "string" "pgYetiVRayPostRender";
	setAttr -k on ".prlm";
	setAttr -k on ".polm";
	setAttr -cb on ".prm";
	setAttr -cb on ".pom";
	setAttr -cb on ".pfrm";
	setAttr -cb on ".pfom";
	setAttr -av -k on ".bll";
	setAttr -av -k on ".bls";
	setAttr -av -k on ".smv";
	setAttr -k on ".ubc";
	setAttr -k on ".mbc";
	setAttr -cb on ".mbt";
	setAttr -k on ".udbx";
	setAttr -k on ".smc";
	setAttr -k on ".kmv";
	setAttr -cb on ".isl";
	setAttr -cb on ".ism";
	setAttr -cb on ".imb";
	setAttr -av -k on ".rlen";
	setAttr -av -k on ".frts";
	setAttr -k on ".tlwd";
	setAttr -k on ".tlht";
	setAttr -k on ".jfc";
	setAttr -cb on ".rsb";
	setAttr -k on ".ope";
	setAttr -k on ".oppf";
	setAttr -av -k on ".rcp";
	setAttr -av -k on ".icp";
	setAttr -av -k on ".ocp";
	setAttr -cb on ".hbl";
select -ne :defaultResolution;
	setAttr -av -k on ".cch";
	setAttr -av -k on ".ihi";
	setAttr -av -k on ".nds";
	setAttr -k on ".bnm";
	setAttr -av -k on ".w";
	setAttr -av -k on ".h";
	setAttr -av -k on ".pa" 1;
	setAttr -av -k on ".al";
	setAttr -av -k on ".dar";
	setAttr -av -k on ".ldar";
	setAttr -av -k on ".dpi";
	setAttr -av -k on ".off";
	setAttr -av -k on ".fld";
	setAttr -av -k on ".zsl";
	setAttr -av -k on ".isu";
	setAttr -av -k on ".pdu";
select -ne :hardwareRenderGlobals;
	setAttr -k on ".cch";
	setAttr -cb on ".ihi";
	setAttr -k on ".nds";
	setAttr -cb on ".bnm";
	setAttr -k off -cb on ".ctrs" 256;
	setAttr -av -k off -cb on ".btrs" 512;
	setAttr -k off -cb on ".fbfm";
	setAttr -k off -cb on ".ehql";
	setAttr -k off -cb on ".eams";
	setAttr -k off -cb on ".eeaa";
	setAttr -k off -cb on ".engm";
	setAttr -k off -cb on ".mes";
	setAttr -k off -cb on ".emb";
	setAttr -av -k off -cb on ".mbbf";
	setAttr -k off -cb on ".mbs";
	setAttr -k off -cb on ".trm";
	setAttr -k off -cb on ".tshc";
	setAttr -k off -cb on ".enpt";
	setAttr -k off -cb on ".clmt";
	setAttr -k off -cb on ".tcov";
	setAttr -k off -cb on ".lith";
	setAttr -k off -cb on ".sobc";
	setAttr -k off -cb on ".cuth";
	setAttr -k off -cb on ".hgcd";
	setAttr -k off -cb on ".hgci";
	setAttr -k off -cb on ".mgcs";
	setAttr -k off -cb on ".twa";
	setAttr -k off -cb on ".twz";
	setAttr -cb on ".hwcc";
	setAttr -cb on ".hwdp";
	setAttr -cb on ".hwql";
	setAttr -k on ".hwfr";
	setAttr -k on ".soll";
	setAttr -k on ".sosl";
	setAttr -k on ".bswa";
	setAttr -k on ".shml";
	setAttr -k on ".hwel";
connectAttr "mthJawLwr1_Jnt.s" "mthJawLwr2_Jnt.is";
relationship "link" ":lightLinker1" ":initialShadingGroup.message" ":defaultLightSet.message";
relationship "link" ":lightLinker1" ":initialParticleSE.message" ":defaultLightSet.message";
relationship "shadowLink" ":lightLinker1" ":initialShadingGroup.message" ":defaultLightSet.message";
relationship "shadowLink" ":lightLinker1" ":initialParticleSE.message" ":defaultLightSet.message";
connectAttr "layerManager.dli[0]" "defaultLayer.id";
connectAttr "renderLayerManager.rlmi[0]" "defaultRenderLayer.rlid";
connectAttr "defaultRenderLayer.msg" ":defaultRenderingList1.r" -na;
// End of MouthTmpCrv.ma
