//Maya ASCII 2018ff09 scene
//Name: clavMusTmp.ma
//Last modified: Wed, Feb 24, 2021 12:36:46 PM
//Codeset: 1252
requires maya "2018ff09";
requires "stereoCamera" "10.0";
requires "mtoa" "3.3.0.2";
currentUnit -l centimeter -a degree -t ntsc;
fileInfo "application" "maya";
fileInfo "product" "Maya 2018";
fileInfo "version" "2018";
fileInfo "cutIdentifier" "201903222215-65bada0e52";
fileInfo "osv" "Microsoft Windows 8 Business Edition, 64-bit  (Build 9200)\n";
createNode transform -s -n "persp";
	rename -uid "2CF47587-4204-C127-00CF-1788107C0374";
	setAttr ".v" no;
	setAttr ".t" -type "double3" 2.1403937301491531 19.839317612205335 11.158797115021388 ;
	setAttr ".r" -type "double3" 2135.0616472573915 367.80000000018941 -2.0064103041291411e-16 ;
createNode camera -s -n "perspShape" -p "persp";
	rename -uid "FAB3DE2D-4846-C01D-32C1-5BA725BFF0A8";
	setAttr -k off ".v" no;
	setAttr ".fl" 34.999999999999993;
	setAttr ".coi" 12.340778588105614;
	setAttr ".imn" -type "string" "persp";
	setAttr ".den" -type "string" "persp_depth";
	setAttr ".man" -type "string" "persp_mask";
	setAttr ".tp" -type "double3" -1.0454709302458696 7.8453847775222876 -1.1423388209799015 ;
	setAttr ".hc" -type "string" "viewSet -p %camera";
	setAttr ".ai_translator" -type "string" "perspective";
createNode transform -s -n "top";
	rename -uid "AEC09C8E-45C0-3153-B627-C3B9BB79D281";
	setAttr ".v" no;
	setAttr ".t" -type "double3" 0 1000.1 0 ;
	setAttr ".r" -type "double3" -89.999999999999986 0 0 ;
createNode camera -s -n "topShape" -p "top";
	rename -uid "52DDC520-49E8-44CE-3072-4C967E487434";
	setAttr -k off ".v" no;
	setAttr ".rnd" no;
	setAttr ".coi" 1000.1;
	setAttr ".ow" 36.812517384159008;
	setAttr ".imn" -type "string" "top";
	setAttr ".den" -type "string" "top_depth";
	setAttr ".man" -type "string" "top_mask";
	setAttr ".hc" -type "string" "viewSet -t %camera";
	setAttr ".o" yes;
	setAttr ".ai_translator" -type "string" "orthographic";
createNode transform -s -n "front";
	rename -uid "67FFBB54-46F2-6882-AAF2-89A55C111D75";
	setAttr ".v" no;
	setAttr ".t" -type "double3" 2.3986409606900647 11.858217455937849 1000.2630698958528 ;
createNode camera -s -n "frontShape" -p "front";
	rename -uid "4E45E8DD-45E8-BE0D-FF2A-9885E6B168EB";
	setAttr -k off ".v" no;
	setAttr ".rnd" no;
	setAttr ".coi" 996.02179472465991;
	setAttr ".ow" 18.271323911732388;
	setAttr ".imn" -type "string" "front";
	setAttr ".den" -type "string" "front_depth";
	setAttr ".man" -type "string" "front_mask";
	setAttr ".tp" -type "double3" 6.0310421209242016e-05 18.022645445972266 4.2412751711928642 ;
	setAttr ".hc" -type "string" "viewSet -f %camera";
	setAttr ".o" yes;
	setAttr ".ai_translator" -type "string" "orthographic";
createNode transform -s -n "side";
	rename -uid "0030F0BC-4C46-CF20-5154-A0BF3540AF73";
	setAttr ".v" no;
	setAttr ".t" -type "double3" 1000.5758494290811 5.781159290510602 0.052230648120271339 ;
	setAttr ".r" -type "double3" 0 89.999999999999986 0 ;
createNode camera -s -n "sideShape" -p "side";
	rename -uid "DBA8632A-4904-C6DF-C75D-A9B3096A458B";
	setAttr -k off ".v" no;
	setAttr ".rnd" no;
	setAttr ".coi" 1000.556486323784;
	setAttr ".ow" 8.1010797889159267;
	setAttr ".imn" -type "string" "side";
	setAttr ".den" -type "string" "side_depth";
	setAttr ".man" -type "string" "side_mask";
	setAttr ".tp" -type "double3" 0.019363105297088623 5.8345718383789063 -0.078088089823722839 ;
	setAttr ".hc" -type "string" "viewSet -s %camera";
	setAttr ".o" yes;
	setAttr ".ai_translator" -type "string" "orthographic";
createNode transform -n "SpineMusRootJnt_Grp";
	rename -uid "EB32D07D-42EA-CD34-D6EB-7FB004AD0874";
	setAttr ".t" -type "double3" 0 13.877691692358287 -0.078477716306750211 ;
createNode joint -n "SpineMusRoot_Jnt" -p "SpineMusRootJnt_Grp";
	rename -uid "EF4CFABE-4C77-FBEB-6603-3BAB116B6B00";
	addAttr -ci true -sn "liw" -ln "lockInfluenceWeights" -min 0 -max 1 -at "bool";
	setAttr ".bps" -type "matrix" 1 0 0 0 0 1 0 0 0 0 1 0 0 13.877691692358287 -0.078477716306750211 1;
	setAttr ".radi" 0.8;
	setAttr ".liw" yes;
createNode joint -n "clavMus1Trash_L_Jnt" -p "SpineMusRoot_Jnt";
	rename -uid "B71ED0DE-4C60-0197-EB49-06A87CC3ECD5";
	setAttr ".t" -type "double3" 0.4280108600022311 1.5348426036801168 0.28768047473549707 ;
createNode joint -n "clavMus2Trash_L_Jnt" -p "clavMus1Trash_L_Jnt";
	rename -uid "D2283DE2-483F-D06C-AF3A-A2AE61EECA35";
	setAttr ".t" -type "double3" 1.6681309164711582 0.28569763939846027 -0.92803357457795732 ;
createNode joint -n "armPoint1Trash_L_Jnt" -p "clavMus2Trash_L_Jnt";
	rename -uid "65570AD3-4E74-1DE8-15FB-F5AED28CF1C8";
	setAttr ".radi" 4.5;
createNode joint -n "upArmRootAdjBind_L_jnt" -p "armPoint1Trash_L_Jnt";
	rename -uid "651658C2-4EF1-A65A-56C9-92A2F3F626EA";
	setAttr ".t" -type "double3" 2.6645352591003757e-15 -0.66055783238204668 2.2204460492503131e-16 ;
	setAttr ".r" -type "double3" -4.7708320221952744e-15 -9.5416640443905503e-15 -8.3489560388417319e-15 ;
	setAttr ".jo" -type "double3" 1.0623118732128669 -0.15847761179583739 -137.01512178055097 ;
	setAttr ".radi" 6.9;
createNode joint -n "scapRot1Trash_L_Jnt" -p "armPoint1Trash_L_Jnt";
	rename -uid "6A8F42DF-4297-043C-AF3C-5584A8AC5C4F";
	setAttr ".t" -type "double3" 4.4408920985006262e-16 -0.66055783238204313 1.1102230246251565e-16 ;
createNode joint -n "scap1Bind_L_jnt" -p "scapRot1Trash_L_Jnt";
	rename -uid "33EC361B-4071-6718-8D31-7E8A9CE20B13";
	setAttr ".t" -type "double3" -1.4058565485671353 0.25490342594979865 -0.79080390398904266 ;
	setAttr ".mnrl" -type "double3" -360 -360 -360 ;
	setAttr ".mxrl" -type "double3" 360 360 360 ;
	setAttr ".jo" -type "double3" 0 0 -180 ;
createNode joint -n "scap2Bind_L_jnt" -p "scap1Bind_L_jnt";
	rename -uid "476D6509-42C2-7171-782C-9F8327ED519B";
	setAttr ".t" -type "double3" 0 1.32664165834362 0 ;
	setAttr ".mnrl" -type "double3" -360 -360 -360 ;
	setAttr ".mxrl" -type "double3" 360 360 360 ;
createNode joint -n "trap1Bind_L_Jnt" -p "clavMus2Trash_L_Jnt";
	rename -uid "75C9ABFE-46F9-3042-488A-799FDB79404F";
	setAttr ".t" -type "double3" -0.63156288905297631 0.20038066996994885 -0.20106900854331844 ;
	setAttr ".mnrl" -type "double3" -360 -360 -360 ;
	setAttr ".mxrl" -type "double3" 360 360 360 ;
	setAttr ".jo" -type "double3" -176.66370521141903 -9.239790875687703 153.68802325218462 ;
createNode joint -n "trap2Bind_L_Jnt" -p "trap1Bind_L_Jnt";
	rename -uid "2D1A51DD-4A9D-4E2F-763E-BFB62CAFC0C8";
	setAttr ".t" -type "double3" 1.2697000811516439 1.7763568394002505e-15 -1.1102230246251565e-16 ;
	setAttr ".mnrl" -type "double3" -360 -360 -360 ;
	setAttr ".mxrl" -type "double3" 360 360 360 ;
	setAttr ".jo" -type "double3" 7.2755188338477943e-14 -6.3611093629270351e-15 2.631412037242082e-14 ;
createNode joint -n "trap1BindBck_L_Jnt" -p "clavMus1Trash_L_Jnt";
	rename -uid "7293DD5F-4071-3E4E-5F2C-4DB4BE1D242F";
	addAttr -ci true -sn "liw" -ln "lockInfluenceWeights" -min 0 -max 1 -at "bool";
	setAttr ".t" -type "double3" 0.42995897979139686 0.59029705871846794 -1.465060993356746 ;
	setAttr ".mnrl" -type "double3" -360 -360 -360 ;
	setAttr ".mxrl" -type "double3" 360 360 360 ;
	setAttr ".jo" -type "double3" -89.999999999999787 0 -90.000000000000256 ;
	setAttr ".bps" -type "matrix" -0.88476307775722929 0.43750729362333607 0.16056669724428962 0
		 0.43413105128487373 0.89901653154065253 -0.057441329431910833 0 -0.16948311581938108 0.018885021657359152 -0.98535213472603567 0
		 1.4645788874204124 15.898612605406811 -0.91989982469252873 1;
	setAttr ".liw" yes;
createNode joint -n "trap2BindBck_L_Jnt" -p "trap1BindBck_L_Jnt";
	rename -uid "27B96BA5-4BE2-D4DA-E871-F79FD2790FBB";
	addAttr -ci true -sn "liw" -ln "lockInfluenceWeights" -min 0 -max 1 -at "bool";
	setAttr ".mnrl" -type "double3" -360 -360 -360 ;
	setAttr ".mxrl" -type "double3" 360 360 360 ;
	setAttr ".jo" -type "double3" -3.1805546814635168e-15 -6.3611093629270335e-15 2.4717875269080888e-29 ;
	setAttr ".bps" -type "matrix" -0.88476307775722929 0.43750729362333607 0.16056669724428962 0
		 0.43413105128487373 0.89901653154065253 -0.057441329431910833 0 -0.16948311581938108 0.018885021657359152 -0.98535213472603567 0
		 1.4645788874204124 15.898612605406811 -0.91989982469252873 1;
	setAttr ".liw" yes;
createNode joint -n "trap3BindBck_L_Jnt" -p "trap2BindBck_L_Jnt";
	rename -uid "E6DC69AD-4AD6-D3F7-4137-C48D6C61B035";
	addAttr -ci true -sn "liw" -ln "lockInfluenceWeights" -min 0 -max 1 -at "bool";
	setAttr ".mnrl" -type "double3" -360 -360 -360 ;
	setAttr ".mxrl" -type "double3" 360 360 360 ;
	setAttr ".bps" -type "matrix" -4.4408920985006262e-15 -1 0 0 3.9412917374193057e-15 0 -1 0
		 1 -4.3853809472693683e-15 3.8857805861880479e-15 0 0.85796983979362795 16.002831354756871 -1.2558582349279992 1;
	setAttr ".radi" 2.9000000000000004;
	setAttr ".liw" yes;
createNode joint -n "pec1Bind_L_Jnt" -p "clavMus1Trash_L_Jnt";
	rename -uid "D1FF7DDF-4ACC-809C-1957-1C94D42AE82E";
	setAttr ".t" -type "double3" 0.64779298780228312 -0.51642075301764834 0.52121289267236248 ;
	setAttr ".mnrl" -type "double3" -360 -360 -360 ;
	setAttr ".mxrl" -type "double3" 360 360 360 ;
createNode joint -n "pec2Bind_L_Jnt" -p "pec1Bind_L_Jnt";
	rename -uid "6181D4F9-401D-E3DA-B04E-51ACEAE5D2F2";
	setAttr ".t" -type "double3" -1.1102230246251565e-16 -0.87089149571703572 1.1102230246251565e-16 ;
	setAttr ".mnrl" -type "double3" -360 -360 -360 ;
	setAttr ".mxrl" -type "double3" 360 360 360 ;
createNode joint -n "lat1Bind_L_Jnt" -p "SpineMusRoot_Jnt";
	rename -uid "EF44F8C1-4962-0434-39BA-E08126089A1E";
	setAttr ".t" -type "double3" 1.5819540640471668 -0.11072176893925878 -0.45171050650528077 ;
	setAttr ".mnrl" -type "double3" -360 -360 -360 ;
	setAttr ".mxrl" -type "double3" 360 360 360 ;
createNode joint -n "lat1Bind_R_Jnt" -p "SpineMusRoot_Jnt";
	rename -uid "A7E105E7-4AD4-A465-2B21-03A41FCDC976";
	setAttr ".t" -type "double3" -1.58195 -0.11069169235828724 -0.45171018816882558 ;
	setAttr ".mnrl" -type "double3" -360 -360 -360 ;
	setAttr ".mxrl" -type "double3" 360 360 360 ;
	setAttr ".jo" -type "double3" -180 0 0 ;
createNode joint -n "clavMus1Trash_R_Jnt" -p "SpineMusRoot_Jnt";
	rename -uid "AC9039CB-4642-E1FA-2884-0DB54A700AE0";
	setAttr ".t" -type "double3" -0.428011 1.5348083076417129 0.28768071630675018 ;
	setAttr ".jo" -type "double3" -180 0 0 ;
createNode joint -n "clavMus2Trash_R_Jnt" -p "clavMus1Trash_R_Jnt";
	rename -uid "A262E6D0-4695-022E-0E5D-4C871EFB378A";
	setAttr ".t" -type "double3" -1.6681290000000002 -0.28570000000000029 0.928034 ;
createNode joint -n "armPoint1Trash_R_Jnt" -p "clavMus2Trash_R_Jnt";
	rename -uid "4C7C3242-4CBF-617D-C2DD-5885D6FBFF95";
	setAttr ".radi" 4.5;
createNode joint -n "upArmRootAdjBind_R_jnt" -p "armPoint1Trash_R_Jnt";
	rename -uid "4BF58019-43F4-4CF6-0BAB-889B63C968E2";
	setAttr ".t" -type "double3" 0 0.66050000000000075 0 ;
	setAttr ".r" -type "double3" -4.7708320221952744e-15 -9.5416640443905503e-15 -8.3489560388417319e-15 ;
	setAttr ".jo" -type "double3" 1.0623118732137955 -0.15847761179584213 -137.01512178055097 ;
	setAttr ".radi" 6.9;
createNode joint -n "scapRot1Trash_R_Jnt" -p "armPoint1Trash_R_Jnt";
	rename -uid "CE99166D-48E8-06B5-7B3A-1B978BF53FE7";
	setAttr ".t" -type "double3" 0 0.66050000000000075 0 ;
createNode joint -n "scap1Bind_R_jnt" -p "scapRot1Trash_R_Jnt";
	rename -uid "C25A3796-47C5-53CA-A0A7-7D94E75264E4";
	setAttr ".t" -type "double3" 1.405855 -0.25490000000000101 0.79079899999999981 ;
	setAttr ".mnrl" -type "double3" -360 -360 -360 ;
	setAttr ".mxrl" -type "double3" 360 360 360 ;
	setAttr ".jo" -type "double3" 7.016709298534876e-15 -7.0167092985348791e-15 -180 ;
createNode joint -n "scap2Bind_R_jnt" -p "scap1Bind_R_jnt";
	rename -uid "9B56E9EA-4B8A-1133-DA75-1F82667807D3";
	setAttr ".t" -type "double3" -2.2204460492503131e-16 -1.3267000000000007 0 ;
	setAttr ".mnrl" -type "double3" -360 -360 -360 ;
	setAttr ".mxrl" -type "double3" 360 360 360 ;
createNode joint -n "trap1Bind_R_Jnt" -p "clavMus2Trash_R_Jnt";
	rename -uid "8521AE40-4D8A-D5A5-EE13-5EB5D345FCFA";
	setAttr ".t" -type "double3" 0.63156000000000012 -0.20040000000000013 0.20106900000000016 ;
	setAttr ".mnrl" -type "double3" -360 -360 -360 ;
	setAttr ".mxrl" -type "double3" 360 360 360 ;
	setAttr ".jo" -type "double3" -176.66370521141903 -9.239790875687703 153.68802325218462 ;
createNode joint -n "trap2Bind_R_Jnt" -p "trap1Bind_R_Jnt";
	rename -uid "0F5B20C8-442E-0C55-BD16-D19B8618B3C5";
	setAttr ".t" -type "double3" -1.2696999254146544 3.3064907665192322e-06 2.908154480563141e-07 ;
	setAttr ".mnrl" -type "double3" -360 -360 -360 ;
	setAttr ".mxrl" -type "double3" 360 360 360 ;
createNode joint -n "trap1BindBck_R_Jnt" -p "clavMus1Trash_R_Jnt";
	rename -uid "99A14569-422B-D102-8575-56A752BE4A6A";
	addAttr -ci true -sn "liw" -ln "lockInfluenceWeights" -min 0 -max 1 -at "bool";
	setAttr ".t" -type "double3" -0.42995900000000004 -0.59030000000000094 1.465063 ;
	setAttr ".mnrl" -type "double3" -360 -360 -360 ;
	setAttr ".mxrl" -type "double3" 360 360 360 ;
	setAttr ".jo" -type "double3" -89.999999999999773 -6.361109362927032e-15 -90.000000000000256 ;
	setAttr ".bps" -type "matrix" -0.88476307775722929 0.43750729362333607 0.16056669724428962 0
		 0.43413105128487373 0.89901653154065253 -0.057441329431910833 0 -0.16948311581938108 0.018885021657359152 -0.98535213472603567 0
		 1.4645788874204124 15.898612605406811 -0.91989982469252873 1;
	setAttr ".liw" yes;
createNode joint -n "trap2BindBck_R_Jnt" -p "trap1BindBck_R_Jnt";
	rename -uid "91DE79F2-4353-3C60-4B40-D58B943F0F97";
	addAttr -ci true -sn "liw" -ln "lockInfluenceWeights" -min 0 -max 1 -at "bool";
	setAttr ".mnrl" -type "double3" -360 -360 -360 ;
	setAttr ".mxrl" -type "double3" 360 360 360 ;
	setAttr ".bps" -type "matrix" -0.88476307775722929 0.43750729362333607 0.16056669724428962 0
		 0.43413105128487373 0.89901653154065253 -0.057441329431910833 0 -0.16948311581938108 0.018885021657359152 -0.98535213472603567 0
		 1.4645788874204124 15.898612605406811 -0.91989982469252873 1;
	setAttr ".liw" yes;
createNode joint -n "trap3BindBck_R_Jnt" -p "trap2BindBck_R_Jnt";
	rename -uid "1AD35042-4F87-805A-082C-87A996A8BBC6";
	addAttr -ci true -sn "liw" -ln "lockInfluenceWeights" -min 0 -max 1 -at "bool";
	setAttr ".mnrl" -type "double3" -360 -360 -360 ;
	setAttr ".mxrl" -type "double3" 360 360 360 ;
	setAttr ".bps" -type "matrix" -4.4408920985006262e-15 -1 0 0 3.9412917374193057e-15 0 -1 0
		 1 -4.3853809472693683e-15 3.8857805861880479e-15 0 0.85796983979362795 16.002831354756871 -1.2558582349279992 1;
	setAttr ".radi" 2.9000000000000004;
	setAttr ".liw" yes;
createNode joint -n "pec1Bind_R_Jnt" -p "clavMus1Trash_R_Jnt";
	rename -uid "09FE787E-49F6-3E7D-247D-429F2CD7C9A9";
	setAttr ".t" -type "double3" -0.64778900000000017 0.51639999999999908 -0.52121300000000015 ;
	setAttr ".mnrl" -type "double3" -360 -360 -360 ;
	setAttr ".mxrl" -type "double3" 360 360 360 ;
createNode joint -n "pec2Bind_R_Jnt" -p "pec1Bind_R_Jnt";
	rename -uid "23D319AC-4999-36F2-5837-0D9E88019E17";
	setAttr ".t" -type "double3" 0 0.87090000000000067 -1.1102230246251565e-16 ;
	setAttr ".mnrl" -type "double3" -360 -360 -360 ;
	setAttr ".mxrl" -type "double3" 360 360 360 ;
createNode lightLinker -s -n "lightLinker1";
	rename -uid "114294C7-4E41-BB44-DF77-25911EE5537E";
	setAttr -s 2 ".lnk";
	setAttr -s 2 ".slnk";
createNode shapeEditorManager -n "shapeEditorManager";
	rename -uid "766CE3FB-455F-FAD7-F392-FA84220AF16C";
	setAttr ".bsdt[0].bscd" -type "Int32Array" 0 ;
createNode poseInterpolatorManager -n "poseInterpolatorManager";
	rename -uid "C48B0CF6-4257-2A63-6014-C887705F4A90";
createNode displayLayerManager -n "layerManager";
	rename -uid "34CDE7BB-4FD0-55C3-6A83-238CD4B2FD95";
	setAttr ".cdl" 3;
	setAttr -s 4 ".dli[1:3]"  1 4 3;
createNode displayLayer -n "defaultLayer";
	rename -uid "EE2573EE-482E-520D-66E6-97829E9461EC";
createNode renderLayerManager -n "renderLayerManager";
	rename -uid "E19D526C-4F95-FFE2-158B-66A1F18E56C2";
createNode renderLayer -n "defaultRenderLayer";
	rename -uid "8DDA2892-4846-75CD-7D25-10A1D5E57A56";
	setAttr ".g" yes;
createNode nodeGraphEditorInfo -n "hyperShadePrimaryNodeEditorSavedTabsInfo";
	rename -uid "E6C92230-4268-DB08-7BAC-12A0FD624F94";
	setAttr ".tgi[0].tn" -type "string" "Untitled_1";
	setAttr ".tgi[0].vl" -type "double2" -330.95236780151544 -146.42856561002301 ;
	setAttr ".tgi[0].vh" -type "double2" 317.85713022663526 338.09522466054096 ;
createNode script -n "sceneConfigurationScriptNode";
	rename -uid "D7FE8338-4140-50B5-2CA4-AFBF34FFF930";
	setAttr ".b" -type "string" "playbackOptions -min 1 -max 189 -ast 1 -aet 200 ";
	setAttr ".st" 6;
createNode nodeGraphEditorInfo -n "MayaNodeEditorSavedTabsInfo";
	rename -uid "CB475DF2-43BE-BEAA-1450-1BA224902BEC";
	setAttr ".tgi[0].tn" -type "string" "Untitled_1";
	setAttr ".tgi[0].vl" -type "double2" -1181.8737299445809 -1777.3808817541815 ;
	setAttr ".tgi[0].vh" -type "double2" 1089.0165907772493 -530.9523598542296 ;
	setAttr -s 17 ".tgi[0].ni";
	setAttr ".tgi[0].ni[0].x" 628.5714111328125;
	setAttr ".tgi[0].ni[0].y" -890;
	setAttr ".tgi[0].ni[0].nvs" 18304;
	setAttr ".tgi[0].ni[1].x" 628.5714111328125;
	setAttr ".tgi[0].ni[1].y" -585.71429443359375;
	setAttr ".tgi[0].ni[1].nvs" 18304;
	setAttr ".tgi[0].ni[2].x" 628.5714111328125;
	setAttr ".tgi[0].ni[2].y" -991.4285888671875;
	setAttr ".tgi[0].ni[2].nvs" 18304;
	setAttr ".tgi[0].ni[3].x" 321.42855834960938;
	setAttr ".tgi[0].ni[3].y" -600;
	setAttr ".tgi[0].ni[3].nvs" 18304;
	setAttr ".tgi[0].ni[4].x" 321.42855834960938;
	setAttr ".tgi[0].ni[4].y" -772.85711669921875;
	setAttr ".tgi[0].ni[4].nvs" 18304;
	setAttr ".tgi[0].ni[5].x" 14.285714149475098;
	setAttr ".tgi[0].ni[5].y" -612.85711669921875;
	setAttr ".tgi[0].ni[5].nvs" 18304;
	setAttr ".tgi[0].ni[6].x" -600;
	setAttr ".tgi[0].ni[6].y" -768.5714111328125;
	setAttr ".tgi[0].ni[6].nvs" 18304;
	setAttr ".tgi[0].ni[7].x" 628.5714111328125;
	setAttr ".tgi[0].ni[7].y" -788.5714111328125;
	setAttr ".tgi[0].ni[7].nvs" 18304;
	setAttr ".tgi[0].ni[8].x" 321.42855834960938;
	setAttr ".tgi[0].ni[8].y" -874.28570556640625;
	setAttr ".tgi[0].ni[8].nvs" 18304;
	setAttr ".tgi[0].ni[9].x" 321.42855834960938;
	setAttr ".tgi[0].ni[9].y" -975.71429443359375;
	setAttr ".tgi[0].ni[9].nvs" 18304;
	setAttr ".tgi[0].ni[10].x" -438.57144165039063;
	setAttr ".tgi[0].ni[10].y" -1120;
	setAttr ".tgi[0].ni[10].nvs" 18304;
	setAttr ".tgi[0].ni[11].x" -907.14288330078125;
	setAttr ".tgi[0].ni[11].y" -784.28570556640625;
	setAttr ".tgi[0].ni[11].nvs" 18304;
	setAttr ".tgi[0].ni[12].x" -292.85714721679688;
	setAttr ".tgi[0].ni[12].y" -738.5714111328125;
	setAttr ".tgi[0].ni[12].nvs" 18304;
	setAttr ".tgi[0].ni[13].x" 14.285714149475098;
	setAttr ".tgi[0].ni[13].y" -771.4285888671875;
	setAttr ".tgi[0].ni[13].nvs" 18304;
	setAttr ".tgi[0].ni[14].x" 628.5714111328125;
	setAttr ".tgi[0].ni[14].y" -687.14288330078125;
	setAttr ".tgi[0].ni[14].nvs" 18304;
	setAttr ".tgi[0].ni[15].x" -138.57142639160156;
	setAttr ".tgi[0].ni[15].y" -1451.4285888671875;
	setAttr ".tgi[0].ni[15].nvs" 18304;
	setAttr ".tgi[0].ni[16].x" 468.57144165039063;
	setAttr ".tgi[0].ni[16].y" -1387.142822265625;
	setAttr ".tgi[0].ni[16].nvs" 18304;
select -ne :time1;
	setAttr -av -k on ".cch";
	setAttr -av -cb on ".ihi";
	setAttr -av -k on ".nds";
	setAttr -cb on ".bnm";
	setAttr -k on ".o" 1;
	setAttr -av -k on ".unw" 1;
	setAttr -av -k on ".etw";
	setAttr -av -k on ".tps";
	setAttr -av -k on ".tms";
select -ne :hardwareRenderingGlobals;
	setAttr -av -k on ".ihi";
	setAttr ".otfna" -type "stringArray" 22 "NURBS Curves" "NURBS Surfaces" "Polygons" "Subdiv Surface" "Particles" "Particle Instance" "Fluids" "Strokes" "Image Planes" "UI" "Lights" "Cameras" "Locators" "Joints" "IK Handles" "Deformers" "Motion Trails" "Components" "Hair Systems" "Follicles" "Misc. UI" "Ornaments"  ;
	setAttr ".otfva" -type "Int32Array" 22 0 1 1 1 1 1
		 1 1 1 0 0 0 0 0 0 0 0 0
		 0 0 0 0 ;
	setAttr -av ".ta";
	setAttr -av ".tq";
	setAttr -av ".tmr";
	setAttr -av ".aoam";
	setAttr -av ".aora";
	setAttr -av ".hfd";
	setAttr -av ".hfs";
	setAttr -av ".hfe";
	setAttr -av ".hfcr";
	setAttr -av ".hfcg";
	setAttr -av ".hfcb";
	setAttr -av ".hfa";
	setAttr -av ".mbe";
	setAttr -av -k on ".mbsof";
	setAttr ".fprt" yes;
select -ne :renderPartition;
	setAttr -av -k on ".cch";
	setAttr -cb on ".ihi";
	setAttr -av -k on ".nds";
	setAttr -cb on ".bnm";
	setAttr -s 2 ".st";
	setAttr -cb on ".an";
	setAttr -cb on ".pt";
select -ne :renderGlobalsList1;
	setAttr -k on ".cch";
	setAttr -cb on ".ihi";
	setAttr -k on ".nds";
	setAttr -cb on ".bnm";
select -ne :defaultShaderList1;
	setAttr -k on ".cch";
	setAttr -cb on ".ihi";
	setAttr -k on ".nds";
	setAttr -cb on ".bnm";
	setAttr -s 4 ".s";
select -ne :postProcessList1;
	setAttr -k on ".cch";
	setAttr -cb on ".ihi";
	setAttr -k on ".nds";
	setAttr -cb on ".bnm";
	setAttr -s 2 ".p";
select -ne :defaultRenderingList1;
	setAttr -k on ".ihi";
select -ne :initialShadingGroup;
	setAttr -av -k on ".cch";
	setAttr -k on ".fzn";
	setAttr -cb on ".ihi";
	setAttr -av -k on ".nds";
	setAttr -cb on ".bnm";
	setAttr -k on ".bbx";
	setAttr -k on ".vwm";
	setAttr -k on ".tpv";
	setAttr -k on ".uit";
	setAttr -k on ".mwc";
	setAttr -cb on ".an";
	setAttr -cb on ".il";
	setAttr -cb on ".vo";
	setAttr -cb on ".eo";
	setAttr -cb on ".fo";
	setAttr -cb on ".epo";
	setAttr -k on ".ro" yes;
select -ne :initialParticleSE;
	setAttr -av -k on ".cch";
	setAttr -cb on ".ihi";
	setAttr -av -k on ".nds";
	setAttr -cb on ".bnm";
	setAttr -k on ".mwc";
	setAttr -cb on ".an";
	setAttr -cb on ".il";
	setAttr -cb on ".vo";
	setAttr -cb on ".eo";
	setAttr -cb on ".fo";
	setAttr -cb on ".epo";
	setAttr -k on ".ro" yes;
select -ne :defaultRenderGlobals;
	setAttr -av -k on ".cch";
	setAttr -cb on ".ihi";
	setAttr -av -k on ".nds";
	setAttr -cb on ".bnm";
	setAttr -av -k on ".macc";
	setAttr -av -k on ".macd";
	setAttr -av -k on ".macq";
	setAttr -av -k on ".mcfr";
	setAttr -cb on ".ifg";
	setAttr -av -k on ".clip";
	setAttr -av -k on ".edm";
	setAttr -av -k on ".edl";
	setAttr -cb on ".ren" -type "string" "arnold";
	setAttr -av -k on ".esr";
	setAttr -av -k on ".ors";
	setAttr -cb on ".sdf";
	setAttr -av -k on ".outf";
	setAttr -av -cb on ".imfkey";
	setAttr -av -k on ".gama";
	setAttr -k on ".exrc";
	setAttr -k on ".expt";
	setAttr -av -k on ".an";
	setAttr -cb on ".ar";
	setAttr -k on ".fs" 1;
	setAttr -av -k on ".ef" 10;
	setAttr -av -k on ".bfs";
	setAttr -cb on ".me";
	setAttr -cb on ".se";
	setAttr -av -k on ".be";
	setAttr -av -cb on ".ep";
	setAttr -av -k on ".fec";
	setAttr -av -k on ".ofc";
	setAttr -cb on ".ofe";
	setAttr -cb on ".efe";
	setAttr -cb on ".oft";
	setAttr -cb on ".umfn";
	setAttr -cb on ".ufe";
	setAttr -av -cb on ".pff";
	setAttr -av -cb on ".peie";
	setAttr -av -cb on ".ifp";
	setAttr -k on ".rv";
	setAttr -av -k on ".comp";
	setAttr -av -k on ".cth";
	setAttr -av -k on ".soll";
	setAttr -cb on ".sosl";
	setAttr -av -k on ".rd";
	setAttr -av -k on ".lp";
	setAttr -av -k on ".sp";
	setAttr -av -k on ".shs";
	setAttr -av -k on ".lpr";
	setAttr -cb on ".gv";
	setAttr -cb on ".sv";
	setAttr -av -k on ".mm";
	setAttr -av -k on ".npu";
	setAttr -av -k on ".itf";
	setAttr -av -k on ".shp";
	setAttr -cb on ".isp";
	setAttr -av -k on ".uf";
	setAttr -av -k on ".oi";
	setAttr -av -k on ".rut";
	setAttr -av -k on ".mot";
	setAttr -av -cb on ".mb";
	setAttr -av -k on ".mbf";
	setAttr -av -k on ".mbso";
	setAttr -av -k on ".mbsc";
	setAttr -av -k on ".afp";
	setAttr -av -k on ".pfb";
	setAttr -k on ".pram";
	setAttr -k on ".poam";
	setAttr -k on ".prlm";
	setAttr -k on ".polm";
	setAttr -cb on ".prm";
	setAttr -cb on ".pom";
	setAttr -cb on ".pfrm";
	setAttr -cb on ".pfom";
	setAttr -av -k on ".bll";
	setAttr -av -k on ".bls";
	setAttr -av -k on ".smv";
	setAttr -av -k on ".ubc";
	setAttr -av -k on ".mbc";
	setAttr -cb on ".mbt";
	setAttr -av -k on ".udbx";
	setAttr -av -k on ".smc";
	setAttr -av -k on ".kmv";
	setAttr -cb on ".isl";
	setAttr -cb on ".ism";
	setAttr -cb on ".imb";
	setAttr -av -k on ".rlen";
	setAttr -av -k on ".frts";
	setAttr -av -k on ".tlwd";
	setAttr -av -k on ".tlht";
	setAttr -av -k on ".jfc";
	setAttr -cb on ".rsb";
	setAttr -av -cb on ".ope";
	setAttr -av -cb on ".oppf";
	setAttr -av -k on ".rcp";
	setAttr -av -k on ".icp";
	setAttr -av -k on ".ocp";
	setAttr -cb on ".hbl";
select -ne :defaultResolution;
	setAttr -av -k on ".cch";
	setAttr -av -k on ".ihi";
	setAttr -av -k on ".nds";
	setAttr -k on ".bnm";
	setAttr -av -k on ".w";
	setAttr -av -k on ".h";
	setAttr -av -k on ".pa" 1;
	setAttr -av -k on ".al";
	setAttr -av -k on ".dar";
	setAttr -av -k on ".ldar";
	setAttr -av -k on ".dpi";
	setAttr -av -k on ".off";
	setAttr -av -k on ".fld";
	setAttr -av -k on ".zsl";
	setAttr -av -k on ".isu";
	setAttr -av -k on ".pdu";
select -ne :hardwareRenderGlobals;
	setAttr -av -k on ".cch";
	setAttr -cb on ".ihi";
	setAttr -av -k on ".nds";
	setAttr -cb on ".bnm";
	setAttr -av -k off -cb on ".ctrs" 256;
	setAttr -av -k off -cb on ".btrs" 512;
	setAttr -av -k off -cb on ".fbfm";
	setAttr -av -k off -cb on ".ehql";
	setAttr -av -k off -cb on ".eams";
	setAttr -av -k off -cb on ".eeaa";
	setAttr -av -k off -cb on ".engm";
	setAttr -av -k off -cb on ".mes";
	setAttr -av -k off -cb on ".emb";
	setAttr -av -k off -cb on ".mbbf";
	setAttr -av -k off -cb on ".mbs";
	setAttr -av -k off -cb on ".trm";
	setAttr -av -k off -cb on ".tshc";
	setAttr -av -k off -cb on ".enpt";
	setAttr -av -k off -cb on ".clmt";
	setAttr -av -k off -cb on ".tcov";
	setAttr -av -k off -cb on ".lith";
	setAttr -av -k off -cb on ".sobc";
	setAttr -av -k off -cb on ".cuth";
	setAttr -av -k off -cb on ".hgcd";
	setAttr -av -k off -cb on ".hgci";
	setAttr -av -k off -cb on ".mgcs";
	setAttr -av -k off -cb on ".twa";
	setAttr -av -k off -cb on ".twz";
	setAttr -cb on ".hwcc";
	setAttr -cb on ".hwdp";
	setAttr -cb on ".hwql";
	setAttr -k on ".hwfr";
	setAttr -k on ".soll";
	setAttr -k on ".sosl";
	setAttr -k on ".bswa";
	setAttr -k on ".shml";
	setAttr -k on ".hwel";
connectAttr "SpineMusRoot_Jnt.s" "clavMus1Trash_L_Jnt.is";
connectAttr "clavMus1Trash_L_Jnt.s" "clavMus2Trash_L_Jnt.is";
connectAttr "clavMus2Trash_L_Jnt.s" "armPoint1Trash_L_Jnt.is";
connectAttr "armPoint1Trash_L_Jnt.s" "upArmRootAdjBind_L_jnt.is";
connectAttr "armPoint1Trash_L_Jnt.s" "scapRot1Trash_L_Jnt.is";
connectAttr "scapRot1Trash_L_Jnt.s" "scap1Bind_L_jnt.is";
connectAttr "scap1Bind_L_jnt.s" "scap2Bind_L_jnt.is";
connectAttr "clavMus2Trash_L_Jnt.s" "trap1Bind_L_Jnt.is";
connectAttr "trap1Bind_L_Jnt.s" "trap2Bind_L_Jnt.is";
connectAttr "clavMus1Trash_L_Jnt.s" "trap1BindBck_L_Jnt.is";
connectAttr "trap1BindBck_L_Jnt.s" "trap2BindBck_L_Jnt.is";
connectAttr "trap2BindBck_L_Jnt.s" "trap3BindBck_L_Jnt.is";
connectAttr "clavMus1Trash_L_Jnt.s" "pec1Bind_L_Jnt.is";
connectAttr "pec1Bind_L_Jnt.s" "pec2Bind_L_Jnt.is";
connectAttr "SpineMusRoot_Jnt.s" "lat1Bind_L_Jnt.is";
connectAttr "SpineMusRoot_Jnt.s" "lat1Bind_R_Jnt.is";
connectAttr "SpineMusRoot_Jnt.s" "clavMus1Trash_R_Jnt.is";
connectAttr "clavMus1Trash_R_Jnt.s" "clavMus2Trash_R_Jnt.is";
connectAttr "clavMus2Trash_R_Jnt.s" "armPoint1Trash_R_Jnt.is";
connectAttr "armPoint1Trash_R_Jnt.s" "upArmRootAdjBind_R_jnt.is";
connectAttr "armPoint1Trash_R_Jnt.s" "scapRot1Trash_R_Jnt.is";
connectAttr "scapRot1Trash_R_Jnt.s" "scap1Bind_R_jnt.is";
connectAttr "scap1Bind_R_jnt.s" "scap2Bind_R_jnt.is";
connectAttr "clavMus2Trash_R_Jnt.s" "trap1Bind_R_Jnt.is";
connectAttr "trap1Bind_R_Jnt.s" "trap2Bind_R_Jnt.is";
connectAttr "clavMus1Trash_R_Jnt.s" "trap1BindBck_R_Jnt.is";
connectAttr "trap1BindBck_R_Jnt.s" "trap2BindBck_R_Jnt.is";
connectAttr "trap2BindBck_R_Jnt.s" "trap3BindBck_R_Jnt.is";
connectAttr "clavMus1Trash_R_Jnt.s" "pec1Bind_R_Jnt.is";
connectAttr "pec1Bind_R_Jnt.s" "pec2Bind_R_Jnt.is";
relationship "link" ":lightLinker1" ":initialShadingGroup.message" ":defaultLightSet.message";
relationship "link" ":lightLinker1" ":initialParticleSE.message" ":defaultLightSet.message";
relationship "shadowLink" ":lightLinker1" ":initialShadingGroup.message" ":defaultLightSet.message";
relationship "shadowLink" ":lightLinker1" ":initialParticleSE.message" ":defaultLightSet.message";
connectAttr "layerManager.dli[0]" "defaultLayer.id";
connectAttr "renderLayerManager.rlmi[0]" "defaultRenderLayer.rlid";
connectAttr "trap2Bind_R_Jnt.msg" "MayaNodeEditorSavedTabsInfo.tgi[0].ni[0].dn";
connectAttr "trap3BindBck_R_Jnt.msg" "MayaNodeEditorSavedTabsInfo.tgi[0].ni[1].dn"
		;
connectAttr "pec2Bind_R_Jnt.msg" "MayaNodeEditorSavedTabsInfo.tgi[0].ni[2].dn";
connectAttr "trap2BindBck_R_Jnt.msg" "MayaNodeEditorSavedTabsInfo.tgi[0].ni[3].dn"
		;
connectAttr "scap1Bind_R_jnt.msg" "MayaNodeEditorSavedTabsInfo.tgi[0].ni[4].dn";
connectAttr "trap1BindBck_R_Jnt.msg" "MayaNodeEditorSavedTabsInfo.tgi[0].ni[5].dn"
		;
connectAttr "clavMus2Trash_R_Jnt.msg" "MayaNodeEditorSavedTabsInfo.tgi[0].ni[6].dn"
		;
connectAttr "scap2Bind_R_jnt.msg" "MayaNodeEditorSavedTabsInfo.tgi[0].ni[7].dn";
connectAttr "trap1Bind_R_Jnt.msg" "MayaNodeEditorSavedTabsInfo.tgi[0].ni[8].dn";
connectAttr "pec1Bind_R_Jnt.msg" "MayaNodeEditorSavedTabsInfo.tgi[0].ni[9].dn";
connectAttr "SpineMusRootJnt_Grp.msg" "MayaNodeEditorSavedTabsInfo.tgi[0].ni[10].dn"
		;
connectAttr "clavMus1Trash_R_Jnt.msg" "MayaNodeEditorSavedTabsInfo.tgi[0].ni[11].dn"
		;
connectAttr "armPoint1Trash_R_Jnt.msg" "MayaNodeEditorSavedTabsInfo.tgi[0].ni[12].dn"
		;
connectAttr "scapRot1Trash_R_Jnt.msg" "MayaNodeEditorSavedTabsInfo.tgi[0].ni[13].dn"
		;
connectAttr "upArmRootAdjBind_R_jnt.msg" "MayaNodeEditorSavedTabsInfo.tgi[0].ni[14].dn"
		;
connectAttr "sceneConfigurationScriptNode.msg" "MayaNodeEditorSavedTabsInfo.tgi[0].ni[16].dn"
		;
connectAttr "defaultRenderLayer.msg" ":defaultRenderingList1.r" -na;
dataStructure -fmt "raw" -as "name=FBXFastExportSetting_MB:string=19424";
dataStructure -fmt "raw" -as "name=faceConnectOutputStructure:bool=faceConnectOutput:string[200]=faceConnectOutputAttributes:string[200]=faceConnectOutputGroups";
dataStructure -fmt "raw" -as "name=externalContentTablZ:string=nodZ:string=key:string=upath:uint32=upathcrc:string=rpath:string=roles";
dataStructure -fmt "raw" -as "name=idStructure:int32=ID";
dataStructure -fmt "raw" -as "name=FBXFastExportSetting_FBX:string=54";
dataStructure -fmt "raw" -as "name=faceConnectMarkerStructure:bool=faceConnectMarker:string[200]=faceConnectOutputGroups";
// End of clavMusTmp.ma
