//Maya ASCII 2018ff09 scene
//Name: clavMusTmp.ma
//Last modified: Mon, Jun 06, 2022 09:13:48 AM
//Codeset: 1252
requires maya "2018ff09";
requires "stereoCamera" "10.0";
requires "mtoa" "3.3.0.2";
currentUnit -l centimeter -a degree -t film;
fileInfo "application" "maya";
fileInfo "product" "Maya 2018";
fileInfo "version" "2018";
fileInfo "cutIdentifier" "201903222215-65bada0e52";
fileInfo "osv" "Microsoft Windows 8 Business Edition, 64-bit  (Build 9200)\n";
createNode transform -s -n "persp";
	rename -uid "C51B17DC-4419-808B-996B-56A460D914E7";
	setAttr ".v" no;
	setAttr ".t" -type "double3" 1.4240145071792327 14.449602415833022 11.412386650941713 ;
	setAttr ".r" -type "double3" -9.9383527279236787 -1437.7999999998499 1.4919847243921266e-16 ;
createNode camera -s -n "perspShape" -p "persp";
	rename -uid "1DF59276-403B-3E01-3C34-A1B1350779D1";
	setAttr -k off ".v" no;
	setAttr ".fl" 34.999999999999993;
	setAttr ".coi" 11.083404977509135;
	setAttr ".imn" -type "string" "persp";
	setAttr ".den" -type "string" "persp_depth";
	setAttr ".man" -type "string" "persp_mask";
	setAttr ".tp" -type "double3" 0.8986892355795375 11.933873830973486 0.03972859812477153 ;
	setAttr ".hc" -type "string" "viewSet -p %camera";
	setAttr ".ai_translator" -type "string" "perspective";
createNode transform -s -n "top";
	rename -uid "4BF23AE2-4D1D-A7EE-372B-FE9DEE18BD10";
	setAttr ".v" no;
	setAttr ".t" -type "double3" 0 1000.1 0 ;
	setAttr ".r" -type "double3" -89.999999999999986 0 0 ;
createNode camera -s -n "topShape" -p "top";
	rename -uid "FB6F3D60-4A3C-4135-9E50-2D9AA0F1256C";
	setAttr -k off ".v" no;
	setAttr ".rnd" no;
	setAttr ".coi" 1000.1;
	setAttr ".ow" 30;
	setAttr ".imn" -type "string" "top";
	setAttr ".den" -type "string" "top_depth";
	setAttr ".man" -type "string" "top_mask";
	setAttr ".hc" -type "string" "viewSet -t %camera";
	setAttr ".o" yes;
	setAttr ".ai_translator" -type "string" "orthographic";
createNode transform -s -n "front";
	rename -uid "D44754BE-427A-B0B4-4B0A-5A9586EF53B2";
	setAttr ".v" no;
	setAttr ".t" -type "double3" -0.064466169941812534 8.7470211624594345 1000.1619742250675 ;
createNode camera -s -n "frontShape" -p "front";
	rename -uid "86F3D082-49F7-6854-69D1-6D98F85C1CA2";
	setAttr -k off ".v" no;
	setAttr ".rnd" no;
	setAttr ".coi" 1000.2362687269574;
	setAttr ".ow" 4.522856622509245;
	setAttr ".imn" -type "string" "front";
	setAttr ".den" -type "string" "front_depth";
	setAttr ".man" -type "string" "front_mask";
	setAttr ".tp" -type "double3" 1.0902027797183746 12.961293658948682 -0.074294501889849929 ;
	setAttr ".hc" -type "string" "viewSet -f %camera";
	setAttr ".o" yes;
	setAttr ".ai_translator" -type "string" "orthographic";
createNode transform -s -n "side";
	rename -uid "B819AEED-4446-EF35-7F66-70AA18715008";
	setAttr ".v" no;
	setAttr ".t" -type "double3" 1000.1648174166577 8.8990070505002219 0.018453569358541554 ;
	setAttr ".r" -type "double3" 0 89.999999999999986 0 ;
createNode camera -s -n "sideShape" -p "side";
	rename -uid "F736F62F-44BE-CB0A-2F63-C7966877BC58";
	setAttr -k off ".v" no;
	setAttr ".rnd" no;
	setAttr ".coi" 999.59347678562369;
	setAttr ".ow" 5.3051925394300783;
	setAttr ".imn" -type "string" "side";
	setAttr ".den" -type "string" "side_depth";
	setAttr ".man" -type "string" "side_mask";
	setAttr ".tp" -type "double3" 0.5713406310340241 7.9178617988222664 0.060502651573089317 ;
	setAttr ".hc" -type "string" "viewSet -s %camera";
	setAttr ".o" yes;
	setAttr ".ai_translator" -type "string" "orthographic";
createNode transform -n "SpineMusRootJnt_Grp";
	rename -uid "5FA807E5-4148-FD12-F4BC-81A86D0AA58A";
	setAttr ".t" -type "double3" 0 12.014546394348145 0.16905549168586731 ;
createNode joint -n "SpineMusRoot_Jnt" -p "SpineMusRootJnt_Grp";
	rename -uid "8A0202A4-4DC2-9DCB-6DB9-6D9C3F397166";
	addAttr -ci true -sn "liw" -ln "lockInfluenceWeights" -min 0 -max 1 -at "bool";
	setAttr ".ssc" no;
	setAttr ".bps" -type "matrix" 1 0 0 0 0 1 0 0 0 0 1 0 0 13.877691692358287 -0.078477716306750211 1;
	setAttr ".ds" 2;
	setAttr ".liw" yes;
createNode joint -n "clavMus1_L_Jnt" -p "SpineMusRoot_Jnt";
	rename -uid "18B7F273-48CF-C414-ACCF-77B40059A8F5";
	setAttr ".t" -type "double3" 0.28298050165176392 1.0595188140869141 0.15796813368797302 ;
	setAttr ".ssc" no;
	setAttr ".ds" 2;
createNode joint -n "clavMus2_L_Jnt" -p "clavMus1_L_Jnt";
	rename -uid "B75CA402-49D1-B6D1-1E64-CC92AD891BF6";
	setAttr ".t" -type "double3" 0.80722230672836304 -0.11277198791503906 -0.40131812542676926 ;
	setAttr ".ssc" no;
	setAttr ".ds" 2;
createNode joint -n "armPoint1_L_Jnt" -p "clavMus2_L_Jnt";
	rename -uid "10A98550-4849-1BDE-CE83-C892CACBF877";
	setAttr ".ssc" no;
	setAttr ".ds" 2;
createNode joint -n "upArmRootAdjSkin_L_jnt" -p "armPoint1_L_Jnt";
	rename -uid "0942E1A3-4B72-7B09-7992-8A92B2E4B25A";
	setAttr ".t" -type "double3" 2.6645352591003757e-15 -0.55173568648769766 2.2204460492503131e-16 ;
	setAttr ".r" -type "double3" -4.7708320221952744e-15 -9.5416640443905503e-15 -8.3489560388417319e-15 ;
	setAttr ".ssc" no;
createNode joint -n "scapRoot1_L_Jnt" -p "armPoint1_L_Jnt";
	rename -uid "DF418626-4A8E-1323-A477-F68693EE93DC";
	setAttr ".t" -type "double3" 4.4408920985006262e-16 -0.66055783238204313 1.1102230246251565e-16 ;
	setAttr ".ssc" no;
	setAttr ".ds" 2;
createNode joint -n "scap1Skin_L_jnt" -p "scapRoot1_L_Jnt";
	rename -uid "9B19CCBA-4F64-457F-023E-1788AD53708E";
	setAttr ".t" -type "double3" -0.7033392264256092 0.25490342594979865 -0.45737908234940983 ;
	setAttr ".mnrl" -type "double3" -360 -360 -360 ;
	setAttr ".mxrl" -type "double3" 360 360 360 ;
	setAttr ".jo" -type "double3" 10.55403151231398 0 -180 ;
	setAttr ".ssc" no;
createNode joint -n "scap2Skin_L_jnt" -p "scap1Skin_L_jnt";
	rename -uid "D1CA730B-4FD6-96F6-DF6F-1B83EA73B818";
	setAttr ".t" -type "double3" 0 0.56682851874438001 -4.4408920985006262e-16 ;
	setAttr ".mnrl" -type "double3" -360 -360 -360 ;
	setAttr ".mxrl" -type "double3" 360 360 360 ;
	setAttr ".ssc" no;
createNode joint -n "trap1Skin_L_Jnt" -p "clavMus2_L_Jnt";
	rename -uid "A80FF6FF-43E5-A6C7-0038-A5ADA6D3B28C";
	setAttr ".t" -type "double3" -0.65031533058706792 0.32618729855379236 -0.052608695112948911 ;
	setAttr ".mnrl" -type "double3" -360 -360 -360 ;
	setAttr ".mxrl" -type "double3" 360 360 360 ;
	setAttr ".ssc" no;
createNode joint -n "trap2_L_Jnt" -p "trap1Skin_L_Jnt";
	rename -uid "B870AE89-4C68-7DEB-94F5-E5B9DB216CBA";
	setAttr ".t" -type "double3" -0.76466712004730253 -3.0728038780125644e-07 3.9570384191556229e-09 ;
	setAttr ".mnrl" -type "double3" -360 -360 -360 ;
	setAttr ".mxrl" -type "double3" 360 360 360 ;
	setAttr ".jo" -type "double3" 7.2755188338477943e-14 -6.3611093629270351e-15 2.631412037242082e-14 ;
	setAttr ".ssc" no;
createNode joint -n "trap1Bck_L_Jnt" -p "clavMus1_L_Jnt";
	rename -uid "1FCD6497-4FAC-1A9C-F902-0DB4D2C2663F";
	addAttr -ci true -sn "liw" -ln "lockInfluenceWeights" -min 0 -max 1 -at "bool";
	setAttr ".t" -type "double3" 0.10388308186507744 -0.21778827755666263 -0.84365789087320753 ;
	setAttr ".mnrl" -type "double3" -360 -360 -360 ;
	setAttr ".mxrl" -type "double3" 360 360 360 ;
	setAttr ".jo" -type "double3" -89.999999999999773 0 -90.000000000000256 ;
	setAttr ".ssc" no;
	setAttr ".bps" -type "matrix" -0.88476307775722929 0.43750729362333607 0.16056669724428962 0
		 0.43413105128487373 0.89901653154065253 -0.057441329431910833 0 -0.16948311581938108 0.018885021657359152 -0.98535213472603567 0
		 1.4645788874204124 15.898612605406811 -0.91989982469252873 1;
	setAttr ".ds" 2;
	setAttr ".liw" yes;
createNode joint -n "trap2Bck_L_Jnt" -p "trap1Bck_L_Jnt";
	rename -uid "7B536829-4941-1D0C-E933-E2AD969F9D02";
	addAttr -ci true -sn "liw" -ln "lockInfluenceWeights" -min 0 -max 1 -at "bool";
	setAttr ".mnrl" -type "double3" -360 -360 -360 ;
	setAttr ".mxrl" -type "double3" 360 360 360 ;
	setAttr ".jo" -type "double3" -3.1805546814635168e-15 -6.3611093629270335e-15 2.4717875269080888e-29 ;
	setAttr ".ssc" no;
	setAttr ".bps" -type "matrix" -0.88476307775722929 0.43750729362333607 0.16056669724428962 0
		 0.43413105128487373 0.89901653154065253 -0.057441329431910833 0 -0.16948311581938108 0.018885021657359152 -0.98535213472603567 0
		 1.4645788874204124 15.898612605406811 -0.91989982469252873 1;
	setAttr ".ds" 2;
	setAttr ".liw" yes;
createNode joint -n "trap3SkinBck_L_Jnt" -p "trap2Bck_L_Jnt";
	rename -uid "CE3A4616-4C70-975F-706F-89B979CC6BD9";
	addAttr -ci true -sn "liw" -ln "lockInfluenceWeights" -min 0 -max 1 -at "bool";
	setAttr ".mnrl" -type "double3" -360 -360 -360 ;
	setAttr ".mxrl" -type "double3" 360 360 360 ;
	setAttr ".ssc" no;
	setAttr ".bps" -type "matrix" -4.4408920985006262e-15 -1 0 0 3.9412917374193057e-15 0 -1 0
		 1 -4.3853809472693683e-15 3.8857805861880479e-15 0 0.85796983979362795 16.002831354756871 -1.2558582349279992 1;
	setAttr ".liw" yes;
createNode joint -n "pec1Skin_L_Jnt" -p "clavMus1_L_Jnt";
	rename -uid "D2EA6233-440B-2E58-16BD-D69682873C86";
	setAttr ".t" -type "double3" 0.23096717396567645 -0.58336848896331439 0.27929727745207344 ;
	setAttr ".mnrl" -type "double3" -360 -360 -360 ;
	setAttr ".mxrl" -type "double3" 360 360 360 ;
	setAttr ".jo" -type "double3" -75.000000000000028 0 0 ;
	setAttr ".ssc" no;
createNode joint -n "pec2Skin_L_Jnt" -p "pec1Skin_L_Jnt";
	rename -uid "5363C376-46F2-AC26-0B45-D9959B7888CF";
	setAttr ".t" -type "double3" -2.2204460492503131e-16 -0.49788481132071105 1.7763568394002505e-15 ;
	setAttr ".mnrl" -type "double3" -360 -360 -360 ;
	setAttr ".mxrl" -type "double3" 360 360 360 ;
	setAttr ".ssc" no;
createNode joint -n "late1Skin_L_Jnt" -p "clavMus1_L_Jnt";
	rename -uid "3327AC9B-4C54-3CB9-CC76-B8A265C5AB82";
	setAttr ".t" -type "double3" 0.61570873392777359 -1.1401913774615728 -0.28729502724906886 ;
	setAttr ".mnrl" -type "double3" -360 -360 -360 ;
	setAttr ".mxrl" -type "double3" 360 360 360 ;
	setAttr ".ssc" no;
createNode joint -n "clavMus1_R_Jnt" -p "SpineMusRoot_Jnt";
	rename -uid "9E087F11-4A80-A679-0A14-64B2764D8007";
	setAttr ".t" -type "double3" -0.282981 1.0595536056518551 0.15796850831413267 ;
	setAttr ".jo" -type "double3" -180 0 0 ;
	setAttr ".ssc" no;
	setAttr ".ds" 2;
createNode joint -n "clavMus2_R_Jnt" -p "clavMus1_R_Jnt";
	rename -uid "6562F88D-4569-B14D-BC78-72979012D948";
	setAttr ".t" -type "double3" -0.80721900000000013 0.11280000000000001 0.40131849999999997 ;
	setAttr ".ssc" no;
	setAttr ".ds" 2;
createNode joint -n "armPoint1_R_Jnt" -p "clavMus2_R_Jnt";
	rename -uid "A3091BED-48F8-56A6-27C8-DEA3D85CDE7B";
	setAttr ".t" -type "double3" 0 0 1.3877787807814457e-17 ;
	setAttr ".ssc" no;
	setAttr ".ds" 2;
createNode joint -n "upArmRootAdjSkin_R_jnt" -p "armPoint1_R_Jnt";
	rename -uid "A76672B8-41FD-9A91-C8E9-DF85C769896D";
	setAttr ".t" -type "double3" 0 0.5517000000000003 -5.5511151231257827e-17 ;
	setAttr ".r" -type "double3" -4.7708320221952744e-15 -9.5416640443905503e-15 -8.3489560388417319e-15 ;
	setAttr ".ssc" no;
createNode joint -n "scapRoot1_R_Jnt" -p "armPoint1_R_Jnt";
	rename -uid "7872FAD5-40AE-12EF-A6C7-28A4A24D866D";
	setAttr ".t" -type "double3" 0 0.66059999999999874 -6.9388939039072284e-17 ;
	setAttr ".ssc" no;
	setAttr ".ds" 2;
createNode joint -n "scap1Skin_R_jnt" -p "scapRoot1_R_Jnt";
	rename -uid "F48DAD17-4DAF-B0CD-17B1-F68F5865C59F";
	setAttr ".t" -type "double3" 0.70333600000000007 -0.25489999999999924 0.45737949999999999 ;
	setAttr ".mnrl" -type "double3" -360 -360 -360 ;
	setAttr ".mxrl" -type "double3" 360 360 360 ;
	setAttr ".jo" -type "double3" 10.55403151231395 -8.1832042285712642e-15 -180 ;
	setAttr ".ssc" no;
createNode joint -n "scap2Skin_R_jnt" -p "scap1Skin_R_jnt";
	rename -uid "D13D3468-4A2F-34BE-8C6D-8991EF75001B";
	setAttr ".t" -type "double3" -5.5511151231257827e-17 -0.56678995018425127 -7.3576174215439494e-06 ;
	setAttr ".mnrl" -type "double3" -360 -360 -360 ;
	setAttr ".mxrl" -type "double3" 360 360 360 ;
	setAttr ".ssc" no;
createNode joint -n "trap1Skin_R_Jnt" -p "clavMus2_R_Jnt";
	rename -uid "583A5C70-4DD9-C03F-78B7-B799E3BEF619";
	setAttr ".t" -type "double3" 0.65031300000000014 -0.32620000000000005 0.052608500000000058 ;
	setAttr ".mnrl" -type "double3" -360 -360 -360 ;
	setAttr ".mxrl" -type "double3" 360 360 360 ;
	setAttr ".ssc" no;
createNode joint -n "trap2_R_Jnt" -p "trap1Skin_R_Jnt";
	rename -uid "0639D926-4ECF-4041-026E-6D89C8B0F44F";
	setAttr ".t" -type "double3" 0.764667 0 0 ;
	setAttr ".mnrl" -type "double3" -360 -360 -360 ;
	setAttr ".mxrl" -type "double3" 360 360 360 ;
	setAttr ".ssc" no;
createNode joint -n "trap1Bck_R_Jnt" -p "clavMus1_R_Jnt";
	rename -uid "625928A6-441D-8E07-1987-F79E849E600A";
	addAttr -ci true -sn "liw" -ln "lockInfluenceWeights" -min 0 -max 1 -at "bool";
	setAttr ".t" -type "double3" -0.103883 0.21780000000000044 0.843658 ;
	setAttr ".mnrl" -type "double3" -360 -360 -360 ;
	setAttr ".mxrl" -type "double3" 360 360 360 ;
	setAttr ".jo" -type "double3" -89.999999999999773 -6.361109362927032e-15 -90.000000000000256 ;
	setAttr ".ssc" no;
	setAttr ".bps" -type "matrix" -0.88476307775722929 0.43750729362333607 0.16056669724428962 0
		 0.43413105128487373 0.89901653154065253 -0.057441329431910833 0 -0.16948311581938108 0.018885021657359152 -0.98535213472603567 0
		 1.4645788874204124 15.898612605406811 -0.91989982469252873 1;
	setAttr ".ds" 2;
	setAttr ".liw" yes;
createNode joint -n "trap2Bck_R_Jnt" -p "trap1Bck_R_Jnt";
	rename -uid "A13551DC-4332-CFE8-B209-71850FE2F94D";
	addAttr -ci true -sn "liw" -ln "lockInfluenceWeights" -min 0 -max 1 -at "bool";
	setAttr ".mnrl" -type "double3" -360 -360 -360 ;
	setAttr ".mxrl" -type "double3" 360 360 360 ;
	setAttr ".ssc" no;
	setAttr ".bps" -type "matrix" -0.88476307775722929 0.43750729362333607 0.16056669724428962 0
		 0.43413105128487373 0.89901653154065253 -0.057441329431910833 0 -0.16948311581938108 0.018885021657359152 -0.98535213472603567 0
		 1.4645788874204124 15.898612605406811 -0.91989982469252873 1;
	setAttr ".ds" 2;
	setAttr ".liw" yes;
createNode joint -n "trap3SkinBck_R_Jnt" -p "trap2Bck_R_Jnt";
	rename -uid "4AF22FA7-4988-73D1-8F6F-63A4729E9D4E";
	addAttr -ci true -sn "liw" -ln "lockInfluenceWeights" -min 0 -max 1 -at "bool";
	setAttr ".mnrl" -type "double3" -360 -360 -360 ;
	setAttr ".mxrl" -type "double3" 360 360 360 ;
	setAttr ".ssc" no;
	setAttr ".bps" -type "matrix" -4.4408920985006262e-15 -1 0 0 3.9412917374193057e-15 0 -1 0
		 1 -4.3853809472693683e-15 3.8857805861880479e-15 0 0.85796983979362795 16.002831354756871 -1.2558582349279992 1;
	setAttr ".liw" yes;
createNode joint -n "pec1Skin_R_Jnt" -p "clavMus1_R_Jnt";
	rename -uid "3BA3048C-47B3-0EA4-910B-3BB92F70CD0D";
	setAttr ".t" -type "double3" -0.23096699999999998 0.58339999999999925 -0.27929700000000007 ;
	setAttr ".mnrl" -type "double3" -360 -360 -360 ;
	setAttr ".mxrl" -type "double3" 360 360 360 ;
	setAttr ".jo" -type "double3" -75.000000000000043 0 0 ;
	setAttr ".ssc" no;
createNode joint -n "pec2Skin_R_Jnt" -p "pec1Skin_R_Jnt";
	rename -uid "433D549D-4C15-7026-436D-968444653FE6";
	setAttr ".t" -type "double3" 0 0.49789385736682679 3.6842657001656676e-05 ;
	setAttr ".mnrl" -type "double3" -360 -360 -360 ;
	setAttr ".mxrl" -type "double3" 360 360 360 ;
	setAttr ".ssc" no;
createNode joint -n "late1Skin_R_Jnt" -p "clavMus1_R_Jnt";
	rename -uid "F3CDD392-4677-DA0D-5D7B-5583D585A892";
	setAttr ".t" -type "double3" -0.61570799999999992 1.1402 0.28729539999999981 ;
	setAttr ".mnrl" -type "double3" -360 -360 -360 ;
	setAttr ".mxrl" -type "double3" 360 360 360 ;
	setAttr ".ssc" no;
createNode lightLinker -s -n "lightLinker1";
	rename -uid "14AE8726-45D4-1C4B-EFE2-7D91CD07C14B";
	setAttr -s 2 ".lnk";
	setAttr -s 2 ".slnk";
createNode shapeEditorManager -n "shapeEditorManager";
	rename -uid "24B081EB-4E89-690F-3E10-99A29A0373C0";
	setAttr ".bsdt[0].bscd" -type "Int32Array" 0 ;
createNode poseInterpolatorManager -n "poseInterpolatorManager";
	rename -uid "4BADE616-4F61-9B65-01D0-1CA01E71A9B7";
createNode displayLayerManager -n "layerManager";
	rename -uid "AEEADD0C-4794-70FB-9369-198B30BF5001";
	setAttr -s 2 ".dli[1]"  1;
createNode displayLayer -n "defaultLayer";
	rename -uid "C02CEE05-4EE8-B574-E822-4DB1AE09F68E";
createNode renderLayerManager -n "renderLayerManager";
	rename -uid "BAA7798E-40F3-76A5-08BF-87958451156F";
createNode renderLayer -n "defaultRenderLayer";
	rename -uid "D77BFA6F-40D7-9614-EE47-8C94DC834AC4";
	setAttr ".g" yes;
createNode nodeGraphEditorInfo -n "hyperShadePrimaryNodeEditorSavedTabsInfo";
	rename -uid "BA10262F-459E-2354-9FB5-4C86C0A67BA6";
	setAttr ".def" no;
	setAttr ".tgi[0].tn" -type "string" "Untitled_1";
	setAttr ".tgi[0].vl" -type "double2" -330.95236780151544 -146.42856561002301 ;
	setAttr ".tgi[0].vh" -type "double2" 317.85713022663526 338.09522466054096 ;
createNode script -n "sceneConfigurationScriptNode";
	rename -uid "E7593495-4F6B-C128-8EF4-888D25A527A1";
	setAttr ".b" -type "string" "playbackOptions -min 1 -max 120 -ast 1 -aet 200 ";
	setAttr ".st" 6;
select -ne :time1;
	setAttr -av -k on ".cch";
	setAttr -k on ".fzn";
	setAttr -av -cb on ".ihi";
	setAttr -av -k on ".nds";
	setAttr -cb on ".bnm";
	setAttr -k on ".o" 1;
	setAttr -av -k on ".unw" 1;
	setAttr -av -k on ".etw";
	setAttr -av -k on ".tps";
	setAttr -av -k on ".tms";
select -ne :hardwareRenderingGlobals;
	setAttr -av -k on ".cch";
	setAttr -av -k on ".ihi";
	setAttr -av -k on ".nds";
	setAttr -cb on ".bnm";
	setAttr ".otfna" -type "stringArray" 22 "NURBS Curves" "NURBS Surfaces" "Polygons" "Subdiv Surface" "Particles" "Particle Instance" "Fluids" "Strokes" "Image Planes" "UI" "Lights" "Cameras" "Locators" "Joints" "IK Handles" "Deformers" "Motion Trails" "Components" "Hair Systems" "Follicles" "Misc. UI" "Ornaments"  ;
	setAttr ".otfva" -type "Int32Array" 22 0 1 1 1 1 1
		 1 1 1 0 0 0 0 0 0 0 0 0
		 0 0 0 0 ;
	setAttr -k on ".hwi";
	setAttr -av ".ta";
	setAttr -av ".tq";
	setAttr -av ".etmr";
	setAttr -av ".tmr";
	setAttr -av ".aoon";
	setAttr -av ".aoam";
	setAttr -av ".aora";
	setAttr -k on ".hff";
	setAttr -av -k on ".hfd";
	setAttr -av -k on ".hfs";
	setAttr -av -k on ".hfe";
	setAttr -av ".hfc";
	setAttr -av -k on ".hfcr";
	setAttr -av -k on ".hfcg";
	setAttr -av -k on ".hfcb";
	setAttr -av -k on ".hfa";
	setAttr -av ".mbe";
	setAttr -av -k on ".mbsof";
	setAttr -k on ".blen";
	setAttr -k on ".blat";
	setAttr -av ".msaa";
	setAttr ".fprt" yes;
select -ne :renderPartition;
	setAttr -av -k on ".cch";
	setAttr -cb on ".ihi";
	setAttr -av -k on ".nds";
	setAttr -cb on ".bnm";
	setAttr -s 2 ".st";
	setAttr -cb on ".an";
	setAttr -cb on ".pt";
select -ne :renderGlobalsList1;
	setAttr -k on ".cch";
	setAttr -cb on ".ihi";
	setAttr -k on ".nds";
	setAttr -cb on ".bnm";
select -ne :defaultShaderList1;
	setAttr -k on ".cch";
	setAttr -cb on ".ihi";
	setAttr -k on ".nds";
	setAttr -cb on ".bnm";
	setAttr -s 4 ".s";
select -ne :postProcessList1;
	setAttr -k on ".cch";
	setAttr -cb on ".ihi";
	setAttr -k on ".nds";
	setAttr -cb on ".bnm";
	setAttr -s 2 ".p";
select -ne :defaultRenderingList1;
	setAttr -k on ".ihi";
select -ne :initialShadingGroup;
	setAttr -av -k on ".cch";
	setAttr -k on ".fzn";
	setAttr -cb on ".ihi";
	setAttr -av -k on ".nds";
	setAttr -cb on ".bnm";
	setAttr -k on ".bbx";
	setAttr -k on ".vwm";
	setAttr -k on ".tpv";
	setAttr -k on ".uit";
	setAttr -k on ".mwc";
	setAttr -cb on ".an";
	setAttr -cb on ".il";
	setAttr -cb on ".vo";
	setAttr -cb on ".eo";
	setAttr -cb on ".fo";
	setAttr -cb on ".epo";
	setAttr -k on ".ro" yes;
select -ne :initialParticleSE;
	setAttr -av -k on ".cch";
	setAttr -cb on ".ihi";
	setAttr -av -k on ".nds";
	setAttr -cb on ".bnm";
	setAttr -k on ".mwc";
	setAttr -cb on ".an";
	setAttr -cb on ".il";
	setAttr -cb on ".vo";
	setAttr -cb on ".eo";
	setAttr -cb on ".fo";
	setAttr -cb on ".epo";
	setAttr -k on ".ro" yes;
lockNode -l 0 -lu 1;
select -ne :defaultRenderGlobals;
	setAttr -av -k on ".cch";
	setAttr -cb on ".ihi";
	setAttr -av -k on ".nds";
	setAttr -cb on ".bnm";
	setAttr -av -k on ".macc";
	setAttr -av -k on ".macd";
	setAttr -av -k on ".macq";
	setAttr -av -k on ".mcfr";
	setAttr -cb on ".ifg";
	setAttr -av -k on ".clip";
	setAttr -av -k on ".edm";
	setAttr -av -k on ".edl";
	setAttr -av -cb on ".ren" -type "string" "arnold";
	setAttr -av -k on ".esr";
	setAttr -av -k on ".ors";
	setAttr -cb on ".sdf";
	setAttr -av -k on ".outf";
	setAttr -av -cb on ".imfkey";
	setAttr -av -k on ".gama";
	setAttr -k on ".exrc";
	setAttr -k on ".expt";
	setAttr -av -k on ".an";
	setAttr -k on ".ar";
	setAttr -av -k on ".fs";
	setAttr -av -k on ".ef";
	setAttr -av -k on ".bfs";
	setAttr -k on ".me";
	setAttr -k on ".se";
	setAttr -av -k on ".be";
	setAttr -av -cb on ".ep";
	setAttr -av -k on ".fec";
	setAttr -av -k on ".ofc";
	setAttr -cb on ".ofe";
	setAttr -cb on ".efe";
	setAttr -k on ".oft";
	setAttr -k on ".umfn";
	setAttr -k on ".ufe";
	setAttr -av -cb on ".pff";
	setAttr -av -k on ".peie";
	setAttr -av -cb on ".ifp";
	setAttr -k on ".rv";
	setAttr -av -k on ".comp";
	setAttr -av -k on ".cth";
	setAttr -av -k on ".soll";
	setAttr -cb on ".sosl";
	setAttr -av -k on ".rd";
	setAttr -av -k on ".lp";
	setAttr -av -k on ".sp";
	setAttr -av -k on ".shs";
	setAttr -av -k on ".lpr";
	setAttr -cb on ".gv";
	setAttr -cb on ".sv";
	setAttr -av -k on ".mm";
	setAttr -av -k on ".npu";
	setAttr -av -k on ".itf";
	setAttr -av -k on ".shp";
	setAttr -cb on ".isp";
	setAttr -av -k on ".uf";
	setAttr -av -k on ".oi";
	setAttr -av -k on ".rut";
	setAttr -av -k on ".mot";
	setAttr -av -k on ".mb";
	setAttr -av -k on ".mbf";
	setAttr -av -k on ".mbso";
	setAttr -av -k on ".mbsc";
	setAttr -av -k on ".afp";
	setAttr -av -k on ".pfb";
	setAttr -av -k on ".pram";
	setAttr -av -k on ".poam";
	setAttr -av -k on ".prlm";
	setAttr -av -k on ".polm";
	setAttr -av -cb on ".prm";
	setAttr -av -cb on ".pom";
	setAttr -cb on ".pfrm";
	setAttr -cb on ".pfom";
	setAttr -av -k on ".bll";
	setAttr -av -k on ".bls";
	setAttr -av -k on ".smv";
	setAttr -av -k on ".ubc";
	setAttr -av -k on ".mbc";
	setAttr -cb on ".mbt";
	setAttr -av -k on ".udbx";
	setAttr -av -k on ".smc";
	setAttr -av -k on ".kmv";
	setAttr -cb on ".isl";
	setAttr -cb on ".ism";
	setAttr -cb on ".imb";
	setAttr -av -k on ".rlen";
	setAttr -av -k on ".frts";
	setAttr -av -k on ".tlwd";
	setAttr -av -k on ".tlht";
	setAttr -av -k on ".jfc";
	setAttr -cb on ".rsb";
	setAttr -av -k on ".ope";
	setAttr -av -k on ".oppf";
	setAttr -av -k on ".rcp";
	setAttr -av -k on ".icp";
	setAttr -av -k on ".ocp";
	setAttr -cb on ".hbl";
select -ne :defaultResolution;
	setAttr -av -k on ".cch";
	setAttr -av -k on ".ihi";
	setAttr -av -k on ".nds";
	setAttr -k on ".bnm";
	setAttr -av -k on ".w";
	setAttr -av -k on ".h";
	setAttr -av -k on ".pa" 1;
	setAttr -av -k on ".al";
	setAttr -av -k on ".dar";
	setAttr -av -k on ".ldar";
	setAttr -av -k on ".dpi";
	setAttr -av -k on ".off";
	setAttr -av -k on ".fld";
	setAttr -av -k on ".zsl";
	setAttr -av -k on ".isu";
	setAttr -av -k on ".pdu";
select -ne :defaultColorMgtGlobals;
	setAttr ".cfe" yes;
	setAttr ".cfp" -type "string" "O:/Pipeline/core/rf_lib/OpenColorIO-Configs/aces_1.2/config.ocio";
	setAttr ".vtn" -type "string" "sRGB (ACES)";
	setAttr ".wsn" -type "string" "ACES - ACEScg";
	setAttr ".otn" -type "string" "sRGB (ACES)";
	setAttr ".potn" -type "string" "sRGB (ACES)";
select -ne :hardwareRenderGlobals;
	setAttr -av -k on ".cch";
	setAttr -av -cb on ".ihi";
	setAttr -av -k on ".nds";
	setAttr -cb on ".bnm";
	setAttr -av -k off -cb on ".ctrs" 256;
	setAttr -av -k off -cb on ".btrs" 512;
	setAttr -av -k off -cb on ".fbfm";
	setAttr -av -k off -cb on ".ehql";
	setAttr -av -k off -cb on ".eams";
	setAttr -av -k off -cb on ".eeaa";
	setAttr -av -k off -cb on ".engm";
	setAttr -av -k off -cb on ".mes";
	setAttr -av -k off -cb on ".emb";
	setAttr -av -k off -cb on ".mbbf";
	setAttr -av -k off -cb on ".mbs";
	setAttr -av -k off -cb on ".trm";
	setAttr -av -k off -cb on ".tshc";
	setAttr -av -k off -cb on ".enpt";
	setAttr -av -k off -cb on ".clmt";
	setAttr -av -k off -cb on ".tcov";
	setAttr -av -k off -cb on ".lith";
	setAttr -av -k off -cb on ".sobc";
	setAttr -av -k off -cb on ".cuth";
	setAttr -av -k off -cb on ".hgcd";
	setAttr -av -k off -cb on ".hgci";
	setAttr -av -k off -cb on ".mgcs";
	setAttr -av -k off -cb on ".twa";
	setAttr -av -k off -cb on ".twz";
	setAttr -cb on ".hwcc";
	setAttr -cb on ".hwdp";
	setAttr -cb on ".hwql";
	setAttr -k on ".hwfr";
	setAttr -k on ".soll";
	setAttr -k on ".sosl";
	setAttr -k on ".bswa";
	setAttr -k on ".shml";
	setAttr -k on ".hwel";
connectAttr "SpineMusRoot_Jnt.s" "clavMus1_L_Jnt.is";
connectAttr "clavMus1_L_Jnt.s" "clavMus2_L_Jnt.is";
connectAttr "clavMus2_L_Jnt.s" "armPoint1_L_Jnt.is";
connectAttr "armPoint1_L_Jnt.s" "upArmRootAdjSkin_L_jnt.is";
connectAttr "armPoint1_L_Jnt.s" "scapRoot1_L_Jnt.is";
connectAttr "scapRoot1_L_Jnt.s" "scap1Skin_L_jnt.is";
connectAttr "scap1Skin_L_jnt.s" "scap2Skin_L_jnt.is";
connectAttr "clavMus2_L_Jnt.s" "trap1Skin_L_Jnt.is";
connectAttr "trap1Skin_L_Jnt.s" "trap2_L_Jnt.is";
connectAttr "clavMus1_L_Jnt.s" "trap1Bck_L_Jnt.is";
connectAttr "trap1Bck_L_Jnt.s" "trap2Bck_L_Jnt.is";
connectAttr "trap2Bck_L_Jnt.s" "trap3SkinBck_L_Jnt.is";
connectAttr "clavMus1_L_Jnt.s" "pec1Skin_L_Jnt.is";
connectAttr "pec1Skin_L_Jnt.s" "pec2Skin_L_Jnt.is";
connectAttr "clavMus1_L_Jnt.s" "late1Skin_L_Jnt.is";
connectAttr "SpineMusRoot_Jnt.s" "clavMus1_R_Jnt.is";
connectAttr "clavMus1_R_Jnt.s" "clavMus2_R_Jnt.is";
connectAttr "clavMus2_R_Jnt.s" "armPoint1_R_Jnt.is";
connectAttr "armPoint1_R_Jnt.s" "upArmRootAdjSkin_R_jnt.is";
connectAttr "armPoint1_R_Jnt.s" "scapRoot1_R_Jnt.is";
connectAttr "scapRoot1_R_Jnt.s" "scap1Skin_R_jnt.is";
connectAttr "scap1Skin_R_jnt.s" "scap2Skin_R_jnt.is";
connectAttr "clavMus2_R_Jnt.s" "trap1Skin_R_Jnt.is";
connectAttr "trap1Skin_R_Jnt.s" "trap2_R_Jnt.is";
connectAttr "clavMus1_R_Jnt.s" "trap1Bck_R_Jnt.is";
connectAttr "trap1Bck_R_Jnt.s" "trap2Bck_R_Jnt.is";
connectAttr "trap2Bck_R_Jnt.s" "trap3SkinBck_R_Jnt.is";
connectAttr "clavMus1_R_Jnt.s" "pec1Skin_R_Jnt.is";
connectAttr "pec1Skin_R_Jnt.s" "pec2Skin_R_Jnt.is";
connectAttr "clavMus1_R_Jnt.s" "late1Skin_R_Jnt.is";
relationship "link" ":lightLinker1" ":initialShadingGroup.message" ":defaultLightSet.message";
relationship "link" ":lightLinker1" ":initialParticleSE.message" ":defaultLightSet.message";
relationship "shadowLink" ":lightLinker1" ":initialShadingGroup.message" ":defaultLightSet.message";
relationship "shadowLink" ":lightLinker1" ":initialParticleSE.message" ":defaultLightSet.message";
connectAttr "layerManager.dli[0]" "defaultLayer.id";
connectAttr "renderLayerManager.rlmi[0]" "defaultRenderLayer.rlid";
connectAttr "defaultRenderLayer.msg" ":defaultRenderingList1.r" -na;
dataStructure -fmt "raw" -as "name=idStructure:int32=ID";
dataStructure -fmt "raw" -as "name=faceConnectMarkerStructure:bool=faceConnectMarker:string[200]=faceConnectOutputGroups";
dataStructure -fmt "raw" -as "name=externalContentTablZ:string=nodZ:string=key:string=upath:uint32=upathcrc:string=rpath:string=roles";
dataStructure -fmt "raw" -as "name=faceConnectOutputStructure:bool=faceConnectOutput:string[200]=faceConnectOutputAttributes:string[200]=faceConnectOutputGroups";
dataStructure -fmt "raw" -as "name=FBXFastExportSetting_FBX:string=54";
dataStructure -fmt "raw" -as "name=FBXFastExportSetting_MB:string=19424";
// End of clavMusTmp.ma
