//Maya ASCII 2018ff09 scene
//Name: clavMusTmp.ma
//Last modified: Fri, Jan 29, 2021 04:43:19 PM
//Codeset: 1252
requires maya "2018ff09";
requires "stereoCamera" "10.0";
requires "mtoa" "3.3.0.2";
currentUnit -l centimeter -a degree -t ntsc;
fileInfo "application" "maya";
fileInfo "product" "Maya 2018";
fileInfo "version" "2018";
fileInfo "cutIdentifier" "201903222215-65bada0e52";
fileInfo "osv" "Microsoft Windows 8 Business Edition, 64-bit  (Build 9200)\n";
createNode transform -s -n "persp";
	rename -uid "2CF47587-4204-C127-00CF-1788107C0374";
	setAttr ".v" no;
	setAttr ".t" -type "double3" 5.5402938715577141 17.17405091332602 6.2875694934195412 ;
	setAttr ".r" -type "double3" 2143.4616472616494 751.79999999934273 0 ;
createNode camera -s -n "perspShape" -p "persp";
	rename -uid "FAB3DE2D-4846-C01D-32C1-5BA725BFF0A8";
	setAttr -k off ".v" no;
	setAttr ".fl" 34.999999999999993;
	setAttr ".coi" 9.7322957968067616;
	setAttr ".imn" -type "string" "persp";
	setAttr ".den" -type "string" "persp_depth";
	setAttr ".man" -type "string" "persp_mask";
	setAttr ".tp" -type "double3" -1.0454709302458696 7.8453847775222876 -1.1423388209799015 ;
	setAttr ".hc" -type "string" "viewSet -p %camera";
	setAttr ".ai_translator" -type "string" "perspective";
createNode transform -s -n "top";
	rename -uid "AEC09C8E-45C0-3153-B627-C3B9BB79D281";
	setAttr ".v" no;
	setAttr ".t" -type "double3" 0 1000.1 0 ;
	setAttr ".r" -type "double3" -89.999999999999986 0 0 ;
createNode camera -s -n "topShape" -p "top";
	rename -uid "52DDC520-49E8-44CE-3072-4C967E487434";
	setAttr -k off ".v" no;
	setAttr ".rnd" no;
	setAttr ".coi" 1000.1;
	setAttr ".ow" 36.812517384159008;
	setAttr ".imn" -type "string" "top";
	setAttr ".den" -type "string" "top_depth";
	setAttr ".man" -type "string" "top_mask";
	setAttr ".hc" -type "string" "viewSet -t %camera";
	setAttr ".o" yes;
	setAttr ".ai_translator" -type "string" "orthographic";
createNode transform -s -n "front";
	rename -uid "67FFBB54-46F2-6882-AAF2-89A55C111D75";
	setAttr ".v" no;
	setAttr ".t" -type "double3" 2.3986409606900647 11.858217455937849 1000.2630698958528 ;
createNode camera -s -n "frontShape" -p "front";
	rename -uid "4E45E8DD-45E8-BE0D-FF2A-9885E6B168EB";
	setAttr -k off ".v" no;
	setAttr ".rnd" no;
	setAttr ".coi" 996.02179472465991;
	setAttr ".ow" 18.271323911732388;
	setAttr ".imn" -type "string" "front";
	setAttr ".den" -type "string" "front_depth";
	setAttr ".man" -type "string" "front_mask";
	setAttr ".tp" -type "double3" 6.0310421209242016e-05 18.022645445972266 4.2412751711928642 ;
	setAttr ".hc" -type "string" "viewSet -f %camera";
	setAttr ".o" yes;
	setAttr ".ai_translator" -type "string" "orthographic";
createNode transform -s -n "side";
	rename -uid "0030F0BC-4C46-CF20-5154-A0BF3540AF73";
	setAttr ".v" no;
	setAttr ".t" -type "double3" 1000.5758494290811 5.781159290510602 0.052230648120271339 ;
	setAttr ".r" -type "double3" 0 89.999999999999986 0 ;
createNode camera -s -n "sideShape" -p "side";
	rename -uid "DBA8632A-4904-C6DF-C75D-A9B3096A458B";
	setAttr -k off ".v" no;
	setAttr ".rnd" no;
	setAttr ".coi" 1000.556486323784;
	setAttr ".ow" 8.1010797889159267;
	setAttr ".imn" -type "string" "side";
	setAttr ".den" -type "string" "side_depth";
	setAttr ".man" -type "string" "side_mask";
	setAttr ".tp" -type "double3" 0.019363105297088623 5.8345718383789063 -0.078088089823722839 ;
	setAttr ".hc" -type "string" "viewSet -s %camera";
	setAttr ".o" yes;
	setAttr ".ai_translator" -type "string" "orthographic";
createNode transform -n "clavMusJnt_L_Grp";
	rename -uid "3BF1EB4E-4B05-5A4D-A00D-3390D99FA3A3";
	setAttr ".rp" -type "double3" 0.42801086000223126 15.412534296038404 0.20920275842874714 ;
	setAttr ".sp" -type "double3" 0.42801086000223126 15.412534296038404 0.20920275842874714 ;
createNode joint -n "clavMus1Trash_L_Jnt" -p "clavMusJnt_L_Grp";
	rename -uid "B71ED0DE-4C60-0197-EB49-06A87CC3ECD5";
	setAttr ".t" -type "double3" 0.4280108600022311 15.412534296038404 0.20920275842874689 ;
createNode joint -n "clavMus2Trash_L_Jnt" -p "clavMus1Trash_L_Jnt";
	rename -uid "D2283DE2-483F-D06C-AF3A-A2AE61EECA35";
	setAttr ".t" -type "double3" 1.6681309164711582 0.28569763939846027 -0.92803357457795732 ;
createNode joint -n "armPoint1Trash_L_Jnt" -p "clavMus2Trash_L_Jnt";
	rename -uid "65570AD3-4E74-1DE8-15FB-F5AED28CF1C8";
	setAttr ".t" -type "double3" 0 -0.66055783238204668 0 ;
	setAttr ".jo" -type "double3" 0 -31.152169272408024 -9.2716964026657465 ;
createNode joint -n "upArmRootAdjBind_L_jnt" -p "armPoint1Trash_L_Jnt";
	rename -uid "651658C2-4EF1-A65A-56C9-92A2F3F626EA";
	setAttr ".t" -type "double3" 2.55351295663786e-15 0 -1.3322676295501878e-15 ;
	setAttr ".r" -type "double3" -4.7708320221952744e-15 -9.5416640443905503e-15 -8.3489560388417319e-15 ;
	setAttr ".jo" -type "double3" -24.508379565091285 -18.604077570292983 -123.45121744041536 ;
	setAttr ".radi" 6.9;
createNode joint -n "scapRot1Trash_L_Jnt" -p "armPoint1Trash_L_Jnt";
	rename -uid "6A8F42DF-4297-043C-AF3C-5584A8AC5C4F";
	setAttr ".t" -type "double3" -2.2204460492503131e-16 3.5527136788005009e-15 2.2204460492503131e-16 ;
	setAttr ".jo" -type "double3" 5.5625938565165258 30.700758256077908 10.799818243205353 ;
createNode joint -n "scap1Bind_L_jnt" -p "scapRot1Trash_L_Jnt";
	rename -uid "33EC361B-4071-6718-8D31-7E8A9CE20B13";
	setAttr ".t" -type "double3" -1.4058565485671355 0.25490342594979865 -0.79080390398904277 ;
	setAttr ".mnrl" -type "double3" -360 -360 -360 ;
	setAttr ".mxrl" -type "double3" 360 360 360 ;
	setAttr ".jo" -type "double3" 0 0 -89.999999999999986 ;
createNode joint -n "scap2Bind_L_jnt" -p "scap1Bind_L_jnt";
	rename -uid "476D6509-42C2-7171-782C-9F8327ED519B";
	setAttr ".t" -type "double3" 1.32664165834362 -4.5651311850944991e-17 0 ;
	setAttr ".mnrl" -type "double3" -360 -360 -360 ;
	setAttr ".mxrl" -type "double3" 360 360 360 ;
	setAttr ".jo" -type "double3" -3.1805546814635168e-15 7.9513867036587988e-16 -7.9513867036587919e-16 ;
createNode joint -n "trap1Bind_L_Jnt" -p "clavMus2Trash_L_Jnt";
	rename -uid "75C9ABFE-46F9-3042-488A-799FDB79404F";
	setAttr ".t" -type "double3" -0.63156288905297631 0.20038066996994885 -0.20106900854331844 ;
	setAttr ".mnrl" -type "double3" -360 -360 -360 ;
	setAttr ".mxrl" -type "double3" 360 360 360 ;
	setAttr ".jo" -type "double3" -176.66370521141903 -9.239790875687703 153.68802325218462 ;
createNode joint -n "trap2Bind_L_Jnt" -p "trap1Bind_L_Jnt";
	rename -uid "2D1A51DD-4A9D-4E2F-763E-BFB62CAFC0C8";
	setAttr ".t" -type "double3" 1.2697000811516439 1.7763568394002505e-15 -1.1102230246251565e-16 ;
	setAttr ".mnrl" -type "double3" -360 -360 -360 ;
	setAttr ".mxrl" -type "double3" 360 360 360 ;
	setAttr ".jo" -type "double3" 7.2755188338477943e-14 -6.3611093629270351e-15 2.631412037242082e-14 ;
createNode transform -n "pacBindJnt_L_Grp" -p "clavMusJnt_L_Grp";
	rename -uid "1AEBBCFE-451D-3E54-5E71-168E258E6A78";
	setAttr ".rp" -type "double3" 0.99672431651476678 14.471932412142758 0.68790453948969155 ;
	setAttr ".sp" -type "double3" 0.99672431651476678 14.471932412142758 0.68790453948969155 ;
createNode joint -n "pec1Bind_L_Jnt" -p "pacBindJnt_L_Grp";
	rename -uid "D1FF7DDF-4ACC-809C-1957-1C94D42AE82E";
	setAttr ".t" -type "double3" 1.0758038478045142 14.896113543020755 0.7304156511011094 ;
	setAttr ".mnrl" -type "double3" -360 -360 -360 ;
	setAttr ".mxrl" -type "double3" 360 360 360 ;
createNode joint -n "pec2Bind_L_Jnt" -p "pec1Bind_L_Jnt";
	rename -uid "6181D4F9-401D-E3DA-B04E-51ACEAE5D2F2";
	setAttr ".t" -type "double3" -1.1102230246251565e-16 -0.87089149571703572 1.1102230246251565e-16 ;
	setAttr ".mnrl" -type "double3" -360 -360 -360 ;
	setAttr ".mxrl" -type "double3" 360 360 360 ;
createNode transform -n "laf1BindJnt_L_Grp" -p "clavMusJnt_L_Grp";
	rename -uid "48BA3B9F-4AE2-E59B-0887-3284DA703F41";
	setAttr ".t" -type "double3" 1.581954064047167 13.766969923419028 -0.94770431833645519 ;
	setAttr ".s" -type "double3" 1 0.99999999999999989 1 ;
createNode joint -n "lat1Bind_L_Jnt" -p "laf1BindJnt_L_Grp";
	rename -uid "EF44F8C1-4962-0434-39BA-E08126089A1E";
	setAttr ".mnrl" -type "double3" -360 -360 -360 ;
	setAttr ".mxrl" -type "double3" 360 360 360 ;
createNode transform -n "trap1BindBckJnt_L_Grp" -p "clavMusJnt_L_Grp";
	rename -uid "4BE68E1B-4AE5-DF1A-6098-3EA54398A473";
	setAttr ".t" -type "double3" 0.85796983979362795 16.002831354756871 -1.2558582349279992 ;
	setAttr ".r" -type "double3" -89.999999999999787 0 -90.000000000000256 ;
createNode joint -n "trap1BindBck_L_Jnt" -p "trap1BindBckJnt_L_Grp";
	rename -uid "0F121551-4DD7-EF79-0662-FB9E586079BB";
	addAttr -ci true -sn "liw" -ln "lockInfluenceWeights" -min 0 -max 1 -at "bool";
	setAttr ".mnrl" -type "double3" -360 -360 -360 ;
	setAttr ".mxrl" -type "double3" 360 360 360 ;
	setAttr ".jo" -type "double3" -3.1805546814635168e-15 -6.3611093629270335e-15 2.4717875269080888e-29 ;
	setAttr ".bps" -type "matrix" -0.88476307775722929 0.43750729362333607 0.16056669724428962 0
		 0.43413105128487373 0.89901653154065253 -0.057441329431910833 0 -0.16948311581938108 0.018885021657359152 -0.98535213472603567 0
		 1.4645788874204124 15.898612605406811 -0.91989982469252873 1;
	setAttr ".liw" yes;
createNode joint -n "trap2BindBck_L_Jnt" -p "trap1BindBck_L_Jnt";
	rename -uid "CFE1B976-4DD6-88AA-D861-F8896963A7E7";
	addAttr -ci true -sn "liw" -ln "lockInfluenceWeights" -min 0 -max 1 -at "bool";
	setAttr ".mnrl" -type "double3" -360 -360 -360 ;
	setAttr ".mxrl" -type "double3" 360 360 360 ;
	setAttr ".bps" -type "matrix" -4.4408920985006262e-15 -1 0 0 3.9412917374193057e-15 0 -1 0
		 1 -4.3853809472693683e-15 3.8857805861880479e-15 0 0.85796983979362795 16.002831354756871 -1.2558582349279992 1;
	setAttr ".radi" 2.9000000000000004;
	setAttr ".liw" yes;
createNode lightLinker -s -n "lightLinker1";
	rename -uid "70F55831-43C0-2A60-D0E5-E8AB807F288D";
	setAttr -s 2 ".lnk";
	setAttr -s 2 ".slnk";
createNode shapeEditorManager -n "shapeEditorManager";
	rename -uid "C3B85355-44DF-E2C2-748C-6EB1B9FCB821";
	setAttr ".bsdt[0].bscd" -type "Int32Array" 0 ;
createNode poseInterpolatorManager -n "poseInterpolatorManager";
	rename -uid "371D4473-44CF-92F3-259F-D3BF9CDB28D5";
createNode displayLayerManager -n "layerManager";
	rename -uid "2489D7E2-48B4-CFC5-2FC2-6CA388705029";
	setAttr ".cdl" 3;
	setAttr -s 4 ".dli[1:3]"  1 4 3;
createNode displayLayer -n "defaultLayer";
	rename -uid "EE2573EE-482E-520D-66E6-97829E9461EC";
createNode renderLayerManager -n "renderLayerManager";
	rename -uid "51399C2C-4C52-61A9-945B-669F5269F2EE";
createNode renderLayer -n "defaultRenderLayer";
	rename -uid "8DDA2892-4846-75CD-7D25-10A1D5E57A56";
	setAttr ".g" yes;
createNode script -n "sceneConfigurationScriptNode";
	rename -uid "32C26A18-4B5E-5930-5E72-8BA6C7D86059";
	setAttr ".b" -type "string" "playbackOptions -min 1 -max 189 -ast 1 -aet 200 ";
	setAttr ".st" 6;
createNode nodeGraphEditorInfo -n "MayaNodeEditorSavedTabsInfo";
	rename -uid "AF264BA3-4CEB-9846-B901-EAB2FFD1B114";
	setAttr ".tgi[0].tn" -type "string" "Untitled_1";
	setAttr ".tgi[0].vl" -type "double2" -611.90473758985229 -254.76189463857659 ;
	setAttr ".tgi[0].vh" -type "double2" 611.90473758985229 253.57141849540571 ;
	setAttr -s 5 ".tgi[0].ni";
	setAttr ".tgi[0].ni[0].x" 5942.85693359375;
	setAttr ".tgi[0].ni[0].y" 43804.28515625;
	setAttr ".tgi[0].ni[0].nvs" 18304;
	setAttr ".tgi[0].ni[1].x" 5500;
	setAttr ".tgi[0].ni[1].y" 43804.28515625;
	setAttr ".tgi[0].ni[1].nvs" 18304;
	setAttr ".tgi[0].ni[2].x" -92.857139587402344;
	setAttr ".tgi[0].ni[2].y" 31.428571701049805;
	setAttr ".tgi[0].ni[2].nvs" 18304;
	setAttr ".tgi[0].ni[3].x" -92.857139587402344;
	setAttr ".tgi[0].ni[3].y" 177.14285278320313;
	setAttr ".tgi[0].ni[3].nvs" 18304;
	setAttr ".tgi[0].ni[4].x" -102.85713958740234;
	setAttr ".tgi[0].ni[4].y" -114.28571319580078;
	setAttr ".tgi[0].ni[4].nvs" 18304;
select -ne :time1;
	setAttr -av -k on ".cch";
	setAttr -av -cb on ".ihi";
	setAttr -av -k on ".nds";
	setAttr -cb on ".bnm";
	setAttr -k on ".o" 1;
	setAttr -av -k on ".unw" 1;
	setAttr -av -k on ".etw";
	setAttr -av -k on ".tps";
	setAttr -av -k on ".tms";
select -ne :hardwareRenderingGlobals;
	setAttr -av -k on ".ihi";
	setAttr ".otfna" -type "stringArray" 22 "NURBS Curves" "NURBS Surfaces" "Polygons" "Subdiv Surface" "Particles" "Particle Instance" "Fluids" "Strokes" "Image Planes" "UI" "Lights" "Cameras" "Locators" "Joints" "IK Handles" "Deformers" "Motion Trails" "Components" "Hair Systems" "Follicles" "Misc. UI" "Ornaments"  ;
	setAttr ".otfva" -type "Int32Array" 22 0 1 1 1 1 1
		 1 1 1 0 0 0 0 0 0 0 0 0
		 0 0 0 0 ;
	setAttr -av ".ta";
	setAttr -av ".tq";
	setAttr -av ".tmr";
	setAttr -av ".aoam";
	setAttr -av ".aora";
	setAttr -av ".hfd";
	setAttr -av ".hfs";
	setAttr -av ".hfe";
	setAttr -av ".hfcr";
	setAttr -av ".hfcg";
	setAttr -av ".hfcb";
	setAttr -av ".hfa";
	setAttr -av ".mbe";
	setAttr -av -k on ".mbsof";
	setAttr ".fprt" yes;
select -ne :renderPartition;
	setAttr -av -k on ".cch";
	setAttr -cb on ".ihi";
	setAttr -av -k on ".nds";
	setAttr -cb on ".bnm";
	setAttr -s 2 ".st";
	setAttr -cb on ".an";
	setAttr -cb on ".pt";
select -ne :renderGlobalsList1;
	setAttr -k on ".cch";
	setAttr -cb on ".ihi";
	setAttr -k on ".nds";
	setAttr -cb on ".bnm";
select -ne :defaultShaderList1;
	setAttr -k on ".cch";
	setAttr -cb on ".ihi";
	setAttr -k on ".nds";
	setAttr -cb on ".bnm";
	setAttr -s 4 ".s";
select -ne :postProcessList1;
	setAttr -k on ".cch";
	setAttr -cb on ".ihi";
	setAttr -k on ".nds";
	setAttr -cb on ".bnm";
	setAttr -s 2 ".p";
select -ne :defaultRenderingList1;
	setAttr -k on ".ihi";
select -ne :initialShadingGroup;
	setAttr -av -k on ".cch";
	setAttr -k on ".fzn";
	setAttr -cb on ".ihi";
	setAttr -av -k on ".nds";
	setAttr -cb on ".bnm";
	setAttr -k on ".bbx";
	setAttr -k on ".vwm";
	setAttr -k on ".tpv";
	setAttr -k on ".uit";
	setAttr -k on ".mwc";
	setAttr -cb on ".an";
	setAttr -cb on ".il";
	setAttr -cb on ".vo";
	setAttr -cb on ".eo";
	setAttr -cb on ".fo";
	setAttr -cb on ".epo";
	setAttr -k on ".ro" yes;
select -ne :initialParticleSE;
	setAttr -av -k on ".cch";
	setAttr -cb on ".ihi";
	setAttr -av -k on ".nds";
	setAttr -cb on ".bnm";
	setAttr -k on ".mwc";
	setAttr -cb on ".an";
	setAttr -cb on ".il";
	setAttr -cb on ".vo";
	setAttr -cb on ".eo";
	setAttr -cb on ".fo";
	setAttr -cb on ".epo";
	setAttr -k on ".ro" yes;
select -ne :defaultRenderGlobals;
	setAttr ".ren" -type "string" "arnold";
	setAttr ".fs" 1;
	setAttr ".ef" 10;
select -ne :defaultResolution;
	setAttr -av -k on ".cch";
	setAttr -av -k on ".ihi";
	setAttr -av -k on ".nds";
	setAttr -k on ".bnm";
	setAttr -av -k on ".w";
	setAttr -av -k on ".h";
	setAttr -av -k on ".pa" 1;
	setAttr -av -k on ".al";
	setAttr -av -k on ".dar";
	setAttr -av -k on ".ldar";
	setAttr -av -k on ".dpi";
	setAttr -av -k on ".off";
	setAttr -av -k on ".fld";
	setAttr -av -k on ".zsl";
	setAttr -av -k on ".isu";
	setAttr -av -k on ".pdu";
select -ne :hardwareRenderGlobals;
	setAttr -av -k on ".cch";
	setAttr -cb on ".ihi";
	setAttr -av -k on ".nds";
	setAttr -cb on ".bnm";
	setAttr -av -k off -cb on ".ctrs" 256;
	setAttr -av -k off -cb on ".btrs" 512;
	setAttr -av -k off -cb on ".fbfm";
	setAttr -av -k off -cb on ".ehql";
	setAttr -av -k off -cb on ".eams";
	setAttr -av -k off -cb on ".eeaa";
	setAttr -av -k off -cb on ".engm";
	setAttr -av -k off -cb on ".mes";
	setAttr -av -k off -cb on ".emb";
	setAttr -av -k off -cb on ".mbbf";
	setAttr -av -k off -cb on ".mbs";
	setAttr -av -k off -cb on ".trm";
	setAttr -av -k off -cb on ".tshc";
	setAttr -av -k off -cb on ".enpt";
	setAttr -av -k off -cb on ".clmt";
	setAttr -av -k off -cb on ".tcov";
	setAttr -av -k off -cb on ".lith";
	setAttr -av -k off -cb on ".sobc";
	setAttr -av -k off -cb on ".cuth";
	setAttr -av -k off -cb on ".hgcd";
	setAttr -av -k off -cb on ".hgci";
	setAttr -av -k off -cb on ".mgcs";
	setAttr -av -k off -cb on ".twa";
	setAttr -av -k off -cb on ".twz";
	setAttr -cb on ".hwcc";
	setAttr -cb on ".hwdp";
	setAttr -cb on ".hwql";
	setAttr -k on ".hwfr";
	setAttr -k on ".soll";
	setAttr -k on ".sosl";
	setAttr -k on ".bswa";
	setAttr -k on ".shml";
	setAttr -k on ".hwel";
connectAttr "clavMus1Trash_L_Jnt.s" "clavMus2Trash_L_Jnt.is";
connectAttr "clavMus2Trash_L_Jnt.s" "armPoint1Trash_L_Jnt.is";
connectAttr "armPoint1Trash_L_Jnt.s" "upArmRootAdjBind_L_jnt.is";
connectAttr "armPoint1Trash_L_Jnt.s" "scapRot1Trash_L_Jnt.is";
connectAttr "scapRot1Trash_L_Jnt.s" "scap1Bind_L_jnt.is";
connectAttr "scap1Bind_L_jnt.s" "scap2Bind_L_jnt.is";
connectAttr "clavMus2Trash_L_Jnt.s" "trap1Bind_L_Jnt.is";
connectAttr "trap1Bind_L_Jnt.s" "trap2Bind_L_Jnt.is";
connectAttr "pec1Bind_L_Jnt.s" "pec2Bind_L_Jnt.is";
connectAttr "trap1BindBck_L_Jnt.s" "trap2BindBck_L_Jnt.is";
relationship "link" ":lightLinker1" ":initialShadingGroup.message" ":defaultLightSet.message";
relationship "link" ":lightLinker1" ":initialParticleSE.message" ":defaultLightSet.message";
relationship "shadowLink" ":lightLinker1" ":initialShadingGroup.message" ":defaultLightSet.message";
relationship "shadowLink" ":lightLinker1" ":initialParticleSE.message" ":defaultLightSet.message";
connectAttr "layerManager.dli[0]" "defaultLayer.id";
connectAttr "renderLayerManager.rlmi[0]" "defaultRenderLayer.rlid";
connectAttr "trap2BindBck_L_Jnt.msg" "MayaNodeEditorSavedTabsInfo.tgi[0].ni[0].dn"
		;
connectAttr "trap1BindBck_L_Jnt.msg" "MayaNodeEditorSavedTabsInfo.tgi[0].ni[1].dn"
		;
connectAttr "trap1BindBckJnt_L_Grp.msg" "MayaNodeEditorSavedTabsInfo.tgi[0].ni[2].dn"
		;
connectAttr "sceneConfigurationScriptNode.msg" "MayaNodeEditorSavedTabsInfo.tgi[0].ni[4].dn"
		;
connectAttr "defaultRenderLayer.msg" ":defaultRenderingList1.r" -na;
dataStructure -fmt "raw" -as "name=FBXFastExportSetting_MB:string=19424";
dataStructure -fmt "raw" -as "name=idStructure:int32=ID";
dataStructure -fmt "raw" -as "name=externalContentTablZ:string=nodZ:string=key:string=upath:uint32=upathcrc:string=rpath:string=roles";
dataStructure -fmt "raw" -as "name=faceConnectMarkerStructure:bool=faceConnectMarker:string[200]=faceConnectOutputGroups";
dataStructure -fmt "raw" -as "name=FBXFastExportSetting_FBX:string=54";
dataStructure -fmt "raw" -as "name=faceConnectOutputStructure:bool=faceConnectOutput:string[200]=faceConnectOutputAttributes:string[200]=faceConnectOutputGroups";
// End of clavMusTmp.ma
