//Maya ASCII 2017ff05 scene
//Name: lillySRU_RIV.ma
//Last modified: Thu, Dec 14, 2017 09:18:13 PM
//Codeset: 1252
requires maya "2017ff05";
requires "stereoCamera" "10.0";
requires "FurryBall_2012" "4.5.3028";
requires "TurtleForMaya2009" "5.0.0.5";
requires "PO_Reader_v2012_64" "1.0";
requires "arkMayaExporter_2013_5" "1.21.ma3.s2.me5.a7";
requires "pfOptions.py" "1.0";
currentUnit -l centimeter -a degree -t film;
fileInfo "application" "maya";
fileInfo "product" "Maya 2017";
fileInfo "version" "2017";
fileInfo "cutIdentifier" "201706020738-1017329";
fileInfo "osv" "Microsoft Windows 8 Business Edition, 64-bit  (Build 9200)\n";
createNode transform -n "backArmor_RIV1";
	rename -uid "FB905C35-45B8-9070-6A47-769F07B32678";
	setAttr ".t" -type "double3" 1.1920930376163597e-007 127.72568893432617 -14.84829998016356 ;
	setAttr ".r" -type "double3" 90 -1.4948607002878528e-013 90 ;
createNode locator -n "backArmor_RIV1Shape" -p "backArmor_RIV1";
	rename -uid "07C97166-4C60-C36B-22DC-80B0032C2779";
	setAttr -k off ".v";
createNode transform -n "chest_RIV1";
	rename -uid "35219504-4BE6-70FD-E1BA-4C8361E70D1F";
	setAttr ".t" -type "double3" -7.0780515502022467e-006 126.09323501586914 11.76846599578859 ;
	setAttr ".r" -type "double3" 89.963467192224769 -23.571765811836929 -89.934939767301458 ;
createNode locator -n "chest_RIV1Shape" -p "chest_RIV1";
	rename -uid "3BA77F9A-4505-566E-8350-0385B04AD24F";
	setAttr -k off ".v";
createNode transform -n "shoulderLFT_RIV1";
	rename -uid "B9F6BE64-4262-D630-E201-1E93DEF1886A";
	setAttr ".t" -type "double3" 16.832656383514422 139.55176162719727 -2.9706556797027432 ;
	setAttr ".r" -type "double3" -3.8674067351520334 3.3273680405869319 168.12514276813863 ;
createNode locator -n "shoulderLFT_RIV1Shape" -p "shoulderLFT_RIV1";
	rename -uid "ECE9F414-496F-E951-311F-CDA5A6220B62";
	setAttr -k off ".v";
createNode transform -n "shoulderRGT_RIV1";
	rename -uid "1889714A-4DE6-D466-C026-1C88EA2B066A";
	setAttr ".t" -type "double3" -16.832656383514387 139.55176162719727 -2.9706556797027392 ;
	setAttr ".r" -type "double3" 3.8674067351520223 3.3273680405869421 11.874857231861203 ;
createNode locator -n "shoulderRGT_RIV1Shape" -p "shoulderRGT_RIV1";
	rename -uid "A4E20489-4DDC-56F4-8518-3DB4F35384CE";
	setAttr -k off ".v";
select -ne :time1;
	setAttr -av -k on ".cch";
	setAttr -av -cb on ".ihi";
	setAttr -av -k on ".nds";
	setAttr -cb on ".bnm";
	setAttr -k on ".o" 0;
	setAttr -av ".unw";
	setAttr -k on ".etw";
	setAttr -av -k on ".tps";
	setAttr -av -k on ".tms";
select -ne :hardwareRenderingGlobals;
	setAttr -k on ".ihi";
	setAttr ".otfna" -type "stringArray" 22 "NURBS Curves" "NURBS Surfaces" "Polygons" "Subdiv Surface" "Particles" "Particle Instance" "Fluids" "Strokes" "Image Planes" "UI" "Lights" "Cameras" "Locators" "Joints" "IK Handles" "Deformers" "Motion Trails" "Components" "Hair Systems" "Follicles" "Misc. UI" "Ornaments"  ;
	setAttr ".otfva" -type "Int32Array" 22 0 1 1 1 1 1
		 1 1 1 0 0 0 0 0 0 0 0 0
		 0 0 0 0 ;
	setAttr -av ".aoam";
	setAttr -av ".aora";
	setAttr -av -k on ".mbsof";
	setAttr ".fprt" yes;
select -ne :renderPartition;
	setAttr -k on ".cch";
	setAttr -cb on ".ihi";
	setAttr -k on ".nds";
	setAttr -cb on ".bnm";
	setAttr -s 20 ".st";
	setAttr -cb on ".an";
	setAttr -cb on ".pt";
select -ne :renderGlobalsList1;
	setAttr -k on ".cch";
	setAttr -cb on ".ihi";
	setAttr -k on ".nds";
	setAttr -cb on ".bnm";
select -ne :defaultShaderList1;
	setAttr -k on ".cch";
	setAttr -cb on ".ihi";
	setAttr -k on ".nds";
	setAttr -cb on ".bnm";
	setAttr -s 22 ".s";
select -ne :postProcessList1;
	setAttr -k on ".cch";
	setAttr -cb on ".ihi";
	setAttr -k on ".nds";
	setAttr -cb on ".bnm";
	setAttr -s 2 ".p";
select -ne :defaultRenderingList1;
	setAttr -k on ".ihi";
	setAttr -s 2 ".r";
select -ne :defaultTextureList1;
	setAttr -s 4 ".tx";
select -ne :initialShadingGroup;
	setAttr -av -k on ".cch";
	setAttr -cb on ".ihi";
	setAttr -av -k on ".nds";
	setAttr -cb on ".bnm";
	setAttr -s 5 ".dsm";
	setAttr -k on ".mwc";
	setAttr -cb on ".an";
	setAttr -cb on ".il";
	setAttr -cb on ".vo";
	setAttr -cb on ".eo";
	setAttr -cb on ".fo";
	setAttr -cb on ".epo";
	setAttr -k on ".ro" yes;
select -ne :initialParticleSE;
	setAttr -av -k on ".cch";
	setAttr -cb on ".ihi";
	setAttr -av -k on ".nds";
	setAttr -cb on ".bnm";
	setAttr -k on ".mwc";
	setAttr -cb on ".an";
	setAttr -cb on ".il";
	setAttr -cb on ".vo";
	setAttr -cb on ".eo";
	setAttr -cb on ".fo";
	setAttr -cb on ".epo";
	setAttr -k on ".ro" yes;
select -ne :defaultResolution;
	setAttr -av -k on ".cch";
	setAttr -av -k on ".ihi";
	setAttr -av -k on ".nds";
	setAttr -k on ".bnm";
	setAttr -av -k on ".w";
	setAttr -av -k on ".h";
	setAttr -av -k on ".pa" 1;
	setAttr -av -k on ".al";
	setAttr -av -k on ".dar";
	setAttr -av -k on ".ldar";
	setAttr -av -cb on ".dpi";
	setAttr -av -k on ".off";
	setAttr -av -k on ".fld";
	setAttr -av -k on ".zsl";
	setAttr -av -cb on ".isu";
	setAttr -av -cb on ".pdu";
select -ne :hardwareRenderGlobals;
	setAttr -k on ".cch";
	setAttr -cb on ".ihi";
	setAttr -k on ".nds";
	setAttr -cb on ".bnm";
	setAttr -k off -cb on ".ctrs" 256;
	setAttr -av -k off -cb on ".btrs" 512;
	setAttr -k off -cb on ".fbfm";
	setAttr -k off -cb on ".ehql";
	setAttr -k off -cb on ".eams";
	setAttr -k off -cb on ".eeaa";
	setAttr -k off -cb on ".engm";
	setAttr -k off -cb on ".mes";
	setAttr -k off -cb on ".emb";
	setAttr -av -k off -cb on ".mbbf";
	setAttr -k off -cb on ".mbs";
	setAttr -k off -cb on ".trm";
	setAttr -k off -cb on ".tshc";
	setAttr -k off -cb on ".enpt";
	setAttr -k off -cb on ".clmt";
	setAttr -k off -cb on ".tcov";
	setAttr -k off -cb on ".lith";
	setAttr -k off -cb on ".sobc";
	setAttr -k off -cb on ".cuth";
	setAttr -k off -cb on ".hgcd";
	setAttr -k off -cb on ".hgci";
	setAttr -k off -cb on ".mgcs";
	setAttr -k off -cb on ".twa";
	setAttr -k off -cb on ".twz";
	setAttr -k on ".hwcc";
	setAttr -k on ".hwdp";
	setAttr -k on ".hwql";
	setAttr -k on ".hwfr";
	setAttr -k on ".soll";
	setAttr -k on ".sosl";
	setAttr -k on ".bswa";
	setAttr -k on ".shml";
	setAttr -k on ".hwel";
// End of lillySRU_RIV.ma
