//Maya ASCII 2012 scene
//Name: backLegTmpJnt_2.ma
//Last modified: Tue, Jan 27, 2015 03:32:08 PM
//Codeset: 1252
requires maya "2012";
requires "stereoCamera" "10.0";
currentUnit -l centimeter -a degree -t pal;
fileInfo "application" "maya";
fileInfo "product" "Maya 2012";
fileInfo "version" "2012 x64";
fileInfo "cutIdentifier" "201201172029-821146";
fileInfo "osv" "Microsoft Business Edition, 64-bit  (Build 9200)\n";
createNode transform -s -n "persp";
	setAttr ".v" no;
	setAttr ".t" -type "double3" 9.7771354907855397 15.762131174992884 5.833958861655411 ;
	setAttr ".r" -type "double3" -59.138352724199628 63.799999999993716 7.2038788644621878e-015 ;
	setAttr ".rp" -type "double3" -8.8817841970012523e-016 0 4.4408920985006262e-016 ;
	setAttr ".rpt" -type "double3" 2.8126683237378335e-016 2.2431188088968526e-016 3.0918274421899509e-016 ;
createNode camera -s -n "perspShape" -p "persp";
	setAttr -k off ".v" no;
	setAttr ".fl" 34.999999999999986;
	setAttr ".coi" 18.595482964104235;
	setAttr ".imn" -type "string" "persp";
	setAttr ".den" -type "string" "persp_depth";
	setAttr ".man" -type "string" "persp_mask";
	setAttr ".tp" -type "double3" 1.4015498787587133 6.9309795879807874 2.458697687247255 ;
	setAttr ".hc" -type "string" "viewSet -p %camera";
createNode transform -s -n "top";
	setAttr ".v" no;
	setAttr ".t" -type "double3" -8.2328343693074366 112.35258620426426 -5.3966892889239668 ;
	setAttr ".r" -type "double3" -89.999999999999986 0 0 ;
createNode camera -s -n "topShape" -p "top";
	setAttr -k off ".v" no;
	setAttr ".rnd" no;
	setAttr ".coi" 100;
	setAttr ".ow" 3.3765500137779014;
	setAttr ".imn" -type "string" "top";
	setAttr ".den" -type "string" "top_depth";
	setAttr ".man" -type "string" "top_mask";
	setAttr ".hc" -type "string" "viewSet -t %camera";
	setAttr ".o" yes;
createNode transform -s -n "front";
	setAttr ".v" no;
	setAttr ".t" -type "double3" 0.00017339897155754791 25.82538890838623 112.18341456394401 ;
createNode camera -s -n "frontShape" -p "front";
	setAttr -k off ".v" no;
	setAttr ".rnd" no;
	setAttr ".coi" 100;
	setAttr ".ow" 3.7414176820453848;
	setAttr ".imn" -type "string" "front";
	setAttr ".den" -type "string" "front_depth";
	setAttr ".man" -type "string" "front_mask";
	setAttr ".hc" -type "string" "viewSet -f %camera";
	setAttr ".o" yes;
createNode transform -s -n "side";
	setAttr ".v" no;
	setAttr ".t" -type "double3" 111.66132043940452 6.719236755224486 -0.53885395366956601 ;
	setAttr ".r" -type "double3" 0 89.999999999999986 0 ;
createNode camera -s -n "sideShape" -p "side";
	setAttr -k off ".v" no;
	setAttr ".rnd" no;
	setAttr ".coi" 100;
	setAttr ".ow" 25.358618353374791;
	setAttr ".imn" -type "string" "side";
	setAttr ".den" -type "string" "side_depth";
	setAttr ".man" -type "string" "side_mask";
	setAttr ".hc" -type "string" "viewSet -s %camera";
	setAttr ".o" yes;
createNode joint -n "upLegLFT_tmpJnt";
	addAttr -ci true -sn "liw" -ln "lockInfluenceWeights" -min 0 -max 1 -at "bool";
	setAttr ".uoc" yes;
	setAttr ".oc" 2;
	setAttr ".t" -type "double3" 1.4465929924704308 14.727959175961576 0.0044553705297420976 ;
	setAttr ".r" -type "double3" 2.0001041917445067e-029 -1.4026788238829408e-014 4.3133423655002705e-016 ;
	setAttr ".mnrl" -type "double3" -360 -360 -360 ;
	setAttr ".mxrl" -type "double3" 360 360 360 ;
	setAttr ".jot" -type "string" "yxz";
	setAttr ".jo" -type "double3" 0 0 -180 ;
	setAttr ".bps" -type "matrix" -1 -1.2246467991473532e-016 0 0 1.2246467991473532e-016 -1 0 0
		 0 0 1 0 1.3486489690923307 14.656585133659888 1.5144370407379352e-017 1;
	setAttr -k on -cb off ".radi" 0.25;
createNode joint -n "midLegLFT_tmpJnt" -p "upLegLFT_tmpJnt";
	addAttr -ci true -sn "liw" -ln "lockInfluenceWeights" -min 0 -max 1 -at "bool";
	setAttr ".uoc" yes;
	setAttr ".oc" 3;
	setAttr ".t" -type "double3" 1.1102230246251565e-015 6 1.1891723846075715 ;
	setAttr ".mnrl" -type "double3" -360 -360 -360 ;
	setAttr ".mxrl" -type "double3" 360 360 360 ;
	setAttr ".jot" -type "string" "yxz";
	setAttr ".bps" -type "matrix" -1 -1.2246467991473532e-016 0 0 1.2246467991473532e-016 -1 0 0
		 0 0 1 0 1.3486489690923305 7.7535119809750004 0.15259281481888803 1;
	setAttr -k on -cb off ".radi" 0.25;
createNode joint -n "kneeIkLFT_tmpJnt" -p "midLegLFT_tmpJnt";
	addAttr -ci true -sn "liw" -ln "lockInfluenceWeights" -min 0 -max 1 -at "bool";
	setAttr ".uoc" yes;
	setAttr ".oc" 2;
	setAttr ".t" -type "double3" -6.6613381477509373e-016 1.7763568394002505e-015 5 ;
	setAttr ".mnrl" -type "double3" -360 -360 -360 ;
	setAttr ".mxrl" -type "double3" 360 360 360 ;
	setAttr ".jot" -type "string" "yxz";
	setAttr ".bps" -type "matrix" -1 -1.2246467991473532e-016 0 0 1.2246467991473532e-016 -1 0 0
		 0 0 1 0 1.3486489690923307 14.656585133659888 1.5144370407379352e-017 1;
	setAttr -k on -cb off ".radi" 0.25;
createNode joint -n "lowLegLFT_tmpJnt" -p "midLegLFT_tmpJnt";
	addAttr -ci true -sn "liw" -ln "lockInfluenceWeights" -min 0 -max 1 -at "bool";
	setAttr ".uoc" yes;
	setAttr ".oc" 3;
	setAttr ".t" -type "double3" -2.0686395540177638e-016 4.8021318196270935 -2.0055398973516043 ;
	setAttr ".mnrl" -type "double3" -360 -360 -360 ;
	setAttr ".mxrl" -type "double3" 360 360 360 ;
	setAttr ".jot" -type "string" "yxz";
	setAttr ".bps" -type "matrix" -1 -1.2246467991473532e-016 0 0 1.2246467991473532e-016 -1 0 0
		 0 0 1 0 1.3486489690923305 7.7535119809750004 0.15259281481888803 1;
	setAttr -k on -cb off ".radi" 0.25;
createNode joint -n "ankleLFT_tmpJnt" -p "lowLegLFT_tmpJnt";
	addAttr -ci true -sn "liw" -ln "lockInfluenceWeights" -min 0 -max 1 -at "bool";
	setAttr ".uoc" yes;
	setAttr ".oc" 4;
	setAttr ".t" -type "double3" -1.5180649523254957e-017 2.8545770891380324 0.70088804688272399 ;
	setAttr ".mnrl" -type "double3" -360 -360 -360 ;
	setAttr ".mxrl" -type "double3" 360 360 360 ;
	setAttr ".jot" -type "string" "yxz";
	setAttr ".bps" -type "matrix" -1 -1.2246467991473532e-016 0 0 1.2246467991473532e-016 -1 0 0
		 0 0 1 0 1.348648969092332 1.0615915425310156 0 1;
	setAttr -k on -cb off ".radi" 0.25;
createNode joint -n "ballLFT_tmpJnt" -p "ankleLFT_tmpJnt";
	addAttr -ci true -sn "liw" -ln "lockInfluenceWeights" -min 0 -max 1 -at "bool";
	setAttr ".uoc" yes;
	setAttr ".oc" 5;
	setAttr ".t" -type "double3" 4.4408920985006262e-016 1.0712502671964508 1.8459647738948022 ;
	setAttr ".mnrl" -type "double3" -360 -360 -360 ;
	setAttr ".mxrl" -type "double3" 360 360 360 ;
	setAttr ".jot" -type "string" "yxz";
	setAttr ".jo" -type "double3" 89.999999999999986 0 0 ;
	setAttr ".bps" -type "matrix" -1 -1.2246467991473532e-016 0 0 2.7192621468937821e-032 -2.2204460492503131e-016 1 0
		 -1.2246467991473532e-016 1 2.2204460492503131e-016 0 1.3486489690923311 5.5511151231257827e-015 1.476681409489522 1;
	setAttr -k on -cb off ".radi" 0.25;
createNode joint -n "toeLFT_tmpJnt" -p "ballLFT_tmpJnt";
	addAttr -ci true -sn "liw" -ln "lockInfluenceWeights" -min 0 -max 1 -at "bool";
	setAttr ".uoc" yes;
	setAttr ".oc" 6;
	setAttr ".t" -type "double3" 0 1.565348722578374 3.4757723867481744e-016 ;
	setAttr ".mnrl" -type "double3" -360 -360 -360 ;
	setAttr ".mxrl" -type "double3" 360 360 360 ;
	setAttr ".bps" -type "matrix" -1 -1.2246467991473532e-016 0 0 2.7192621468937821e-032 -2.2204460492503131e-016 1 0
		 -1.2246467991473532e-016 1 2.2204460492503131e-016 0 1.3486489690923309 5.0024078434460801e-015 3.3551152167720435 1;
	setAttr -k on -cb off ".radi" 0.25;
createNode joint -n "heelLFT_tmpJnt" -p "ankleLFT_tmpJnt";
	setAttr ".t" -type "double3" 1.1102230246251565e-015 1.0615915425310101 -1.1652082853112362 ;
	setAttr ".jo" -type "double3" 89.999999999999986 0 0 ;
	setAttr ".radi" 0.25;
createNode joint -n "footInLFT_tmpJnt" -p "ankleLFT_tmpJnt";
	setAttr ".t" -type "double3" 1.022336296852294 1.0615915425310094 1.4035839081952437 ;
	setAttr ".jo" -type "double3" 90 0 0 ;
	setAttr ".radi" 0.25;
createNode joint -n "footOutLFT_tmpJnt" -p "ankleLFT_tmpJnt";
	setAttr ".t" -type "double3" -0.93225006942885802 1.0615915425310152 1.4051603966008885 ;
	setAttr ".jo" -type "double3" 90 0 0 ;
	setAttr ".radi" 0.25;
createNode lightLinker -s -n "lightLinker1";
	setAttr -s 2 ".lnk";
	setAttr -s 2 ".slnk";
createNode displayLayerManager -n "layerManager";
createNode displayLayer -n "defaultLayer";
createNode renderLayerManager -n "renderLayerManager";
createNode renderLayer -n "defaultRenderLayer";
	setAttr ".g" yes;
createNode script -n "sceneConfigurationScriptNode";
	setAttr ".b" -type "string" "playbackOptions -min 1.041667 -max 25 -ast 1.041667 -aet 50 ";
	setAttr ".st" 6;
select -ne :time1;
	setAttr -av -k on ".cch";
	setAttr -cb on ".ihi";
	setAttr -av -k on ".nds";
	setAttr -cb on ".bnm";
	setAttr -k on ".o" 0;
	setAttr -av ".unw";
lockNode -l 1 ;
select -ne :renderPartition;
	setAttr -k on ".cch";
	setAttr -cb on ".ihi";
	setAttr -k on ".nds";
	setAttr -cb on ".bnm";
	setAttr -s 2 ".st";
	setAttr -cb on ".an";
	setAttr -cb on ".pt";
lockNode -l 1 ;
select -ne :initialShadingGroup;
	setAttr -av -k on ".cch";
	setAttr -cb on ".ihi";
	setAttr -av -k on ".nds";
	setAttr -cb on ".bnm";
	setAttr -k on ".mwc";
	setAttr -cb on ".an";
	setAttr -cb on ".il";
	setAttr -cb on ".vo";
	setAttr -cb on ".eo";
	setAttr -cb on ".fo";
	setAttr -cb on ".epo";
	setAttr -k on ".ro" yes;
	setAttr -cb on ".mimt";
	setAttr -cb on ".miop";
	setAttr -k on ".mico";
	setAttr -cb on ".mise";
	setAttr -cb on ".mism";
	setAttr -cb on ".mice";
	setAttr -av -cb on ".micc";
	setAttr -k on ".micr";
	setAttr -k on ".micg";
	setAttr -k on ".micb";
	setAttr -cb on ".mica";
	setAttr -av -cb on ".micw";
	setAttr -cb on ".mirw";
lockNode -l 1 ;
select -ne :initialParticleSE;
	setAttr -av -k on ".cch";
	setAttr -cb on ".ihi";
	setAttr -av -k on ".nds";
	setAttr -cb on ".bnm";
	setAttr -k on ".mwc";
	setAttr -cb on ".an";
	setAttr -cb on ".il";
	setAttr -cb on ".vo";
	setAttr -cb on ".eo";
	setAttr -cb on ".fo";
	setAttr -cb on ".epo";
	setAttr -k on ".ro" yes;
	setAttr -cb on ".mimt";
	setAttr -cb on ".miop";
	setAttr -k on ".mico";
	setAttr -cb on ".mise";
	setAttr -cb on ".mism";
	setAttr -cb on ".mice";
	setAttr -av -cb on ".micc";
	setAttr -k on ".micr";
	setAttr -k on ".micg";
	setAttr -k on ".micb";
	setAttr -cb on ".mica";
	setAttr -av -cb on ".micw";
	setAttr -cb on ".mirw";
lockNode -l 1 ;
select -ne :defaultShaderList1;
	setAttr -k on ".cch";
	setAttr -cb on ".ihi";
	setAttr -k on ".nds";
	setAttr -cb on ".bnm";
	setAttr -s 2 ".s";
lockNode -l 1 ;
select -ne :postProcessList1;
	setAttr -k on ".cch";
	setAttr -cb on ".ihi";
	setAttr -k on ".nds";
	setAttr -cb on ".bnm";
	setAttr -s 2 ".p";
lockNode -l 1 ;
select -ne :defaultRenderingList1;
select -ne :renderGlobalsList1;
	setAttr -k on ".cch";
	setAttr -cb on ".ihi";
	setAttr -k on ".nds";
	setAttr -cb on ".bnm";
lockNode -l 1 ;
select -ne :defaultLightSet;
	setAttr -k on ".cch";
	setAttr -k on ".ihi";
	setAttr -av -k on ".nds";
	setAttr -k on ".bnm";
	setAttr -k on ".mwc";
	setAttr -k on ".an";
	setAttr -k on ".il";
	setAttr -k on ".vo";
	setAttr -k on ".eo";
	setAttr -k on ".fo";
	setAttr -k on ".epo";
	setAttr -k on ".ro" yes;
lockNode -l 1 ;
select -ne :defaultObjectSet;
	setAttr -k on ".cch";
	setAttr -k on ".ihi";
	setAttr -k on ".nds";
	setAttr -k on ".bnm";
	setAttr -k on ".mwc";
	setAttr -k on ".an";
	setAttr -k on ".il";
	setAttr -k on ".vo";
	setAttr -k on ".eo";
	setAttr -k on ".fo";
	setAttr -k on ".epo";
	setAttr -k on ".ro" yes;
lockNode -l 1 ;
select -ne :defaultHardwareRenderGlobals;
	setAttr -k on ".cch";
	setAttr -cb on ".ihi";
	setAttr -k on ".nds";
	setAttr -cb on ".bnm";
	setAttr -av -k on ".rp";
	setAttr -k on ".cai";
	setAttr -k on ".coi";
	setAttr -cb on ".bc";
	setAttr -av -k on ".bcb";
	setAttr -av -k on ".bcg";
	setAttr -av -k on ".bcr";
	setAttr -k on ".ei";
	setAttr -av -k on ".ex";
	setAttr -av -k on ".es";
	setAttr -av -k on ".ef";
	setAttr -av -k on ".bf";
	setAttr -k on ".fii";
	setAttr -av -k on ".sf";
	setAttr -k on ".gr";
	setAttr -k on ".li";
	setAttr -k on ".ls";
	setAttr -av -k on ".mb";
	setAttr -k on ".ti";
	setAttr -k on ".txt";
	setAttr -k on ".mpr";
	setAttr -k on ".wzd";
	setAttr -k on ".fn" -type "string" "im";
	setAttr -k on ".if";
	setAttr -k on ".res" -type "string" "ntsc_4d 646 485 1.333";
	setAttr -k on ".as";
	setAttr -k on ".ds";
	setAttr -k on ".lm";
	setAttr -av -k on ".fir";
	setAttr -k on ".aap";
	setAttr -av -k on ".gh";
	setAttr -cb on ".sd";
lockNode -l 1 ;
connectAttr "upLegLFT_tmpJnt.s" "midLegLFT_tmpJnt.is";
connectAttr "midLegLFT_tmpJnt.s" "kneeIkLFT_tmpJnt.is";
connectAttr "midLegLFT_tmpJnt.s" "lowLegLFT_tmpJnt.is";
connectAttr "lowLegLFT_tmpJnt.s" "ankleLFT_tmpJnt.is";
connectAttr "ballLFT_tmpJnt.s" "toeLFT_tmpJnt.is";
connectAttr "ankleLFT_tmpJnt.s" "heelLFT_tmpJnt.is";
connectAttr "ankleLFT_tmpJnt.s" "footInLFT_tmpJnt.is";
connectAttr "ankleLFT_tmpJnt.s" "footOutLFT_tmpJnt.is";
relationship "link" ":lightLinker1" ":initialShadingGroup.message" ":defaultLightSet.message";
relationship "link" ":lightLinker1" ":initialParticleSE.message" ":defaultLightSet.message";
relationship "shadowLink" ":lightLinker1" ":initialShadingGroup.message" ":defaultLightSet.message";
relationship "shadowLink" ":lightLinker1" ":initialParticleSE.message" ":defaultLightSet.message";
connectAttr "layerManager.dli[0]" "defaultLayer.id";
connectAttr "renderLayerManager.rlmi[0]" "defaultRenderLayer.rlid";
connectAttr "defaultRenderLayer.msg" ":defaultRenderingList1.r" -na;
// End of backLegTmpJnt_2.ma
