//Maya ASCII 2012 scene
//Name: tmpJnt_dog_v001_nun.ma
//Last modified: Tue, Sep 15, 2015 11:59:04 AM
//Codeset: 1252
requires maya "2012";
requires "vrayformaya" "2.40.02";
requires "Mayatomr" "2012.0m - 3.9.1.48 ";
requires "stereoCamera" "10.0";
currentUnit -l centimeter -a degree -t film;
fileInfo "application" "maya";
fileInfo "product" "Maya 2012";
fileInfo "version" "2012 x64";
fileInfo "cutIdentifier" "201201172029-821146";
fileInfo "osv" "Microsoft Business Edition, 64-bit  (Build 9200)\n";
createNode transform -s -n "persp";
	setAttr ".v" no;
	setAttr ".t" -type "double3" 15.048829516366549 2.247187034806899 6.9360396131114461 ;
	setAttr ".r" -type "double3" -3.3383527311230519 62.999999999939305 -4.3786085326697112e-016 ;
createNode camera -s -n "perspShape" -p "persp";
	setAttr -k off ".v";
	setAttr ".fl" 59.999999999999979;
	setAttr ".ncp" 0.01;
	setAttr ".fcp" 1000;
	setAttr ".coi" 16.758412239005274;
	setAttr ".imn" -type "string" "persp";
	setAttr ".den" -type "string" "persp_depth";
	setAttr ".man" -type "string" "persp_mask";
	setAttr ".tp" -type "double3" 1.1460381255101737e-008 0.35700966481641361 0.31392320586627842 ;
	setAttr ".hc" -type "string" "viewSet -p %camera";
createNode transform -s -n "top";
	setAttr ".v" no;
	setAttr ".t" -type "double3" 0.038886542613085273 100.10726425993494 0.22571524976707499 ;
	setAttr ".r" -type "double3" -89.999999999999986 0 0 ;
createNode camera -s -n "topShape" -p "top";
	setAttr -k off ".v";
	setAttr ".rnd" no;
	setAttr ".coi" 100.1;
	setAttr ".ow" 0.52897783896845163;
	setAttr ".imn" -type "string" "top";
	setAttr ".den" -type "string" "top_depth";
	setAttr ".man" -type "string" "top_mask";
	setAttr ".hc" -type "string" "viewSet -t %camera";
	setAttr ".o" yes;
createNode transform -s -n "front";
	setAttr ".v" no;
	setAttr ".t" -type "double3" 0.008791087061003941 0.17068357205868179 100.10383915696477 ;
createNode camera -s -n "frontShape" -p "front";
	setAttr -k off ".v";
	setAttr ".rnd" no;
	setAttr ".coi" 100.1;
	setAttr ".ow" 0.9089820837157333;
	setAttr ".imn" -type "string" "front";
	setAttr ".den" -type "string" "front_depth";
	setAttr ".man" -type "string" "front_mask";
	setAttr ".hc" -type "string" "viewSet -f %camera";
	setAttr ".o" yes;
createNode transform -s -n "side";
	setAttr ".v" no;
	setAttr ".t" -type "double3" 100.10698102958743 0.81496067058204769 -0.67683159130482251 ;
	setAttr ".r" -type "double3" 0 89.999999999999986 0 ;
	setAttr ".rp" -type "double3" 2.7755575615628914e-017 -2.7755575615628914e-017 -1.4210854715202004e-014 ;
	setAttr ".rpt" -type "double3" -1.4238610290817636e-014 0 1.4183099139586378e-014 ;
createNode camera -s -n "sideShape" -p "side";
	setAttr -k off ".v";
	setAttr ".rnd" no;
	setAttr ".coi" 100.04478855975215;
	setAttr ".ow" 5.0944252789083766;
	setAttr ".imn" -type "string" "side";
	setAttr ".den" -type "string" "side_depth";
	setAttr ".man" -type "string" "side_mask";
	setAttr ".tp" -type "double3" 0.062192469835281372 0.19602467826493813 0.20060159276045042 ;
	setAttr ".hc" -type "string" "viewSet -s %camera";
	setAttr ".o" yes;
createNode transform -n "tmpJnt_grp";
createNode joint -n "root_tmpJnt" -p "tmpJnt_grp";
	setAttr ".t" -type "double3" -2.1298211111298251e-008 1.1300502731290973 0.0035150063456892561 ;
	setAttr ".radi" 0.05;
createNode joint -n "spine1_tmpJnt" -p "root_tmpJnt";
	addAttr -ci true -sn "liw" -ln "lockInfluenceWeights" -min 0 -max 1 -at "bool";
	setAttr ".t" -type "double3" 2.1298211111298251e-008 0.15877510752872293 -0.15336165176623739 ;
	setAttr ".ro" 1;
	setAttr ".radi" 0.05;
createNode joint -n "spine2_tmpJnt" -p "spine1_tmpJnt";
	addAttr -ci true -sn "liw" -ln "lockInfluenceWeights" -min 0 -max 1 -at "bool";
	setAttr ".t" -type "double3" 0 0 0.29040307799917597 ;
	setAttr ".ro" 1;
	setAttr ".jo" -type "double3" -18.892976272360372 0 0 ;
	setAttr ".radi" 0.05;
createNode joint -n "spine3_tmpJnt" -p "spine2_tmpJnt";
	addAttr -ci true -sn "liw" -ln "lockInfluenceWeights" -min 0 -max 1 -at "bool";
	setAttr ".t" -type "double3" 2.0212697269666588e-017 0 0.57968349386470663 ;
	setAttr ".r" -type "double3" 0 -8.0187713503519066e-015 1.0013763559891376e-014 ;
	setAttr ".radi" 0.05;
createNode joint -n "neck1_tmpJnt" -p "spine3_tmpJnt";
	addAttr -ci true -sn "liw" -ln "lockInfluenceWeights" -min 0 -max 1 -at "bool";
	setAttr ".jo" -type "double3" 115.00122595418682 0 -180 ;
	setAttr ".radi" 0.05;
createNode joint -n "head1_tmpJnt" -p "neck1_tmpJnt";
	addAttr -ci true -sn "liw" -ln "lockInfluenceWeights" -min 0 -max 1 -at "bool";
	setAttr ".t" -type "double3" -1.648214962320163e-017 0.20445749698754634 0 ;
	setAttr ".s" -type "double3" 1 1 1.0000000000000002 ;
	setAttr ".jo" -type "double3" 133.89420222654718 5.0563899903902322e-015 -180 ;
	setAttr ".radi" 0.05;
createNode joint -n "head2_tmpJnt" -p "head1_tmpJnt";
	setAttr ".t" -type "double3" -5.0084474962892396e-017 0.85159237686221956 -2.2204460492503131e-016 ;
	setAttr ".radi" 0.05;
createNode joint -n "eyeLFT_tmpJnt" -p "head1_tmpJnt";
	setAttr ".t" -type "double3" 0.26921946568458011 0.26158880799808415 0.49398239782772402 ;
	setAttr ".radi" 0.05;
createNode joint -n "eyeSpecLFT_tmpJnt" -p "eyeLFT_tmpJnt";
	setAttr ".t" -type "double3" 0.08832652781926259 -0.0127840025369923 0.18496315743911484 ;
	setAttr ".radi" 0.05;
createNode joint -n "irisLFT_tmpJnt" -p "eyeLFT_tmpJnt";
	setAttr ".t" -type "double3" 0.077873555844258313 -0.011522610494888008 0.16699139420082298 ;
	setAttr ".radi" 0.05;
createNode joint -n "eyeTrgt_tmpJnt" -p "head1_tmpJnt";
	setAttr ".t" -type "double3" 3.9151759166826869e-008 0.26158869165451293 1.8139327993484393 ;
	setAttr ".radi" 0.05;
createNode joint -n "eyeTrgtLFT_tmpJnt" -p "eyeTrgt_tmpJnt";
	setAttr ".t" -type "double3" 0.26921942653282099 1.1634357122147776e-007 7.2661778816041078e-009 ;
	setAttr ".radi" 0.05;
createNode joint -n "eyeTrgtRGT_tmpJnt" -p "eyeTrgt_tmpJnt";
	setAttr ".t" -type "double3" -0.26921942653282094 -1.1634357099943315e-007 -7.2661765493364783e-009 ;
	setAttr ".radi" 0.05;
createNode joint -n "upperJaw1_tmpJnt" -p "head1_tmpJnt";
	addAttr -ci true -sn "liw" -ln "lockInfluenceWeights" -min 0 -max 1 -at "bool";
	setAttr ".t" -type "double3" -2.927115202601459e-017 0.077175899853916041 0.8688761236647129 ;
	setAttr ".jo" -type "double3" 0 0 180 ;
	setAttr ".radi" 0.05;
createNode joint -n "upperJaw2_tmpJnt" -p "upperJaw1_tmpJnt";
	addAttr -ci true -sn "liw" -ln "lockInfluenceWeights" -min 0 -max 1 -at "bool";
	setAttr ".t" -type "double3" -4.9303806576313238e-032 -2.2204460492503131e-016 0.13238589798246148 ;
	setAttr ".radi" 0.05;
createNode joint -n "lowerJaw1_tmpJnt" -p "head1_tmpJnt";
	addAttr -ci true -sn "liw" -ln "lockInfluenceWeights" -min 0 -max 1 -at "bool";
	setAttr ".t" -type "double3" -6.1420697879311667e-018 0.13955978077655162 0.25240065003999979 ;
	setAttr ".jo" -type "double3" 21.753134754125519 0 0 ;
	setAttr ".radi" 0.05;
createNode joint -n "lowerJaw2_tmpJnt" -p "lowerJaw1_tmpJnt";
	addAttr -ci true -sn "liw" -ln "lockInfluenceWeights" -min 0 -max 1 -at "bool";
	setAttr ".t" -type "double3" -2.1818960126435481e-017 4.4408920985006262e-016 0.63407109082491453 ;
	setAttr ".jo" -type "double3" -21.753134754125519 -5.4938037540419477e-015 -1.2464921994085928e-016 ;
	setAttr ".radi" 0.05;
createNode joint -n "lowerJaw3_tmpJnt" -p "lowerJaw2_tmpJnt";
	addAttr -ci true -sn "liw" -ln "lockInfluenceWeights" -min 0 -max 1 -at "bool";
	setAttr ".t" -type "double3" 4.2195463217334694e-019 -4.4408920985006262e-016 0.11627813759579841 ;
	setAttr ".radi" 0.05;
createNode joint -n "eyeRGT_tmpJnt" -p "head1_tmpJnt";
	setAttr ".t" -type "double3" -0.26921938738106183 0.26158857531094215 0.49398238329536959 ;
	setAttr ".radi" 0.05;
createNode joint -n "eyeSpecRGT_tmpJnt" -p "eyeRGT_tmpJnt";
	setAttr ".t" -type "double3" -0.088326478836720734 -0.012783715657905814 0.18496403884356405 ;
	setAttr ".radi" 0.05;
createNode joint -n "irisRGT_tmpJnt" -p "eyeRGT_tmpJnt";
	setAttr ".t" -type "double3" -0.077873486663446623 -0.011523114678607671 0.16699353325321464 ;
	setAttr ".radi" 0.05;
createNode joint -n "scapLFT_tmpJnt" -p "spine2_tmpJnt";
	addAttr -ci true -sn "liw" -ln "lockInfluenceWeights" -min 0 -max 1 -at "bool";
	setAttr ".t" -type "double3" 0.67469969149652342 0.32629462983547253 0.14696991910677304 ;
	setAttr ".jo" -type "double3" -18.892976272360372 -2.2720205597355301e-015 180 ;
	setAttr ".radi" 0.05;
createNode joint -n "upLegLFT_tmpJnt" -p "scapLFT_tmpJnt";
	addAttr -ci true -sn "liw" -ln "lockInfluenceWeights" -min 0 -max 1 -at "bool";
	setAttr ".t" -type "double3" 0.29066254560402088 0.7358102003077327 0.36771349466179526 ;
	setAttr ".ro" 1;
	setAttr ".jo" -type "double3" 3.6551064199308594 0 0 ;
	setAttr ".radi" 0.05;
createNode joint -n "lowLegLFT_tmpJnt" -p "upLegLFT_tmpJnt";
	addAttr -ci true -sn "liw" -ln "lockInfluenceWeights" -min 0 -max 1 -at "bool";
	setAttr ".t" -type "double3" 1.6653345369377348e-016 0.56668194321534893 5.5511151231257827e-016 ;
	setAttr ".ro" 1;
	setAttr ".jo" -type "double3" 20.886371693971157 0 0 ;
	setAttr ".radi" 0.05;
createNode joint -n "ankleLFT_tmpJnt" -p "lowLegLFT_tmpJnt";
	addAttr -ci true -sn "liw" -ln "lockInfluenceWeights" -min 0 -max 1 -at "bool";
	setAttr ".t" -type "double3" 6.106226635438361e-016 0.16395352173868688 -1.1102230246251565e-016 ;
	setAttr ".ro" 1;
	setAttr ".jo" -type "double3" -24.541478113902016 0 0 ;
	setAttr ".radi" 0.05;
createNode joint -n "ballLFT_tmpJnt" -p "ankleLFT_tmpJnt";
	addAttr -ci true -sn "liw" -ln "lockInfluenceWeights" -min 0 -max 1 -at "bool";
	setAttr ".t" -type "double3" -3.3306690738754696e-016 0.19464844034955414 0.24378045244936764 ;
	setAttr ".ro" 1;
	setAttr ".jo" -type "double3" 90.000000000000014 0 0 ;
	setAttr ".radi" 0.05;
createNode joint -n "toeLFT_tmpJnt" -p "ballLFT_tmpJnt";
	addAttr -ci true -sn "liw" -ln "lockInfluenceWeights" -min 0 -max 1 -at "bool";
	setAttr ".t" -type "double3" 1.6653345369377348e-016 0.16975017528088976 -2.3849893521972535e-017 ;
	setAttr ".ro" 1;
	setAttr ".radi" 0.05;
createNode joint -n "heelLFT_tmpJnt" -p "ankleLFT_tmpJnt";
	setAttr ".t" -type "double3" -4.6536374497474498e-005 0.19464844034955392 -0.095560281658542245 ;
	setAttr ".jo" -type "double3" 90.000000000000014 0 0 ;
	setAttr ".radi" 0.05;
createNode joint -n "footInLFT_tmpJnt" -p "ankleLFT_tmpJnt";
	setAttr ".t" -type "double3" 0.20468531700133419 0.19464844034955392 0.19893442555548224 ;
	setAttr ".jo" -type "double3" 90.000000000000014 0 0 ;
	setAttr ".radi" 0.05;
createNode joint -n "footOutLFT_tmpJnt" -p "ankleLFT_tmpJnt";
	setAttr ".t" -type "double3" -0.18325201178004846 0.19464844034955395 0.19893442555548224 ;
	setAttr ".jo" -type "double3" 90.000000000000014 0 0 ;
	setAttr ".radi" 0.05;
createNode joint -n "kneeIkPivLFT_tmpJnt" -p "lowLegLFT_tmpJnt";
	addAttr -ci true -sn "liw" -ln "lockInfluenceWeights" -min 0 -max 1 -at "bool";
	setAttr ".t" -type "double3" 2.2204460492503131e-016 -0.17638678805328328 -0.38630413852255469 ;
	setAttr ".ro" 1;
	setAttr ".jo" -type "double3" -24.541478113902016 0 0 ;
	setAttr ".radi" 0.05;
createNode joint -n "scapRGT_tmpJnt" -p "spine2_tmpJnt";
	addAttr -ci true -sn "liw" -ln "lockInfluenceWeights" -min 0 -max 1 -at "bool";
	setAttr ".t" -type "double3" -0.67469918933854189 0.32629348686855431 0.14696932577633792 ;
	setAttr ".jo" -type "double3" 161.10702372763964 6.6386845049516278e-015 180 ;
	setAttr ".radi" 0.05;
createNode joint -n "upLegRGT_tmpJnt" -p "scapRGT_tmpJnt";
	addAttr -ci true -sn "liw" -ln "lockInfluenceWeights" -min 0 -max 1 -at "bool";
	setAttr ".t" -type "double3" -0.29066182130734675 -0.73580779363897653 -0.36771341834552396 ;
	setAttr ".ro" 1;
	setAttr ".jo" -type "double3" 3.6551064199308252 0 0 ;
	setAttr ".radi" 0.05;
createNode joint -n "lowLegRGT_tmpJnt" -p "upLegRGT_tmpJnt";
	addAttr -ci true -sn "liw" -ln "lockInfluenceWeights" -min 0 -max 1 -at "bool";
	setAttr ".t" -type "double3" 1.1102230246251565e-016 -0.5666833426582879 -7.696086921082923e-007 ;
	setAttr ".ro" 1;
	setAttr ".jo" -type "double3" 20.886371693971178 0 0 ;
	setAttr ".radi" 0.05;
createNode joint -n "ankleRGT_tmpJnt" -p "lowLegRGT_tmpJnt";
	addAttr -ci true -sn "liw" -ln "lockInfluenceWeights" -min 0 -max 1 -at "bool";
	setAttr ".t" -type "double3" 0 -0.1639540692091247 -1.7459641302730589e-006 ;
	setAttr ".ro" 1;
	setAttr ".jo" -type "double3" -24.541478113901995 4.1749559497379067e-015 6.0071165957038522e-016 ;
	setAttr ".radi" 0.05;
createNode joint -n "ballRGT_tmpJnt" -p "ankleRGT_tmpJnt";
	addAttr -ci true -sn "liw" -ln "lockInfluenceWeights" -min 0 -max 1 -at "bool";
	setAttr ".t" -type "double3" 0 -0.19464845315104581 -0.24377912682483471 ;
	setAttr ".ro" 1;
	setAttr ".jo" -type "double3" 90.000000000000028 2.8249000307521015e-030 -1.4033418597069755e-014 ;
	setAttr ".radi" 0.05;
createNode joint -n "toeRGT_tmpJnt" -p "ballRGT_tmpJnt";
	addAttr -ci true -sn "liw" -ln "lockInfluenceWeights" -min 0 -max 1 -at "bool";
	setAttr ".t" -type "double3" -5.5511151231257827e-017 -0.16974797415952292 1.8905258894000752e-017 ;
	setAttr ".ro" 1;
	setAttr ".radi" 0.05;
createNode joint -n "heelRGT_tmpJnt" -p "ankleRGT_tmpJnt";
	setAttr ".t" -type "double3" 4.6092458714452889e-005 -0.19464845315104568 0.095562439524058518 ;
	setAttr ".jo" -type "double3" 90.000000000000028 2.8249000307521015e-030 -1.4033418597069755e-014 ;
	setAttr ".radi" 0.05;
createNode joint -n "footInRGT_tmpJnt" -p "ankleRGT_tmpJnt";
	setAttr ".t" -type "double3" -0.20468550253423415 -0.19464845315104554 -0.19893060916486471 ;
	setAttr ".jo" -type "double3" 90.000000000000028 2.8249000307521015e-030 -1.4033418597069755e-014 ;
	setAttr ".radi" 0.05;
createNode joint -n "footOutRGT_tmpJnt" -p "ankleRGT_tmpJnt";
	setAttr ".t" -type "double3" 0.18324973257788396 -0.19464845315104562 -0.19893060916486471 ;
	setAttr ".jo" -type "double3" 90.000000000000028 2.8249000307521015e-030 -1.4033418597069755e-014 ;
	setAttr ".radi" 0.05;
createNode joint -n "kneeIkPivRGT_tmpJnt" -p "lowLegRGT_tmpJnt";
	addAttr -ci true -sn "liw" -ln "lockInfluenceWeights" -min 0 -max 1 -at "bool";
	setAttr ".t" -type "double3" 1.1102230246251565e-016 0.17638694512731218 0.3863044825298817 ;
	setAttr ".ro" 1;
	setAttr ".jo" -type "double3" -24.541478113901995 4.1749559497379067e-015 6.0071165957038522e-016 ;
	setAttr ".radi" 0.05;
createNode joint -n "pelvis_tmpJnt" -p "root_tmpJnt";
	addAttr -ci true -sn "liw" -ln "lockInfluenceWeights" -min 0 -max 1 -at "bool";
	setAttr ".t" -type "double3" 2.1298211111298251e-008 0.15877510752872293 -0.23224290300967637 ;
	setAttr ".radi" 0.05;
createNode joint -n "hipLFT_tmpJnt" -p "pelvis_tmpJnt";
	addAttr -ci true -sn "liw" -ln "lockInfluenceWeights" -min 0 -max 1 -at "bool";
	setAttr ".t" -type "double3" 0.50619514205596183 0.28265118373373777 -0.2334120908164084 ;
	setAttr ".jo" -type "double3" 0 0 180 ;
	setAttr ".radi" 0.05;
createNode joint -n "upLegBackLFT_tmpJnt" -p "hipLFT_tmpJnt";
	setAttr ".t" -type "double3" 0.092249596815637047 0.54430129517638393 -0.13030984807709434 ;
	setAttr ".jo" -type "double3" 9.3625825550063428 0 0 ;
	setAttr ".radi" 0.05;
createNode joint -n "midLegBackLFT_tmpJnt" -p "upLegBackLFT_tmpJnt";
	setAttr ".t" -type "double3" 8.3266726846886741e-016 0.43380138284587588 -0.17264454676375279 ;
	setAttr ".jo" -type "double3" -43.340479973448971 0 0 ;
	setAttr ".radi" 0.05;
createNode joint -n "kneeIkBackPivLFT_tmpJnt" -p "midLegBackLFT_tmpJnt";
	setAttr ".t" -type "double3" 1.6653345369377348e-016 -0.31548158694808975 0.46811010826302607 ;
	setAttr ".jo" -type "double3" -146.02210258155739 1.8971790999760876e-015 9.7400785532204787e-015 ;
	setAttr ".radi" 0.05;
createNode joint -n "lowLegBackLFT_tmpJnt" -p "midLegBackLFT_tmpJnt";
	setAttr ".t" -type "double3" -3.3306690738754696e-016 0.32290737443830575 -4.4408920985006262e-016 ;
	setAttr ".jo" -type "double3" 72.64713874575861 0 0 ;
	setAttr ".radi" 0.05;
createNode joint -n "ankleBackLFT_tmpJnt" -p "lowLegBackLFT_tmpJnt";
	setAttr ".t" -type "double3" -1.6653345369377348e-016 0.15872963718450239 1.6653345369377348e-016 ;
	setAttr ".jo" -type "double3" -38.669241327315994 0 -7.0622500768802538e-031 ;
	setAttr ".radi" 0.05;
createNode joint -n "ballBackLFT_tmpJnt" -p "ankleBackLFT_tmpJnt";
	setAttr ".t" -type "double3" -2.7755575615628914e-016 0.17936394668528627 0.19645875543996139 ;
	setAttr ".jo" -type "double3" 89.999999999999972 0 0 ;
	setAttr ".radi" 0.05;
createNode joint -n "toeBackLFT_tmpJnt" -p "ballBackLFT_tmpJnt";
	setAttr ".t" -type "double3" -3.8857805861880479e-016 0.31043199490251766 -2.1528954347709204e-016 ;
	setAttr ".radi" 0.05;
createNode joint -n "footInBackLFT_tmpJnt" -p "ballBackLFT_tmpJnt";
	setAttr ".t" -type "double3" 0.18534365542935261 0.085146689638449569 1.8431502750295938e-016 ;
	setAttr ".radi" 0.05;
createNode joint -n "footOutBackLFT_tmpJnt" -p "ballBackLFT_tmpJnt";
	setAttr ".t" -type "double3" -0.17678894006992463 0.085146689638449624 1.8102118007982569e-016 ;
	setAttr ".radi" 0.05;
createNode joint -n "heelBackLFT_tmpJnt" -p "ankleBackLFT_tmpJnt";
	setAttr ".t" -type "double3" -6.106226635438361e-016 0.17936394668528577 -0.14198849519125745 ;
	setAttr ".jo" -type "double3" 89.999999999999972 0 0 ;
	setAttr ".radi" 0.05;
createNode joint -n "hipRGT_tmpJnt" -p "pelvis_tmpJnt";
	addAttr -ci true -sn "liw" -ln "lockInfluenceWeights" -min 0 -max 1 -at "bool";
	setAttr ".t" -type "double3" -0.50619515623348088 0.28264841852957279 -0.23341247185113623 ;
	setAttr ".jo" -type "double3" 0 180 0 ;
	setAttr ".radi" 0.05;
createNode joint -n "upLegBackRGT_tmpJnt" -p "hipRGT_tmpJnt";
	setAttr ".t" -type "double3" -0.092249335804898358 -0.54429640433465143 0.13030837876314993 ;
	setAttr ".jo" -type "double3" 9.3625825550063819 0 0 ;
	setAttr ".radi" 0.05;
createNode joint -n "midLegBackRGT_tmpJnt" -p "upLegBackRGT_tmpJnt";
	setAttr ".t" -type "double3" 2.2204460492503131e-016 -0.43380065902120024 0.17264799605597958 ;
	setAttr ".jo" -type "double3" -43.340479973449 0 0 ;
	setAttr ".radi" 0.05;
createNode joint -n "kneeIkBackPivRGT_tmpJnt" -p "midLegBackRGT_tmpJnt";
	setAttr ".t" -type "double3" -2.2204460492503131e-016 0.31548284706674612 -0.46811197802121435 ;
	setAttr ".jo" -type "double3" -146.02210258155742 1.8877352391747919e-014 1.9730464180077959e-015 ;
	setAttr ".radi" 0.05;
createNode joint -n "lowLegBackRGT_tmpJnt" -p "midLegBackRGT_tmpJnt";
	setAttr ".t" -type "double3" -1.1102230246251565e-016 -0.32290720048723798 -4.6139986042970094e-006 ;
	setAttr ".jo" -type "double3" 72.64713874575861 0 0 ;
	setAttr ".radi" 0.05;
createNode joint -n "ankleBackRGT_tmpJnt" -p "lowLegBackRGT_tmpJnt";
	setAttr ".t" -type "double3" -1.1102230246251565e-016 -0.15872847789369549 9.816183214605978e-007 ;
	setAttr ".jo" -type "double3" -38.669241327315994 6.4022798918263861e-015 -1.478537328239089e-015 ;
	setAttr ".radi" 0.05;
createNode joint -n "ballBackRGT_tmpJnt" -p "ankleBackRGT_tmpJnt";
	setAttr ".t" -type "double3" 5.5511151231257827e-017 -0.17936408277517388 -0.19645938698077781 ;
	setAttr ".jo" -type "double3" 89.999999999999957 -1.1299600123008406e-029 -1.4033418597069747e-014 ;
	setAttr ".radi" 0.05;
createNode joint -n "toeBackRGT_tmpJnt" -p "ballBackRGT_tmpJnt";
	setAttr ".t" -type "double3" 0 -0.31043159878004256 7.188567962751971e-017 ;
	setAttr ".jo" -type "double3" 1.2074182697257333e-006 -1.47866093483188e-022 1.47866090367143e-022 ;
	setAttr ".radi" 0.05;
createNode joint -n "footInBackRGT_tmpJnt" -p "ballBackRGT_tmpJnt";
	setAttr ".t" -type "double3" -0.18534388512983718 -0.085146099185424706 -2.4634830243525898e-016 ;
	setAttr ".jo" -type "double3" 1.2074182697257333e-006 -1.47866093483188e-022 1.47866090367143e-022 ;
	setAttr ".radi" 0.05;
createNode joint -n "footOutBackRGT_tmpJnt" -p "ballBackRGT_tmpJnt";
	setAttr ".t" -type "double3" 0.17678734773378946 -0.085146099185424706 -1.987036940568894e-016 ;
	setAttr ".jo" -type "double3" 1.2074182697257333e-006 -1.47866093483188e-022 1.47866090367143e-022 ;
	setAttr ".radi" 0.05;
createNode joint -n "heelBackRGT_tmpJnt" -p "ankleBackRGT_tmpJnt";
	setAttr ".t" -type "double3" 5.5511151231257827e-017 -0.17936408277517341 0.14198698607356541 ;
	setAttr ".jo" -type "double3" 89.999999999999957 -1.1299600123008406e-029 -1.4033418597069747e-014 ;
	setAttr ".radi" 0.05;
createNode joint -n "chestIkPiv_jnt" -p "tmpJnt_grp";
	setAttr ".t" -type "double3" -1.1106934629240506e-007 1.4272356844114282 0.54424374479615523 ;
	setAttr ".jo" -type "double3" 0.28505182002774099 0 0 ;
	setAttr ".radi" 0.05;
createNode transform -n "addJnt_grp";
	setAttr ".rp" -type "double3" -5.1849609564288987e-007 0 0 ;
	setAttr ".sp" -type "double3" -5.1849609564288987e-007 0 0 ;
createNode joint -n "tongue1_jnt" -p "addJnt_grp";
	addAttr -ci true -sn "liw" -ln "lockInfluenceWeights" -min 0 -max 1 -at "bool";
	setAttr ".t" -type "double3" 8.7870084233243478e-018 1.7400688604941041 1.1957585595267051 ;
	setAttr ".jo" -type "double3" 69.728982134692714 0 0 ;
	setAttr ".bps" -type "matrix" 1 0 0 0 0 0.84443606484883982 0.53565635661551347 0
		 0 -0.53565635661551347 0.84443606484883982 0 0 222.64327363418465 -1.3727481207023438 1;
	setAttr ".radi" 0.05;
	setAttr ".liw" yes;
createNode joint -n "tongue2_jnt" -p "tongue1_jnt";
	addAttr -ci true -sn "liw" -ln "lockInfluenceWeights" -min 0 -max 1 -at "bool";
	setAttr ".t" -type "double3" -9.2444637330587321e-033 0.15403159709691483 0 ;
	setAttr ".jo" -type "double3" 22.660370543830901 0 0 ;
	setAttr ".bps" -type "matrix" 1 0 0 0 0 0.084133709421899183 0.99645447409247523 0
		 0 -0.99645447409247523 0.084133709421899183 0 0 225.5005072402341 0.43969856072858127 1;
	setAttr ".radi" 0.05;
	setAttr ".liw" yes;
createNode joint -n "tongue3_jnt" -p "tongue2_jnt";
	addAttr -ci true -sn "liw" -ln "lockInfluenceWeights" -min 0 -max 1 -at "bool";
	setAttr ".t" -type "double3" 6.1629758220391547e-033 0.15210599254535118 0 ;
	setAttr ".jo" -type "double3" 16.02305382318912 0 0 ;
	setAttr ".bps" -type "matrix" 1 0 0 0 0 -0.081552711316839971 0.99666902995772477 0
		 0 -0.99666902995772477 -0.081552711316839971 0 0 225.71745581610085 3.0091725629561377 1;
	setAttr ".radi" 0.05;
	setAttr ".liw" yes;
createNode joint -n "tongue4_jnt" -p "tongue3_jnt";
	addAttr -ci true -sn "liw" -ln "lockInfluenceWeights" -min 0 -max 1 -at "bool";
	setAttr ".t" -type "double3" -4.622231866529366e-033 0.16742052341674862 0 ;
	setAttr ".bps" -type "matrix" 1 0 0 0 0 -0.098936905545293025 0.99509370851248047 0
		 0 -0.99509370851248047 -0.098936905545293025 0 0 225.47154161508337 6.0145302539939607 1;
	setAttr ".radi" 0.05;
	setAttr ".liw" yes;
createNode joint -n "upperTeeth_jnt" -p "addJnt_grp";
	addAttr -ci true -sn "liw" -ln "lockInfluenceWeights" -min 0 -max 1 -at "bool";
	setAttr ".t" -type "double3" 0 1.8955531802736498 1.5944104184848484 ;
	setAttr ".bps" -type "matrix" 1 0 0 0 0 1 0 0 0 0 1 0 -2.5021681837478968e-030 226.2211830093936 12.418563328530155 1;
	setAttr ".radi" 0.05;
createNode joint -n "lowerTeeth_jnt" -p "addJnt_grp";
	addAttr -ci true -sn "liw" -ln "lockInfluenceWeights" -min 0 -max 1 -at "bool";
	setAttr ".t" -type "double3" 0 1.7785146101913596 1.5607939337792298 ;
	setAttr ".bps" -type "matrix" 1 0 0 0 0 1 0 0 0 0 1 0 0 223.88262395048474 12.418563328530155 1;
	setAttr ".radi" 0.05;
createNode joint -n "tail1_jnt" -p "addJnt_grp";
	addAttr -ci true -sn "liw" -ln "lockInfluenceWeights" -min 0 -max 1 -at "bool";
	setAttr ".t" -type "double3" 0 1.521664638206879 -0.68092599851542279 ;
	setAttr ".mnrl" -type "double3" -360 -360 -360 ;
	setAttr ".mxrl" -type "double3" 360 360 360 ;
	setAttr ".jo" -type "double3" -90.000000000000185 0 0 ;
	setAttr ".bps" -type "matrix" 7.7715611723760958e-016 0 -1 0 0 1 0 0 1 0 7.7715611723760958e-016 0
		 -1.6159875875260426e-016 3.1139771143121062 -2.7026852981320961 1;
	setAttr ".radi" 0.05;
createNode joint -n "tail2_jnt" -p "tail1_jnt";
	addAttr -ci true -sn "liw" -ln "lockInfluenceWeights" -min 0 -max 1 -at "bool";
	setAttr ".t" -type "double3" 9.6495480509630538e-017 0.36835241317749046 0 ;
	setAttr ".r" -type "double3" 9.1440947092076103e-015 0 0 ;
	setAttr ".mnrl" -type "double3" -360 -360 -360 ;
	setAttr ".mxrl" -type "double3" 360 360 360 ;
	setAttr ".bps" -type "matrix" 7.7715611723760958e-016 0 -1 0 0 1 0 0 1 0 7.7715611723760958e-016 0
		 5.0453505602249006e-016 3.1139771143121062 -3.4636923909359028 1;
	setAttr ".radi" 0.05;
createNode joint -n "tail3_jnt" -p "tail2_jnt";
	addAttr -ci true -sn "liw" -ln "lockInfluenceWeights" -min 0 -max 1 -at "bool";
	setAttr ".t" -type "double3" -6.7835620789027474e-017 0.73691022396087624 -2.2204460492503131e-016 ;
	setAttr ".r" -type "double3" 4.7708320221952744e-015 0 0 ;
	setAttr ".mnrl" -type "double3" -360 -360 -360 ;
	setAttr ".mxrl" -type "double3" 360 360 360 ;
	setAttr ".bps" -type "matrix" 7.7715611723760958e-016 0 -1 0 0 1 0 0 1 0 7.7715611723760958e-016 0
		 5.0748322744794901e-016 3.1139771143121062 -4.2246994837397089 1;
	setAttr ".radi" 0.05;
createNode joint -n "tail4_jnt" -p "tail3_jnt";
	addAttr -ci true -sn "liw" -ln "lockInfluenceWeights" -min 0 -max 1 -at "bool";
	setAttr ".t" -type "double3" -1.2027843362058765e-016 0.71519947052002042 -4.4408920985006262e-016 ;
	setAttr ".r" -type "double3" 6.361109362927032e-015 0 0 ;
	setAttr ".mnrl" -type "double3" -360 -360 -360 ;
	setAttr ".mxrl" -type "double3" 360 360 360 ;
	setAttr ".bps" -type "matrix" 7.7715611723760958e-016 0 -1 0 0 1 0 0 1 0 7.7715611723760958e-016 0
		 5.1043139887340796e-016 3.1139771143121062 -4.9857065765435156 1;
	setAttr ".radi" 0.05;
createNode joint -n "tail5_jnt" -p "tail4_jnt";
	addAttr -ci true -sn "liw" -ln "lockInfluenceWeights" -min 0 -max 1 -at "bool";
	setAttr ".t" -type "double3" 9.9557105239542163e-019 0.45463466644286976 4.4408920985006262e-016 ;
	setAttr ".mnrl" -type "double3" -360 -360 -360 ;
	setAttr ".mxrl" -type "double3" 360 360 360 ;
	setAttr ".radi" 0.05;
createNode joint -n "nose_jnt" -p "addJnt_grp";
	addAttr -ci true -sn "liw" -ln "lockInfluenceWeights" -min 0 -max 1 -at "bool";
	setAttr ".t" -type "double3" 1.3577605204633977e-008 1.9409915871974199 1.8292718466564195 ;
	setAttr ".bps" -type "matrix" 1 0 0 0 0 1 0 0 0 0 1 0 -2.5021681837478968e-030 226.2211830093936 12.418563328530155 1;
	setAttr ".radi" 0.05;
createNode joint -n "ear1LFT_jnt" -p "addJnt_grp";
	addAttr -ci true -sn "liw" -ln "lockInfluenceWeights" -min 0 -max 1 -at "bool";
	setAttr ".t" -type "double3" 0.50231323604072842 2.6526910586519632 1.0362627422998965 ;
	setAttr ".mnrl" -type "double3" -360 -360 -360 ;
	setAttr ".mxrl" -type "double3" 360 360 360 ;
	setAttr ".jo" -type "double3" 8.7489244519380662 28.368329703631208 -13.74527243845624 ;
	setAttr ".radi" 0.05;
createNode joint -n "ear2LFT_jnt" -p "ear1LFT_jnt";
	addAttr -ci true -sn "liw" -ln "lockInfluenceWeights" -min 0 -max 1 -at "bool";
	setAttr ".t" -type "double3" 1.1102230246251565e-016 0.18514255344261521 2.7755575615628914e-016 ;
	setAttr ".r" -type "double3" 1.1131941385122309e-014 -1.2722218725854067e-014 -2.3854160110976392e-015 ;
	setAttr ".mnrl" -type "double3" -360 -360 -360 ;
	setAttr ".mxrl" -type "double3" 360 360 360 ;
	setAttr ".radi" 0.05;
createNode joint -n "ear3LFT_jnt" -p "ear2LFT_jnt";
	addAttr -ci true -sn "liw" -ln "lockInfluenceWeights" -min 0 -max 1 -at "bool";
	setAttr ".t" -type "double3" -4.4408920985006262e-016 0.19128739533645112 0.0081017196870650232 ;
	setAttr ".mnrl" -type "double3" -360 -360 -360 ;
	setAttr ".mxrl" -type "double3" 360 360 360 ;
	setAttr ".radi" 0.05;
createNode joint -n "ear4LFT_jnt" -p "ear3LFT_jnt";
	addAttr -ci true -sn "liw" -ln "lockInfluenceWeights" -min 0 -max 1 -at "bool";
	setAttr ".t" -type "double3" -1.3322676295501878e-015 0.20745252733671338 5.5511151231257827e-017 ;
	setAttr ".mnrl" -type "double3" -360 -360 -360 ;
	setAttr ".mxrl" -type "double3" 360 360 360 ;
	setAttr ".radi" 0.05;
createNode joint -n "ear1RGT_jnt" -p "addJnt_grp";
	addAttr -ci true -sn "liw" -ln "lockInfluenceWeights" -min 0 -max 1 -at "bool";
	setAttr ".t" -type "double3" -0.502313 2.6526940946605255 1.0362626858903332 ;
	setAttr ".mnrl" -type "double3" -360 -360 -360 ;
	setAttr ".mxrl" -type "double3" 360 360 360 ;
	setAttr ".jo" -type "double3" -171.25107554806189 -28.368329703631254 13.745272438456244 ;
	setAttr ".radi" 0.05;
createNode joint -n "ear2RGT_jnt" -p "ear1RGT_jnt";
	addAttr -ci true -sn "liw" -ln "lockInfluenceWeights" -min 0 -max 1 -at "bool";
	setAttr ".t" -type "double3" -4.390261104658677e-007 -0.18514409326177672 2.8586710931755022e-007 ;
	setAttr ".r" -type "double3" 1.1131941385122309e-014 -1.2722218725854067e-014 -2.3854160110976392e-015 ;
	setAttr ".mnrl" -type "double3" -360 -360 -360 ;
	setAttr ".mxrl" -type "double3" 360 360 360 ;
	setAttr ".radi" 0.05;
createNode joint -n "ear3RGT_jnt" -p "ear2RGT_jnt";
	addAttr -ci true -sn "liw" -ln "lockInfluenceWeights" -min 0 -max 1 -at "bool";
	setAttr ".t" -type "double3" 2.5042249496287639e-007 -0.19128490401373632 -6.2697686575852174e-007 ;
	setAttr ".mnrl" -type "double3" -360 -360 -360 ;
	setAttr ".mxrl" -type "double3" 360 360 360 ;
	setAttr ".radi" 0.05;
createNode joint -n "ear4RGT_jnt" -p "ear3RGT_jnt";
	addAttr -ci true -sn "liw" -ln "lockInfluenceWeights" -min 0 -max 1 -at "bool";
	setAttr ".t" -type "double3" -1.2095177509552357e-006 -0.20744846768872316 -1.0664938501214749e-006 ;
	setAttr ".mnrl" -type "double3" -360 -360 -360 ;
	setAttr ".mxrl" -type "double3" 360 360 360 ;
	setAttr ".radi" 0.05;
createNode lightLinker -s -n "lightLinker1";
	setAttr -s 50 ".lnk";
	setAttr -s 50 ".slnk";
createNode displayLayerManager -n "layerManager";
	setAttr ".cdl" 1;
	setAttr -s 2 ".dli[1]"  1;
createNode displayLayer -n "defaultLayer";
createNode renderLayerManager -n "renderLayerManager";
createNode renderLayer -n "defaultRenderLayer";
	setAttr ".g" yes;
createNode script -n "sceneConfigurationScriptNode";
	setAttr ".b" -type "string" "playbackOptions -min 1 -max 24 -ast 1 -aet 48 ";
	setAttr ".st" 6;
createNode renderGlobals -s -n "swiffworksRenderGlobals";
	addAttr -ci true -sn "rm" -ln "renderMode" -at "short";
	addAttr -ci true -sn "twos" -ln "twoSided" -dv 1 -min 0 -max 1 -at "bool";
	addAttr -ci true -sn "ctc" -ln "convertToCurves" -dv 1 -min 0 -max 1 -at "bool";
	addAttr -ci true -sn "cqlty" -ln "curveQuality" -at "short";
	addAttr -ci true -sn "inttype" -ln "intersType" -at "short";
	addAttr -ci true -sn "dlt" -ln "defaultLineThickness" -dv 0.2 -at "float";
	addAttr -ci true -sn "dlo" -ln "defaultLineOpacity" -dv 1 -at "float";
	addAttr -ci true -sn "dlcr" -ln "defaultLineColorR" -at "float";
	addAttr -ci true -sn "dlcg" -ln "defaultLineColorG" -at "float";
	addAttr -ci true -sn "dlcb" -ln "defaultLineColorB" -at "float";
	addAttr -ci true -sn "bw" -ln "bandwidth" -dv 14400 -at "float";
	addAttr -ci true -sn "oswg" -ln "onlySWG" -min 0 -max 1 -at "bool";
	addAttr -ci true -sn "fa" -ln "defaultFoldAngle" -dv 45 -at "float";
	addAttr -ci true -sn "df" -ln "defaultDisplayFolds" -at "short";
createNode renderGlobals -s -n "inkPaintRenderGlobals";
	addAttr -ci true -sn "regMode" -ln "regionMode" -at "short";
	addAttr -ci true -sn "dpi" -ln "dpiValue" -dv 100 -at "short";
createNode renderGlobals -s -n "inkworksRenderGlobals";
	addAttr -ci true -sn "bb" -ln "blendBackgr" -dv 1 -min 0 -max 1 -at "bool";
	addAttr -ci true -sn "rm" -ln "renderMode" -at "short";
	addAttr -ci true -sn "as" -ln "adaptiveSubdv" -dv 1 -min 0 -max 1 -at "bool";
	addAttr -ci true -sn "twos" -ln "twoSided" -dv 1 -min 0 -max 1 -at "bool";
	addAttr -ci true -sn "oiw" -ln "onlyIW" -min 0 -max 1 -at "bool";
createNode VRaySettingsNode -s -n "vraySettings";
	setAttr ".cfile" -type "string" "";
	setAttr ".casf" -type "string" "";
	setAttr ".fnm" -type "string" "";
	setAttr ".asf" -type "string" "";
	setAttr ".ifile" -type "string" "";
	setAttr ".iasf" -type "string" "";
	setAttr ".pmfile" -type "string" "";
	setAttr ".pmasf" -type "string" "";
	setAttr ".mtah" yes;
	setAttr ".gorvs" yes;
	setAttr ".wi" 1024;
	setAttr ".he" 1024;
	setAttr ".aspr" 1;
	setAttr ".vfbSA" -type "Int32Array" 1 0 ;
	setAttr ".mSceneName" -type "string" "O:/globalMaya/python/ptTools/pkmel/tmpJnt_dog_v001_nun.ma";
select -ne :time1;
	setAttr -av -k on ".cch";
	setAttr -cb on ".ihi";
	setAttr -av -k on ".nds";
	setAttr -cb on ".bnm";
	setAttr -k on ".o" 1;
	setAttr -av ".unw" 1;
lockNode -l 1 ;
select -ne :renderPartition;
	setAttr -k on ".cch";
	setAttr -cb on ".ihi";
	setAttr -k on ".nds";
	setAttr -cb on ".bnm";
	setAttr -s 2 ".st";
	setAttr -cb on ".an";
	setAttr -cb on ".pt";
lockNode -l 1 ;
select -ne :initialShadingGroup;
	setAttr -av -k on ".cch";
	setAttr -cb on ".ihi";
	setAttr -av -k on ".nds";
	setAttr -cb on ".bnm";
	setAttr -k on ".mwc";
	setAttr -cb on ".an";
	setAttr -cb on ".il";
	setAttr -cb on ".vo";
	setAttr -cb on ".eo";
	setAttr -cb on ".fo";
	setAttr -cb on ".epo";
	setAttr -k on ".ro" yes;
	setAttr -cb on ".mimt";
	setAttr -cb on ".miop";
	setAttr -k on ".mico";
	setAttr -cb on ".mise";
	setAttr -cb on ".mism";
	setAttr -cb on ".mice";
	setAttr -av -cb on ".micc";
	setAttr -k on ".micr";
	setAttr -k on ".micg";
	setAttr -k on ".micb";
	setAttr -cb on ".mica";
	setAttr -av -cb on ".micw";
	setAttr -cb on ".mirw";
lockNode -l 1 ;
select -ne :initialParticleSE;
	setAttr -av -k on ".cch";
	setAttr -cb on ".ihi";
	setAttr -av -k on ".nds";
	setAttr -cb on ".bnm";
	setAttr -k on ".mwc";
	setAttr -cb on ".an";
	setAttr -cb on ".il";
	setAttr -cb on ".vo";
	setAttr -cb on ".eo";
	setAttr -cb on ".fo";
	setAttr -cb on ".epo";
	setAttr -k on ".ro" yes;
	setAttr -cb on ".mimt";
	setAttr -cb on ".miop";
	setAttr -k on ".mico";
	setAttr -cb on ".mise";
	setAttr -cb on ".mism";
	setAttr -cb on ".mice";
	setAttr -av -cb on ".micc";
	setAttr -k on ".micr";
	setAttr -k on ".micg";
	setAttr -k on ".micb";
	setAttr -cb on ".mica";
	setAttr -av -cb on ".micw";
	setAttr -cb on ".mirw";
lockNode -l 1 ;
select -ne :defaultShaderList1;
	setAttr -k on ".cch";
	setAttr -cb on ".ihi";
	setAttr -k on ".nds";
	setAttr -cb on ".bnm";
	setAttr -s 2 ".s";
lockNode -l 1 ;
select -ne :postProcessList1;
	setAttr -k on ".cch";
	setAttr -cb on ".ihi";
	setAttr -k on ".nds";
	setAttr -cb on ".bnm";
	setAttr -s 2 ".p";
lockNode -l 1 ;
select -ne :defaultRenderingList1;
select -ne :renderGlobalsList1;
	setAttr -k on ".cch";
	setAttr -cb on ".ihi";
	setAttr -k on ".nds";
	setAttr -cb on ".bnm";
lockNode -l 1 ;
select -ne :defaultLightSet;
	setAttr -k on ".cch";
	setAttr -k on ".ihi";
	setAttr -av -k on ".nds";
	setAttr -k on ".bnm";
	setAttr -k on ".mwc";
	setAttr -k on ".an";
	setAttr -k on ".il";
	setAttr -k on ".vo";
	setAttr -k on ".eo";
	setAttr -k on ".fo";
	setAttr -k on ".epo";
	setAttr -k on ".ro" yes;
lockNode -l 1 ;
select -ne :defaultObjectSet;
	setAttr -k on ".cch";
	setAttr -k on ".ihi";
	setAttr -k on ".nds";
	setAttr -k on ".bnm";
	setAttr -k on ".mwc";
	setAttr -k on ".an";
	setAttr -k on ".il";
	setAttr -k on ".vo";
	setAttr -k on ".eo";
	setAttr -k on ".fo";
	setAttr -k on ".epo";
	setAttr -k on ".ro" yes;
lockNode -l 1 ;
select -ne :hardwareRenderGlobals;
	setAttr -k on ".cch";
	setAttr -cb on ".ihi";
	setAttr -k on ".nds";
	setAttr -cb on ".bnm";
	setAttr -k off -cb on ".ctrs" 256;
	setAttr -av -k off -cb on ".btrs" 512;
	setAttr -k off -cb on ".fbfm";
	setAttr -k off -cb on ".ehql";
	setAttr -k off -cb on ".eams";
	setAttr -k off -cb on ".eeaa";
	setAttr -k off -cb on ".engm";
	setAttr -k off -cb on ".mes";
	setAttr -k off -cb on ".emb";
	setAttr -av -k off -cb on ".mbbf";
	setAttr -k off -cb on ".mbs";
	setAttr -k off -cb on ".trm";
	setAttr -k off -cb on ".tshc";
	setAttr -k off -cb on ".enpt";
	setAttr -k off -cb on ".clmt";
	setAttr -k off -cb on ".tcov";
	setAttr -k off -cb on ".lith";
	setAttr -k off -cb on ".sobc";
	setAttr -k off -cb on ".cuth";
	setAttr -k off -cb on ".hgcd";
	setAttr -k off -cb on ".hgci";
	setAttr -k off -cb on ".mgcs";
	setAttr -k off -cb on ".twa";
	setAttr -k off -cb on ".twz";
	setAttr -k on ".hwcc";
	setAttr -k on ".hwdp";
	setAttr -k on ".hwql";
	setAttr -k on ".hwfr";
	setAttr -k on ".soll";
	setAttr -k on ".sosl";
	setAttr -k on ".bswa";
	setAttr -k on ".shml";
	setAttr -k on ".hwel";
lockNode -l 1 ;
select -ne :defaultHardwareRenderGlobals;
	setAttr -k on ".cch";
	setAttr -cb on ".ihi";
	setAttr -k on ".nds";
	setAttr -cb on ".bnm";
	setAttr -av -k on ".rp";
	setAttr -k on ".cai";
	setAttr -k on ".coi";
	setAttr -cb on ".bc";
	setAttr -av -k on ".bcb";
	setAttr -av -k on ".bcg";
	setAttr -av -k on ".bcr";
	setAttr -k on ".ei";
	setAttr -av -k on ".ex";
	setAttr -av -k on ".es";
	setAttr -av -k on ".ef";
	setAttr -av -k on ".bf";
	setAttr -k on ".fii";
	setAttr -av -k on ".sf";
	setAttr -k on ".gr";
	setAttr -k on ".li";
	setAttr -k on ".ls";
	setAttr -av -k on ".mb";
	setAttr -k on ".ti";
	setAttr -k on ".txt";
	setAttr -k on ".mpr";
	setAttr -k on ".wzd";
	setAttr -k on ".fn" -type "string" "im";
	setAttr -k on ".if";
	setAttr -k on ".res" -type "string" "ntsc_4d 646 485 1.333";
	setAttr -k on ".as";
	setAttr -k on ".ds";
	setAttr -k on ".lm";
	setAttr -av -k on ".fir";
	setAttr -k on ".aap";
	setAttr -av -k on ".gh";
	setAttr -cb on ".sd";
lockNode -l 1 ;
select -ne :ikSystem;
	setAttr -k on ".cch";
	setAttr -k on ".ihi";
	setAttr -k on ".nds";
	setAttr -k on ".bnm";
	setAttr -av -k on ".gsn";
	setAttr -k on ".gsv";
	setAttr -s 4 ".sol";
lockNode -l 1 ;
connectAttr "root_tmpJnt.s" "spine1_tmpJnt.is";
connectAttr "spine1_tmpJnt.s" "spine2_tmpJnt.is";
connectAttr "spine2_tmpJnt.s" "spine3_tmpJnt.is";
connectAttr "spine3_tmpJnt.s" "neck1_tmpJnt.is";
connectAttr "neck1_tmpJnt.s" "head1_tmpJnt.is";
connectAttr "head1_tmpJnt.s" "head2_tmpJnt.is";
connectAttr "head1_tmpJnt.s" "eyeLFT_tmpJnt.is";
connectAttr "eyeLFT_tmpJnt.s" "eyeSpecLFT_tmpJnt.is";
connectAttr "eyeLFT_tmpJnt.s" "irisLFT_tmpJnt.is";
connectAttr "head1_tmpJnt.s" "eyeTrgt_tmpJnt.is";
connectAttr "eyeTrgt_tmpJnt.s" "eyeTrgtLFT_tmpJnt.is";
connectAttr "eyeTrgt_tmpJnt.s" "eyeTrgtRGT_tmpJnt.is";
connectAttr "head1_tmpJnt.s" "upperJaw1_tmpJnt.is";
connectAttr "upperJaw1_tmpJnt.s" "upperJaw2_tmpJnt.is";
connectAttr "head1_tmpJnt.s" "lowerJaw1_tmpJnt.is";
connectAttr "lowerJaw1_tmpJnt.s" "lowerJaw2_tmpJnt.is";
connectAttr "lowerJaw2_tmpJnt.s" "lowerJaw3_tmpJnt.is";
connectAttr "head1_tmpJnt.s" "eyeRGT_tmpJnt.is";
connectAttr "eyeRGT_tmpJnt.s" "eyeSpecRGT_tmpJnt.is";
connectAttr "eyeRGT_tmpJnt.s" "irisRGT_tmpJnt.is";
connectAttr "spine2_tmpJnt.s" "scapLFT_tmpJnt.is";
connectAttr "scapLFT_tmpJnt.s" "upLegLFT_tmpJnt.is";
connectAttr "upLegLFT_tmpJnt.s" "lowLegLFT_tmpJnt.is";
connectAttr "lowLegLFT_tmpJnt.s" "ankleLFT_tmpJnt.is";
connectAttr "ankleLFT_tmpJnt.s" "ballLFT_tmpJnt.is";
connectAttr "ballLFT_tmpJnt.s" "toeLFT_tmpJnt.is";
connectAttr "lowLegLFT_tmpJnt.s" "kneeIkPivLFT_tmpJnt.is";
connectAttr "spine2_tmpJnt.s" "scapRGT_tmpJnt.is";
connectAttr "scapRGT_tmpJnt.s" "upLegRGT_tmpJnt.is";
connectAttr "upLegRGT_tmpJnt.s" "lowLegRGT_tmpJnt.is";
connectAttr "lowLegRGT_tmpJnt.s" "ankleRGT_tmpJnt.is";
connectAttr "ankleRGT_tmpJnt.s" "ballRGT_tmpJnt.is";
connectAttr "ballRGT_tmpJnt.s" "toeRGT_tmpJnt.is";
connectAttr "lowLegRGT_tmpJnt.s" "kneeIkPivRGT_tmpJnt.is";
connectAttr "root_tmpJnt.s" "pelvis_tmpJnt.is";
connectAttr "pelvis_tmpJnt.s" "hipLFT_tmpJnt.is";
connectAttr "hipLFT_tmpJnt.s" "upLegBackLFT_tmpJnt.is";
connectAttr "upLegBackLFT_tmpJnt.s" "midLegBackLFT_tmpJnt.is";
connectAttr "midLegBackLFT_tmpJnt.s" "kneeIkBackPivLFT_tmpJnt.is";
connectAttr "midLegBackLFT_tmpJnt.s" "lowLegBackLFT_tmpJnt.is";
connectAttr "lowLegBackLFT_tmpJnt.s" "ankleBackLFT_tmpJnt.is";
connectAttr "ankleBackLFT_tmpJnt.s" "ballBackLFT_tmpJnt.is";
connectAttr "ballBackLFT_tmpJnt.s" "toeBackLFT_tmpJnt.is";
connectAttr "ballBackLFT_tmpJnt.s" "footInBackLFT_tmpJnt.is";
connectAttr "ballBackLFT_tmpJnt.s" "footOutBackLFT_tmpJnt.is";
connectAttr "pelvis_tmpJnt.s" "hipRGT_tmpJnt.is";
connectAttr "hipRGT_tmpJnt.s" "upLegBackRGT_tmpJnt.is";
connectAttr "upLegBackRGT_tmpJnt.s" "midLegBackRGT_tmpJnt.is";
connectAttr "midLegBackRGT_tmpJnt.s" "kneeIkBackPivRGT_tmpJnt.is";
connectAttr "midLegBackRGT_tmpJnt.s" "lowLegBackRGT_tmpJnt.is";
connectAttr "lowLegBackRGT_tmpJnt.s" "ankleBackRGT_tmpJnt.is";
connectAttr "ankleBackRGT_tmpJnt.s" "ballBackRGT_tmpJnt.is";
connectAttr "ballBackRGT_tmpJnt.s" "toeBackRGT_tmpJnt.is";
connectAttr "ballBackRGT_tmpJnt.s" "footInBackRGT_tmpJnt.is";
connectAttr "ballBackRGT_tmpJnt.s" "footOutBackRGT_tmpJnt.is";
connectAttr "tongue1_jnt.s" "tongue2_jnt.is";
connectAttr "tongue2_jnt.s" "tongue3_jnt.is";
connectAttr "tongue3_jnt.s" "tongue4_jnt.is";
connectAttr "tail1_jnt.s" "tail2_jnt.is";
connectAttr "tail2_jnt.s" "tail3_jnt.is";
connectAttr "tail3_jnt.s" "tail4_jnt.is";
connectAttr "tail4_jnt.s" "tail5_jnt.is";
connectAttr "ear1LFT_jnt.s" "ear2LFT_jnt.is";
connectAttr "ear2LFT_jnt.s" "ear3LFT_jnt.is";
connectAttr "ear3LFT_jnt.s" "ear4LFT_jnt.is";
connectAttr "ear1RGT_jnt.s" "ear2RGT_jnt.is";
connectAttr "ear2RGT_jnt.s" "ear3RGT_jnt.is";
connectAttr "ear3RGT_jnt.s" "ear4RGT_jnt.is";
relationship "link" ":lightLinker1" ":initialShadingGroup.message" ":defaultLightSet.message";
relationship "link" ":lightLinker1" ":initialParticleSE.message" ":defaultLightSet.message";
relationship "shadowLink" ":lightLinker1" ":initialShadingGroup.message" ":defaultLightSet.message";
relationship "shadowLink" ":lightLinker1" ":initialParticleSE.message" ":defaultLightSet.message";
connectAttr "layerManager.dli[0]" "defaultLayer.id";
connectAttr "renderLayerManager.rlmi[0]" "defaultRenderLayer.rlid";
connectAttr "defaultRenderLayer.msg" ":defaultRenderingList1.r" -na;
// End of tmpJnt_dog_v001_nun.ma
