//Maya ASCII 2017ff05 scene
//Name: DtlRigTmpLocs.ma
//Last modified: Mon, Oct 08, 2018 10:47:34 AM
//Codeset: 1252
requires maya "2017ff05";
requires "stereoCamera" "10.0";
requires -nodeType "ilrOptionsNode" -nodeType "ilrUIOptionsNode" -nodeType "ilrBakeLayerManager"
		 -nodeType "ilrBakeLayer" "Turtle" "2017.0.0";
requires -nodeType "renderSetup" "renderSetup.py" "1.0";
currentUnit -l centimeter -a degree -t film;
fileInfo "application" "maya";
fileInfo "product" "Maya 2017";
fileInfo "version" "2017";
fileInfo "cutIdentifier" "201710312130-1018716";
fileInfo "osv" "Microsoft Windows 8 Business Edition, 64-bit  (Build 9200)\n";
createNode transform -s -n "persp";
	rename -uid "49C986BF-4C8A-4190-7C00-B1871664275E";
	setAttr ".v" no;
	setAttr ".t" -type "double3" 46.616578533715519 133.83496545955853 86.53309050317408 ;
	setAttr ".r" -type "double3" 347.2731879157439 -14010.883646079405 4.5507571887333946e-016 ;
	setAttr ".rp" -type "double3" 8.8817841970012523e-016 -1.2434497875801753e-014 -2.8421709430404007e-014 ;
	setAttr ".rpt" -type "double3" 4.1697767962532592e-016 -1.2826642696004263e-014 
		2.2044624614758433e-014 ;
createNode camera -s -n "perspShape" -p "persp";
	rename -uid "EAC496B2-460A-DFCF-4815-A789D759A273";
	setAttr -k off ".v";
	setAttr ".fl" 59.999999999999979;
	setAttr ".ncp" 1;
	setAttr ".fcp" 100000;
	setAttr ".coi" 98.216643596582273;
	setAttr ".imn" -type "string" "persp";
	setAttr ".den" -type "string" "persp_depth";
	setAttr ".man" -type "string" "persp_mask";
	setAttr ".tp" -type "double3" 4.1809082418353682e-008 112.19757461547852 2.8358563401117247 ;
	setAttr ".hc" -type "string" "viewSet -p %camera";
	setAttr ".dgm" no;
createNode transform -s -n "top";
	rename -uid "298F6EB3-441F-827D-7DB8-3580D85FECBC";
	setAttr ".v" no;
	setAttr ".t" -type "double3" 24.340515355630785 144.49660396159672 -4.2597243682235071 ;
	setAttr ".r" -type "double3" -89.999999999999986 0 0 ;
createNode camera -s -n "topShape" -p "top";
	rename -uid "FED589E2-4D6F-2C0A-1F51-FFBEC2E882D4";
	setAttr -k off ".v";
	setAttr ".rnd" no;
	setAttr ".coi" 78.953530218014933;
	setAttr ".ow" 81.998831622685017;
	setAttr ".imn" -type "string" "top";
	setAttr ".den" -type "string" "top_depth";
	setAttr ".man" -type "string" "top_mask";
	setAttr ".tp" -type "double3" 0 65.543073743581772 -4.3494377136230469 ;
	setAttr ".hc" -type "string" "viewSet -t %camera";
	setAttr ".o" yes;
createNode transform -s -n "front";
	rename -uid "DEE05FEE-4706-1187-54D8-09B29EAE27D3";
	setAttr ".v" no;
	setAttr ".t" -type "double3" 1.2706199736446822 117.18937700453961 174.45140026111298 ;
createNode camera -s -n "frontShape" -p "front";
	rename -uid "464F046C-4C92-F7C3-0FF5-69B3415ED5A9";
	setAttr -k off ".v";
	setAttr ".rnd" no;
	setAttr ".coi" 174.33130983967263;
	setAttr ".ow" 34.582146269390385;
	setAttr ".imn" -type "string" "front";
	setAttr ".den" -type "string" "front_depth";
	setAttr ".man" -type "string" "front_mask";
	setAttr ".tp" -type "double3" 4.6876024156808853 116.50970411300659 0.12009042144034465 ;
	setAttr ".hc" -type "string" "viewSet -f %camera";
	setAttr ".o" yes;
createNode transform -s -n "side";
	rename -uid "A9285762-499B-4F4D-773A-13B84D5D2115";
	setAttr ".v" no;
	setAttr ".t" -type "double3" 241.77495170658042 70.186205710570192 -3.5655216928887969 ;
	setAttr ".r" -type "double3" 0 89.999999999999986 0 ;
createNode camera -s -n "sideShape" -p "side";
	rename -uid "30D68B55-49F0-60F2-6229-9CA1D3273E9F";
	setAttr -k off ".v";
	setAttr ".rnd" no;
	setAttr ".coi" 241.77495170658037;
	setAttr ".ow" 262.38000281132366;
	setAttr ".imn" -type "string" "side";
	setAttr ".den" -type "string" "side_depth";
	setAttr ".man" -type "string" "side_mask";
	setAttr ".tp" -type "double3" 0 68.549253821372986 -5.6701741218566895 ;
	setAttr ".hc" -type "string" "viewSet -s %camera";
	setAttr ".o" yes;
createNode transform -n "Export_Grp";
	rename -uid "C93E141B-4B1C-DB91-70A5-D6AB9DD7337C";
createNode transform -n "NsDtlRig_L_Loc" -p "Export_Grp";
	rename -uid "6685E26B-436C-7F7C-440C-84AB29A1D11F";
	setAttr ".t" -type "double3" 1.6391253471374512 111.85736846923828 5.3846573829650879 ;
createNode locator -n "NsDtlRig_L_LocShape" -p "NsDtlRig_L_Loc";
	rename -uid "4325694B-46ED-5585-D8FB-47895859E535";
	setAttr -k off ".v";
createNode transform -n "CheekADtlRig_L_Loc" -p "Export_Grp";
	rename -uid "1E7783CE-468C-5A18-5106-CFA3397CA70C";
	setAttr ".t" -type "double3" 1.0697429180145264 114.90774536132812 3.6573135852813721 ;
createNode locator -n "CheekADtlRig_L_LocShape" -p "CheekADtlRig_L_Loc";
	rename -uid "F6DD804A-4318-5A75-42C0-C5A5C6F11DA9";
	setAttr -k off ".v";
createNode transform -n "CheekBDtlRig_L_Loc" -p "Export_Grp";
	rename -uid "13FEFFD3-4D0A-BB74-D58E-CC959F65F3E3";
	setAttr ".t" -type "double3" 5.2288417816162109 113.04802703857422 3.0658688545227051 ;
createNode locator -n "CheekBDtlRig_L_LocShape" -p "CheekBDtlRig_L_Loc";
	rename -uid "664C87BF-475E-B7BE-D4A9-2E8136A720E9";
	setAttr -k off ".v";
createNode transform -n "CheekCDtlRig_L_Loc" -p "Export_Grp";
	rename -uid "DD276734-463B-A7EF-4895-83BFF55297BE";
	setAttr ".t" -type "double3" 8.0339450836181641 113.98578643798828 0.41329848766326904 ;
createNode locator -n "CheekCDtlRig_L_LocShape" -p "CheekCDtlRig_L_Loc";
	rename -uid "04F04395-452D-B6F1-DE7A-418DE5408F7B";
	setAttr -k off ".v";
createNode transform -n "EyeSktADtlRig_L_Loc" -p "Export_Grp";
	rename -uid "01579706-4C1F-E4C5-8B51-71B7D8C6F990";
	setAttr ".t" -type "double3" 2.5271601676940918 118.71935272216797 3.1805534362792969 ;
createNode locator -n "EyeSktADtlRig_L_LocShape" -p "EyeSktADtlRig_L_Loc";
	rename -uid "FDF0B8C3-4F06-481D-21B0-AFBED098E0FE";
	setAttr -k off ".v";
createNode transform -n "EyeSktBDtlRig_L_Loc" -p "Export_Grp";
	rename -uid "05D0612D-416C-BB6B-A625-2E9355C0D8BC";
	setAttr ".t" -type "double3" 6.5213794708251953 119.2855224609375 1.9976214170455933 ;
createNode locator -n "EyeSktBDtlRig_L_LocShape" -p "EyeSktBDtlRig_L_Loc";
	rename -uid "A0FACD0C-44AB-CC08-0776-C89CB235BAA0";
	setAttr -k off ".v";
createNode transform -n "PuffDtlRig_L_Loc" -p "Export_Grp";
	rename -uid "00620BFA-41FF-CFAC-348F-D9BE0D4DEBD1";
	setAttr ".t" -type "double3" 7.0843184788273419 109.91481451132685 0.83072899536598765 ;
	setAttr ".r" -type "double3" 15.863783329037016 -25.22917657786828 -21.743883462175855 ;
createNode locator -n "PuffDtlRig_L_LocShape" -p "PuffDtlRig_L_Loc";
	rename -uid "11FED290-4A0F-1F45-2E8B-A4A9CA9B8A75";
	setAttr -k off ".v";
createNode transform -n "ChinDtlRig_Loc" -p "Export_Grp";
	rename -uid "E1F90F52-462B-9EBB-F9CC-CB9235F4B253";
	setAttr ".t" -type "double3" -3.6092534456670807e-016 105.10962677001953 3.5936794281005859 ;
createNode locator -n "ChinDtlRig_LocShape" -p "ChinDtlRig_Loc";
	rename -uid "1CD4D3BE-4509-5C81-AFEA-CB9A3D772704";
	setAttr -k off ".v";
createNode transform -n "NsDtlRig_R_Loc" -p "Export_Grp";
	rename -uid "84A0D68A-4D9A-E79B-B127-91B5599106D2";
	setAttr ".t" -type "double3" -1.639125 111.85736846923828 5.3846573829650879 ;
createNode locator -n "NsDtlRig_R_LocShape" -p "NsDtlRig_R_Loc";
	rename -uid "90F95A96-4B69-D1B8-05FA-B9BC3DA4F717";
	setAttr -k off ".v";
createNode transform -n "CheekADtlRig_R_Loc" -p "Export_Grp";
	rename -uid "818E1C2E-4B32-580D-163F-22A1B7812F7E";
	setAttr ".t" -type "double3" -1.069743 114.90774536132812 3.6573135852813721 ;
createNode locator -n "CheekADtlRig_R_LocShape" -p "CheekADtlRig_R_Loc";
	rename -uid "1A753542-4BFF-7BC5-04AC-3E84926BF59F";
	setAttr -k off ".v";
createNode transform -n "CheekBDtlRig_R_Loc" -p "Export_Grp";
	rename -uid "C118D90E-4764-8F2F-4D81-C4ABCFE7AFD8";
	setAttr ".t" -type "double3" -5.228842 113.04802703857422 3.0658688545227051 ;
createNode locator -n "CheekBDtlRig_R_LocShape" -p "CheekBDtlRig_R_Loc";
	rename -uid "EDAD41E0-4729-FC60-32DE-D7899354A487";
	setAttr -k off ".v";
createNode transform -n "CheekCDtlRig_R_Loc" -p "Export_Grp";
	rename -uid "80D7142B-4D0B-9EB7-4546-B99BE671EFE3";
	setAttr ".t" -type "double3" -8.033945 113.98578643798828 0.41329848766326904 ;
createNode locator -n "CheekCDtlRig_R_LocShape" -p "CheekCDtlRig_R_Loc";
	rename -uid "F78CA9DC-482F-2D7A-77F0-65AEFF9A410B";
	setAttr -k off ".v";
createNode transform -n "EyeSktADtlRig_R_Loc" -p "Export_Grp";
	rename -uid "90261F2E-46A3-078B-966E-4FBCF6F20EC5";
	setAttr ".t" -type "double3" -2.52716 118.71935272216797 3.1805534362792969 ;
createNode locator -n "EyeSktADtlRig_R_LocShape" -p "EyeSktADtlRig_R_Loc";
	rename -uid "95833DA3-4FC0-E65A-8B73-269D31E9BC98";
	setAttr -k off ".v";
createNode transform -n "EyeSktBDtlRig_R_Loc" -p "Export_Grp";
	rename -uid "D5257BFF-44C6-D750-6A7A-80916D7E3968";
	setAttr ".t" -type "double3" -6.521379 119.2855224609375 1.9976214170455933 ;
createNode locator -n "EyeSktBDtlRig_R_LocShape" -p "EyeSktBDtlRig_R_Loc";
	rename -uid "AB2A3011-48F0-D5E7-B09B-B3A9ACA7F049";
	setAttr -k off ".v";
createNode transform -n "PuffDtlRig_R_Loc" -p "Export_Grp";
	rename -uid "C7193EE6-4392-9980-0086-4EA72EBB3EF1";
	setAttr ".t" -type "double3" -7.084318 109.91481451132685 0.83072899536598765 ;
	setAttr ".r" -type "double3" 164.13623468611851 -25.229165716093679 -158.25612777298329 ;
createNode locator -n "PuffDtlRig_R_LocShape" -p "PuffDtlRig_R_Loc";
	rename -uid "0E4D208F-4DAF-AD5F-6534-E8B9C9F191B6";
	setAttr -k off ".v";
createNode lightLinker -s -n "lightLinker1";
	rename -uid "284497B2-44D3-6AFD-F73A-9083B5F0D4BC";
	setAttr -s 2 ".lnk";
	setAttr -s 2 ".slnk";
createNode displayLayerManager -n "layerManager";
	rename -uid "2F205B57-40A0-4E29-EF73-5D948D0F1290";
	setAttr ".cdl" 8;
	setAttr -s 8 ".dli[1:7]"  8 7 3 4 5 6 1;
createNode displayLayer -n "defaultLayer";
	rename -uid "C727DD4C-46DC-70CF-E3DB-EEB0233D4E25";
createNode renderLayerManager -n "renderLayerManager";
	rename -uid "6846D380-4251-B3DB-926A-7F810D960C43";
createNode renderLayer -n "defaultRenderLayer";
	rename -uid "EBE06E2E-41B9-59FA-6C4A-DFAD766C2862";
	setAttr ".g" yes;
createNode ilrOptionsNode -s -n "TurtleRenderOptions";
	rename -uid "CC8990E2-41BA-1A03-0E85-CFBAD4FA743C";
lockNode -l 1 ;
createNode ilrUIOptionsNode -s -n "TurtleUIOptions";
	rename -uid "9CCC2772-4E6F-6E70-4F30-459E766E3C48";
lockNode -l 1 ;
createNode ilrBakeLayerManager -s -n "TurtleBakeLayerManager";
	rename -uid "AAFC2330-42F5-7B61-2327-28B5A2BADD44";
lockNode -l 1 ;
createNode ilrBakeLayer -s -n "TurtleDefaultBakeLayer";
	rename -uid "89707F4B-4615-836D-0CED-85AFE7CE974D";
lockNode -l 1 ;
createNode shapeEditorManager -n "shapeEditorManager";
	rename -uid "25B1FED9-40AF-85CB-816F-E7B7CECBC73B";
createNode poseInterpolatorManager -n "poseInterpolatorManager";
	rename -uid "912594C9-4209-0FB4-5A31-3FA74FD11D15";
createNode renderSetup -n "renderSetup";
	rename -uid "111C6DDC-4E8F-72B6-E7E1-59B25D32EC92";
createNode nodeGraphEditorInfo -n "hyperShadePrimaryNodeEditorSavedTabsInfo";
	rename -uid "0DEEF6AA-4E79-9B46-6CFF-15ACBB504DC9";
	setAttr ".tgi[0].tn" -type "string" "Untitled_1";
	setAttr ".tgi[0].vl" -type "double2" 1928.5713519368883 -1674.9489130353463 ;
	setAttr ".tgi[0].vh" -type "double2" 5810.7140548172538 1549.0781697376813 ;
createNode script -n "sceneConfigurationScriptNode";
	rename -uid "B0B5F573-446A-A714-D701-3B9EE4FC4270";
	setAttr ".b" -type "string" "playbackOptions -min 1 -max 120 -ast 1 -aet 200 ";
	setAttr ".st" 6;
select -ne :time1;
	setAttr -av -k on ".cch";
	setAttr -av -cb on ".ihi";
	setAttr -av -k on ".nds";
	setAttr -cb on ".bnm";
	setAttr -k on ".o" 0;
	setAttr -av -k on ".unw";
	setAttr -k on ".etw";
	setAttr -k on ".tps";
	setAttr -av -k on ".tms";
select -ne :hardwareRenderingGlobals;
	setAttr ".otfna" -type "stringArray" 22 "NURBS Curves" "NURBS Surfaces" "Polygons" "Subdiv Surface" "Particles" "Particle Instance" "Fluids" "Strokes" "Image Planes" "UI" "Lights" "Cameras" "Locators" "Joints" "IK Handles" "Deformers" "Motion Trails" "Components" "Hair Systems" "Follicles" "Misc. UI" "Ornaments"  ;
	setAttr ".otfva" -type "Int32Array" 22 0 1 1 1 1 1
		 1 1 1 0 0 0 0 0 0 0 0 0
		 0 0 0 0 ;
	setAttr -k on ".mbsof";
	setAttr ".msaa" yes;
	setAttr ".fprt" yes;
select -ne :renderPartition;
	setAttr -k on ".cch";
	setAttr -cb on ".ihi";
	setAttr -k on ".nds";
	setAttr -cb on ".bnm";
	setAttr -s 2 ".st";
	setAttr -cb on ".an";
	setAttr -cb on ".pt";
select -ne :renderGlobalsList1;
	setAttr -k on ".cch";
	setAttr -cb on ".ihi";
	setAttr -k on ".nds";
	setAttr -cb on ".bnm";
select -ne :defaultShaderList1;
	setAttr -k on ".cch";
	setAttr -cb on ".ihi";
	setAttr -k on ".nds";
	setAttr -cb on ".bnm";
	setAttr -s 4 ".s";
select -ne :postProcessList1;
	setAttr -k on ".cch";
	setAttr -cb on ".ihi";
	setAttr -k on ".nds";
	setAttr -cb on ".bnm";
	setAttr -s 2 ".p";
select -ne :defaultRenderingList1;
	setAttr -k on ".ihi";
select -ne :initialShadingGroup;
	setAttr -av -k on ".cch";
	setAttr -cb on ".ihi";
	setAttr -av -k on ".nds";
	setAttr -cb on ".bnm";
	setAttr -k on ".mwc";
	setAttr -cb on ".an";
	setAttr -cb on ".il";
	setAttr -cb on ".vo";
	setAttr -cb on ".eo";
	setAttr -cb on ".fo";
	setAttr -cb on ".epo";
	setAttr -k on ".ro" yes;
select -ne :initialParticleSE;
	setAttr -av -k on ".cch";
	setAttr -cb on ".ihi";
	setAttr -av -k on ".nds";
	setAttr -cb on ".bnm";
	setAttr -k on ".mwc";
	setAttr -cb on ".an";
	setAttr -cb on ".il";
	setAttr -cb on ".vo";
	setAttr -cb on ".eo";
	setAttr -cb on ".fo";
	setAttr -cb on ".epo";
	setAttr -k on ".ro" yes;
select -ne :defaultResolution;
	setAttr -av -k on ".cch";
	setAttr -k on ".ihi";
	setAttr -av -k on ".nds";
	setAttr -k on ".bnm";
	setAttr -av -k on ".w";
	setAttr -av -k on ".h";
	setAttr -av -k on ".pa" 1;
	setAttr -av -k on ".al";
	setAttr -av -k on ".dar";
	setAttr -av -k on ".ldar";
	setAttr -k on ".dpi";
	setAttr -av -k on ".off";
	setAttr -av -k on ".fld";
	setAttr -av -k on ".zsl";
	setAttr -k on ".isu";
	setAttr -k on ".pdu";
select -ne :hardwareRenderGlobals;
	setAttr -k on ".cch";
	setAttr -cb on ".ihi";
	setAttr -k on ".nds";
	setAttr -cb on ".bnm";
	setAttr -k off -cb on ".ctrs" 256;
	setAttr -av -k off -cb on ".btrs" 512;
	setAttr -k off -cb on ".fbfm";
	setAttr -k off -cb on ".ehql";
	setAttr -k off -cb on ".eams";
	setAttr -k off -cb on ".eeaa";
	setAttr -k off -cb on ".engm";
	setAttr -k off -cb on ".mes";
	setAttr -k off -cb on ".emb";
	setAttr -av -k off -cb on ".mbbf";
	setAttr -k off -cb on ".mbs";
	setAttr -k off -cb on ".trm";
	setAttr -k off -cb on ".tshc";
	setAttr -k off -cb on ".enpt";
	setAttr -k off -cb on ".clmt";
	setAttr -k off -cb on ".tcov";
	setAttr -k off -cb on ".lith";
	setAttr -k off -cb on ".sobc";
	setAttr -k off -cb on ".cuth";
	setAttr -k off -cb on ".hgcd";
	setAttr -k off -cb on ".hgci";
	setAttr -k off -cb on ".mgcs";
	setAttr -k off -cb on ".twa";
	setAttr -k off -cb on ".twz";
	setAttr -cb on ".hwcc";
	setAttr -cb on ".hwdp";
	setAttr -cb on ".hwql";
	setAttr -k on ".hwfr";
	setAttr -k on ".soll";
	setAttr -k on ".sosl";
	setAttr -k on ".bswa";
	setAttr -k on ".shml";
	setAttr -k on ".hwel";
relationship "link" ":lightLinker1" ":initialShadingGroup.message" ":defaultLightSet.message";
relationship "link" ":lightLinker1" ":initialParticleSE.message" ":defaultLightSet.message";
relationship "shadowLink" ":lightLinker1" ":initialShadingGroup.message" ":defaultLightSet.message";
relationship "shadowLink" ":lightLinker1" ":initialParticleSE.message" ":defaultLightSet.message";
connectAttr "layerManager.dli[0]" "defaultLayer.id";
connectAttr "renderLayerManager.rlmi[0]" "defaultRenderLayer.rlid";
connectAttr ":TurtleDefaultBakeLayer.idx" ":TurtleBakeLayerManager.bli[0]";
connectAttr ":TurtleRenderOptions.msg" ":TurtleDefaultBakeLayer.rset";
connectAttr "defaultRenderLayer.msg" ":defaultRenderingList1.r" -na;
connectAttr ":perspShape.msg" ":defaultRenderGlobals.sc";
// End of DtlRigTmpLocs.ma
