//Maya ASCII 2017ff05 scene
//Name: EarRigTmpLocs.ma
//Last modified: Mon, Oct 08, 2018 10:47:48 AM
//Codeset: 1252
requires maya "2017ff05";
requires "stereoCamera" "10.0";
requires -nodeType "ilrOptionsNode" -nodeType "ilrUIOptionsNode" -nodeType "ilrBakeLayerManager"
		 -nodeType "ilrBakeLayer" "Turtle" "2017.0.0";
currentUnit -l centimeter -a degree -t film;
fileInfo "application" "maya";
fileInfo "product" "Maya 2017";
fileInfo "version" "2017";
fileInfo "cutIdentifier" "201710312130-1018716";
fileInfo "osv" "Microsoft Windows 8 Business Edition, 64-bit  (Build 9200)\n";
createNode transform -s -n "persp";
	rename -uid "49C986BF-4C8A-4190-7C00-B1871664275E";
	setAttr ".v" no;
	setAttr ".t" -type "double3" 124.24628167078109 168.84440713448774 127.73249340235249 ;
	setAttr ".r" -type "double3" 343.07318791772275 -13995.283646087 0 ;
	setAttr ".rp" -type "double3" 8.8817841970012523e-016 -1.2434497875801753e-014 -2.8421709430404007e-014 ;
	setAttr ".rpt" -type "double3" 4.1697767962532592e-016 -1.2826642696004263e-014 
		2.2044624614758433e-014 ;
createNode camera -s -n "perspShape" -p "persp";
	rename -uid "EAC496B2-460A-DFCF-4815-A789D759A273";
	setAttr -k off ".v";
	setAttr ".fl" 59.999999999999979;
	setAttr ".ncp" 1;
	setAttr ".fcp" 100000;
	setAttr ".coi" 192.9656144383722;
	setAttr ".imn" -type "string" "persp";
	setAttr ".den" -type "string" "persp_depth";
	setAttr ".man" -type "string" "persp_mask";
	setAttr ".tp" -type "double3" 9.4515395137051428e-006 115.3625421740922 -7.7446715029402853 ;
	setAttr ".hc" -type "string" "viewSet -p %camera";
	setAttr ".dgm" no;
createNode transform -s -n "top";
	rename -uid "298F6EB3-441F-827D-7DB8-3580D85FECBC";
	setAttr ".v" no;
	setAttr ".t" -type "double3" 24.340515355630785 144.49660396159672 -4.2597243682235071 ;
	setAttr ".r" -type "double3" -89.999999999999986 0 0 ;
createNode camera -s -n "topShape" -p "top";
	rename -uid "FED589E2-4D6F-2C0A-1F51-FFBEC2E882D4";
	setAttr -k off ".v";
	setAttr ".rnd" no;
	setAttr ".coi" 78.953530218014933;
	setAttr ".ow" 81.998831622685017;
	setAttr ".imn" -type "string" "top";
	setAttr ".den" -type "string" "top_depth";
	setAttr ".man" -type "string" "top_mask";
	setAttr ".tp" -type "double3" 0 65.543073743581772 -4.3494377136230469 ;
	setAttr ".hc" -type "string" "viewSet -t %camera";
	setAttr ".o" yes;
createNode transform -s -n "front";
	rename -uid "DEE05FEE-4706-1187-54D8-09B29EAE27D3";
	setAttr ".v" no;
	setAttr ".t" -type "double3" 11.450066611735712 117.3484811477243 174.61892829023279 ;
createNode camera -s -n "frontShape" -p "front";
	rename -uid "464F046C-4C92-F7C3-0FF5-69B3415ED5A9";
	setAttr -k off ".v";
	setAttr ".rnd" no;
	setAttr ".coi" 180.89250908734391;
	setAttr ".ow" 16.062897618690755;
	setAttr ".imn" -type "string" "front";
	setAttr ".den" -type "string" "front_depth";
	setAttr ".man" -type "string" "front_mask";
	setAttr ".tp" -type "double3" 11.450066611735712 121.9385982989424 -6.2735807971111122 ;
	setAttr ".hc" -type "string" "viewSet -f %camera";
	setAttr ".o" yes;
createNode transform -s -n "side";
	rename -uid "A9285762-499B-4F4D-773A-13B84D5D2115";
	setAttr ".v" no;
	setAttr ".t" -type "double3" 241.77495170658042 70.186205710570192 -3.5655216928887969 ;
	setAttr ".r" -type "double3" 0 89.999999999999986 0 ;
createNode camera -s -n "sideShape" -p "side";
	rename -uid "30D68B55-49F0-60F2-6229-9CA1D3273E9F";
	setAttr -k off ".v";
	setAttr ".rnd" no;
	setAttr ".coi" 241.77495170658037;
	setAttr ".ow" 262.38000281132366;
	setAttr ".imn" -type "string" "side";
	setAttr ".den" -type "string" "side_depth";
	setAttr ".man" -type "string" "side_mask";
	setAttr ".tp" -type "double3" 0 68.549253821372986 -5.6701741218566895 ;
	setAttr ".hc" -type "string" "viewSet -s %camera";
	setAttr ".o" yes;
createNode transform -n "Export_Grp";
	rename -uid "CB0D720D-4FC3-C42F-3BB5-069153215E43";
createNode transform -n "EarTmpJnt_Grp" -p "Export_Grp";
	rename -uid "6F1CE60A-4CD2-D8B5-474B-5A9F07B84077";
createNode joint -n "EarTmp_1_L_Jnt" -p "EarTmpJnt_Grp";
	rename -uid "AD90CDE3-4663-348B-6852-1F8F7DCF2C83";
	setAttr ".t" -type "double3" 9.3694882984619881 114.88885772342913 -6.888445206624473 ;
	setAttr ".jo" -type "double3" -68.67469301693103 -38.892376630665204 0.26277858441865781 ;
	setAttr ".radi" 0.2;
createNode joint -n "EarTmp_2_L_Jnt" -p "EarTmp_1_L_Jnt";
	rename -uid "54F7C11F-468B-5259-001D-E88A2D316174";
	setAttr ".t" -type "double3" 5.3290705182007514e-015 1.9710866986645641 2.8421709430404007e-014 ;
	setAttr ".radi" 0.2;
createNode joint -n "EarTmp_1_R_Jnt" -p "EarTmpJnt_Grp";
	rename -uid "18950FF9-45DC-30A9-1CF6-36B28651BCB0";
	setAttr ".t" -type "double3" -9.36949 114.889 -6.88845 ;
	setAttr ".jo" -type "double3" 111.32530698306901 38.892376630665204 -0.2627785844186496 ;
	setAttr ".radi" 0.2;
createNode joint -n "EarTmp_2_R_Jnt" -p "EarTmp_1_R_Jnt";
	rename -uid "D21138B2-46F4-BB09-5C06-6B91299DD4BF";
	setAttr ".t" -type "double3" 1.1810034538317637e-005 -1.9710362868248339 7.7332031125365575e-005 ;
	setAttr ".jo" -type "double3" 1.4787793334710982e-006 4.925324619561804e-022 -2.0522185168890685e-022 ;
	setAttr ".radi" 0.2;
createNode lightLinker -s -n "lightLinker1";
	rename -uid "79554087-45D8-53CA-42F7-66BCAB2A64AD";
	setAttr -s 2 ".lnk";
	setAttr -s 2 ".slnk";
createNode displayLayerManager -n "layerManager";
	rename -uid "67DC7C23-4513-E9F8-B24B-7497DC0606D0";
	setAttr ".cdl" 8;
	setAttr -s 8 ".dli[1:7]"  8 7 3 4 5 6 1;
createNode displayLayer -n "defaultLayer";
	rename -uid "C727DD4C-46DC-70CF-E3DB-EEB0233D4E25";
createNode renderLayerManager -n "renderLayerManager";
	rename -uid "8BA5ABEC-428A-03C1-ADBE-8D894D5FFB36";
createNode renderLayer -n "defaultRenderLayer";
	rename -uid "EBE06E2E-41B9-59FA-6C4A-DFAD766C2862";
	setAttr ".g" yes;
createNode ilrOptionsNode -s -n "TurtleRenderOptions";
	rename -uid "CC8990E2-41BA-1A03-0E85-CFBAD4FA743C";
lockNode -l 1 ;
createNode ilrUIOptionsNode -s -n "TurtleUIOptions";
	rename -uid "9CCC2772-4E6F-6E70-4F30-459E766E3C48";
lockNode -l 1 ;
createNode ilrBakeLayerManager -s -n "TurtleBakeLayerManager";
	rename -uid "AAFC2330-42F5-7B61-2327-28B5A2BADD44";
lockNode -l 1 ;
createNode ilrBakeLayer -s -n "TurtleDefaultBakeLayer";
	rename -uid "89707F4B-4615-836D-0CED-85AFE7CE974D";
lockNode -l 1 ;
createNode shapeEditorManager -n "shapeEditorManager";
	rename -uid "777DEEB0-48A7-2D3D-E589-31A9882CCF81";
createNode poseInterpolatorManager -n "poseInterpolatorManager";
	rename -uid "FD3B71DF-43AB-50E0-F6EA-33A464E63144";
createNode nodeGraphEditorInfo -n "hyperShadePrimaryNodeEditorSavedTabsInfo";
	rename -uid "0DEEF6AA-4E79-9B46-6CFF-15ACBB504DC9";
	setAttr ".tgi[0].tn" -type "string" "Untitled_1";
	setAttr ".tgi[0].vl" -type "double2" 1928.5713519368883 -1674.9489130353463 ;
	setAttr ".tgi[0].vh" -type "double2" 5810.7140548172538 1549.0781697376813 ;
createNode script -n "sceneConfigurationScriptNode";
	rename -uid "637731F8-419A-163E-1B51-0FA1E5A98542";
	setAttr ".b" -type "string" "playbackOptions -min 1 -max 120 -ast 1 -aet 200 ";
	setAttr ".st" 6;
select -ne :time1;
	setAttr -av -k on ".cch";
	setAttr -av -cb on ".ihi";
	setAttr -av -k on ".nds";
	setAttr -cb on ".bnm";
	setAttr -k on ".o" 0;
	setAttr -av -k on ".unw";
	setAttr -k on ".etw";
	setAttr -k on ".tps";
	setAttr -av -k on ".tms";
select -ne :hardwareRenderingGlobals;
	setAttr ".otfna" -type "stringArray" 22 "NURBS Curves" "NURBS Surfaces" "Polygons" "Subdiv Surface" "Particles" "Particle Instance" "Fluids" "Strokes" "Image Planes" "UI" "Lights" "Cameras" "Locators" "Joints" "IK Handles" "Deformers" "Motion Trails" "Components" "Hair Systems" "Follicles" "Misc. UI" "Ornaments"  ;
	setAttr ".otfva" -type "Int32Array" 22 0 1 1 1 1 1
		 1 1 1 0 0 0 0 0 0 0 0 0
		 0 0 0 0 ;
	setAttr -k on ".mbsof";
	setAttr ".msaa" yes;
	setAttr ".fprt" yes;
select -ne :renderPartition;
	setAttr -k on ".cch";
	setAttr -cb on ".ihi";
	setAttr -k on ".nds";
	setAttr -cb on ".bnm";
	setAttr -s 2 ".st";
	setAttr -cb on ".an";
	setAttr -cb on ".pt";
select -ne :renderGlobalsList1;
	setAttr -k on ".cch";
	setAttr -cb on ".ihi";
	setAttr -k on ".nds";
	setAttr -cb on ".bnm";
select -ne :defaultShaderList1;
	setAttr -k on ".cch";
	setAttr -cb on ".ihi";
	setAttr -k on ".nds";
	setAttr -cb on ".bnm";
	setAttr -s 4 ".s";
select -ne :postProcessList1;
	setAttr -k on ".cch";
	setAttr -cb on ".ihi";
	setAttr -k on ".nds";
	setAttr -cb on ".bnm";
	setAttr -s 2 ".p";
select -ne :defaultRenderingList1;
	setAttr -k on ".ihi";
select -ne :initialShadingGroup;
	setAttr -av -k on ".cch";
	setAttr -cb on ".ihi";
	setAttr -av -k on ".nds";
	setAttr -cb on ".bnm";
	setAttr -k on ".mwc";
	setAttr -cb on ".an";
	setAttr -cb on ".il";
	setAttr -cb on ".vo";
	setAttr -cb on ".eo";
	setAttr -cb on ".fo";
	setAttr -cb on ".epo";
	setAttr -k on ".ro" yes;
select -ne :initialParticleSE;
	setAttr -av -k on ".cch";
	setAttr -cb on ".ihi";
	setAttr -av -k on ".nds";
	setAttr -cb on ".bnm";
	setAttr -k on ".mwc";
	setAttr -cb on ".an";
	setAttr -cb on ".il";
	setAttr -cb on ".vo";
	setAttr -cb on ".eo";
	setAttr -cb on ".fo";
	setAttr -cb on ".epo";
	setAttr -k on ".ro" yes;
select -ne :defaultResolution;
	setAttr -av -k on ".cch";
	setAttr -k on ".ihi";
	setAttr -av -k on ".nds";
	setAttr -k on ".bnm";
	setAttr -av -k on ".w";
	setAttr -av -k on ".h";
	setAttr -av -k on ".pa" 1;
	setAttr -av -k on ".al";
	setAttr -av -k on ".dar";
	setAttr -av -k on ".ldar";
	setAttr -k on ".dpi";
	setAttr -av -k on ".off";
	setAttr -av -k on ".fld";
	setAttr -av -k on ".zsl";
	setAttr -k on ".isu";
	setAttr -k on ".pdu";
select -ne :hardwareRenderGlobals;
	setAttr -k on ".cch";
	setAttr -cb on ".ihi";
	setAttr -k on ".nds";
	setAttr -cb on ".bnm";
	setAttr -k off -cb on ".ctrs" 256;
	setAttr -av -k off -cb on ".btrs" 512;
	setAttr -k off -cb on ".fbfm";
	setAttr -k off -cb on ".ehql";
	setAttr -k off -cb on ".eams";
	setAttr -k off -cb on ".eeaa";
	setAttr -k off -cb on ".engm";
	setAttr -k off -cb on ".mes";
	setAttr -k off -cb on ".emb";
	setAttr -av -k off -cb on ".mbbf";
	setAttr -k off -cb on ".mbs";
	setAttr -k off -cb on ".trm";
	setAttr -k off -cb on ".tshc";
	setAttr -k off -cb on ".enpt";
	setAttr -k off -cb on ".clmt";
	setAttr -k off -cb on ".tcov";
	setAttr -k off -cb on ".lith";
	setAttr -k off -cb on ".sobc";
	setAttr -k off -cb on ".cuth";
	setAttr -k off -cb on ".hgcd";
	setAttr -k off -cb on ".hgci";
	setAttr -k off -cb on ".mgcs";
	setAttr -k off -cb on ".twa";
	setAttr -k off -cb on ".twz";
	setAttr -cb on ".hwcc";
	setAttr -cb on ".hwdp";
	setAttr -cb on ".hwql";
	setAttr -k on ".hwfr";
	setAttr -k on ".soll";
	setAttr -k on ".sosl";
	setAttr -k on ".bswa";
	setAttr -k on ".shml";
	setAttr -k on ".hwel";
connectAttr "EarTmp_1_L_Jnt.s" "EarTmp_2_L_Jnt.is";
connectAttr "EarTmp_1_R_Jnt.s" "EarTmp_2_R_Jnt.is";
relationship "link" ":lightLinker1" ":initialShadingGroup.message" ":defaultLightSet.message";
relationship "link" ":lightLinker1" ":initialParticleSE.message" ":defaultLightSet.message";
relationship "shadowLink" ":lightLinker1" ":initialShadingGroup.message" ":defaultLightSet.message";
relationship "shadowLink" ":lightLinker1" ":initialParticleSE.message" ":defaultLightSet.message";
connectAttr "layerManager.dli[0]" "defaultLayer.id";
connectAttr "renderLayerManager.rlmi[0]" "defaultRenderLayer.rlid";
connectAttr ":TurtleDefaultBakeLayer.idx" ":TurtleBakeLayerManager.bli[0]";
connectAttr ":TurtleRenderOptions.msg" ":TurtleDefaultBakeLayer.rset";
connectAttr "defaultRenderLayer.msg" ":defaultRenderingList1.r" -na;
connectAttr ":perspShape.msg" ":defaultRenderGlobals.sc";
// End of EarRigTmpLocs.ma
