//Maya ASCII 2017ff05 scene
//Name: EbLocalJnts.ma
//Last modified: Mon, Oct 08, 2018 10:48:08 AM
//Codeset: 1252
requires maya "2017ff05";
requires "stereoCamera" "10.0";
currentUnit -l centimeter -a degree -t film;
fileInfo "application" "maya";
fileInfo "product" "Maya 2017";
fileInfo "version" "2017";
fileInfo "cutIdentifier" "201710312130-1018716";
fileInfo "osv" "Microsoft Windows 8 Business Edition, 64-bit  (Build 9200)\n";
createNode transform -n "Export_Grp";
	rename -uid "C439BB5A-45B2-8CD0-B851-F891478D8289";
createNode transform -n "hdjntZr_Grp" -p "Export_Grp";
	rename -uid "835EC115-465E-1671-85DE-EDB72F759750";
	setAttr ".t" -type "double3" 0 170.75134949952124 0.77503821461118072 ;
createNode joint -n "hd_jnt" -p "hdjntZr_Grp";
	rename -uid "92A4BF5F-4D7D-B8FA-2A2B-B597ED4FDC6C";
	addAttr -ci true -sn "liw" -ln "lockInfluenceWeights" -min 0 -max 1 -at "bool";
	setAttr ".bps" -type "matrix" 1 0 0 0 0 1 0 0 0 0 1 0 0 156.26658251383364 1.086538579894782 1;
	setAttr ".radi" 0.25;
createNode transform -n "ebjntZr_Grp" -p "hd_jnt";
	rename -uid "E7E36519-44D9-4D5D-CB27-B6939BBCADF6";
	setAttr ".t" -type "double3" -1.5753132517320871e-015 7.9955529662990728 6.8216867724188486 ;
createNode joint -n "eb_jnt" -p "ebjntZr_Grp";
	rename -uid "B558852C-4E65-14EF-5BF4-6FA282561DF7";
	addAttr -ci true -sn "liw" -ln "lockInfluenceWeights" -min 0 -max 1 -at "bool";
	setAttr ".oc" 2;
	setAttr ".bps" -type "matrix" 1 0 0 0 0 1 0 0 0 0 1 0 -3.9509686388554329e-017 162.43016052246094 9.8553390502929687 1;
	setAttr ".radi" 0.25;
createNode transform -n "ebjntZr_L_Grp" -p "eb_jnt";
	rename -uid "6D8FAC7B-4A73-7F13-615E-37AB2EEDEE85";
	setAttr ".t" -type "double3" 5.6658573150634783 -0.48284912109377842 -2.9570865267263429 ;
createNode joint -n "eb_L_jnt" -p "ebjntZr_L_Grp";
	rename -uid "3E50D38E-4598-CABB-D31F-9EB595BB75A8";
	addAttr -ci true -sn "liw" -ln "lockInfluenceWeights" -min 0 -max 1 -at "bool";
	setAttr ".oc" 4;
	setAttr ".bps" -type "matrix" 1 0 0 0 0 1 0 0 0 0 1 0 4.9529252052307129 162.47590637207031 6.9281493500231353 1;
	setAttr ".radi" 0.25;
createNode transform -n "ebInjntZr_L_Grp" -p "eb_L_jnt";
	rename -uid "021B4718-4723-D06B-6FBD-598771CAEA15";
	setAttr ".t" -type "double3" -3.3422572612762451 0.61828613281252842 2.563616716240503 ;
createNode joint -n "ebIn_L_jnt" -p "ebInjntZr_L_Grp";
	rename -uid "F031D668-4385-22B9-870D-AFBD8B9A7CD3";
	addAttr -ci true -sn "liw" -ln "lockInfluenceWeights" -min 0 -max 1 -at "bool";
	setAttr ".oc" 6;
	setAttr ".bps" -type "matrix" 1 0 0 0 0 1 0 0 0 0 1 0 1.9155910015106201 162.52131652832031 9.9219427108764648 1;
	setAttr ".radi" 0.25;
	setAttr ".liw" yes;
createNode transform -n "ebMidjntZr_L_Grp" -p "eb_L_jnt";
	rename -uid "4A62E425-4CD9-F08F-9DD0-63BC025D1257";
	setAttr ".t" -type "double3" 0 2.8421709430404007e-014 1.0054092043386476 ;
	setAttr ".r" -type "double3" -26.697814051242187 27.268669934172827 -30.028867027196217 ;
createNode joint -n "ebMid_L_jnt" -p "ebMidjntZr_L_Grp";
	rename -uid "C70946C1-48CA-C7FB-C60D-FD8581C2E912";
	addAttr -ci true -sn "liw" -ln "lockInfluenceWeights" -min 0 -max 1 -at "bool";
	setAttr ".oc" 6;
	setAttr ".bps" -type "matrix" 0.91346221900717717 0 -0.40692354865070657 0 0 1 0 0
		 0.40692354865070657 0 0.91346221900717717 0 5.3922519683837891 162.60025024414062 9.2484970092773437 1;
	setAttr ".radi" 0.25;
	setAttr ".liw" yes;
createNode transform -n "ebOutjntZr_L_Grp" -p "eb_L_jnt";
	rename -uid "5D9F17B1-4BBE-90AD-F14C-F8A569381B12";
	setAttr ".t" -type "double3" 1.9123177528381348 -2.2982635498046591 -0.76984361472263174 ;
	setAttr ".r" -type "double3" -61.778026601751982 27.405776384694025 -68.037963524305951 ;
createNode joint -n "ebOut_L_jnt" -p "ebOutjntZr_L_Grp";
	rename -uid "322FFD30-4318-EF93-96B5-45920629F05E";
	addAttr -ci true -sn "liw" -ln "lockInfluenceWeights" -min 0 -max 1 -at "bool";
	setAttr ".oc" 6;
	setAttr ".bps" -type "matrix" 0.53437883047408863 -0.52032419327166068 -0.66610960016902687 0
		 0.28051948223974232 0.85257504267016737 -0.44093606872188318 0 0.79733812502920764 0.048770180563105087 0.60155912748685803 0
		 7.8424277305603027 162.20291137695312 7.3853240013122559 1;
	setAttr ".radi" 0.25;
	setAttr ".liw" yes;
createNode transform -n "ebjntZr_R_Grp" -p "eb_jnt";
	rename -uid "A0496316-42C5-DDBC-FB8B-58B971C3CE15";
	setAttr ".t" -type "double3" -5.6658573150634783 -0.48284912109377842 -2.9570865267263429 ;
createNode joint -n "eb_R_jnt" -p "ebjntZr_R_Grp";
	rename -uid "1780DEAF-48A0-8722-49A5-6EBE6DB97699";
	addAttr -ci true -sn "liw" -ln "lockInfluenceWeights" -min 0 -max 1 -at "bool";
	setAttr ".oc" 4;
	setAttr ".bps" -type "matrix" 1 0 0 0 0 1 0 0 0 0 1 0 -4.9529252052307129 162.47590637207031 6.9281493500231353 1;
	setAttr ".radi" 0.25;
createNode transform -n "ebInjntZr_R_Grp" -p "eb_R_jnt";
	rename -uid "EE5F792F-4E04-A896-C168-A1A138FFF812";
	setAttr ".t" -type "double3" 3.3422572612762451 0.61828613281252842 2.563616716240503 ;
createNode joint -n "ebIn_R_jnt" -p "ebInjntZr_R_Grp";
	rename -uid "A2D26B6F-4E95-1CFE-3568-61AA0BDB3C75";
	addAttr -ci true -sn "liw" -ln "lockInfluenceWeights" -min 0 -max 1 -at "bool";
	setAttr ".oc" 6;
	setAttr ".bps" -type "matrix" 1 0 0 0 0 1 0 0 0 0 1 0 -1.9155910015106201 162.52131652832031 9.9219427108764648 1;
	setAttr ".radi" 0.25;
createNode transform -n "ebMidjntZr_R_Grp" -p "eb_R_jnt";
	rename -uid "86A863EF-4285-50DC-83F4-00A7FA0721D6";
	setAttr ".t" -type "double3" 0 2.8421709430404007e-014 1.0054092043386476 ;
	setAttr ".r" -type "double3" -26.697814051241817 -27.26866993417276 30.02886702719681 ;
createNode joint -n "ebMid_R_jnt" -p "ebMidjntZr_R_Grp";
	rename -uid "37F7A06B-4C4C-F40B-691B-28962875E9E9";
	addAttr -ci true -sn "liw" -ln "lockInfluenceWeights" -min 0 -max 1 -at "bool";
	setAttr ".oc" 6;
	setAttr ".bps" -type "matrix" 0.9134622190071775 0 0.4069235486507059 0 0 1 0 0 -0.4069235486507059 0 0.9134622190071775 0
		 -5.3922519683837891 162.60025024414062 9.2484970092773437 1;
	setAttr ".radi" 0.25;
	setAttr ".liw" yes;
createNode transform -n "ebOutjntZr_R_Grp" -p "eb_R_jnt";
	rename -uid "02F11725-4FD8-F470-98E4-7F809C3A2AC4";
	setAttr ".t" -type "double3" -1.9123177528381348 -2.2982635498046591 -0.76984361472263174 ;
	setAttr ".r" -type "double3" -61.778026601752074 -27.405776384693205 68.037963524306718 ;
createNode joint -n "ebOut_R_jnt" -p "ebOutjntZr_R_Grp";
	rename -uid "F7852743-4CB4-3DE0-8C12-5B9A6ACDF636";
	addAttr -ci true -sn "liw" -ln "lockInfluenceWeights" -min 0 -max 1 -at "bool";
	setAttr ".oc" 6;
	setAttr ".bps" -type "matrix" 0.53437883047409063 0.52032419327166068 0.6661096001690251 0
		 -0.28051948223973872 0.85257504267016704 -0.44093606872188607 0 -0.79733812502920742 0.048770180563110471 0.60155912748685769 0
		 -7.8424277305603027 162.20291137695312 7.3853240013122559 1;
	setAttr ".radi" 0.25;
	setAttr ".liw" yes;
createNode transform -s -n "persp";
	rename -uid "AD970614-4CAB-6AFB-6DF4-E79F0D2C9BF3";
	setAttr ".v" no;
	setAttr ".t" -type "double3" 391.84244400789578 210.78748760989527 460.12851218433104 ;
	setAttr ".r" -type "double3" -10.538352729602378 40.999999999999993 1.0535690697488871e-015 ;
createNode camera -s -n "perspShape" -p "persp";
	rename -uid "06430176-477E-7D4E-BA07-F7B910D0B6BD";
	setAttr -k off ".v" no;
	setAttr ".fl" 34.999999999999993;
	setAttr ".coi" 661.20900453555191;
	setAttr ".imn" -type "string" "persp";
	setAttr ".den" -type "string" "persp_depth";
	setAttr ".man" -type "string" "persp_mask";
	setAttr ".hc" -type "string" "viewSet -p %camera";
createNode transform -s -n "top";
	rename -uid "9FEF68EC-4D5D-6258-8BCE-56A871E4A1C5";
	setAttr ".v" no;
	setAttr ".t" -type "double3" 0 1000.1 0 ;
	setAttr ".r" -type "double3" -89.999999999999986 0 0 ;
createNode camera -s -n "topShape" -p "top";
	rename -uid "D4EB3D99-4706-C2D6-830F-3A90D693C7F0";
	setAttr -k off ".v" no;
	setAttr ".rnd" no;
	setAttr ".coi" 1000.1;
	setAttr ".ow" 30;
	setAttr ".imn" -type "string" "top";
	setAttr ".den" -type "string" "top_depth";
	setAttr ".man" -type "string" "top_mask";
	setAttr ".hc" -type "string" "viewSet -t %camera";
	setAttr ".o" yes;
createNode transform -s -n "front";
	rename -uid "A9A0E9D2-42AE-A7DD-1242-AA823CA34E9A";
	setAttr ".v" no;
	setAttr ".t" -type "double3" 0 0 1000.1 ;
createNode camera -s -n "frontShape" -p "front";
	rename -uid "C963281E-42E1-9FF0-CF83-448428C506AA";
	setAttr -k off ".v" no;
	setAttr ".rnd" no;
	setAttr ".coi" 1000.1;
	setAttr ".ow" 30;
	setAttr ".imn" -type "string" "front";
	setAttr ".den" -type "string" "front_depth";
	setAttr ".man" -type "string" "front_mask";
	setAttr ".hc" -type "string" "viewSet -f %camera";
	setAttr ".o" yes;
createNode transform -s -n "side";
	rename -uid "B5A60925-436F-B32F-BB94-3681AB30905F";
	setAttr ".v" no;
	setAttr ".t" -type "double3" 1000.1 0 0 ;
	setAttr ".r" -type "double3" 0 89.999999999999986 0 ;
createNode camera -s -n "sideShape" -p "side";
	rename -uid "FAB28533-4D98-7D01-0E4A-40B414D63B3A";
	setAttr -k off ".v" no;
	setAttr ".rnd" no;
	setAttr ".coi" 1000.1;
	setAttr ".ow" 30;
	setAttr ".imn" -type "string" "side";
	setAttr ".den" -type "string" "side_depth";
	setAttr ".man" -type "string" "side_mask";
	setAttr ".hc" -type "string" "viewSet -s %camera";
	setAttr ".o" yes;
createNode lightLinker -s -n "lightLinker1";
	rename -uid "785C69A4-4C8D-CE00-B7A9-15B492559714";
	setAttr -s 2 ".lnk";
	setAttr -s 2 ".slnk";
createNode shapeEditorManager -n "shapeEditorManager";
	rename -uid "87DB5817-4056-2D94-6D7D-46AAFBF1E39F";
createNode poseInterpolatorManager -n "poseInterpolatorManager";
	rename -uid "75C49C1D-4320-8742-F2CF-308590F0E6FE";
createNode displayLayerManager -n "layerManager";
	rename -uid "F6E16FE8-4FF8-A693-12E8-74A1DE6A2C71";
createNode displayLayer -n "defaultLayer";
	rename -uid "409BE5BE-4431-103B-DF22-1896F8D02EE4";
createNode renderLayerManager -n "renderLayerManager";
	rename -uid "FCBEB13E-404D-3D34-B931-3CAF4D059F52";
createNode renderLayer -n "defaultRenderLayer";
	rename -uid "F73E579D-4704-FD37-C29B-99B2B305B782";
	setAttr ".g" yes;
createNode script -n "sceneConfigurationScriptNode";
	rename -uid "A790290F-498D-BA17-114A-B481D340870E";
	setAttr ".b" -type "string" "playbackOptions -min 1 -max 120 -ast 1 -aet 200 ";
	setAttr ".st" 6;
select -ne :time1;
	setAttr -av -k on ".cch";
	setAttr -av -cb on ".ihi";
	setAttr -av -k on ".nds";
	setAttr -cb on ".bnm";
	setAttr -k on ".o" 1;
	setAttr -av -k on ".unw" 1;
	setAttr -k on ".etw";
	setAttr -k on ".tps";
	setAttr -av -k on ".tms";
select -ne :hardwareRenderingGlobals;
	setAttr ".otfna" -type "stringArray" 22 "NURBS Curves" "NURBS Surfaces" "Polygons" "Subdiv Surface" "Particles" "Particle Instance" "Fluids" "Strokes" "Image Planes" "UI" "Lights" "Cameras" "Locators" "Joints" "IK Handles" "Deformers" "Motion Trails" "Components" "Hair Systems" "Follicles" "Misc. UI" "Ornaments"  ;
	setAttr ".otfva" -type "Int32Array" 22 0 1 1 1 1 1
		 1 1 1 0 0 0 0 0 0 0 0 0
		 0 0 0 0 ;
	setAttr -k on ".mbsof";
	setAttr ".msaa" yes;
	setAttr ".fprt" yes;
select -ne :renderPartition;
	setAttr -k on ".cch";
	setAttr -cb on ".ihi";
	setAttr -k on ".nds";
	setAttr -cb on ".bnm";
	setAttr -s 2 ".st";
	setAttr -cb on ".an";
	setAttr -cb on ".pt";
select -ne :renderGlobalsList1;
	setAttr -k on ".cch";
	setAttr -cb on ".ihi";
	setAttr -k on ".nds";
	setAttr -cb on ".bnm";
select -ne :defaultShaderList1;
	setAttr -k on ".cch";
	setAttr -cb on ".ihi";
	setAttr -k on ".nds";
	setAttr -cb on ".bnm";
	setAttr -s 4 ".s";
select -ne :postProcessList1;
	setAttr -k on ".cch";
	setAttr -cb on ".ihi";
	setAttr -k on ".nds";
	setAttr -cb on ".bnm";
	setAttr -s 2 ".p";
select -ne :defaultRenderingList1;
	setAttr -k on ".ihi";
select -ne :initialShadingGroup;
	setAttr -av -k on ".cch";
	setAttr -cb on ".ihi";
	setAttr -av -k on ".nds";
	setAttr -cb on ".bnm";
	setAttr -k on ".mwc";
	setAttr -cb on ".an";
	setAttr -cb on ".il";
	setAttr -cb on ".vo";
	setAttr -cb on ".eo";
	setAttr -cb on ".fo";
	setAttr -cb on ".epo";
	setAttr -k on ".ro" yes;
select -ne :initialParticleSE;
	setAttr -av -k on ".cch";
	setAttr -cb on ".ihi";
	setAttr -av -k on ".nds";
	setAttr -cb on ".bnm";
	setAttr -k on ".mwc";
	setAttr -cb on ".an";
	setAttr -cb on ".il";
	setAttr -cb on ".vo";
	setAttr -cb on ".eo";
	setAttr -cb on ".fo";
	setAttr -cb on ".epo";
	setAttr -k on ".ro" yes;
select -ne :defaultResolution;
	setAttr -av -k on ".cch";
	setAttr -k on ".ihi";
	setAttr -av -k on ".nds";
	setAttr -k on ".bnm";
	setAttr -av -k on ".w";
	setAttr -av -k on ".h";
	setAttr -av -k on ".pa" 1;
	setAttr -av -k on ".al";
	setAttr -av -k on ".dar";
	setAttr -av -k on ".ldar";
	setAttr -k on ".dpi";
	setAttr -av -k on ".off";
	setAttr -av -k on ".fld";
	setAttr -av -k on ".zsl";
	setAttr -k on ".isu";
	setAttr -k on ".pdu";
select -ne :hardwareRenderGlobals;
	setAttr -k on ".cch";
	setAttr -cb on ".ihi";
	setAttr -k on ".nds";
	setAttr -cb on ".bnm";
	setAttr -k off -cb on ".ctrs" 256;
	setAttr -av -k off -cb on ".btrs" 512;
	setAttr -k off -cb on ".fbfm";
	setAttr -k off -cb on ".ehql";
	setAttr -k off -cb on ".eams";
	setAttr -k off -cb on ".eeaa";
	setAttr -k off -cb on ".engm";
	setAttr -k off -cb on ".mes";
	setAttr -k off -cb on ".emb";
	setAttr -av -k off -cb on ".mbbf";
	setAttr -k off -cb on ".mbs";
	setAttr -k off -cb on ".trm";
	setAttr -k off -cb on ".tshc";
	setAttr -k off -cb on ".enpt";
	setAttr -k off -cb on ".clmt";
	setAttr -k off -cb on ".tcov";
	setAttr -k off -cb on ".lith";
	setAttr -k off -cb on ".sobc";
	setAttr -k off -cb on ".cuth";
	setAttr -k off -cb on ".hgcd";
	setAttr -k off -cb on ".hgci";
	setAttr -k off -cb on ".mgcs";
	setAttr -k off -cb on ".twa";
	setAttr -k off -cb on ".twz";
	setAttr -k on ".hwcc";
	setAttr -k on ".hwdp";
	setAttr -k on ".hwql";
	setAttr -k on ".hwfr";
	setAttr -k on ".soll";
	setAttr -k on ".sosl";
	setAttr -k on ".bswa";
	setAttr -k on ".shml";
	setAttr -k on ".hwel";
relationship "link" ":lightLinker1" ":initialShadingGroup.message" ":defaultLightSet.message";
relationship "link" ":lightLinker1" ":initialParticleSE.message" ":defaultLightSet.message";
relationship "shadowLink" ":lightLinker1" ":initialShadingGroup.message" ":defaultLightSet.message";
relationship "shadowLink" ":lightLinker1" ":initialParticleSE.message" ":defaultLightSet.message";
connectAttr "layerManager.dli[0]" "defaultLayer.id";
connectAttr "renderLayerManager.rlmi[0]" "defaultRenderLayer.rlid";
connectAttr "defaultRenderLayer.msg" ":defaultRenderingList1.r" -na;
// End of EbLocalJnts.ma
