//Maya ASCII 2017ff05 scene
//Name: EyeRigTmpLocs.ma
//Last modified: Mon, Oct 08, 2018 10:48:16 AM
//Codeset: 1252
requires maya "2017ff05";
requires "stereoCamera" "10.0";
requires -nodeType "ilrOptionsNode" -nodeType "ilrUIOptionsNode" -nodeType "ilrBakeLayerManager"
		 -nodeType "ilrBakeLayer" "Turtle" "2017.0.0";
currentUnit -l centimeter -a degree -t film;
fileInfo "application" "maya";
fileInfo "product" "Maya 2017";
fileInfo "version" "2017";
fileInfo "cutIdentifier" "201710312130-1018716";
fileInfo "osv" "Microsoft Windows 8 Business Edition, 64-bit  (Build 9200)\n";
createNode transform -s -n "persp";
	rename -uid "49C986BF-4C8A-4190-7C00-B1871664275E";
	setAttr ".v" no;
	setAttr ".t" -type "double3" 33.425667978625292 112.01630850669414 56.745902500382016 ;
	setAttr ".r" -type "double3" 364.67318792740679 -14012.483645967382 0 ;
	setAttr ".rp" -type "double3" 8.8817841970012523e-016 -1.2434497875801753e-014 -2.8421709430404007e-014 ;
	setAttr ".rpt" -type "double3" 4.1697767962532592e-016 -1.2826642696004263e-014 
		2.2044624614758433e-014 ;
createNode camera -s -n "perspShape" -p "persp";
	rename -uid "EAC496B2-460A-DFCF-4815-A789D759A273";
	setAttr -k off ".v";
	setAttr ".fl" 59.999999999999979;
	setAttr ".ncp" 1;
	setAttr ".fcp" 100000;
	setAttr ".coi" 72.463827238624248;
	setAttr ".imn" -type "string" "persp";
	setAttr ".den" -type "string" "persp_depth";
	setAttr ".man" -type "string" "persp_mask";
	setAttr ".tp" -type "double3" 0.058546066284179688 117.92008972167969 -7.3070974349975586 ;
	setAttr ".hc" -type "string" "viewSet -p %camera";
	setAttr ".dgm" no;
createNode transform -s -n "top";
	rename -uid "298F6EB3-441F-827D-7DB8-3580D85FECBC";
	setAttr ".v" no;
	setAttr ".t" -type "double3" 5.0550626255121145 152.44033340974744 2.6174371397576182 ;
	setAttr ".r" -type "double3" -89.999999999999986 0 0 ;
createNode camera -s -n "topShape" -p "top";
	rename -uid "FED589E2-4D6F-2C0A-1F51-FFBEC2E882D4";
	setAttr -k off ".v";
	setAttr ".rnd" no;
	setAttr ".coi" 34.772730738449212;
	setAttr ".ow" 7.3546193070951853;
	setAttr ".imn" -type "string" "top";
	setAttr ".den" -type "string" "top_depth";
	setAttr ".man" -type "string" "top_mask";
	setAttr ".tp" -type "double3" 3.3060583085706168 117.66760267129821 2.5885680838577301 ;
	setAttr ".hc" -type "string" "viewSet -t %camera";
	setAttr ".o" yes;
createNode transform -s -n "front";
	rename -uid "DEE05FEE-4706-1187-54D8-09B29EAE27D3";
	setAttr ".v" no;
	setAttr ".t" -type "double3" 3.7308029399171909 115.99309227625935 174.47506376701935 ;
createNode camera -s -n "frontShape" -p "front";
	rename -uid "464F046C-4C92-F7C3-0FF5-69B3415ED5A9";
	setAttr -k off ".v";
	setAttr ".rnd" no;
	setAttr ".coi" 171.44419261414154;
	setAttr ".ow" 23.712309106354517;
	setAttr ".imn" -type "string" "front";
	setAttr ".den" -type "string" "front_depth";
	setAttr ".man" -type "string" "front_mask";
	setAttr ".tp" -type "double3" 4.6876020431518564 116.50974273681641 3.0308711528778072 ;
	setAttr ".hc" -type "string" "viewSet -f %camera";
	setAttr ".o" yes;
createNode transform -s -n "side";
	rename -uid "A9285762-499B-4F4D-773A-13B84D5D2115";
	setAttr ".v" no;
	setAttr ".t" -type "double3" 241.77495170658042 70.186205710570192 -3.5655216928887969 ;
	setAttr ".r" -type "double3" 0 89.999999999999986 0 ;
createNode camera -s -n "sideShape" -p "side";
	rename -uid "30D68B55-49F0-60F2-6229-9CA1D3273E9F";
	setAttr -k off ".v";
	setAttr ".rnd" no;
	setAttr ".coi" 241.77495170658037;
	setAttr ".ow" 262.38000281132366;
	setAttr ".imn" -type "string" "side";
	setAttr ".den" -type "string" "side_depth";
	setAttr ".man" -type "string" "side_mask";
	setAttr ".tp" -type "double3" 0 68.549253821372986 -5.6701741218566895 ;
	setAttr ".hc" -type "string" "viewSet -s %camera";
	setAttr ".o" yes;
createNode transform -n "Export_Grp";
	rename -uid "F63A5BA2-45B7-45D1-0B83-0998D34C8FE4";
createNode transform -n "LidRigTmpLoc_L_Grp" -p "Export_Grp";
	rename -uid "B712A31F-4D7F-79FD-E0CF-668D7961B40D";
createNode transform -n "CntLidRigTmp_L_Loc" -p "LidRigTmpLoc_L_Grp";
	rename -uid "7248A510-44C2-86DD-4C2C-D886CBDF3A07";
	setAttr ".t" -type "double3" 4.6876025199890137 116.5097122192383 0.12009042501449585 ;
createNode locator -n "CntLidRigTmp_L_LocShape" -p "CntLidRigTmp_L_Loc";
	rename -uid "18D0D467-423D-6F76-8540-94A387EBA78C";
	setAttr -k off ".v";
createNode transform -n "UpLidRigTmp_L_Loc" -p "LidRigTmpLoc_L_Grp";
	rename -uid "8A245AE3-4326-69C2-E2D3-0CBF0DDFA5BA";
	setAttr ".t" -type "double3" 5.4636478424072266 118.18058013916016 2.5457413196563721 ;
	setAttr ".r" -type "double3" 0 10 0 ;
createNode locator -n "UpLidRigTmp_L_LocShape" -p "UpLidRigTmp_L_Loc";
	rename -uid "E67FB17A-44A7-2BE4-2015-FF88B51740CB";
	setAttr -k off ".v";
createNode transform -n "LowLidRigTmp_L_Loc" -p "LidRigTmpLoc_L_Grp";
	rename -uid "B530316B-41D0-4BDC-2F81-5AAE3B122AE4";
	setAttr ".t" -type "double3" 5.6656284332275391 114.6336669921875 2.2654635906219482 ;
	setAttr ".r" -type "double3" 0 10 0 ;
createNode locator -n "LowLidRigTmp_L_LocShape" -p "LowLidRigTmp_L_Loc";
	rename -uid "B3F73C75-49EA-CEAE-1416-7D8B2BEE3EB5";
	setAttr -k off ".v";
createNode transform -n "CtrlOriLidRigTmp_L_Loc" -p "LidRigTmpLoc_L_Grp";
	rename -uid "871F8AE0-48AC-578A-7D07-D38309E23791";
	setAttr ".t" -type "double3" 5.4636478424072266 118.18058013916016 2.5457413196563721 ;
	setAttr ".r" -type "double3" 0 10 0 ;
createNode locator -n "CtrlOriLidRigTmp_L_LocShape" -p "CtrlOriLidRigTmp_L_Loc";
	rename -uid "4889835B-47A3-A48D-DB61-F098E02D1C51";
	setAttr -k off ".v";
createNode transform -n "SktCtrlOriLidRigTmp_L_Loc" -p "LidRigTmpLoc_L_Grp";
	rename -uid "B328EC47-4D12-3A92-19BB-A9AB9ECDF0C3";
	setAttr ".t" -type "double3" 5.4636478424072266 118.18058013916016 2.5457413196563721 ;
	setAttr ".r" -type "double3" 0 10 0 ;
createNode locator -n "SktCtrlOriLidRigTmp_L_LocShape" -p "SktCtrlOriLidRigTmp_L_Loc";
	rename -uid "612C8B70-4167-0AE7-EE29-138C766B9BB7";
	setAttr -k off ".v";
createNode transform -n "CtrlPosLidRigTmp_L_Crv" -p "LidRigTmpLoc_L_Grp";
	rename -uid "E2CDACC6-4FAB-AC24-0758-D29D5E4D3B39";
createNode nurbsCurve -n "CtrlPosLidRigTmp_L_CrvShape" -p "CtrlPosLidRigTmp_L_Crv";
	rename -uid "606B8B83-48BC-F6FF-ED4E-349F3C9941BC";
	setAttr -k off ".v";
	setAttr ".cc" -type "nurbsCurve" 
		1 12 0 no 3
		13 0 1 2 3 4 5 6 7 8 9 10 11 12
		13
		2.5063545703887939 115.7637176513672 2.0387239456176758
		2.7364051342010498 116.86866760253908 2.4481716156005859
		4.0165410041809082 118.06622314453125 2.6225001811981201
		5.4636478424072266 118.18058013916016 2.5457413196563721
		6.7442150115966797 117.75068664550783 1.986964225769043
		7.4038052558898926 117.09414672851564 1.2409725189208984
		7.6274566650390625 116.43965911865236 0.64989137649536133
		7.4493622779846191 115.61726379394533 0.92492294311523438
		6.7563128471374512 114.93685913085939 1.6224210262298584
		5.6656284332275391 114.6336669921875 2.2654635906219482
		4.2650542259216309 114.71856689453125 2.4806497097015381
		3.091726541519165 115.04804992675783 2.1771411895751953
		2.5063545703887939 115.7637176513672 2.0387239456176758
		;
	setAttr ".dcv" yes;
createNode transform -n "SktCtrlPosLidRigTmp_L_Crv" -p "LidRigTmpLoc_L_Grp";
	rename -uid "4AB26AAC-42DD-ACF1-882B-F286B1FA5F63";
createNode nurbsCurve -n "SktCtrlPosLidRigTmp_L_CrvShape" -p "SktCtrlPosLidRigTmp_L_Crv";
	rename -uid "FD21C28D-4264-3987-2ABE-E5B321DF6C73";
	setAttr -k off ".v";
	setAttr ".cc" -type "nurbsCurve" 
		1 8 0 no 3
		9 0 1 2 3 4 5 6 7 8
		9
		2.2318432331085205 115.77349853515626 2.4073591232299805
		2.8908135890960693 118.14704895019533 2.6660318374633789
		5.4621438980102539 118.92474365234375 2.322105884552002
		7.3927426338195801 118.03440093994141 1.1499245166778564
		7.8759369850158691 116.47177124023439 0.37666034698486328
		7.3701457977294922 114.85906219482422 1.1427562236785889
		5.7670426368713379 114.20980834960937 2.4511265754699707
		3.6415610313415527 114.61702728271486 2.7936990261077881
		2.2318432331085205 115.77349853515626 2.4073591232299805
		;
	setAttr ".dcv" yes;
createNode transform -n "SktLidRigTmp_L_Crv" -p "LidRigTmpLoc_L_Grp";
	rename -uid "6CDFD928-4061-C7AA-7AD2-79A1190C22B1";
createNode nurbsCurve -n "SktLidRigTmp_L_CrvShape" -p "SktLidRigTmp_L_Crv";
	rename -uid "99733487-494F-9680-BC00-3CBD47091998";
	setAttr -k off ".v";
	setAttr ".cc" -type "nurbsCurve" 
		3 8 2 no 3
		13 -2 -1 0 1 2 3 4 5 6 7 8 9 10
		11
		1.7398761166439196 115.60520511275401 2.1981516731845314
		2.7282349045508223 118.64445099915656 2.8021460579322781
		5.4795513040593775 119.25953529657399 2.4664550351456391
		7.659177562637649 118.24208485680786 1.2874488845407088
		8.1541115774391155 116.35163916703563 -0.17306851966399639
		7.3185601731691508 114.45512013848997 1.4238649462541431
		5.7546545493811001 114.04898129552224 2.6306970781631236
		3.5878489499036625 114.45880463676711 2.9428604922338693
		1.7398761166439196 115.60520511275401 2.1981516731845314
		2.7282349045508223 118.64445099915656 2.8021460579322781
		5.4795513040593775 119.25953529657399 2.4664550351456391
		;
	setAttr ".dcv" yes;
createNode transform -n "UpLidRigTmp_L_Crv" -p "LidRigTmpLoc_L_Grp";
	rename -uid "8D26BFD1-473E-EC92-EB9E-F8A31FC38D3A";
createNode nurbsCurve -n "UpLidRigTmp_L_CrvShape" -p "UpLidRigTmp_L_Crv";
	rename -uid "B47611D6-41AA-9CD5-1C7B-D199165D432A";
	setAttr -k off ".v";
	setAttr ".cc" -type "nurbsCurve" 
		1 12 0 no 3
		13 0 1 2 3 4 5 6 7 8 9 10 11 12
		13
		2.5063545703887939 115.76371002197266 2.0387232303619385
		2.549685001373291 116.13645935058594 2.1766440868377686
		2.7364051342010498 116.86865997314453 2.4481713771820068
		3.2722532749176025 117.56749725341797 2.6061680316925049
		4.0165410041809082 118.06622314453125 2.6225001811981201
		4.7127532958984375 118.21853637695312 2.6427032947540283
		5.4636478424072266 118.18058013916016 2.5457413196563721
		6.160395622253418 118.02687072753906 2.3292973041534424
		6.7442150115966797 117.75068664550781 1.9869635105133057
		7.1738848686218262 117.40451812744141 1.595242977142334
		7.4038052558898926 117.09414672851562 1.240972638130188
		7.6005573272705078 116.65127563476562 0.82916480302810669
		7.6274566650390625 116.43965911865234 0.64989137649536133
		;
	setAttr ".dcv" yes;
createNode transform -n "LowLidRigTmp_L_Crv" -p "LidRigTmpLoc_L_Grp";
	rename -uid "82AB7AFB-4760-8EAB-F162-229CEB3E578B";
createNode nurbsCurve -n "LowLidRigTmp_L_CrvShape" -p "LowLidRigTmp_L_Crv";
	rename -uid "0EA5E073-445D-817F-1670-73B9AB884287";
	setAttr -k off ".v";
	setAttr ".cc" -type "nurbsCurve" 
		1 12 0 no 3
		13 0 1 2 3 4 5 6 7 8 9 10 11 12
		13
		7.6274566650390625 116.43965911865234 0.64989137649536133
		7.6075129508972168 116.15836334228516 0.5994422435760498
		7.4493627548217773 115.61725616455078 0.92492294311523438
		7.170046329498291 115.23258209228516 1.2338011264801025
		6.7563128471374512 114.93685913085937 1.6224210262298584
		6.2586736679077148 114.72632598876953 1.9715240001678467
		5.6656284332275391 114.6336669921875 2.2654635906219482
		4.9716315269470215 114.61112976074219 2.442579984664917
		4.2650542259216309 114.71856689453125 2.4806497097015381
		3.6467626094818115 114.85670471191406 2.3792417049407959
		3.091726541519165 115.04804229736328 2.177140474319458
		2.6367678642272949 115.41725158691406 2.010258674621582
		2.5063545703887939 115.76371002197266 2.0387232303619385
		;
	setAttr ".dcv" yes;
createNode transform -n "Up75LidRigTmp_L_Crv" -p "LidRigTmpLoc_L_Grp";
	rename -uid "16937725-4037-DFEE-BC97-5CB54FC8561E";
createNode nurbsCurve -n "Up75LidRigTmp_L_CrvShape" -p "Up75LidRigTmp_L_Crv";
	rename -uid "1DDA11A4-4066-2509-2329-AD8606CFF9C6";
	setAttr -k off ".v";
	setAttr ".cc" -type "nurbsCurve" 
		1 12 0 no 3
		13 0 1 2 3 4 5 6 7 8 9 10 11 12
		13
		2.4661896228790283 115.76541137695312 2.1316993236541748
		2.5141000747680664 116.14308929443359 2.2621965408325195
		2.6735625267028809 116.89863586425781 2.4871630668640137
		3.2092843055725098 117.66239929199219 2.634260892868042
		3.9669606685638428 118.18011474609375 2.6531407833099365
		4.6838936805725098 118.34587097167969 2.6399002075195312
		5.4628958702087402 118.30574798583984 2.5278518199920654
		6.1873793601989746 118.14319610595703 2.2977979183197021
		6.7826371192932129 117.86495971679687 1.9612014293670654
		7.2324180603027344 117.50827026367187 1.5672935247421265
		7.4699654579162598 117.14958953857422 1.2016828060150146
		7.6527166366577148 116.67298889160156 0.80294734239578247
		7.6767220497131348 116.43583679199219 0.63636398315429688
		;
	setAttr ".dcv" yes;
createNode transform -n "Low75LidRigTmp_L_Crv" -p "LidRigTmpLoc_L_Grp";
	rename -uid "968D6032-4953-F80F-D2D3-E6BF6EDA6EE5";
createNode nurbsCurve -n "Low75LidRigTmp_L_CrvShape" -p "Low75LidRigTmp_L_Crv";
	rename -uid "F811954D-4AAD-B6F3-EDAB-E489540AC52D";
	setAttr -k off ".v";
	setAttr ".cc" -type "nurbsCurve" 
		1 12 0 no 3
		13 0 1 2 3 4 5 6 7 8 9 10 11 12
		13
		7.6767220497131348 116.43583679199219 0.63636398315429688
		7.654475212097168 116.13789367675781 0.60867166519165039
		7.4769167900085449 115.56513214111328 0.92443299293518066
		7.211918830871582 115.17729949951172 1.2600886821746826
		6.7952365875244141 114.86795043945312 1.6631108522415161
		6.2857227325439453 114.65110778808594 2.0268867015838623
		5.6842374801635742 114.56362915039062 2.3468716144561768
		4.9855990409851074 114.5582275390625 2.5422186851501465
		4.2889876365661621 114.68036651611328 2.5765702724456787
		3.6643590927124023 114.82883453369141 2.5148937702178955
		3.0837559700012207 115.03056335449219 2.3016269207000732
		2.6115889549255371 115.40886688232422 2.1166236400604248
		2.4661896228790283 115.76541137695312 2.1316993236541748
		;
	setAttr ".dcv" yes;
createNode transform -n "Up50LidRigTmp_L_Crv" -p "LidRigTmpLoc_L_Grp";
	rename -uid "292F3170-4D1F-F667-3B0A-9EAFDF3E5B99";
createNode nurbsCurve -n "Up50LidRigTmp_L_CrvShape" -p "Up50LidRigTmp_L_Crv";
	rename -uid "1B35D50D-43D0-BF11-A381-1A931A6B80F5";
	setAttr -k off ".v";
	setAttr ".cc" -type "nurbsCurve" 
		1 12 0 no 3
		13 0 1 2 3 4 5 6 7 8 9 10 11 12
		13
		2.4157431125640869 115.77140045166016 2.21976637840271
		2.4323501586914062 116.17648315429687 2.3438982963562012
		2.5397639274597168 116.97227478027344 2.5433566570281982
		3.0890514850616455 117.84325408935547 2.6306788921356201
		3.8776676654815674 118.38777160644531 2.6454536914825439
		4.6192502975463867 118.57813262939453 2.5667679309844971
		5.4477767944335938 118.53139495849609 2.4238784313201904
		6.2193312644958496 118.345947265625 2.1690573692321777
		6.8232779502868652 118.07170104980469 1.8418707847595215
		7.2969026565551758 117.70505523681641 1.4446642398834229
		7.577423095703125 117.26813507080078 1.0763967037200928
		7.7375869750976563 116.73078155517578 0.70153236389160156
		7.756828784942627 116.4420166015625 0.55765020847320557
		;
	setAttr ".dcv" yes;
createNode transform -n "Low50LidRigTmp_L_Crv" -p "LidRigTmpLoc_L_Grp";
	rename -uid "8E83B59C-4B47-23A7-5E4B-F2A1D2E2E6AB";
createNode nurbsCurve -n "Low50LidRigTmp_L_CrvShape" -p "Low50LidRigTmp_L_Crv";
	rename -uid "061CECBC-4E72-0AC6-8FAD-06931C413A55";
	setAttr -k off ".v";
	setAttr ".cc" -type "nurbsCurve" 
		1 12 0 no 3
		13 0 1 2 3 4 5 6 7 8 9 10 11 12
		13
		7.756828784942627 116.4420166015625 0.55765020847320557
		7.7400741577148437 116.09912109375 0.57117599248886108
		7.5417852401733398 115.47552490234375 0.88354027271270752
		7.2736954689025879 115.06204986572266 1.2543470859527588
		6.8484611511230469 114.74180603027344 1.6751759052276611
		6.3392724990844727 114.52944183349609 2.0750088691711426
		5.7144498825073242 114.43826293945312 2.409862756729126
		5.006962776184082 114.45240020751953 2.6195962429046631
		4.3153805732727051 114.59717559814453 2.6843395233154297
		3.6799898147583008 114.77729797363281 2.6469900608062744
		3.063746452331543 115.006591796875 2.4458470344543457
		2.5819203853607178 115.39399719238281 2.2202990055084229
		2.4157431125640869 115.77140045166016 2.21976637840271
		;
	setAttr ".dcv" yes;
createNode transform -n "Up25LidRigTmp_L_Crv" -p "LidRigTmpLoc_L_Grp";
	rename -uid "A690AD14-4198-E9DA-8177-7EB10568CC79";
createNode nurbsCurve -n "Up25LidRigTmp_L_CrvShape" -p "Up25LidRigTmp_L_Crv";
	rename -uid "88E796B0-4C59-DA1F-53FD-329924882160";
	setAttr -k off ".v";
	setAttr ".cc" -type "nurbsCurve" 
		1 12 0 no 3
		13 0 1 2 3 4 5 6 7 8 9 10 11 12
		13
		2.3360750675201416 115.7760009765625 2.3200242519378662
		2.3437650203704834 116.22264862060547 2.416914701461792
		2.4114925861358643 117.05329132080078 2.6014804840087891
		2.9720125198364258 118.02216339111328 2.6274435520172119
		3.7923941612243652 118.59156799316406 2.5982086658477783
		4.5658073425292969 118.80857086181641 2.5012996196746826
		5.4443626403808594 118.76047515869141 2.327754020690918
		6.2505745887756348 118.55023956298828 2.0309808254241943
		6.8616790771484375 118.27701568603516 1.6967658996582031
		7.3450818061828613 117.89933013916016 1.2828018665313721
		7.6600055694580078 117.40501403808594 0.89643490314483643
		7.8101005554199219 116.79850769042969 0.5806775689125061
		7.8229641914367676 116.45734405517578 0.45399147272109985
		;
	setAttr ".dcv" yes;
createNode transform -n "Low25LidRigTmp_L_Crv" -p "LidRigTmpLoc_L_Grp";
	rename -uid "790D129B-4667-218B-F376-69A9929B20F6";
createNode nurbsCurve -n "Low25LidRigTmp_L_CrvShape" -p "Low25LidRigTmp_L_Crv";
	rename -uid "AD9CAA3F-4D91-C1A7-1F75-24A8979C4267";
	setAttr -k off ".v";
	setAttr ".cc" -type "nurbsCurve" 
		1 12 0 no 3
		13 0 1 2 3 4 5 6 7 8 9 10 11 12
		13
		7.8229641914367676 116.45734405517578 0.45399147272109985
		7.8166637420654297 116.06137847900391 0.5030742883682251
		7.6166281700134277 115.39784240722656 0.82063758373260498
		7.3289065361022949 114.94282531738281 1.2160661220550537
		6.8963685035705566 114.61484527587891 1.6495124101638794
		6.3826184272766113 114.39688110351562 2.0709159374237061
		5.7441644668579102 114.31085205078125 2.4480602741241455
		5.0256977081298828 114.33023071289062 2.6672024726867676
		4.3254008293151855 114.50283050537109 2.7594146728515625
		3.6707222461700439 114.68852233886719 2.7488634586334229
		3.0298683643341064 114.94905853271484 2.553673267364502
		2.5253355503082275 115.36132049560547 2.3325455188751221
		2.3360750675201416 115.7760009765625 2.3200242519378662
		;
	setAttr ".dcv" yes;
createNode transform -n "LowSktLidRigTmp_L_Crv" -p "LidRigTmpLoc_L_Grp";
	rename -uid "C00F4F2A-4688-46CC-3085-4BB08B06ACC0";
createNode nurbsCurve -n "LowSktLidRigTmp_L_CrvShape" -p "LowSktLidRigTmp_L_Crv";
	rename -uid "81930258-4C17-A75E-39C6-B1822AA4F9A4";
	setAttr -k off ".v";
	setAttr ".cc" -type "nurbsCurve" 
		1 12 0 no 3
		13 0 1 2 3 4 5 6 7 8 9 10 11 12
		13
		7.8759374618530273 116.47177124023437 0.3766600489616394
		7.8716816902160645 116.03136444091797 0.44708251953125
		7.6862077713012695 115.34302520751953 0.73612368106842041
		7.3701457977294922 114.85906219482422 1.1427562236785889
		6.9403262138366699 114.51912689208984 1.6014041900634766
		6.4206762313842773 114.30176544189453 2.0544650554656982
		5.7670426368713379 114.20980834960937 2.4511265754699707
		5.0374574661254883 114.22939300537109 2.6834127902984619
		4.3233251571655273 114.41114807128906 2.7944982051849365
		3.6415610313415527 114.61702728271484 2.7936990261077881
		2.9853606224060059 114.8961181640625 2.6205456256866455
		2.4552247524261475 115.32309722900391 2.4142472743988037
		2.2318432331085205 115.77349090576172 2.4073588848114014
		;
	setAttr ".dcv" yes;
createNode transform -n "UpSktLidRigTmp_L_Crv" -p "LidRigTmpLoc_L_Grp";
	rename -uid "56F1AEDF-411B-CF86-8844-6BB686B029AA";
createNode nurbsCurve -n "UpSktLidRigTmp_L_CrvShape" -p "UpSktLidRigTmp_L_Crv";
	rename -uid "9E76893B-425E-B5E7-D2A7-9689E7C34A9E";
	setAttr -k off ".v";
	setAttr ".cc" -type "nurbsCurve" 
		1 12 0 no 3
		13 0 1 2 3 4 5 6 7 8 9 10 11 12
		13
		2.2318432331085205 115.77349090576172 2.4073588848114014
		2.224268913269043 116.27462768554687 2.4943373203277588
		2.3195948600769043 117.12010192871094 2.6692733764648437
		2.8908135890960693 118.14704132080078 2.6660313606262207
		3.7357842922210693 118.73007202148437 2.6041755676269531
		4.5469107627868652 118.95235443115234 2.5138998031616211
		5.4621438980102539 118.92474365234375 2.322105884552002
		6.2893280982971191 118.72478485107422 1.9649217128753662
		6.9091343879699707 118.42831420898437 1.5918307304382324
		7.3927426338195801 118.03440093994141 1.1499245166778564
		7.7200121879577637 117.50718688964844 0.74619823694229126
		7.8522491455078125 116.86048126220703 0.48306953907012939
		7.8759374618530273 116.47177124023437 0.3766600489616394
		;
	setAttr ".dcv" yes;
createNode transform -n "LidRigTmp_L_Crv" -p "LidRigTmpLoc_L_Grp";
	rename -uid "C961AD5D-4C98-6D0F-963A-45ADA86AD065";
createNode nurbsCurve -n "LidRigTmp_L_CrvShape" -p "LidRigTmp_L_Crv";
	rename -uid "58DDB657-4865-8F4F-0E7D-F3A398215273";
	setAttr -k off ".v";
	setAttr ".cc" -type "nurbsCurve" 
		3 12 2 no 3
		17 -2 -1 0 1 2 3 4 5 6 7 8 9 10 11 12 13 14
		15
		2.3058920139311425 115.76371002197267 1.8517914123756167
		2.7334188084731674 117.03553697249664 2.5970552095745894
		3.8652976352872206 118.17912944264634 2.6448165725072457
		5.5124484484583434 118.33397961065452 2.6380440257947093
		6.7894619173254194 117.8163575010565 2.0695507832010156
		7.4981814995649589 117.15870642969595 1.2937441698995529
		7.7327255819560854 116.43080649124768 0.38598802876944172
		7.4493618011474592 115.51350846624219 0.92492294311523438
		6.8337228383218909 114.82734204688488 1.5536180492801188
		5.769127348010592 114.54970126920283 2.2855706715234425
		4.238146093906745 114.68274639613362 2.5611358897041612
		3.0820732183016437 114.96442189346607 2.2215695044814314
		2.3058920139311425 115.76371002197267 1.8517914123756167
		2.7334188084731674 117.03553697249664 2.5970552095745894
		3.8652976352872206 118.17912944264634 2.6448165725072457
		;
	setAttr ".dcv" yes;
createNode transform -n "CntLidRigTmp_R_Loc" -p "LidRigTmpLoc_L_Grp";
	rename -uid "E725563F-439A-7B64-28D8-6A96337A03DB";
	setAttr ".t" -type "double3" -4.687603 116.5097122192383 0.12009042501449585 ;
createNode locator -n "CntLidRigTmp_R_LocShape" -p "CntLidRigTmp_R_Loc";
	rename -uid "934F5B23-43D6-86B0-BE75-88BDD3CAD802";
	setAttr -k off ".v";
createNode transform -n "UpLidRigTmp_R_Loc" -p "LidRigTmpLoc_L_Grp";
	rename -uid "AE5CB2E8-4B4A-11C2-C8A0-8DABC36F3AD1";
	setAttr ".t" -type "double3" -5.463648 118.18058013916016 2.5457413196563721 ;
	setAttr ".r" -type "double3" 0 -10 0 ;
createNode locator -n "UpLidRigTmp_R_LocShape" -p "UpLidRigTmp_R_Loc";
	rename -uid "608576A2-4F31-96BA-818C-83A14D95AA56";
	setAttr -k off ".v";
createNode transform -n "LowLidRigTmp_R_Loc" -p "LidRigTmpLoc_L_Grp";
	rename -uid "FF4ABBC5-4EBC-29D2-B84B-92BC0E8D4BA9";
	setAttr ".t" -type "double3" -5.665628 114.6336669921875 2.2654635906219482 ;
	setAttr ".r" -type "double3" 0 -10 0 ;
createNode locator -n "LowLidRigTmp_R_LocShape" -p "LowLidRigTmp_R_Loc";
	rename -uid "B0F0A858-4709-2081-FDA6-99B06464B8EE";
	setAttr -k off ".v";
createNode transform -n "CtrlOriLidRigTmp_R_Loc" -p "LidRigTmpLoc_L_Grp";
	rename -uid "7C4F18E8-4E43-E391-9955-3DAB8ED48CAC";
	setAttr ".t" -type "double3" -5.463648 118.18058013916016 2.5457413196563721 ;
	setAttr ".r" -type "double3" 0 -10 0 ;
createNode locator -n "CtrlOriLidRigTmp_R_LocShape" -p "CtrlOriLidRigTmp_R_Loc";
	rename -uid "EE3E412E-48B3-5FF1-F7DC-3DBC0B0EADEC";
	setAttr -k off ".v";
createNode transform -n "SktCtrlOriLidRigTmp_R_Loc" -p "LidRigTmpLoc_L_Grp";
	rename -uid "0D2FF526-450A-3746-EFC0-7399DE3E4205";
	setAttr ".t" -type "double3" -5.463648 118.18058013916016 2.5457413196563721 ;
	setAttr ".r" -type "double3" 0 -10 0 ;
createNode locator -n "SktCtrlOriLidRigTmp_R_LocShape" -p "SktCtrlOriLidRigTmp_R_Loc";
	rename -uid "246A6347-46F6-E7E3-9850-71B461E32601";
	setAttr -k off ".v";
createNode transform -n "CtrlPosLidRigTmp_R_Crv" -p "LidRigTmpLoc_L_Grp";
	rename -uid "F66CA7B9-40DF-199B-D8CD-ECB558895626";
createNode nurbsCurve -n "CtrlPosLidRigTmp_R_CrvShape" -p "CtrlPosLidRigTmp_R_Crv";
	rename -uid "547F5D2C-4188-D759-0039-00BC85262E74";
	setAttr -k off ".v";
	setAttr ".cc" -type "nurbsCurve" 
		1 12 0 no 3
		13 0 1 2 3 4 5 6 7 8 9 10 11 12
		13
		-2.5063545703887939 115.7637176513672 2.0387239456176758
		-2.7364051342010498 116.86866760253908 2.4481716156005859
		-4.0165410041809082 118.06622314453125 2.6225001811981201
		-5.4636478424072266 118.18058013916016 2.5457413196563721
		-6.7442150115966797 117.75068664550783 1.986964225769043
		-7.4038052558898926 117.09414672851564 1.2409725189208984
		-7.6274566650390625 116.43965911865236 0.64989137649536133
		-7.4493622779846191 115.61726379394533 0.92492294311523438
		-6.7563128471374512 114.93685913085939 1.6224210262298584
		-5.6656284332275391 114.6336669921875 2.2654635906219482
		-4.2650542259216309 114.71856689453125 2.4806497097015381
		-3.091726541519165 115.04804992675783 2.1771411895751953
		-2.5063545703887939 115.7637176513672 2.0387239456176758
		;
	setAttr ".dcv" yes;
createNode transform -n "SktCtrlPosLidRigTmp_R_Crv" -p "LidRigTmpLoc_L_Grp";
	rename -uid "22B66CF5-4FF8-764C-E576-358A673F47C3";
createNode nurbsCurve -n "SktCtrlPosLidRigTmp_R_CrvShape" -p "SktCtrlPosLidRigTmp_R_Crv";
	rename -uid "7BDE4FBB-4259-C2FC-70E5-AFADB347D574";
	setAttr -k off ".v";
	setAttr ".cc" -type "nurbsCurve" 
		1 8 0 no 3
		9 0 1 2 3 4 5 6 7 8
		9
		-2.2318432331085205 115.77349853515626 2.4073591232299805
		-2.8908135890960693 118.14704895019533 2.6660318374633789
		-5.4621438980102539 118.92474365234375 2.322105884552002
		-7.3927426338195801 118.03440093994141 1.1499245166778564
		-7.8759369850158691 116.47177124023439 0.37666034698486328
		-7.3701457977294922 114.85906219482422 1.1427562236785889
		-5.7670426368713379 114.20980834960937 2.4511265754699707
		-3.6415610313415527 114.61702728271486 2.7936990261077881
		-2.2318432331085205 115.77349853515626 2.4073591232299805
		;
	setAttr ".dcv" yes;
createNode transform -n "SktLidRigTmp_R_Crv" -p "LidRigTmpLoc_L_Grp";
	rename -uid "60D98BF4-4FB8-961C-3825-4E89CA5175DA";
createNode nurbsCurve -n "SktLidRigTmp_R_CrvShape" -p "SktLidRigTmp_R_Crv";
	rename -uid "DF4DE8BF-43BF-8FCF-8410-C39929AE5D2A";
	setAttr -k off ".v";
	setAttr ".cc" -type "nurbsCurve" 
		3 8 2 no 3
		13 -2 -1 0 1 2 3 4 5 6 7 8 9 10
		11
		-1.7398761166439196 115.60520511275401 2.1981516731845314
		-2.7282349045508223 118.64445099915656 2.8021460579322781
		-5.4795513040593775 119.25953529657399 2.4664550351456391
		-7.659177562637649 118.24208485680786 1.2874488845407088
		-8.1541115774391155 116.35163916703563 -0.17306851966399639
		-7.3185601731691508 114.45512013848997 1.4238649462541431
		-5.7546545493811001 114.04898129552224 2.6306970781631236
		-3.5878489499036625 114.45880463676711 2.9428604922338693
		-1.7398761166439196 115.60520511275401 2.1981516731845314
		-2.7282349045508223 118.64445099915656 2.8021460579322781
		-5.4795513040593775 119.25953529657399 2.4664550351456391
		;
	setAttr ".dcv" yes;
createNode transform -n "UpLidRigTmp_R_Crv" -p "LidRigTmpLoc_L_Grp";
	rename -uid "3C1B8E1D-46F2-39DA-BB81-3889F4CA3951";
createNode nurbsCurve -n "UpLidRigTmp_R_CrvShape" -p "UpLidRigTmp_R_Crv";
	rename -uid "91686938-469C-C8E8-D938-A2AA1D6B9B23";
	setAttr -k off ".v";
	setAttr ".cc" -type "nurbsCurve" 
		1 12 0 no 3
		13 0 1 2 3 4 5 6 7 8 9 10 11 12
		13
		-2.5063545703887939 115.76371002197266 2.0387232303619385
		-2.549685001373291 116.13645935058594 2.1766440868377686
		-2.7364051342010498 116.86865997314453 2.4481713771820068
		-3.2722532749176025 117.56749725341797 2.6061680316925049
		-4.0165410041809082 118.06622314453125 2.6225001811981201
		-4.7127532958984375 118.21853637695312 2.6427032947540283
		-5.4636478424072266 118.18058013916016 2.5457413196563721
		-6.160395622253418 118.02687072753906 2.3292973041534424
		-6.7442150115966797 117.75068664550781 1.9869635105133057
		-7.1738848686218262 117.40451812744141 1.595242977142334
		-7.4038052558898926 117.09414672851562 1.240972638130188
		-7.6005573272705078 116.65127563476562 0.82916480302810669
		-7.6274566650390625 116.43965911865234 0.64989137649536133
		;
	setAttr ".dcv" yes;
createNode transform -n "LowLidRigTmp_R_Crv" -p "LidRigTmpLoc_L_Grp";
	rename -uid "5582150C-4FEE-1682-D751-0387D6901A50";
createNode nurbsCurve -n "LowLidRigTmp_R_CrvShape" -p "LowLidRigTmp_R_Crv";
	rename -uid "BEFB55CD-446E-35CC-8AE8-3DB56928A298";
	setAttr -k off ".v";
	setAttr ".cc" -type "nurbsCurve" 
		1 12 0 no 3
		13 0 1 2 3 4 5 6 7 8 9 10 11 12
		13
		-7.6274566650390625 116.43965911865234 0.64989137649536133
		-7.6075129508972168 116.15836334228516 0.5994422435760498
		-7.4493627548217773 115.61725616455078 0.92492294311523438
		-7.170046329498291 115.23258209228516 1.2338011264801025
		-6.7563128471374512 114.93685913085937 1.6224210262298584
		-6.2586736679077148 114.72632598876953 1.9715240001678467
		-5.6656284332275391 114.6336669921875 2.2654635906219482
		-4.9716315269470215 114.61112976074219 2.442579984664917
		-4.2650542259216309 114.71856689453125 2.4806497097015381
		-3.6467626094818115 114.85670471191406 2.3792417049407959
		-3.091726541519165 115.04804229736328 2.177140474319458
		-2.6367678642272949 115.41725158691406 2.010258674621582
		-2.5063545703887939 115.76371002197266 2.0387232303619385
		;
	setAttr ".dcv" yes;
createNode transform -n "Up75LidRigTmp_R_Crv" -p "LidRigTmpLoc_L_Grp";
	rename -uid "D9C16235-448A-A494-37B1-C58A99A949BA";
createNode nurbsCurve -n "Up75LidRigTmp_R_CrvShape" -p "Up75LidRigTmp_R_Crv";
	rename -uid "7637FC2D-4C4B-E0C8-ADF6-F292D779218C";
	setAttr -k off ".v";
	setAttr ".cc" -type "nurbsCurve" 
		1 12 0 no 3
		13 0 1 2 3 4 5 6 7 8 9 10 11 12
		13
		-2.4661896228790283 115.76541137695312 2.1316993236541748
		-2.5141000747680664 116.14308929443359 2.2621965408325195
		-2.6735625267028809 116.89863586425781 2.4871630668640137
		-3.2092843055725098 117.66239929199219 2.634260892868042
		-3.9669606685638428 118.18011474609375 2.6531407833099365
		-4.6838936805725098 118.34587097167969 2.6399002075195312
		-5.4628958702087402 118.30574798583984 2.5278518199920654
		-6.1873793601989746 118.14319610595703 2.2977979183197021
		-6.7826371192932129 117.86495971679687 1.9612014293670654
		-7.2324180603027344 117.50827026367187 1.5672935247421265
		-7.4699654579162598 117.14958953857422 1.2016828060150146
		-7.6527166366577148 116.67298889160156 0.80294734239578247
		-7.6767220497131348 116.43583679199219 0.63636398315429688
		;
	setAttr ".dcv" yes;
createNode transform -n "Low75LidRigTmp_R_Crv" -p "LidRigTmpLoc_L_Grp";
	rename -uid "DBCBD7EC-415C-24EE-0861-82BD49B756A0";
createNode nurbsCurve -n "Low75LidRigTmp_R_CrvShape" -p "Low75LidRigTmp_R_Crv";
	rename -uid "B887F1AF-49C7-644B-E103-468055A941D2";
	setAttr -k off ".v";
	setAttr ".cc" -type "nurbsCurve" 
		1 12 0 no 3
		13 0 1 2 3 4 5 6 7 8 9 10 11 12
		13
		-7.6767220497131348 116.43583679199219 0.63636398315429688
		-7.654475212097168 116.13789367675781 0.60867166519165039
		-7.4769167900085449 115.56513214111328 0.92443299293518066
		-7.211918830871582 115.17729949951172 1.2600886821746826
		-6.7952365875244141 114.86795043945312 1.6631108522415161
		-6.2857227325439453 114.65110778808594 2.0268867015838623
		-5.6842374801635742 114.56362915039062 2.3468716144561768
		-4.9855990409851074 114.5582275390625 2.5422186851501465
		-4.2889876365661621 114.68036651611328 2.5765702724456787
		-3.6643590927124023 114.82883453369141 2.5148937702178955
		-3.0837559700012207 115.03056335449219 2.3016269207000732
		-2.6115889549255371 115.40886688232422 2.1166236400604248
		-2.4661896228790283 115.76541137695312 2.1316993236541748
		;
	setAttr ".dcv" yes;
createNode transform -n "Up50LidRigTmp_R_Crv" -p "LidRigTmpLoc_L_Grp";
	rename -uid "70061A1A-443E-8791-E69E-1F8C492BE78B";
createNode nurbsCurve -n "Up50LidRigTmp_R_CrvShape" -p "Up50LidRigTmp_R_Crv";
	rename -uid "7622E577-437B-35AB-2B67-D4B294C84CDC";
	setAttr -k off ".v";
	setAttr ".cc" -type "nurbsCurve" 
		1 12 0 no 3
		13 0 1 2 3 4 5 6 7 8 9 10 11 12
		13
		-2.4157431125640869 115.77140045166016 2.21976637840271
		-2.4323501586914062 116.17648315429687 2.3438982963562012
		-2.5397639274597168 116.97227478027344 2.5433566570281982
		-3.0890514850616455 117.84325408935547 2.6306788921356201
		-3.8776676654815674 118.38777160644531 2.6454536914825439
		-4.6192502975463867 118.57813262939453 2.5667679309844971
		-5.4477767944335938 118.53139495849609 2.4238784313201904
		-6.2193312644958496 118.345947265625 2.1690573692321777
		-6.8232779502868652 118.07170104980469 1.8418707847595215
		-7.2969026565551758 117.70505523681641 1.4446642398834229
		-7.577423095703125 117.26813507080078 1.0763967037200928
		-7.7375869750976563 116.73078155517578 0.70153236389160156
		-7.756828784942627 116.4420166015625 0.55765020847320557
		;
	setAttr ".dcv" yes;
createNode transform -n "Low50LidRigTmp_R_Crv" -p "LidRigTmpLoc_L_Grp";
	rename -uid "1865F089-4C90-BE90-97FF-32820598D07D";
createNode nurbsCurve -n "Low50LidRigTmp_R_CrvShape" -p "Low50LidRigTmp_R_Crv";
	rename -uid "B74CF27E-43A1-6294-229A-40BC6E2EA15F";
	setAttr -k off ".v";
	setAttr ".cc" -type "nurbsCurve" 
		1 12 0 no 3
		13 0 1 2 3 4 5 6 7 8 9 10 11 12
		13
		-7.756828784942627 116.4420166015625 0.55765020847320557
		-7.7400741577148437 116.09912109375 0.57117599248886108
		-7.5417852401733398 115.47552490234375 0.88354027271270752
		-7.2736954689025879 115.06204986572266 1.2543470859527588
		-6.8484611511230469 114.74180603027344 1.6751759052276611
		-6.3392724990844727 114.52944183349609 2.0750088691711426
		-5.7144498825073242 114.43826293945312 2.409862756729126
		-5.006962776184082 114.45240020751953 2.6195962429046631
		-4.3153805732727051 114.59717559814453 2.6843395233154297
		-3.6799898147583008 114.77729797363281 2.6469900608062744
		-3.063746452331543 115.006591796875 2.4458470344543457
		-2.5819203853607178 115.39399719238281 2.2202990055084229
		-2.4157431125640869 115.77140045166016 2.21976637840271
		;
	setAttr ".dcv" yes;
createNode transform -n "Up25LidRigTmp_R_Crv" -p "LidRigTmpLoc_L_Grp";
	rename -uid "103D4E41-41DA-D3C5-7847-ABAECAE053FC";
createNode nurbsCurve -n "Up25LidRigTmp_R_CrvShape" -p "Up25LidRigTmp_R_Crv";
	rename -uid "4F40879C-4056-2833-0FD9-DE8D6CFB5C93";
	setAttr -k off ".v";
	setAttr ".cc" -type "nurbsCurve" 
		1 12 0 no 3
		13 0 1 2 3 4 5 6 7 8 9 10 11 12
		13
		-2.3360750675201416 115.7760009765625 2.3200242519378662
		-2.3437650203704834 116.22264862060547 2.416914701461792
		-2.4114925861358643 117.05329132080078 2.6014804840087891
		-2.9720125198364258 118.02216339111328 2.6274435520172119
		-3.7923941612243652 118.59156799316406 2.5982086658477783
		-4.5658073425292969 118.80857086181641 2.5012996196746826
		-5.4443626403808594 118.76047515869141 2.327754020690918
		-6.2505745887756348 118.55023956298828 2.0309808254241943
		-6.8616790771484375 118.27701568603516 1.6967658996582031
		-7.3450818061828613 117.89933013916016 1.2828018665313721
		-7.6600055694580078 117.40501403808594 0.89643490314483643
		-7.8101005554199219 116.79850769042969 0.5806775689125061
		-7.8229641914367676 116.45734405517578 0.45399147272109985
		;
	setAttr ".dcv" yes;
createNode transform -n "Low25LidRigTmp_R_Crv" -p "LidRigTmpLoc_L_Grp";
	rename -uid "524B338F-4C29-17A7-75CE-178025147DEE";
createNode nurbsCurve -n "Low25LidRigTmp_R_CrvShape" -p "Low25LidRigTmp_R_Crv";
	rename -uid "CFA80934-4524-B9C5-8C6E-D6BE9C60C649";
	setAttr -k off ".v";
	setAttr ".cc" -type "nurbsCurve" 
		1 12 0 no 3
		13 0 1 2 3 4 5 6 7 8 9 10 11 12
		13
		-7.8229641914367676 116.45734405517578 0.45399147272109985
		-7.8166637420654297 116.06137847900391 0.5030742883682251
		-7.6166281700134277 115.39784240722656 0.82063758373260498
		-7.3289065361022949 114.94282531738281 1.2160661220550537
		-6.8963685035705566 114.61484527587891 1.6495124101638794
		-6.3826184272766113 114.39688110351562 2.0709159374237061
		-5.7441644668579102 114.31085205078125 2.4480602741241455
		-5.0256977081298828 114.33023071289062 2.6672024726867676
		-4.3254008293151855 114.50283050537109 2.7594146728515625
		-3.6707222461700439 114.68852233886719 2.7488634586334229
		-3.0298683643341064 114.94905853271484 2.553673267364502
		-2.5253355503082275 115.36132049560547 2.3325455188751221
		-2.3360750675201416 115.7760009765625 2.3200242519378662
		;
	setAttr ".dcv" yes;
createNode transform -n "LowSktLidRigTmp_R_Crv" -p "LidRigTmpLoc_L_Grp";
	rename -uid "640044D5-4BA8-E413-2762-CFA91D1111E0";
createNode nurbsCurve -n "LowSktLidRigTmp_R_CrvShape" -p "LowSktLidRigTmp_R_Crv";
	rename -uid "237E8D77-4AB0-6E4E-0BB6-E1917F810592";
	setAttr -k off ".v";
	setAttr ".cc" -type "nurbsCurve" 
		1 12 0 no 3
		13 0 1 2 3 4 5 6 7 8 9 10 11 12
		13
		-7.8759374618530273 116.47177124023437 0.3766600489616394
		-7.8716816902160645 116.03136444091797 0.44708251953125
		-7.6862077713012695 115.34302520751953 0.73612368106842041
		-7.3701457977294922 114.85906219482422 1.1427562236785889
		-6.9403262138366699 114.51912689208984 1.6014041900634766
		-6.4206762313842773 114.30176544189453 2.0544650554656982
		-5.7670426368713379 114.20980834960937 2.4511265754699707
		-5.0374574661254883 114.22939300537109 2.6834127902984619
		-4.3233251571655273 114.41114807128906 2.7944982051849365
		-3.6415610313415527 114.61702728271484 2.7936990261077881
		-2.9853606224060059 114.8961181640625 2.6205456256866455
		-2.4552247524261475 115.32309722900391 2.4142472743988037
		-2.2318432331085205 115.77349090576172 2.4073588848114014
		;
	setAttr ".dcv" yes;
createNode transform -n "UpSktLidRigTmp_R_Crv" -p "LidRigTmpLoc_L_Grp";
	rename -uid "5F220822-4287-CB34-F972-499F8606D010";
createNode nurbsCurve -n "UpSktLidRigTmp_R_CrvShape" -p "UpSktLidRigTmp_R_Crv";
	rename -uid "4E3A128B-4D93-A4E0-F017-609F4024E445";
	setAttr -k off ".v";
	setAttr ".cc" -type "nurbsCurve" 
		1 12 0 no 3
		13 0 1 2 3 4 5 6 7 8 9 10 11 12
		13
		-2.2318432331085205 115.77349090576172 2.4073588848114014
		-2.224268913269043 116.27462768554687 2.4943373203277588
		-2.3195948600769043 117.12010192871094 2.6692733764648437
		-2.8908135890960693 118.14704132080078 2.6660313606262207
		-3.7357842922210693 118.73007202148437 2.6041755676269531
		-4.5469107627868652 118.95235443115234 2.5138998031616211
		-5.4621438980102539 118.92474365234375 2.322105884552002
		-6.2893280982971191 118.72478485107422 1.9649217128753662
		-6.9091343879699707 118.42831420898437 1.5918307304382324
		-7.3927426338195801 118.03440093994141 1.1499245166778564
		-7.7200121879577637 117.50718688964844 0.74619823694229126
		-7.8522491455078125 116.86048126220703 0.48306953907012939
		-7.8759374618530273 116.47177124023437 0.3766600489616394
		;
	setAttr ".dcv" yes;
createNode transform -n "LidRigTmp_R_Crv" -p "LidRigTmpLoc_L_Grp";
	rename -uid "72157537-4BCE-3323-1625-BB88AA3480A4";
createNode nurbsCurve -n "LidRigTmp_R_CrvShape" -p "LidRigTmp_R_Crv";
	rename -uid "5F0A8C94-4A56-D4F7-622A-EB882347E150";
	setAttr -k off ".v";
	setAttr ".cc" -type "nurbsCurve" 
		3 12 2 no 3
		17 -2 -1 0 1 2 3 4 5 6 7 8 9 10 11 12 13 14
		15
		-2.3058920139311425 115.76371002197267 1.8517914123756167
		-2.7334188084731674 117.03553697249664 2.5970552095745894
		-3.8652976352872206 118.17912944264634 2.6448165725072457
		-5.5124484484583434 118.33397961065452 2.6380440257947093
		-6.7894619173254194 117.8163575010565 2.0695507832010156
		-7.4981814995649589 117.15870642969595 1.2937441698995529
		-7.7327255819560854 116.43080649124768 0.38598802876944172
		-7.4493618011474592 115.51350846624219 0.92492294311523438
		-6.8337228383218909 114.82734204688488 1.5536180492801188
		-5.769127348010592 114.54970126920283 2.2855706715234425
		-4.238146093906745 114.68274639613362 2.5611358897041612
		-3.0820732183016437 114.96442189346607 2.2215695044814314
		-2.3058920139311425 115.76371002197267 1.8517914123756167
		-2.7334188084731674 117.03553697249664 2.5970552095745894
		-3.8652976352872206 118.17912944264634 2.6448165725072457
		;
	setAttr ".dcv" yes;
createNode transform -n "EyeRigTmpLoc_L_Grp" -p "Export_Grp";
	rename -uid "60F83FCC-49B6-548B-A405-55827786FAEE";
createNode transform -n "CntEyeRigTmp_L_Loc" -p "EyeRigTmpLoc_L_Grp";
	rename -uid "4C131FB0-44B5-8511-E1A1-DFB3BCE806DF";
	setAttr ".t" -type "double3" 4.6876025199890137 116.5097122192383 0.12009042501449585 ;
createNode locator -n "CntEyeRigTmp_L_LocShape" -p "CntEyeRigTmp_L_Loc";
	rename -uid "56858ADD-49F9-62B3-E1C8-02AEE0CC7CE2";
	setAttr -k off ".v";
	setAttr ".los" -type "double3" 0.3 0.3 0.3 ;
createNode transform -n "PupilEyeRigTmp_L_Loc" -p "CntEyeRigTmp_L_Loc";
	rename -uid "5F7C5CCA-4686-D612-6B4A-9D839593B4BA";
	setAttr ".t" -type "double3" -4.76837158203125e-007 3.0517578110789145e-005 2.2514291405677795 ;
createNode locator -n "PupilEyeRigTmp_L_LocShape" -p "PupilEyeRigTmp_L_Loc";
	rename -uid "DE163944-4F26-4F16-121C-528A3E2DC1E2";
	setAttr -k off ".v";
	setAttr ".los" -type "double3" 0.3 0.3 0.3 ;
createNode transform -n "IrisEyeRigTmp_L_Loc" -p "PupilEyeRigTmp_L_Loc";
	rename -uid "0B57AD75-4C66-4205-4734-658D39A42992";
	setAttr ".t" -type "double3" 8.8817841970012523e-016 0 0.65935158729553178 ;
createNode locator -n "IrisEyeRigTmp_L_LocShape" -p "IrisEyeRigTmp_L_Loc";
	rename -uid "422A42A2-4413-EA6D-3F7D-4CA8513267FB";
	setAttr -k off ".v";
	setAttr ".los" -type "double3" 0.3 0.3 0.3 ;
createNode transform -n "LidUpEyeRigTmp_L_Loc" -p "EyeRigTmpLoc_L_Grp";
	rename -uid "524BC522-404D-50D8-569C-4EA5D6F8F694";
	setAttr ".t" -type "double3" 5.4636478424072266 118.18058013916016 2.5457413196563721 ;
	setAttr ".r" -type "double3" 0 10 0 ;
	setAttr ".s" -type "double3" 0.99999999999999967 1 0.99999999999999967 ;
createNode locator -n "LidUpEyeRigTmp_L_LocShape" -p "LidUpEyeRigTmp_L_Loc";
	rename -uid "A742F75B-4E13-3027-615A-FC88517CEA5B";
	setAttr -k off ".v";
	setAttr ".los" -type "double3" 0.3 0.3 0.3 ;
createNode transform -n "LidLowEyeRigTmp_L_Loc" -p "EyeRigTmpLoc_L_Grp";
	rename -uid "D4406C5B-4C96-C458-2829-E380680AB4B4";
	setAttr ".t" -type "double3" 5.6656284332275391 114.6336669921875 2.2654635906219482 ;
	setAttr ".r" -type "double3" 0 10 0 ;
	setAttr ".s" -type "double3" 0.99999999999999967 1 0.99999999999999967 ;
createNode locator -n "LidLowEyeRigTmp_L_LocShape" -p "LidLowEyeRigTmp_L_Loc";
	rename -uid "BB12D54D-4D7B-84B3-4F6D-7B821A19D6CC";
	setAttr -k off ".v";
	setAttr ".los" -type "double3" 0.3 0.3 0.3 ;
createNode transform -n "CntEyeRigTmp_R_Loc" -p "EyeRigTmpLoc_L_Grp";
	rename -uid "0EF4A52B-4B3A-7DEE-1A30-0A9FD52EE730";
	setAttr ".t" -type "double3" -4.687603 116.5097122192383 0.12009042501449585 ;
createNode locator -n "CntEyeRigTmp_R_LocShape" -p "CntEyeRigTmp_R_Loc";
	rename -uid "00FCA1D8-4C5E-05D8-36E8-3284714F2230";
	setAttr -k off ".v";
	setAttr ".los" -type "double3" 0.3 0.3 0.3 ;
createNode transform -n "PupilEyeRigTmp_R_Loc" -p "CntEyeRigTmp_R_Loc";
	rename -uid "8DC58782-482D-B5E0-46FC-25B143CCB9BD";
	setAttr ".t" -type "double3" 0 3.0517578110789145e-005 2.2514291405677795 ;
createNode locator -n "PupilEyeRigTmp_R_LocShape" -p "PupilEyeRigTmp_R_Loc";
	rename -uid "E491609B-4F34-0B60-E4AC-8EBBC835AACD";
	setAttr -k off ".v";
	setAttr ".los" -type "double3" 0.3 0.3 0.3 ;
createNode transform -n "IrisEyeRigTmp_R_Loc" -p "PupilEyeRigTmp_R_Loc";
	rename -uid "52DBFAA2-4C8C-69FF-BA51-28B94F99720E";
	setAttr ".t" -type "double3" 0 0 0.65935158729553178 ;
createNode locator -n "IrisEyeRigTmp_R_LocShape" -p "IrisEyeRigTmp_R_Loc";
	rename -uid "E63464E1-4113-C57B-456F-B686D2C79945";
	setAttr -k off ".v";
	setAttr ".los" -type "double3" 0.3 0.3 0.3 ;
createNode transform -n "LidUpEyeRigTmp_R_Loc" -p "EyeRigTmpLoc_L_Grp";
	rename -uid "21384B4B-4186-62BE-3975-78B57CAECAA3";
	setAttr ".t" -type "double3" -5.463648 118.18058013916016 2.5457413196563721 ;
	setAttr ".r" -type "double3" 0 -10 0 ;
	setAttr ".s" -type "double3" 0.99999999999999967 1 0.99999999999999967 ;
createNode locator -n "LidUpEyeRigTmp_R_LocShape" -p "LidUpEyeRigTmp_R_Loc";
	rename -uid "2B459F34-4861-B57A-BBC1-E1BC6E3D0D25";
	setAttr -k off ".v";
	setAttr ".los" -type "double3" 0.3 0.3 0.3 ;
createNode transform -n "LidLowEyeRigTmp_R_Loc" -p "EyeRigTmpLoc_L_Grp";
	rename -uid "79098065-4442-FADF-37B1-69A371147607";
	setAttr ".t" -type "double3" -5.665628 114.6336669921875 2.2654635906219482 ;
	setAttr ".r" -type "double3" 0 -10 0 ;
	setAttr ".s" -type "double3" 0.99999999999999967 1 0.99999999999999967 ;
createNode locator -n "LidLowEyeRigTmp_R_LocShape" -p "LidLowEyeRigTmp_R_Loc";
	rename -uid "C2BF1E14-49A5-6A6D-B898-43A22645E69A";
	setAttr -k off ".v";
	setAttr ".los" -type "double3" 0.3 0.3 0.3 ;
createNode lightLinker -s -n "lightLinker1";
	rename -uid "9C849F4E-4E07-4EC5-6420-DE909EEFDF2B";
	setAttr -s 2 ".lnk";
	setAttr -s 2 ".slnk";
createNode displayLayerManager -n "layerManager";
	rename -uid "75FA7CCE-40F4-0DED-C0CF-06A82F4AF494";
	setAttr ".cdl" 9;
	setAttr -s 8 ".dli[1:7]"  2 8 3 9 5 6 1;
createNode displayLayer -n "defaultLayer";
	rename -uid "C727DD4C-46DC-70CF-E3DB-EEB0233D4E25";
createNode renderLayerManager -n "renderLayerManager";
	rename -uid "5E1CC091-44A1-84C7-45CD-BEA2C5B21CE4";
createNode renderLayer -n "defaultRenderLayer";
	rename -uid "EBE06E2E-41B9-59FA-6C4A-DFAD766C2862";
	setAttr ".g" yes;
createNode ilrOptionsNode -s -n "TurtleRenderOptions";
	rename -uid "CC8990E2-41BA-1A03-0E85-CFBAD4FA743C";
lockNode -l 1 ;
createNode ilrUIOptionsNode -s -n "TurtleUIOptions";
	rename -uid "9CCC2772-4E6F-6E70-4F30-459E766E3C48";
lockNode -l 1 ;
createNode ilrBakeLayerManager -s -n "TurtleBakeLayerManager";
	rename -uid "AAFC2330-42F5-7B61-2327-28B5A2BADD44";
lockNode -l 1 ;
createNode ilrBakeLayer -s -n "TurtleDefaultBakeLayer";
	rename -uid "89707F4B-4615-836D-0CED-85AFE7CE974D";
lockNode -l 1 ;
createNode shapeEditorManager -n "shapeEditorManager";
	rename -uid "849A7382-4726-DCDC-2047-E5A849A4F101";
createNode poseInterpolatorManager -n "poseInterpolatorManager";
	rename -uid "F3228E5E-4D43-6375-425F-57854353A798";
createNode nodeGraphEditorInfo -n "hyperShadePrimaryNodeEditorSavedTabsInfo";
	rename -uid "0DEEF6AA-4E79-9B46-6CFF-15ACBB504DC9";
	setAttr ".tgi[0].tn" -type "string" "Untitled_1";
	setAttr ".tgi[0].vl" -type "double2" 1928.5713519368883 -1674.9489130353463 ;
	setAttr ".tgi[0].vh" -type "double2" 5810.7140548172538 1549.0781697376813 ;
createNode nodeGraphEditorInfo -n "pasted__hyperShadePrimaryNodeEditorSavedTabsInfo";
	rename -uid "76676025-4FE5-7F07-8D53-679EC98AE67B";
	setAttr ".def" no;
	setAttr ".tgi[0].tn" -type "string" "Untitled_1";
	setAttr ".tgi[0].vl" -type "double2" 1928.5713519368883 -1674.9489130353463 ;
	setAttr ".tgi[0].vh" -type "double2" 5810.7140548172538 1549.0781697376813 ;
createNode script -n "sceneConfigurationScriptNode";
	rename -uid "C4FEF9CF-4307-6116-BD3A-E6AD796FCA0F";
	setAttr ".b" -type "string" "playbackOptions -min 1 -max 120 -ast 1 -aet 200 ";
	setAttr ".st" 6;
select -ne :time1;
	setAttr -av -k on ".cch";
	setAttr -av -cb on ".ihi";
	setAttr -av -k on ".nds";
	setAttr -cb on ".bnm";
	setAttr -k on ".o" 1;
	setAttr -av -k on ".unw" 1;
	setAttr -k on ".etw";
	setAttr -k on ".tps";
	setAttr -av -k on ".tms";
select -ne :hardwareRenderingGlobals;
	setAttr ".otfna" -type "stringArray" 22 "NURBS Curves" "NURBS Surfaces" "Polygons" "Subdiv Surface" "Particles" "Particle Instance" "Fluids" "Strokes" "Image Planes" "UI" "Lights" "Cameras" "Locators" "Joints" "IK Handles" "Deformers" "Motion Trails" "Components" "Hair Systems" "Follicles" "Misc. UI" "Ornaments"  ;
	setAttr ".otfva" -type "Int32Array" 22 0 1 1 1 1 1
		 1 1 1 0 0 0 0 0 0 0 0 0
		 0 0 0 0 ;
	setAttr -k on ".mbsof";
	setAttr ".msaa" yes;
	setAttr ".fprt" yes;
select -ne :renderPartition;
	setAttr -k on ".cch";
	setAttr -cb on ".ihi";
	setAttr -k on ".nds";
	setAttr -cb on ".bnm";
	setAttr -s 2 ".st";
	setAttr -cb on ".an";
	setAttr -cb on ".pt";
select -ne :renderGlobalsList1;
	setAttr -k on ".cch";
	setAttr -cb on ".ihi";
	setAttr -k on ".nds";
	setAttr -cb on ".bnm";
select -ne :defaultShaderList1;
	setAttr -k on ".cch";
	setAttr -cb on ".ihi";
	setAttr -k on ".nds";
	setAttr -cb on ".bnm";
	setAttr -s 4 ".s";
select -ne :postProcessList1;
	setAttr -k on ".cch";
	setAttr -cb on ".ihi";
	setAttr -k on ".nds";
	setAttr -cb on ".bnm";
	setAttr -s 2 ".p";
select -ne :defaultRenderingList1;
	setAttr -k on ".ihi";
select -ne :initialShadingGroup;
	setAttr -av -k on ".cch";
	setAttr -cb on ".ihi";
	setAttr -av -k on ".nds";
	setAttr -cb on ".bnm";
	setAttr -k on ".mwc";
	setAttr -cb on ".an";
	setAttr -cb on ".il";
	setAttr -cb on ".vo";
	setAttr -cb on ".eo";
	setAttr -cb on ".fo";
	setAttr -cb on ".epo";
	setAttr -k on ".ro" yes;
select -ne :initialParticleSE;
	setAttr -av -k on ".cch";
	setAttr -cb on ".ihi";
	setAttr -av -k on ".nds";
	setAttr -cb on ".bnm";
	setAttr -k on ".mwc";
	setAttr -cb on ".an";
	setAttr -cb on ".il";
	setAttr -cb on ".vo";
	setAttr -cb on ".eo";
	setAttr -cb on ".fo";
	setAttr -cb on ".epo";
	setAttr -k on ".ro" yes;
select -ne :defaultResolution;
	setAttr -av -k on ".cch";
	setAttr -k on ".ihi";
	setAttr -av -k on ".nds";
	setAttr -k on ".bnm";
	setAttr -av -k on ".w";
	setAttr -av -k on ".h";
	setAttr -av -k on ".pa" 1;
	setAttr -av -k on ".al";
	setAttr -av -k on ".dar";
	setAttr -av -k on ".ldar";
	setAttr -k on ".dpi";
	setAttr -av -k on ".off";
	setAttr -av -k on ".fld";
	setAttr -av -k on ".zsl";
	setAttr -k on ".isu";
	setAttr -k on ".pdu";
select -ne :hardwareRenderGlobals;
	setAttr -k on ".cch";
	setAttr -cb on ".ihi";
	setAttr -k on ".nds";
	setAttr -cb on ".bnm";
	setAttr -k off -cb on ".ctrs" 256;
	setAttr -av -k off -cb on ".btrs" 512;
	setAttr -k off -cb on ".fbfm";
	setAttr -k off -cb on ".ehql";
	setAttr -k off -cb on ".eams";
	setAttr -k off -cb on ".eeaa";
	setAttr -k off -cb on ".engm";
	setAttr -k off -cb on ".mes";
	setAttr -k off -cb on ".emb";
	setAttr -av -k off -cb on ".mbbf";
	setAttr -k off -cb on ".mbs";
	setAttr -k off -cb on ".trm";
	setAttr -k off -cb on ".tshc";
	setAttr -k off -cb on ".enpt";
	setAttr -k off -cb on ".clmt";
	setAttr -k off -cb on ".tcov";
	setAttr -k off -cb on ".lith";
	setAttr -k off -cb on ".sobc";
	setAttr -k off -cb on ".cuth";
	setAttr -k off -cb on ".hgcd";
	setAttr -k off -cb on ".hgci";
	setAttr -k off -cb on ".mgcs";
	setAttr -k off -cb on ".twa";
	setAttr -k off -cb on ".twz";
	setAttr -cb on ".hwcc";
	setAttr -cb on ".hwdp";
	setAttr -cb on ".hwql";
	setAttr -k on ".hwfr";
	setAttr -k on ".soll";
	setAttr -k on ".sosl";
	setAttr -k on ".bswa";
	setAttr -k on ".shml";
	setAttr -k on ".hwel";
relationship "link" ":lightLinker1" ":initialShadingGroup.message" ":defaultLightSet.message";
relationship "link" ":lightLinker1" ":initialParticleSE.message" ":defaultLightSet.message";
relationship "shadowLink" ":lightLinker1" ":initialShadingGroup.message" ":defaultLightSet.message";
relationship "shadowLink" ":lightLinker1" ":initialParticleSE.message" ":defaultLightSet.message";
connectAttr "layerManager.dli[0]" "defaultLayer.id";
connectAttr "renderLayerManager.rlmi[0]" "defaultRenderLayer.rlid";
connectAttr ":TurtleDefaultBakeLayer.idx" ":TurtleBakeLayerManager.bli[0]";
connectAttr ":TurtleRenderOptions.msg" ":TurtleDefaultBakeLayer.rset";
connectAttr "defaultRenderLayer.msg" ":defaultRenderingList1.r" -na;
connectAttr ":perspShape.msg" ":defaultRenderGlobals.sc";
// End of EyeRigTmpLocs.ma
