//Maya ASCII 2017ff05 scene
//Name: NsRigTmpLocs.ma
//Last modified: Mon, Oct 08, 2018 10:48:44 AM
//Codeset: 1252
requires maya "2017ff05";
requires "stereoCamera" "10.0";
requires -nodeType "ilrOptionsNode" -nodeType "ilrUIOptionsNode" -nodeType "ilrBakeLayerManager"
		 -nodeType "ilrBakeLayer" "Turtle" "2017.0.0";
currentUnit -l centimeter -a degree -t film;
fileInfo "application" "maya";
fileInfo "product" "Maya 2017";
fileInfo "version" "2017";
fileInfo "cutIdentifier" "201710312130-1018716";
fileInfo "osv" "Microsoft Windows 8 Business Edition, 64-bit  (Build 9200)\n";
createNode transform -s -n "persp";
	rename -uid "49C986BF-4C8A-4190-7C00-B1871664275E";
	setAttr ".v" no;
	setAttr ".t" -type "double3" 23.599371155033847 118.61226413806784 67.255729291312036 ;
	setAttr ".r" -type "double3" 356.27318792354481 -14019.28364609484 -2.1252593563572801e-016 ;
	setAttr ".rp" -type "double3" 8.8817841970012523e-016 -1.2434497875801753e-014 -2.8421709430404007e-014 ;
	setAttr ".rpt" -type "double3" 4.1697767962532592e-016 -1.2826642696004263e-014 
		2.2044624614758433e-014 ;
createNode camera -s -n "perspShape" -p "persp";
	rename -uid "EAC496B2-460A-DFCF-4815-A789D759A273";
	setAttr -k off ".v";
	setAttr ".fl" 59.999999999999979;
	setAttr ".ncp" 1;
	setAttr ".fcp" 100000;
	setAttr ".coi" 66.85492093128218;
	setAttr ".imn" -type "string" "persp";
	setAttr ".den" -type "string" "persp_depth";
	setAttr ".man" -type "string" "persp_mask";
	setAttr ".tp" -type "double3" 0 114.26674209362386 4.8556766312685644 ;
	setAttr ".hc" -type "string" "viewSet -p %camera";
	setAttr ".dgm" no;
createNode transform -s -n "top";
	rename -uid "298F6EB3-441F-827D-7DB8-3580D85FECBC";
	setAttr ".v" no;
	setAttr ".t" -type "double3" 24.340515355630785 144.49660396159672 -4.2597243682235071 ;
	setAttr ".r" -type "double3" -89.999999999999986 0 0 ;
createNode camera -s -n "topShape" -p "top";
	rename -uid "FED589E2-4D6F-2C0A-1F51-FFBEC2E882D4";
	setAttr -k off ".v";
	setAttr ".rnd" no;
	setAttr ".coi" 78.953530218014933;
	setAttr ".ow" 81.998831622685017;
	setAttr ".imn" -type "string" "top";
	setAttr ".den" -type "string" "top_depth";
	setAttr ".man" -type "string" "top_mask";
	setAttr ".tp" -type "double3" 0 65.543073743581772 -4.3494377136230469 ;
	setAttr ".hc" -type "string" "viewSet -t %camera";
	setAttr ".o" yes;
createNode transform -s -n "front";
	rename -uid "DEE05FEE-4706-1187-54D8-09B29EAE27D3";
	setAttr ".v" no;
	setAttr ".t" -type "double3" 4.950148521148825 117.65699459997683 174.45140026111298 ;
createNode camera -s -n "frontShape" -p "front";
	rename -uid "464F046C-4C92-F7C3-0FF5-69B3415ED5A9";
	setAttr -k off ".v";
	setAttr ".rnd" no;
	setAttr ".coi" 174.33130983967263;
	setAttr ".ow" 6.9437105328194546;
	setAttr ".imn" -type "string" "front";
	setAttr ".den" -type "string" "front_depth";
	setAttr ".man" -type "string" "front_mask";
	setAttr ".tp" -type "double3" 4.6876024156808853 116.50970411300659 0.12009042144034465 ;
	setAttr ".hc" -type "string" "viewSet -f %camera";
	setAttr ".o" yes;
createNode transform -s -n "side";
	rename -uid "A9285762-499B-4F4D-773A-13B84D5D2115";
	setAttr ".v" no;
	setAttr ".t" -type "double3" 246.6196898697053 114.78004411089805 3.6129138305370083 ;
	setAttr ".r" -type "double3" 0 89.999999999999986 0 ;
createNode camera -s -n "sideShape" -p "side";
	rename -uid "30D68B55-49F0-60F2-6229-9CA1D3273E9F";
	setAttr -k off ".v";
	setAttr ".rnd" no;
	setAttr ".coi" 246.61968986970524;
	setAttr ".ow" 19.401216225029454;
	setAttr ".imn" -type "string" "side";
	setAttr ".den" -type "string" "side_depth";
	setAttr ".man" -type "string" "side_mask";
	setAttr ".tp" -type "double3" 0 117.02671050642256 9.5535967675880649 ;
	setAttr ".hc" -type "string" "viewSet -s %camera";
	setAttr ".o" yes;
createNode transform -n "Export_Grp";
	rename -uid "CC0867DD-4349-B545-C065-DDB977E7A5B4";
createNode transform -n "NsRigTmpLoc_Grp" -p "Export_Grp";
	rename -uid "AB518ADC-4CC5-18FD-DFEC-61BD9A2831B0";
createNode transform -n "NsBdgTmp_Loc" -p "NsRigTmpLoc_Grp";
	rename -uid "90E46E25-4094-593A-0D7A-EC82F3A4C65F";
	setAttr ".t" -type "double3" 0 116.68585021465006 3.3712199060073038 ;
createNode locator -n "NsBdgTmp_LocShape" -p "NsBdgTmp_Loc";
	rename -uid "FC627A63-4FF9-FF2F-FE17-4D80A1101559";
	setAttr -k off ".v";
createNode transform -n "NsTmp_Loc" -p "NsRigTmpLoc_Grp";
	rename -uid "898C7BC9-4A63-99E8-082A-6D880F392FE1";
	setAttr ".t" -type "double3" 0 111.84763397259768 4.8483632729303281 ;
createNode locator -n "NsTmp_LocShape" -p "NsTmp_Loc";
	rename -uid "A02DF23E-4846-3518-20E2-E39C6E478577";
	setAttr -k off ".v";
createNode transform -n "NsTipTmp_Loc" -p "NsRigTmpLoc_Grp";
	rename -uid "47870496-4C3D-F45A-4130-0ABFF86D7987";
	setAttr ".t" -type "double3" 0 112.17049926869164 6.340133356529825 ;
createNode locator -n "NsTipTmp_LocShape" -p "NsTipTmp_Loc";
	rename -uid "EB7F35AB-41A3-7826-FF2F-9DA5AE6C7922";
	setAttr -k off ".v";
createNode lightLinker -s -n "lightLinker1";
	rename -uid "7D22998B-4338-BF18-3F88-EA93A08269F3";
	setAttr -s 2 ".lnk";
	setAttr -s 2 ".slnk";
createNode displayLayerManager -n "layerManager";
	rename -uid "44DEC839-41C9-C761-B3AE-7BA9D2367E6F";
	setAttr ".cdl" 8;
	setAttr -s 8 ".dli[1:7]"  8 7 3 4 5 6 1;
createNode displayLayer -n "defaultLayer";
	rename -uid "C727DD4C-46DC-70CF-E3DB-EEB0233D4E25";
createNode renderLayerManager -n "renderLayerManager";
	rename -uid "0C6123F9-4898-309B-E1E5-578A7E0DEB8F";
createNode renderLayer -n "defaultRenderLayer";
	rename -uid "EBE06E2E-41B9-59FA-6C4A-DFAD766C2862";
	setAttr ".g" yes;
createNode ilrOptionsNode -s -n "TurtleRenderOptions";
	rename -uid "CC8990E2-41BA-1A03-0E85-CFBAD4FA743C";
lockNode -l 1 ;
createNode ilrUIOptionsNode -s -n "TurtleUIOptions";
	rename -uid "9CCC2772-4E6F-6E70-4F30-459E766E3C48";
lockNode -l 1 ;
createNode ilrBakeLayerManager -s -n "TurtleBakeLayerManager";
	rename -uid "AAFC2330-42F5-7B61-2327-28B5A2BADD44";
lockNode -l 1 ;
createNode ilrBakeLayer -s -n "TurtleDefaultBakeLayer";
	rename -uid "89707F4B-4615-836D-0CED-85AFE7CE974D";
lockNode -l 1 ;
createNode shapeEditorManager -n "shapeEditorManager";
	rename -uid "836A0E9D-4B23-E0F6-7038-FD87BD3275EC";
createNode poseInterpolatorManager -n "poseInterpolatorManager";
	rename -uid "C1344270-4863-9C16-DAA2-1CB8BB525599";
createNode nodeGraphEditorInfo -n "hyperShadePrimaryNodeEditorSavedTabsInfo";
	rename -uid "0DEEF6AA-4E79-9B46-6CFF-15ACBB504DC9";
	setAttr ".tgi[0].tn" -type "string" "Untitled_1";
	setAttr ".tgi[0].vl" -type "double2" 1928.5713519368883 -1674.9489130353463 ;
	setAttr ".tgi[0].vh" -type "double2" 5810.7140548172538 1549.0781697376813 ;
createNode script -n "sceneConfigurationScriptNode";
	rename -uid "F58D6150-4D04-61A2-41EE-9396E2BCB363";
	setAttr ".b" -type "string" "playbackOptions -min 1 -max 120 -ast 1 -aet 200 ";
	setAttr ".st" 6;
select -ne :time1;
	setAttr -av -k on ".cch";
	setAttr -av -cb on ".ihi";
	setAttr -av -k on ".nds";
	setAttr -cb on ".bnm";
	setAttr -k on ".o" 0;
	setAttr -av -k on ".unw";
	setAttr -k on ".etw";
	setAttr -k on ".tps";
	setAttr -av -k on ".tms";
select -ne :hardwareRenderingGlobals;
	setAttr ".otfna" -type "stringArray" 22 "NURBS Curves" "NURBS Surfaces" "Polygons" "Subdiv Surface" "Particles" "Particle Instance" "Fluids" "Strokes" "Image Planes" "UI" "Lights" "Cameras" "Locators" "Joints" "IK Handles" "Deformers" "Motion Trails" "Components" "Hair Systems" "Follicles" "Misc. UI" "Ornaments"  ;
	setAttr ".otfva" -type "Int32Array" 22 0 1 1 1 1 1
		 1 1 1 0 0 0 0 0 0 0 0 0
		 0 0 0 0 ;
	setAttr -k on ".mbsof";
	setAttr ".msaa" yes;
	setAttr ".fprt" yes;
select -ne :renderPartition;
	setAttr -k on ".cch";
	setAttr -cb on ".ihi";
	setAttr -k on ".nds";
	setAttr -cb on ".bnm";
	setAttr -s 2 ".st";
	setAttr -cb on ".an";
	setAttr -cb on ".pt";
select -ne :renderGlobalsList1;
	setAttr -k on ".cch";
	setAttr -cb on ".ihi";
	setAttr -k on ".nds";
	setAttr -cb on ".bnm";
select -ne :defaultShaderList1;
	setAttr -k on ".cch";
	setAttr -cb on ".ihi";
	setAttr -k on ".nds";
	setAttr -cb on ".bnm";
	setAttr -s 4 ".s";
select -ne :postProcessList1;
	setAttr -k on ".cch";
	setAttr -cb on ".ihi";
	setAttr -k on ".nds";
	setAttr -cb on ".bnm";
	setAttr -s 2 ".p";
select -ne :defaultRenderingList1;
	setAttr -k on ".ihi";
select -ne :initialShadingGroup;
	setAttr -av -k on ".cch";
	setAttr -cb on ".ihi";
	setAttr -av -k on ".nds";
	setAttr -cb on ".bnm";
	setAttr -k on ".mwc";
	setAttr -cb on ".an";
	setAttr -cb on ".il";
	setAttr -cb on ".vo";
	setAttr -cb on ".eo";
	setAttr -cb on ".fo";
	setAttr -cb on ".epo";
	setAttr -k on ".ro" yes;
select -ne :initialParticleSE;
	setAttr -av -k on ".cch";
	setAttr -cb on ".ihi";
	setAttr -av -k on ".nds";
	setAttr -cb on ".bnm";
	setAttr -k on ".mwc";
	setAttr -cb on ".an";
	setAttr -cb on ".il";
	setAttr -cb on ".vo";
	setAttr -cb on ".eo";
	setAttr -cb on ".fo";
	setAttr -cb on ".epo";
	setAttr -k on ".ro" yes;
select -ne :defaultResolution;
	setAttr -av -k on ".cch";
	setAttr -k on ".ihi";
	setAttr -av -k on ".nds";
	setAttr -k on ".bnm";
	setAttr -av -k on ".w";
	setAttr -av -k on ".h";
	setAttr -av -k on ".pa" 1;
	setAttr -av -k on ".al";
	setAttr -av -k on ".dar";
	setAttr -av -k on ".ldar";
	setAttr -k on ".dpi";
	setAttr -av -k on ".off";
	setAttr -av -k on ".fld";
	setAttr -av -k on ".zsl";
	setAttr -k on ".isu";
	setAttr -k on ".pdu";
select -ne :hardwareRenderGlobals;
	setAttr -k on ".cch";
	setAttr -cb on ".ihi";
	setAttr -k on ".nds";
	setAttr -cb on ".bnm";
	setAttr -k off -cb on ".ctrs" 256;
	setAttr -av -k off -cb on ".btrs" 512;
	setAttr -k off -cb on ".fbfm";
	setAttr -k off -cb on ".ehql";
	setAttr -k off -cb on ".eams";
	setAttr -k off -cb on ".eeaa";
	setAttr -k off -cb on ".engm";
	setAttr -k off -cb on ".mes";
	setAttr -k off -cb on ".emb";
	setAttr -av -k off -cb on ".mbbf";
	setAttr -k off -cb on ".mbs";
	setAttr -k off -cb on ".trm";
	setAttr -k off -cb on ".tshc";
	setAttr -k off -cb on ".enpt";
	setAttr -k off -cb on ".clmt";
	setAttr -k off -cb on ".tcov";
	setAttr -k off -cb on ".lith";
	setAttr -k off -cb on ".sobc";
	setAttr -k off -cb on ".cuth";
	setAttr -k off -cb on ".hgcd";
	setAttr -k off -cb on ".hgci";
	setAttr -k off -cb on ".mgcs";
	setAttr -k off -cb on ".twa";
	setAttr -k off -cb on ".twz";
	setAttr -cb on ".hwcc";
	setAttr -cb on ".hwdp";
	setAttr -cb on ".hwql";
	setAttr -k on ".hwfr";
	setAttr -k on ".soll";
	setAttr -k on ".sosl";
	setAttr -k on ".bswa";
	setAttr -k on ".shml";
	setAttr -k on ".hwel";
relationship "link" ":lightLinker1" ":initialShadingGroup.message" ":defaultLightSet.message";
relationship "link" ":lightLinker1" ":initialParticleSE.message" ":defaultLightSet.message";
relationship "shadowLink" ":lightLinker1" ":initialShadingGroup.message" ":defaultLightSet.message";
relationship "shadowLink" ":lightLinker1" ":initialParticleSE.message" ":defaultLightSet.message";
connectAttr "layerManager.dli[0]" "defaultLayer.id";
connectAttr "renderLayerManager.rlmi[0]" "defaultRenderLayer.rlid";
connectAttr ":TurtleDefaultBakeLayer.idx" ":TurtleBakeLayerManager.bli[0]";
connectAttr ":TurtleRenderOptions.msg" ":TurtleDefaultBakeLayer.rset";
connectAttr "defaultRenderLayer.msg" ":defaultRenderingList1.r" -na;
connectAttr ":perspShape.msg" ":defaultRenderGlobals.sc";
// End of NsRigTmpLocs.ma
