//Maya ASCII 2017ff05 scene
//Name: TtRigTmpLocs.ma
//Last modified: Mon, Oct 08, 2018 10:47:24 AM
//Codeset: 1252
requires maya "2017ff05";
requires "stereoCamera" "10.0";
requires -nodeType "ilrOptionsNode" -nodeType "ilrUIOptionsNode" -nodeType "ilrBakeLayerManager"
		 -nodeType "ilrBakeLayer" "Turtle" "2017.0.0";
currentUnit -l centimeter -a degree -t film;
fileInfo "application" "maya";
fileInfo "product" "Maya 2017";
fileInfo "version" "2017";
fileInfo "cutIdentifier" "201710312130-1018716";
fileInfo "osv" "Microsoft Windows 8 Business Edition, 64-bit  (Build 9200)\n";
createNode transform -s -n "persp";
	rename -uid "49C986BF-4C8A-4190-7C00-B1871664275E";
	setAttr ".v" no;
	setAttr ".t" -type "double3" -1.2473216956644428 117.47304330665477 20.378113583516004 ;
	setAttr ".r" -type "double3" 337.07318792377833 -14043.683646090794 -1.1951772452630103e-015 ;
	setAttr ".rp" -type "double3" 8.8817841970012523e-016 -1.2434497875801753e-014 -2.8421709430404007e-014 ;
	setAttr ".rpt" -type "double3" 4.1697767962532592e-016 -1.2826642696004263e-014 
		2.2044624614758433e-014 ;
createNode camera -s -n "perspShape" -p "persp";
	rename -uid "EAC496B2-460A-DFCF-4815-A789D759A273";
	setAttr -k off ".v";
	setAttr ".fl" 59.999999999999979;
	setAttr ".ncp" 1;
	setAttr ".fcp" 100000;
	setAttr ".coi" 21.1474245874536;
	setAttr ".imn" -type "string" "persp";
	setAttr ".den" -type "string" "persp_depth";
	setAttr ".man" -type "string" "persp_mask";
	setAttr ".tp" -type "double3" 0.0040163993835449219 109.23495864868164 0.94150686264038086 ;
	setAttr ".hc" -type "string" "viewSet -p %camera";
	setAttr ".dgm" no;
createNode transform -s -n "top";
	rename -uid "298F6EB3-441F-827D-7DB8-3580D85FECBC";
	setAttr ".v" no;
	setAttr ".t" -type "double3" 0.1123886679262398 144.50984919604841 -0.21910882037836021 ;
	setAttr ".r" -type "double3" -89.999999999999986 0 0 ;
createNode camera -s -n "topShape" -p "top";
	rename -uid "FED589E2-4D6F-2C0A-1F51-FFBEC2E882D4";
	setAttr -k off ".v";
	setAttr ".rnd" no;
	setAttr ".coi" 36.053553944240484;
	setAttr ".ow" 18.142742108093081;
	setAttr ".imn" -type "string" "top";
	setAttr ".den" -type "string" "top_depth";
	setAttr ".man" -type "string" "top_mask";
	setAttr ".tp" -type "double3" 0 108.45629525180792 1.3222214826100709 ;
	setAttr ".hc" -type "string" "viewSet -t %camera";
	setAttr ".o" yes;
createNode transform -s -n "front";
	rename -uid "DEE05FEE-4706-1187-54D8-09B29EAE27D3";
	setAttr ".v" no;
	setAttr ".t" -type "double3" 4.950148521148825 117.65699459997683 174.45140026111298 ;
createNode camera -s -n "frontShape" -p "front";
	rename -uid "464F046C-4C92-F7C3-0FF5-69B3415ED5A9";
	setAttr -k off ".v";
	setAttr ".rnd" no;
	setAttr ".coi" 174.33130983967263;
	setAttr ".ow" 6.9437105328194546;
	setAttr ".imn" -type "string" "front";
	setAttr ".den" -type "string" "front_depth";
	setAttr ".man" -type "string" "front_mask";
	setAttr ".tp" -type "double3" 4.6876024156808853 116.50970411300659 0.12009042144034465 ;
	setAttr ".hc" -type "string" "viewSet -f %camera";
	setAttr ".o" yes;
createNode transform -s -n "side";
	rename -uid "A9285762-499B-4F4D-773A-13B84D5D2115";
	setAttr ".v" no;
	setAttr ".t" -type "double3" 246.03087181975309 108.9595399123877 -0.25761635906539992 ;
	setAttr ".r" -type "double3" 0 89.999999999999986 0 ;
createNode camera -s -n "sideShape" -p "side";
	rename -uid "30D68B55-49F0-60F2-6229-9CA1D3273E9F";
	setAttr -k off ".v";
	setAttr ".rnd" no;
	setAttr ".coi" 246.03087181975303;
	setAttr ".ow" 13.401318843992529;
	setAttr ".imn" -type "string" "side";
	setAttr ".den" -type "string" "side_depth";
	setAttr ".man" -type "string" "side_mask";
	setAttr ".tp" -type "double3" 0 108.68729507267497 0.84403671492606613 ;
	setAttr ".hc" -type "string" "viewSet -s %camera";
	setAttr ".o" yes;
createNode transform -n "Export_Grp";
	rename -uid "60A41ED8-4237-6C97-6417-F6A865D9221D";
	setAttr ".t" -type "double3" 0 -35.392216654241565 -3.8345132348229498 ;
	setAttr ".rp" -type "double3" 0 149.07769669815482 5.3815851707549331 ;
	setAttr ".sp" -type "double3" 0 149.07769669815482 5.3815851707549331 ;
createNode transform -n "TtRigTmpLoc_Grp" -p "Export_Grp";
	rename -uid "7DE2FD4B-42D4-488A-3EC8-B69BB9A5EAA6";
createNode transform -n "UpTthTmpLoc_Grp" -p "TtRigTmpLoc_Grp";
	rename -uid "3D847CCD-4FFB-E136-A4D3-95A4871054BB";
createNode transform -n "MainUpTthTmp_Loc" -p "UpTthTmpLoc_Grp";
	rename -uid "79CF107A-41C6-871D-3810-AE899CAFD9B8";
	setAttr ".t" -type "double3" 0 145.46208718681848 5.3144952971351698 ;
createNode locator -n "MainUpTthTmp_LocShape" -p "MainUpTthTmp_Loc";
	rename -uid "4F13DDC9-4A45-89B1-749F-DF8EA002170A";
	setAttr -k off ".v";
createNode transform -n "CntUpTthTmp_Loc" -p "UpTthTmpLoc_Grp";
	rename -uid "1957D0D9-4371-F102-1A08-0C9FF96F068F";
	setAttr ".t" -type "double3" 0 145.46208718681848 7.7597227598338918 ;
createNode locator -n "CntUpTthTmp_LocShape" -p "CntUpTthTmp_Loc";
	rename -uid "B1D511C9-4DAF-8D60-A6CD-5DB0D865ABE5";
	setAttr -k off ".v";
createNode transform -n "MidUpTthTmp_L_Loc" -p "UpTthTmpLoc_Grp";
	rename -uid "2CF74828-4FC0-7B42-8753-6BBEE0BF9FBB";
	setAttr ".t" -type "double3" 2.1906001168197742 145.46208718681848 6.84070711049106 ;
	setAttr ".r" -type "double3" 0 45 0 ;
createNode locator -n "MidUpTthTmp_L_LocShape" -p "MidUpTthTmp_L_Loc";
	rename -uid "C2EE3281-4DBB-B198-7CFA-DF83A8A390AB";
	setAttr -k off ".v";
createNode transform -n "InUpTthTmp_L_Loc" -p "UpTthTmpLoc_Grp";
	rename -uid "6C5C12B1-4FCA-F862-4540-9CB0C79A38BE";
	setAttr ".t" -type "double3" 2.5485190764355306 145.46208718681848 3.7001499296810194 ;
	setAttr ".r" -type "double3" 0 90 0 ;
createNode locator -n "InUpTthTmp_L_LocShape" -p "InUpTthTmp_L_Loc";
	rename -uid "E44535B4-41E4-6A28-B65E-66990A76FFCA";
	setAttr -k off ".v";
createNode transform -n "MidUpTthTmp_R_Loc" -p "UpTthTmpLoc_Grp";
	rename -uid "AFEE6B56-472F-7D38-66A2-1B9E82E68662";
	setAttr ".t" -type "double3" -2.190600116819776 145.46208718681848 6.84070711049106 ;
	setAttr ".r" -type "double3" 0 -45 0 ;
createNode locator -n "MidUpTthTmp_R_LocShape" -p "MidUpTthTmp_R_Loc";
	rename -uid "D8B364D9-4A4A-B464-E836-B38B179839C0";
	setAttr -k off ".v";
createNode transform -n "InUpTthTmp_R_Loc" -p "UpTthTmpLoc_Grp";
	rename -uid "90B0B6F5-41B1-FBC3-A6C1-899B0B7C7E50";
	setAttr ".t" -type "double3" -2.5485190764355306 145.46208718681848 3.7001499296810185 ;
	setAttr ".r" -type "double3" 0 -90 0 ;
createNode locator -n "InUpTthTmp_R_LocShape" -p "InUpTthTmp_R_Loc";
	rename -uid "31463851-44CB-38DA-6866-3EBB7CDF2667";
	setAttr -k off ".v";
createNode transform -n "LowTthTmpLoc_Grp" -p "TtRigTmpLoc_Grp";
	rename -uid "5DF93AE4-4123-66F6-60C7-BB95661E3A03";
createNode transform -n "MainLowTthTmp_Loc" -p "LowTthTmpLoc_Grp";
	rename -uid "D6DACF67-4F88-1F03-2975-E3BC3CA3CDF1";
	setAttr ".t" -type "double3" 0 143.81039461520302 5.2827135681938087 ;
createNode locator -n "MainLowTthTmp_LocShape" -p "MainLowTthTmp_Loc";
	rename -uid "0804813E-42FA-18FB-7E2C-BF86F5E0BE38";
	setAttr -k off ".v";
createNode transform -n "CntLowTthTmp_Loc" -p "LowTthTmpLoc_Grp";
	rename -uid "47BEE592-4FEB-0A85-4AFD-AE8EF0F1AFBA";
	setAttr ".t" -type "double3" 0 143.81039461520302 7.8601586723986294 ;
createNode locator -n "CntLowTthTmp_LocShape" -p "CntLowTthTmp_Loc";
	rename -uid "57753805-4493-8B88-4E0C-009C7E61207C";
	setAttr -k off ".v";
createNode transform -n "MidLowTthTmp_L_Loc" -p "LowTthTmpLoc_Grp";
	rename -uid "3205F902-45B1-3198-0259-4595AF25BD78";
	setAttr ".t" -type "double3" 1.8059803995533927 143.81039461520305 7.0015199251247546 ;
	setAttr ".r" -type "double3" 0 29.999999999999996 0 ;
createNode locator -n "MidLowTthTmp_L_LocShape" -p "MidLowTthTmp_L_Loc";
	rename -uid "3C234C96-4E4E-67B9-EFE7-12AE8124F73B";
	setAttr -k off ".v";
createNode transform -n "InLowTthTmp_L_Loc" -p "LowTthTmpLoc_Grp";
	rename -uid "B034840A-4723-48E7-8A39-2F8CCE0FF718";
	setAttr ".t" -type "double3" 2.6206583117879507 143.81039461520302 3.8636994769312798 ;
	setAttr ".r" -type "double3" 0 90 0 ;
createNode locator -n "InLowTthTmp_L_LocShape" -p "InLowTthTmp_L_Loc";
	rename -uid "E7AB20ED-402C-8EF4-0B61-C1A976DC9226";
	setAttr -k off ".v";
createNode transform -n "MidLowTthTmp_R_Loc" -p "LowTthTmpLoc_Grp";
	rename -uid "48993F09-431D-640A-008B-4B8D7FB73E13";
	setAttr ".t" -type "double3" -1.8059803995533923 143.81039461520305 7.001519925124752 ;
	setAttr ".r" -type "double3" 0 -29.999999999999996 0 ;
createNode locator -n "MidLowTthTmp_R_LocShape" -p "MidLowTthTmp_R_Loc";
	rename -uid "AEB1EA1C-479F-DC25-6E6B-7DB79A5E7866";
	setAttr -k off ".v";
createNode transform -n "InLowTthTmp_R_Loc" -p "LowTthTmpLoc_Grp";
	rename -uid "4AF732B6-4AEB-5C14-6A90-44A0E0704F3A";
	setAttr ".t" -type "double3" -2.6206583117879507 143.81039461520302 3.8636994769312789 ;
	setAttr ".r" -type "double3" 0 -90 0 ;
createNode locator -n "InLowTthTmp_R_LocShape" -p "InLowTthTmp_R_Loc";
	rename -uid "B6B6E198-46CE-5182-891A-74AF8B507426";
	setAttr -k off ".v";
createNode joint -n "TongueTmp_1_Jnt" -p "TtRigTmpLoc_Grp";
	rename -uid "E6DB5EB2-41D5-20D4-8F42-1BBFABF6E37A";
	setAttr ".t" -type "double3" 0 143.08500407428468 1.1395710747308514 ;
	setAttr ".r" -type "double3" -0.94960569640112691 0 0 ;
	setAttr ".jo" -type "double3" 49.031838488095012 0 0 ;
	setAttr ".radi" 0.2;
createNode joint -n "TongueTmp_2_Jnt" -p "TongueTmp_1_Jnt";
	rename -uid "CEC4BFC8-4723-C92F-DBBC-C5A085627EA0";
	setAttr ".t" -type "double3" 0 1.2 0 ;
	setAttr ".jo" -type "double3" 27.567196903175219 0 0 ;
	setAttr ".radi" 0.2;
createNode joint -n "TongueTmp_3_Jnt" -p "TongueTmp_2_Jnt";
	rename -uid "48990742-4AFD-CBF0-7EEB-BA8C70EC1E42";
	setAttr ".t" -type "double3" 0 1.2 0 ;
	setAttr ".jo" -type "double3" 14.798653583425601 0 0 ;
	setAttr ".radi" 0.2;
createNode joint -n "TongueTmp_4_Jnt" -p "TongueTmp_3_Jnt";
	rename -uid "453DADB5-4EDA-EDD6-1F78-81B93ABC5F90";
	setAttr ".t" -type "double3" 0 1.2 0 ;
	setAttr ".jo" -type "double3" 10.766977670790855 0 0 ;
	setAttr ".radi" 0.2;
createNode joint -n "TongueTmp_5_Jnt" -p "TongueTmp_4_Jnt";
	rename -uid "9FBA222F-4E31-1E40-324C-E39CD191C8E4";
	setAttr ".t" -type "double3" 0 1.2 0 ;
	setAttr ".jo" -type "double3" 1.4292325211183023 0 0 ;
	setAttr ".radi" 0.2;
createNode joint -n "TongueTmp_6_Jnt" -p "TongueTmp_5_Jnt";
	rename -uid "6C52522D-44D6-5145-9EED-879C4D920310";
	setAttr ".t" -type "double3" 0 1.2 0 ;
	setAttr ".radi" 0.2;
createNode transform -n "JawPostTmp_Loc" -p "TtRigTmpLoc_Grp";
	rename -uid "76BC6D3D-4F37-1BEC-BEBE-0DA59977C38A";
	setAttr ".t" -type "double3" 0 149.49386450812926 -0.36853951618042258 ;
createNode locator -n "JawPostTmp_LocShape" -p "JawPostTmp_Loc";
	rename -uid "DDA3A46C-4674-8489-227A-A2A75706CEBF";
	setAttr -k off ".v";
createNode lightLinker -s -n "lightLinker1";
	rename -uid "76543BBB-49E1-D007-9208-59A4D169AB4A";
	setAttr -s 2 ".lnk";
	setAttr -s 2 ".slnk";
createNode displayLayerManager -n "layerManager";
	rename -uid "3872FF44-4036-3A23-9282-87B6F9376A79";
	setAttr ".cdl" 8;
	setAttr -s 8 ".dli[1:7]"  8 7 3 4 5 6 1;
createNode displayLayer -n "defaultLayer";
	rename -uid "C727DD4C-46DC-70CF-E3DB-EEB0233D4E25";
createNode renderLayerManager -n "renderLayerManager";
	rename -uid "4272C7BC-4883-050C-2014-618B63ADC51C";
createNode renderLayer -n "defaultRenderLayer";
	rename -uid "EBE06E2E-41B9-59FA-6C4A-DFAD766C2862";
	setAttr ".g" yes;
createNode ilrOptionsNode -s -n "TurtleRenderOptions";
	rename -uid "CC8990E2-41BA-1A03-0E85-CFBAD4FA743C";
lockNode -l 1 ;
createNode ilrUIOptionsNode -s -n "TurtleUIOptions";
	rename -uid "9CCC2772-4E6F-6E70-4F30-459E766E3C48";
lockNode -l 1 ;
createNode ilrBakeLayerManager -s -n "TurtleBakeLayerManager";
	rename -uid "AAFC2330-42F5-7B61-2327-28B5A2BADD44";
lockNode -l 1 ;
createNode ilrBakeLayer -s -n "TurtleDefaultBakeLayer";
	rename -uid "89707F4B-4615-836D-0CED-85AFE7CE974D";
lockNode -l 1 ;
createNode shapeEditorManager -n "shapeEditorManager";
	rename -uid "D2285F25-48C1-90AA-A020-19A2D9DC320A";
createNode poseInterpolatorManager -n "poseInterpolatorManager";
	rename -uid "6426F16D-4894-8C81-5083-B79E7F0CB939";
createNode nodeGraphEditorInfo -n "hyperShadePrimaryNodeEditorSavedTabsInfo";
	rename -uid "0DEEF6AA-4E79-9B46-6CFF-15ACBB504DC9";
	setAttr ".tgi[0].tn" -type "string" "Untitled_1";
	setAttr ".tgi[0].vl" -type "double2" 1928.5713519368883 -1674.9489130353463 ;
	setAttr ".tgi[0].vh" -type "double2" 5810.7140548172538 1549.0781697376813 ;
createNode script -n "sceneConfigurationScriptNode";
	rename -uid "5DC73D04-45B2-441E-C2E7-8A91F71B9FB2";
	setAttr ".b" -type "string" "playbackOptions -min 1 -max 120 -ast 1 -aet 200 ";
	setAttr ".st" 6;
select -ne :time1;
	setAttr -av -k on ".cch";
	setAttr -av -cb on ".ihi";
	setAttr -av -k on ".nds";
	setAttr -cb on ".bnm";
	setAttr -k on ".o" 0;
	setAttr -av -k on ".unw";
	setAttr -k on ".etw";
	setAttr -k on ".tps";
	setAttr -av -k on ".tms";
select -ne :hardwareRenderingGlobals;
	setAttr ".otfna" -type "stringArray" 22 "NURBS Curves" "NURBS Surfaces" "Polygons" "Subdiv Surface" "Particles" "Particle Instance" "Fluids" "Strokes" "Image Planes" "UI" "Lights" "Cameras" "Locators" "Joints" "IK Handles" "Deformers" "Motion Trails" "Components" "Hair Systems" "Follicles" "Misc. UI" "Ornaments"  ;
	setAttr ".otfva" -type "Int32Array" 22 0 1 1 1 1 1
		 1 1 1 0 0 0 0 0 0 0 0 0
		 0 0 0 0 ;
	setAttr -k on ".mbsof";
	setAttr ".msaa" yes;
	setAttr ".fprt" yes;
select -ne :renderPartition;
	setAttr -k on ".cch";
	setAttr -cb on ".ihi";
	setAttr -k on ".nds";
	setAttr -cb on ".bnm";
	setAttr -s 2 ".st";
	setAttr -cb on ".an";
	setAttr -cb on ".pt";
select -ne :renderGlobalsList1;
	setAttr -k on ".cch";
	setAttr -cb on ".ihi";
	setAttr -k on ".nds";
	setAttr -cb on ".bnm";
select -ne :defaultShaderList1;
	setAttr -k on ".cch";
	setAttr -cb on ".ihi";
	setAttr -k on ".nds";
	setAttr -cb on ".bnm";
	setAttr -s 4 ".s";
select -ne :postProcessList1;
	setAttr -k on ".cch";
	setAttr -cb on ".ihi";
	setAttr -k on ".nds";
	setAttr -cb on ".bnm";
	setAttr -s 2 ".p";
select -ne :defaultRenderingList1;
	setAttr -k on ".ihi";
select -ne :initialShadingGroup;
	setAttr -av -k on ".cch";
	setAttr -cb on ".ihi";
	setAttr -av -k on ".nds";
	setAttr -cb on ".bnm";
	setAttr -k on ".mwc";
	setAttr -cb on ".an";
	setAttr -cb on ".il";
	setAttr -cb on ".vo";
	setAttr -cb on ".eo";
	setAttr -cb on ".fo";
	setAttr -cb on ".epo";
	setAttr -k on ".ro" yes;
select -ne :initialParticleSE;
	setAttr -av -k on ".cch";
	setAttr -cb on ".ihi";
	setAttr -av -k on ".nds";
	setAttr -cb on ".bnm";
	setAttr -k on ".mwc";
	setAttr -cb on ".an";
	setAttr -cb on ".il";
	setAttr -cb on ".vo";
	setAttr -cb on ".eo";
	setAttr -cb on ".fo";
	setAttr -cb on ".epo";
	setAttr -k on ".ro" yes;
select -ne :defaultResolution;
	setAttr -av -k on ".cch";
	setAttr -k on ".ihi";
	setAttr -av -k on ".nds";
	setAttr -k on ".bnm";
	setAttr -av -k on ".w";
	setAttr -av -k on ".h";
	setAttr -av -k on ".pa" 1;
	setAttr -av -k on ".al";
	setAttr -av -k on ".dar";
	setAttr -av -k on ".ldar";
	setAttr -k on ".dpi";
	setAttr -av -k on ".off";
	setAttr -av -k on ".fld";
	setAttr -av -k on ".zsl";
	setAttr -k on ".isu";
	setAttr -k on ".pdu";
select -ne :hardwareRenderGlobals;
	setAttr -k on ".cch";
	setAttr -cb on ".ihi";
	setAttr -k on ".nds";
	setAttr -cb on ".bnm";
	setAttr -k off -cb on ".ctrs" 256;
	setAttr -av -k off -cb on ".btrs" 512;
	setAttr -k off -cb on ".fbfm";
	setAttr -k off -cb on ".ehql";
	setAttr -k off -cb on ".eams";
	setAttr -k off -cb on ".eeaa";
	setAttr -k off -cb on ".engm";
	setAttr -k off -cb on ".mes";
	setAttr -k off -cb on ".emb";
	setAttr -av -k off -cb on ".mbbf";
	setAttr -k off -cb on ".mbs";
	setAttr -k off -cb on ".trm";
	setAttr -k off -cb on ".tshc";
	setAttr -k off -cb on ".enpt";
	setAttr -k off -cb on ".clmt";
	setAttr -k off -cb on ".tcov";
	setAttr -k off -cb on ".lith";
	setAttr -k off -cb on ".sobc";
	setAttr -k off -cb on ".cuth";
	setAttr -k off -cb on ".hgcd";
	setAttr -k off -cb on ".hgci";
	setAttr -k off -cb on ".mgcs";
	setAttr -k off -cb on ".twa";
	setAttr -k off -cb on ".twz";
	setAttr -cb on ".hwcc";
	setAttr -cb on ".hwdp";
	setAttr -cb on ".hwql";
	setAttr -k on ".hwfr";
	setAttr -k on ".soll";
	setAttr -k on ".sosl";
	setAttr -k on ".bswa";
	setAttr -k on ".shml";
	setAttr -k on ".hwel";
connectAttr "TongueTmp_1_Jnt.s" "TongueTmp_2_Jnt.is";
connectAttr "TongueTmp_2_Jnt.s" "TongueTmp_3_Jnt.is";
connectAttr "TongueTmp_3_Jnt.s" "TongueTmp_4_Jnt.is";
connectAttr "TongueTmp_4_Jnt.s" "TongueTmp_5_Jnt.is";
connectAttr "TongueTmp_5_Jnt.s" "TongueTmp_6_Jnt.is";
relationship "link" ":lightLinker1" ":initialShadingGroup.message" ":defaultLightSet.message";
relationship "link" ":lightLinker1" ":initialParticleSE.message" ":defaultLightSet.message";
relationship "shadowLink" ":lightLinker1" ":initialShadingGroup.message" ":defaultLightSet.message";
relationship "shadowLink" ":lightLinker1" ":initialParticleSE.message" ":defaultLightSet.message";
connectAttr "layerManager.dli[0]" "defaultLayer.id";
connectAttr "renderLayerManager.rlmi[0]" "defaultRenderLayer.rlid";
connectAttr ":TurtleDefaultBakeLayer.idx" ":TurtleBakeLayerManager.bli[0]";
connectAttr ":TurtleRenderOptions.msg" ":TurtleDefaultBakeLayer.rset";
connectAttr "defaultRenderLayer.msg" ":defaultRenderingList1.r" -na;
connectAttr ":perspShape.msg" ":defaultRenderGlobals.sc";
// End of TtRigTmpLocs.ma
