+ pgYetiMaya 2.2.1 O:\Pipeline\plugins\Maya2017\yeti_2.2.1\yeti
PEREGRINEL_LICENSE = O:\Pipeline\plugins\Maya2017\yeti_2.2.1\yeti\yeti.lic
PATH +:= bin
REDSHIFT_PLUG_IN_PATH +:= plug-ins
MTOA_EXTENSIONS_PATH +:= plug-ins
ARNOLD_PLUGIN_PATH +:= bin
VRAY_FOR_MAYA2017_PLUGINS_x64 +:= bin
REDSHIFT_MAYAEXTENSIONSPATH +:= plug-ins;bin