//Maya ASCII 2012 scene
//Name: quardrupedTemplateJnt.ma
//Last modified: Tue, Oct 22, 2013 11:25:15 AM
//Codeset: 1252
requires maya "2012";
requires "Mayatomr" "2012.0m - 3.9.1.36 ";
requires "stereoCamera" "10.0";
currentUnit -l centimeter -a degree -t film;
fileInfo "application" "maya";
fileInfo "product" "Maya 2012";
fileInfo "version" "2012 x64";
fileInfo "cutIdentifier" "001200000000-796618";
fileInfo "osv" "Microsoft Windows 7 Business Edition, 64-bit Windows 7 Service Pack 1 (Build 7601)\n";
createNode transform -s -n "persp";
	setAttr ".v" no;
	setAttr ".t" -type "double3" 8.5636959853317265 6.2417971940029027 12.520051421322158 ;
	setAttr ".r" -type "double3" -21.338352757117047 30.600000000102821 9.2378278905984e-016 ;
	setAttr ".rp" -type "double3" 2.2204460492503131e-016 -4.4408920985006262e-016 8.8817841970012523e-016 ;
	setAttr ".rpt" -type "double3" 7.4019406451521821e-016 1.6993278480173187e-016 -1.0734213297969902e-015 ;
createNode camera -s -n "perspShape" -p "persp";
	setAttr -k off ".v" no;
	setAttr ".fl" 34.999999999999986;
	setAttr ".coi" 16.517025775006026;
	setAttr ".imn" -type "string" "persp";
	setAttr ".den" -type "string" "persp_depth";
	setAttr ".man" -type "string" "persp_mask";
	setAttr ".tp" -type "double3" 0 2.7435212201077728 1.6667211509362063 ;
	setAttr ".hc" -type "string" "viewSet -p %camera";
createNode transform -s -n "top";
	setAttr ".v" no;
	setAttr ".t" -type "double3" -0.48625636104089831 100.10692744794805 0.48250460772896575 ;
	setAttr ".r" -type "double3" -89.999999999999986 0 0 ;
createNode camera -s -n "topShape" -p "top";
	setAttr -k off ".v" no;
	setAttr ".rnd" no;
	setAttr ".coi" 100.1;
	setAttr ".ow" 1.4559022289806947;
	setAttr ".imn" -type "string" "top";
	setAttr ".den" -type "string" "top_depth";
	setAttr ".man" -type "string" "top_mask";
	setAttr ".hc" -type "string" "viewSet -t %camera";
	setAttr ".o" yes;
createNode transform -s -n "front";
	setAttr ".v" no;
	setAttr ".t" -type "double3" -0.018647139470104962 1.2072898502661953 100.1 ;
createNode camera -s -n "frontShape" -p "front";
	setAttr -k off ".v" no;
	setAttr ".rnd" no;
	setAttr ".coi" 100.1;
	setAttr ".ow" 2.1968590759233613;
	setAttr ".imn" -type "string" "front";
	setAttr ".den" -type "string" "front_depth";
	setAttr ".man" -type "string" "front_mask";
	setAttr ".hc" -type "string" "viewSet -f %camera";
	setAttr ".o" yes;
createNode transform -s -n "side";
	setAttr ".v" no;
	setAttr ".t" -type "double3" 100.18332807233445 1.7685003948461264 0.82125321758759329 ;
	setAttr ".r" -type "double3" 0 89.999999999999986 0 ;
createNode camera -s -n "sideShape" -p "side";
	setAttr -k off ".v" no;
	setAttr ".rnd" no;
	setAttr ".coi" 100.1;
	setAttr ".ow" 3.7836532366800921;
	setAttr ".imn" -type "string" "side";
	setAttr ".den" -type "string" "side_depth";
	setAttr ".man" -type "string" "side_mask";
	setAttr ".hc" -type "string" "viewSet -s %camera";
	setAttr ".o" yes;
createNode transform -n "placement_tmpCtrl";
	setAttr -l on -k off ".tx";
	setAttr -l on -k off ".ty";
	setAttr -l on -k off ".tz";
	setAttr -l on -k off ".rx";
	setAttr -l on -k off ".ry";
	setAttr -l on -k off ".rz";
	setAttr -l on -k off ".sx";
	setAttr -l on -k off ".sy";
	setAttr -l on -k off ".sz";
createNode joint -n "root_tmpJnt" -p "placement_tmpCtrl";
	setAttr ".t" -type "double3" 0 1.7925584225485858 -0.29958711282339134 ;
	setAttr ".bps" -type "matrix" 1 0 0 0 0 1 0 0 0 0 1 0 0 1.7925584225485858 -0.29958711282339134 1;
	setAttr ".typ" 1;
	setAttr ".radi" 0.05;
createNode joint -n "spine1_tmpJnt" -p "root_tmpJnt";
	addAttr -ci true -sn "liw" -ln "lockInfluenceWeights" -min 0 -max 1 -at "bool";
	setAttr ".t" -type "double3" 0 0.0098293470048285148 -0.25128083127803214 ;
	setAttr ".ro" 1;
	setAttr ".bps" -type "matrix" 1 0 0 0 0 1 0 0 0 0 1 0 0 1.8023877695534143 -0.57634030822508786 1;
	setAttr ".typ" 6;
	setAttr ".radi" 0.05;
createNode joint -n "spine2_tmpJnt" -p "spine1_tmpJnt";
	addAttr -ci true -sn "liw" -ln "lockInfluenceWeights" -min 0 -max 1 -at "bool";
	setAttr ".t" -type "double3" 0 0 0.80788591592310843 ;
	setAttr ".ro" 1;
	setAttr ".bps" -type "matrix" 1 0 0 0 0 1 0 0 0 0 1 0 0 1.8023877695534143 -0.13152136828683364 1;
	setAttr ".typ" 6;
	setAttr ".radi" 0.05;
createNode joint -n "clavLFT_tmpJnt" -p "spine2_tmpJnt";
	addAttr -ci true -sn "liw" -ln "lockInfluenceWeights" -min 0 -max 1 -at "bool";
	setAttr ".uoc" yes;
	setAttr ".oc" 2;
	setAttr ".t" -type "double3" 0.25979087824701064 0.074975442143551563 0.3723425832356726 ;
	setAttr ".r" -type "double3" 2.0001041917445067e-029 -1.4026788238829408e-014 4.3133423655002705e-016 ;
	setAttr ".mnrl" -type "double3" -360 -360 -360 ;
	setAttr ".mxrl" -type "double3" 360 360 360 ;
	setAttr ".jot" -type "string" "yxz";
	setAttr ".jo" -type "double3" 0 0 -180 ;
	setAttr ".bps" -type "matrix" -1 -1.2246467991473532e-016 0 0 1.2246467991473532e-016 -1 0 0
		 0 0 1 0 1.3486489690923307 14.656585133659888 1.5144370407379352e-017 1;
	setAttr -k on -cb off ".radi" 0.05;
createNode joint -n "upLegLFT_tmpJnt" -p "clavLFT_tmpJnt";
	addAttr -ci true -sn "liw" -ln "lockInfluenceWeights" -min 0 -max 1 -at "bool";
	setAttr ".uoc" yes;
	setAttr ".oc" 3;
	setAttr ".t" -type "double3" 5.5511151231257827e-017 0.47882265574876048 -0.069420819769112851 ;
	setAttr ".mnrl" -type "double3" -360 -360 -360 ;
	setAttr ".mxrl" -type "double3" 360 360 360 ;
	setAttr ".jot" -type "string" "yxz";
	setAttr ".bps" -type "matrix" -1 -1.2246467991473532e-016 0 0 1.2246467991473532e-016 -1 0 0
		 0 0 1 0 1.3486489690923305 7.7535119809750004 0.15259281481888803 1;
	setAttr -k on -cb off ".radi" 0.05;
createNode joint -n "lowLegLFT_tmpJnt" -p "upLegLFT_tmpJnt";
	addAttr -ci true -sn "liw" -ln "lockInfluenceWeights" -min 0 -max 1 -at "bool";
	setAttr ".uoc" yes;
	setAttr ".oc" 3;
	setAttr ".t" -type "double3" 5.5511151231257827e-016 0.5067597342560386 -0.16005459700339125 ;
	setAttr ".mnrl" -type "double3" -360 -360 -360 ;
	setAttr ".mxrl" -type "double3" 360 360 360 ;
	setAttr ".jot" -type "string" "yxz";
	setAttr ".bps" -type "matrix" -1 -1.2246467991473532e-016 0 0 1.2246467991473532e-016 -1 0 0
		 0 0 1 0 1.3486489690923305 7.7535119809750004 0.15259281481888803 1;
	setAttr -k on -cb off ".radi" 0.05;
createNode joint -n "ankleLFT_tmpJnt" -p "lowLegLFT_tmpJnt";
	addAttr -ci true -sn "liw" -ln "lockInfluenceWeights" -min 0 -max 1 -at "bool";
	setAttr ".uoc" yes;
	setAttr ".oc" 4;
	setAttr ".t" -type "double3" -5.5511151231257827e-017 0.59650831776535429 0.040074043722357899 ;
	setAttr ".mnrl" -type "double3" -360 -360 -360 ;
	setAttr ".mxrl" -type "double3" 360 360 360 ;
	setAttr ".jot" -type "string" "yxz";
	setAttr ".bps" -type "matrix" -1 -1.2246467991473532e-016 0 0 1.2246467991473532e-016 -1 0 0
		 0 0 1 0 1.348648969092332 1.0615915425310156 0 1;
	setAttr -k on -cb off ".radi" 0.05;
createNode joint -n "ballLFT_tmpJnt" -p "ankleLFT_tmpJnt";
	addAttr -ci true -sn "liw" -ln "lockInfluenceWeights" -min 0 -max 1 -at "bool";
	setAttr ".uoc" yes;
	setAttr ".oc" 5;
	setAttr ".t" -type "double3" 1.6653345369377348e-016 0.29527250392681231 0.18462237438955192 ;
	setAttr ".mnrl" -type "double3" -360 -360 -360 ;
	setAttr ".mxrl" -type "double3" 360 360 360 ;
	setAttr ".jot" -type "string" "yxz";
	setAttr ".jo" -type "double3" 89.999999999999986 0 0 ;
	setAttr ".bps" -type "matrix" -1 -1.2246467991473532e-016 0 0 2.7192621468937821e-032 -2.2204460492503131e-016 1 0
		 -1.2246467991473532e-016 1 2.2204460492503131e-016 0 1.3486489690923311 5.5511151231257827e-015 1.476681409489522 1;
	setAttr -k on -cb off ".radi" 0.05;
createNode joint -n "toeLFT_tmpJnt" -p "ballLFT_tmpJnt";
	addAttr -ci true -sn "liw" -ln "lockInfluenceWeights" -min 0 -max 1 -at "bool";
	setAttr ".uoc" yes;
	setAttr ".oc" 6;
	setAttr ".t" -type "double3" 5.5511151231257827e-017 0.36349446353254278 2.109103638837838e-017 ;
	setAttr ".mnrl" -type "double3" -360 -360 -360 ;
	setAttr ".mxrl" -type "double3" 360 360 360 ;
	setAttr ".bps" -type "matrix" -1 -1.2246467991473532e-016 0 0 2.7192621468937821e-032 -2.2204460492503131e-016 1 0
		 -1.2246467991473532e-016 1 2.2204460492503131e-016 0 1.3486489690923309 5.0024078434460801e-015 3.3551152167720435 1;
	setAttr -k on -cb off ".radi" 0.05;
createNode joint -n "heelLFT_tmpJnt" -p "ankleLFT_tmpJnt";
	setAttr ".t" -type "double3" 1.1102230246251565e-015 0.2963959746922018 -0.17641374320282499 ;
	setAttr ".jo" -type "double3" 89.999999999999986 0 0 ;
	setAttr ".radi" 0.05;
createNode joint -n "footInLFT_tmpJnt" -p "ankleLFT_tmpJnt";
	setAttr ".t" -type "double3" 0.208 0.29639597469220158 0.29318962914799829 ;
	setAttr ".radi" 0.05;
createNode joint -n "footOutLFT_tmpJnt" -p "ankleLFT_tmpJnt";
	setAttr ".t" -type "double3" -0.20775340663338893 0.29639597469220225 0.29476611755364313 ;
	setAttr ".radi" 0.05;
createNode joint -n "kneeIkLFT_tmpJnt" -p "lowLegLFT_tmpJnt";
	addAttr -ci true -sn "liw" -ln "lockInfluenceWeights" -min 0 -max 1 -at "bool";
	setAttr ".uoc" yes;
	setAttr ".oc" 2;
	setAttr ".t" -type "double3" 0 0 -0.53348688181551362 ;
	setAttr ".mnrl" -type "double3" -360 -360 -360 ;
	setAttr ".mxrl" -type "double3" 360 360 360 ;
	setAttr ".jot" -type "string" "yxz";
	setAttr ".bps" -type "matrix" -1 -1.2246467991473532e-016 0 0 1.2246467991473532e-016 -1 0 0
		 0 0 1 0 1.3486489690923307 14.656585133659888 1.5144370407379352e-017 1;
	setAttr -k on -cb off ".radi" 0.05;
createNode joint -n "clavRGT_tmpJnt" -p "spine2_tmpJnt";
	addAttr -ci true -sn "liw" -ln "lockInfluenceWeights" -min 0 -max 1 -at "bool";
	setAttr ".uoc" yes;
	setAttr ".oc" 2;
	setAttr ".t" -type "double3" -0.259791 0.07497223044658563 0.37234302817831499 ;
	setAttr ".r" -type "double3" 2.0001041917445067e-029 -1.4026788238829408e-014 4.3133423655002705e-016 ;
	setAttr ".mnrl" -type "double3" -360 -360 -360 ;
	setAttr ".mxrl" -type "double3" 360 360 360 ;
	setAttr ".jot" -type "string" "yxz";
	setAttr ".jo" -type "double3" 0 0 -180 ;
	setAttr ".bps" -type "matrix" -1 -1.2246467991473532e-016 0 0 1.2246467991473532e-016 -1 0 0
		 0 0 1 0 1.3486489690923307 14.656585133659888 1.5144370407379352e-017 1;
	setAttr -k on -cb off ".radi" 0.05;
createNode joint -n "upLegRGT_tmpJnt" -p "clavRGT_tmpJnt";
	addAttr -ci true -sn "liw" -ln "lockInfluenceWeights" -min 0 -max 1 -at "bool";
	setAttr ".uoc" yes;
	setAttr ".oc" 3;
	setAttr ".t" -type "double3" 5.5511151231257827e-017 0.47882 -0.069420999999999955 ;
	setAttr ".mnrl" -type "double3" -360 -360 -360 ;
	setAttr ".mxrl" -type "double3" 360 360 360 ;
	setAttr ".jot" -type "string" "yxz";
	setAttr ".bps" -type "matrix" -1 -1.2246467991473532e-016 0 0 1.2246467991473532e-016 -1 0 0
		 0 0 1 0 1.3486489690923305 7.7535119809750004 0.15259281481888803 1;
	setAttr -k on -cb off ".radi" 0.05;
createNode joint -n "lowLegRGT_tmpJnt" -p "upLegRGT_tmpJnt";
	addAttr -ci true -sn "liw" -ln "lockInfluenceWeights" -min 0 -max 1 -at "bool";
	setAttr ".uoc" yes;
	setAttr ".oc" 3;
	setAttr ".t" -type "double3" 5.5511151231257827e-017 0.50675899999999985 -0.160055 ;
	setAttr ".mnrl" -type "double3" -360 -360 -360 ;
	setAttr ".mxrl" -type "double3" 360 360 360 ;
	setAttr ".jot" -type "string" "yxz";
	setAttr ".bps" -type "matrix" -1 -1.2246467991473532e-016 0 0 1.2246467991473532e-016 -1 0 0
		 0 0 1 0 1.3486489690923305 7.7535119809750004 0.15259281481888803 1;
	setAttr -k on -cb off ".radi" 0.05;
createNode joint -n "ankleRGT_tmpJnt" -p "lowLegRGT_tmpJnt";
	addAttr -ci true -sn "liw" -ln "lockInfluenceWeights" -min 0 -max 1 -at "bool";
	setAttr ".uoc" yes;
	setAttr ".oc" 4;
	setAttr ".t" -type "double3" 5.5511151231257827e-017 0.596508 0.040074 ;
	setAttr ".mnrl" -type "double3" -360 -360 -360 ;
	setAttr ".mxrl" -type "double3" 360 360 360 ;
	setAttr ".jot" -type "string" "yxz";
	setAttr ".bps" -type "matrix" -1 -1.2246467991473532e-016 0 0 1.2246467991473532e-016 -1 0 0
		 0 0 1 0 1.348648969092332 1.0615915425310156 0 1;
	setAttr -k on -cb off ".radi" 0.05;
createNode joint -n "ballRGT_tmpJnt" -p "ankleRGT_tmpJnt";
	addAttr -ci true -sn "liw" -ln "lockInfluenceWeights" -min 0 -max 1 -at "bool";
	setAttr ".uoc" yes;
	setAttr ".oc" 5;
	setAttr ".t" -type "double3" 5.5511151231257827e-017 0.29527299999999984 0.18462299999999998 ;
	setAttr ".mnrl" -type "double3" -360 -360 -360 ;
	setAttr ".mxrl" -type "double3" 360 360 360 ;
	setAttr ".jot" -type "string" "yxz";
	setAttr ".jo" -type "double3" 89.999999999999986 0 0 ;
	setAttr ".bps" -type "matrix" -1 -1.2246467991473532e-016 0 0 2.7192621468937821e-032 -2.2204460492503131e-016 1 0
		 -1.2246467991473532e-016 1 2.2204460492503131e-016 0 1.3486489690923311 5.5511151231257827e-015 1.476681409489522 1;
	setAttr -k on -cb off ".radi" 0.05;
createNode joint -n "toeRGT_tmpJnt" -p "ballRGT_tmpJnt";
	addAttr -ci true -sn "liw" -ln "lockInfluenceWeights" -min 0 -max 1 -at "bool";
	setAttr ".uoc" yes;
	setAttr ".oc" 6;
	setAttr ".t" -type "double3" 0 0.36349399999999987 2.1091427928845794e-017 ;
	setAttr ".mnrl" -type "double3" -360 -360 -360 ;
	setAttr ".mxrl" -type "double3" 360 360 360 ;
	setAttr ".bps" -type "matrix" -1 -1.2246467991473532e-016 0 0 2.7192621468937821e-032 -2.2204460492503131e-016 1 0
		 -1.2246467991473532e-016 1 2.2204460492503131e-016 0 1.3486489690923309 5.0024078434460801e-015 3.3551152167720435 1;
	setAttr -k on -cb off ".radi" 0.05;
createNode joint -n "heelRGT_tmpJnt" -p "ankleRGT_tmpJnt";
	setAttr ".t" -type "double3" 5.5511151231257827e-017 0.29639647000000002 -0.17641400000000002 ;
	setAttr ".jo" -type "double3" 89.999999999999986 0 0 ;
	setAttr ".radi" 0.05;
createNode joint -n "footInRGT_tmpJnt" -p "ankleRGT_tmpJnt";
	setAttr ".t" -type "double3" -0.20800009999999994 0.29639647000000008 0.29319000000000006 ;
	setAttr ".radi" 0.05;
createNode joint -n "footOutRGT_tmpJnt" -p "ankleRGT_tmpJnt";
	setAttr ".t" -type "double3" 0.20775300000000008 0.29639647000000002 0.294766 ;
	setAttr ".radi" 0.05;
createNode joint -n "kneeIkRGT_tmpJnt" -p "lowLegRGT_tmpJnt";
	addAttr -ci true -sn "liw" -ln "lockInfluenceWeights" -min 0 -max 1 -at "bool";
	setAttr ".uoc" yes;
	setAttr ".oc" 2;
	setAttr ".t" -type "double3" 0 0 -0.533487 ;
	setAttr ".mnrl" -type "double3" -360 -360 -360 ;
	setAttr ".mxrl" -type "double3" 360 360 360 ;
	setAttr ".jot" -type "string" "yxz";
	setAttr ".bps" -type "matrix" -1 -1.2246467991473532e-016 0 0 1.2246467991473532e-016 -1 0 0
		 0 0 1 0 1.3486489690923307 14.656585133659888 1.5144370407379352e-017 1;
	setAttr -k on -cb off ".radi" 0.05;
createNode joint -n "neck1_tmpJnt" -p "spine2_tmpJnt";
	addAttr -ci true -sn "liw" -ln "lockInfluenceWeights" -min 0 -max 1 -at "bool";
	setAttr ".t" -type "double3" 0 0.19839998493491517 0.28347869248072355 ;
	setAttr ".jo" -type "double3" 30.000000000000028 0 0 ;
	setAttr ".bps" -type "matrix" 1 0 0 0 0 1 0 0 0 0 1 0 0 2.2402931348846322 0.70872068148552558 1;
	setAttr ".typ" 7;
	setAttr ".radi" 0.05;
createNode joint -n "head1_tmpJnt" -p "neck1_tmpJnt";
	addAttr -ci true -sn "liw" -ln "lockInfluenceWeights" -min 0 -max 1 -at "bool";
	setAttr ".t" -type "double3" 0 0.58038468354378958 0.0050279960983815597 ;
	setAttr ".jo" -type "double3" -30.000000000000028 0 0 ;
	setAttr ".bps" -type "matrix" 1 0 0 0 0 1 0 0 0 0 1 0 0 2.5009016363554526 0.83504337842563103 1;
	setAttr ".typ" 8;
	setAttr ".radi" 0.05;
createNode joint -n "head2_tmpJnt" -p "head1_tmpJnt";
	addAttr -ci true -sn "liw" -ln "lockInfluenceWeights" -min 0 -max 1 -at "bool";
	setAttr ".t" -type "double3" 0 0.89179133275756728 1.1102230246251565e-016 ;
	setAttr ".ssc" no;
	setAttr ".typ" 8;
	setAttr ".radi" 0.05;
createNode joint -n "jaw1LWR_tmpJnt" -p "head1_tmpJnt";
	addAttr -ci true -sn "liw" -ln "lockInfluenceWeights" -min 0 -max 1 -at "bool";
	setAttr ".t" -type "double3" 0 0.34783319914510535 0.1180979112313133 ;
	setAttr ".ssc" no;
	setAttr ".bps" -type "matrix" 1 0 0 0 0 1 0 0 0 0 1 0 0 2.8487348355005579 0.95314128965694433 1;
	setAttr ".radi" 0.05;
createNode joint -n "jaw2LWR_tmpJnt" -p "jaw1LWR_tmpJnt";
	addAttr -ci true -sn "liw" -ln "lockInfluenceWeights" -min 0 -max 1 -at "bool";
	setAttr ".t" -type "double3" 0 -0.27199921357128876 0.39267792769018761 ;
	setAttr ".bps" -type "matrix" 1 0 0 0 0 1 0 0 0 0 1 0 0 2.5767356219292692 1.3458192173471319 1;
	setAttr ".radi" 0.05;
createNode joint -n "jaw3LWR_tmpJnt" -p "jaw2LWR_tmpJnt";
	setAttr ".t" -type "double3" 0 0 0.34424184107755229 ;
	setAttr ".radi" 0.05;
createNode joint -n "toothUPR_tmpJnt" -p "jaw1LWR_tmpJnt";
	addAttr -ci true -sn "liw" -ln "lockInfluenceWeights" -min 0 -max 1 -at "bool";
	setAttr ".t" -type "double3" 0 -0.15753087770008811 0.33777330627829716 ;
	setAttr ".bps" -type "matrix" 1 0 0 0 0 1 0 0 0 0 1 0 0 2.6912039578004698 1.2909145959352415 1;
	setAttr ".radi" 0.02;
createNode joint -n "toothUPRTip_tmpJnt" -p "toothUPR_tmpJnt";
	setAttr ".t" -type "double3" 0 -0.04823988319728123 0.37580655500096483 ;
	setAttr ".radi" 0.02;
createNode joint -n "jaw1UPR_tmpJnt" -p "jaw1LWR_tmpJnt";
	addAttr -ci true -sn "liw" -ln "lockInfluenceWeights" -min 0 -max 1 -at "bool";
	setAttr ".t" -type "double3" 0 -0.17562857616672778 0.39267792769018761 ;
	setAttr ".jo" -type "double3" 0 0 180 ;
	setAttr ".ssc" no;
	setAttr ".bps" -type "matrix" -1 1.2246467991473532e-016 0 0 -1.2246467991473532e-016 -1 0 0
		 0 0 1 0 0 2.6731062593338302 1.3458192173471319 1;
	setAttr ".radi" 0.03;
createNode joint -n "jaw2UPR_tmpJnt" -p "jaw1UPR_tmpJnt";
	setAttr ".t" -type "double3" 4.9303806576313238e-032 0 0.39375796337874069 ;
	setAttr ".ssc" no;
	setAttr ".radi" 0.03;
createNode joint -n "toothLWR_tmpJnt" -p "jaw1LWR_tmpJnt";
	addAttr -ci true -sn "liw" -ln "lockInfluenceWeights" -min 0 -max 1 -at "bool";
	setAttr ".t" -type "double3" 0 -0.15753087770008811 0.33777330627829716 ;
	setAttr ".bps" -type "matrix" 1 0 0 0 0 1 0 0 0 0 1 0 0 2.6912039578004698 1.2909145959352415 1;
	setAttr ".radi" 0.03;
createNode joint -n "toothLWRTip_tmpJnt" -p "toothLWR_tmpJnt";
	setAttr ".t" -type "double3" 0 0.052317262307302936 0.37580655500096483 ;
	setAttr ".radi" 0.03;
createNode joint -n "tongue1_tmpJnt" -p "jaw1LWR_tmpJnt";
	addAttr -ci true -sn "liw" -ln "lockInfluenceWeights" -min 0 -max 1 -at "bool";
	setAttr ".t" -type "double3" 0 -0.15753087770008811 0.33777330627829716 ;
	setAttr ".radi" 0.04;
createNode joint -n "tongueTip_tmpJnt" -p "tongue1_tmpJnt";
	setAttr ".t" -type "double3" 0 -0.02332992152877722 0.33060483203895963 ;
	setAttr ".radi" 0.04;
createNode joint -n "Ear1RGT_tmpJnt" -p "head1_tmpJnt";
	addAttr -ci true -sn "liw" -ln "lockInfluenceWeights" -min 0 -max 1 -at "bool";
	setAttr ".t" -type "double3" -0.257467 0.58076836364454731 0.074514621574368944 ;
	setAttr ".jo" -type "double3" -180 0 0 ;
	setAttr ".bps" -type "matrix" 1 0 0 0 0 -1 -1.2246467991473532e-016 0 0 1.2246467991473532e-016 -1 0
		 -0.257467 3.0816699999999999 0.90955799999999998 1;
	setAttr ".radi" 0.05;
createNode joint -n "Ear1LFT_tmpJnt" -p "head1_tmpJnt";
	addAttr -ci true -sn "liw" -ln "lockInfluenceWeights" -min 0 -max 1 -at "bool";
	setAttr ".t" -type "double3" 0.25746650284372907 0.58076382738760879 0.0745142122806558 ;
	setAttr ".bps" -type "matrix" 1 0 0 0 0 1 0 0 0 0 1 0 0.25746650284372907 3.0816654637430614 0.90955759070628683 1;
	setAttr ".radi" 0.05;
createNode joint -n "eyeRGT_tmpJnt" -p "head1_tmpJnt";
	setAttr ".t" -type "double3" -0.185 0.43296537113852018 0.29761761550804655 ;
	setAttr ".ssc" no;
	setAttr ".radi" 0.05;
createNode joint -n "eyeLFT_tmpJnt" -p "head1_tmpJnt";
	setAttr ".t" -type "double3" 0.18451804867945612 0.43296537113852018 0.29761761550804655 ;
	setAttr ".ssc" no;
	setAttr ".radi" 0.05;
createNode joint -n "eye_tmpJnt" -p "head1_tmpJnt";
	setAttr ".t" -type "double3" 0 0.43309836364454757 1.5237535067580241 ;
	setAttr ".ssc" no;
	setAttr ".radi" 0.05;
createNode joint -n "eyeTrgtRGT_tmpJnt" -p "eye_tmpJnt";
	setAttr ".t" -type "double3" -0.185 0 0 ;
	setAttr ".ssc" no;
	setAttr ".radi" 0.05;
createNode joint -n "eyeTrgtLFT_tmpJnt" -p "eye_tmpJnt";
	setAttr ".t" -type "double3" 0.18451804867945612 0 -0.00023199987651523202 ;
	setAttr ".ssc" no;
	setAttr ".radi" 0.05;
createNode joint -n "pelvis_tmpJnt" -p "root_tmpJnt";
	addAttr -ci true -sn "liw" -ln "lockInfluenceWeights" -min 0 -max 1 -at "bool";
	setAttr ".t" -type "double3" 0 0.025781418480880669 -0.3775259233173518 ;
	setAttr ".bps" -type "matrix" 1 0 0 0 0 1 0 0 0 0 1 0 0 1.8023877695534143 -0.63608680342177581 1;
	setAttr ".radi" 0.05;
createNode joint -n "hipLFT_tmpJnt" -p "pelvis_tmpJnt";
	addAttr -ci true -sn "liw" -ln "lockInfluenceWeights" -min 0 -max 1 -at "bool";
	setAttr ".uoc" yes;
	setAttr ".oc" 2;
	setAttr ".t" -type "double3" 0.17176447688555613 0.012075888922082667 -0.097184139831674177 ;
	setAttr ".r" -type "double3" 2.0001041917445067e-029 -1.4026788238829408e-014 4.3133423655002705e-016 ;
	setAttr ".mnrl" -type "double3" -360 -360 -360 ;
	setAttr ".mxrl" -type "double3" 360 360 360 ;
	setAttr ".jot" -type "string" "yxz";
	setAttr ".jo" -type "double3" 0 0 -180 ;
	setAttr ".bps" -type "matrix" -1 -1.2246467991473532e-016 0 0 1.2246467991473532e-016 -1 0 0
		 0 0 1 0 1.3486489690923307 14.656585133659888 1.5144370407379352e-017 1;
	setAttr -k on -cb off ".radi" 0.05;
createNode joint -n "upLegBLFT_tmpJnt" -p "hipLFT_tmpJnt";
	addAttr -ci true -sn "liw" -ln "lockInfluenceWeights" -min 0 -max 1 -at "bool";
	setAttr ".uoc" yes;
	setAttr ".oc" 2;
	setAttr ".t" -type "double3" -0.12761005176543327 0.19286496885491911 -0.2198713436322921 ;
	setAttr ".r" -type "double3" 2.0001041917445067e-029 -1.4026788238829408e-014 4.3133423655002705e-016 ;
	setAttr ".mnrl" -type "double3" -360 -360 -360 ;
	setAttr ".mxrl" -type "double3" 360 360 360 ;
	setAttr ".jot" -type "string" "yxz";
	setAttr ".bps" -type "matrix" -1 -1.2246467991473532e-016 0 0 1.2246467991473532e-016 -1 0 0
		 0 0 1 0 1.3486489690923307 14.656585133659888 1.5144370407379352e-017 1;
	setAttr -k on -cb off ".radi" 0.05;
createNode joint -n "midLegBLFT_tmpJnt" -p "upLegBLFT_tmpJnt";
	addAttr -ci true -sn "liw" -ln "lockInfluenceWeights" -min 0 -max 1 -at "bool";
	setAttr ".uoc" yes;
	setAttr ".oc" 3;
	setAttr ".t" -type "double3" 1.6653345369377348e-016 0.27442631356327385 -0.062763403131538054 ;
	setAttr ".mnrl" -type "double3" -360 -360 -360 ;
	setAttr ".mxrl" -type "double3" 360 360 360 ;
	setAttr ".jot" -type "string" "yxz";
	setAttr ".bps" -type "matrix" -1 -1.2246467991473532e-016 0 0 1.2246467991473532e-016 -1 0 0
		 0 0 1 0 1.3486489690923305 7.7535119809750004 0.15259281481888803 1;
	setAttr -k on -cb off ".radi" 0.05;
createNode joint -n "kneeIkBLFT_tmpJnt" -p "midLegBLFT_tmpJnt";
	addAttr -ci true -sn "liw" -ln "lockInfluenceWeights" -min 0 -max 1 -at "bool";
	setAttr ".uoc" yes;
	setAttr ".oc" 2;
	setAttr ".t" -type "double3" -6.6613381477509373e-016 1.7763568394002505e-015 0.66592780578290522 ;
	setAttr ".mnrl" -type "double3" -360 -360 -360 ;
	setAttr ".mxrl" -type "double3" 360 360 360 ;
	setAttr ".jot" -type "string" "yxz";
	setAttr ".bps" -type "matrix" -1 -1.2246467991473532e-016 0 0 1.2246467991473532e-016 -1 0 0
		 0 0 1 0 1.3486489690923307 14.656585133659888 1.5144370407379352e-017 1;
	setAttr -k on -cb off ".radi" 0.05;
createNode joint -n "lowLegBLFT_tmpJnt" -p "midLegBLFT_tmpJnt";
	addAttr -ci true -sn "liw" -ln "lockInfluenceWeights" -min 0 -max 1 -at "bool";
	setAttr ".uoc" yes;
	setAttr ".oc" 3;
	setAttr ".t" -type "double3" -5.5511151231257827e-017 0.45439542089113216 -0.28246019283143453 ;
	setAttr ".mnrl" -type "double3" -360 -360 -360 ;
	setAttr ".mxrl" -type "double3" 360 360 360 ;
	setAttr ".jot" -type "string" "yxz";
	setAttr ".bps" -type "matrix" -1 -1.2246467991473532e-016 0 0 1.2246467991473532e-016 -1 0 0
		 0 0 1 0 1.3486489690923305 7.7535119809750004 0.15259281481888803 1;
	setAttr -k on -cb off ".radi" 0.05;
createNode joint -n "ankleBLFT_tmpJnt" -p "lowLegBLFT_tmpJnt";
	addAttr -ci true -sn "liw" -ln "lockInfluenceWeights" -min 0 -max 1 -at "bool";
	setAttr ".uoc" yes;
	setAttr ".oc" 4;
	setAttr ".t" -type "double3" 5.5511151231257827e-017 0.61233305195002208 0.02190705651162439 ;
	setAttr ".mnrl" -type "double3" -360 -360 -360 ;
	setAttr ".mxrl" -type "double3" 360 360 360 ;
	setAttr ".jot" -type "string" "yxz";
	setAttr ".bps" -type "matrix" -1 -1.2246467991473532e-016 0 0 1.2246467991473532e-016 -1 0 0
		 0 0 1 0 1.348648969092332 1.0615915425310156 0 1;
	setAttr -k on -cb off ".radi" 0.05;
createNode joint -n "ballBLFT_tmpJnt" -p "ankleBLFT_tmpJnt";
	addAttr -ci true -sn "liw" -ln "lockInfluenceWeights" -min 0 -max 1 -at "bool";
	setAttr ".uoc" yes;
	setAttr ".oc" 5;
	setAttr ".t" -type "double3" 5.5511151231257827e-017 0.2963959746922018 0.16079351732260228 ;
	setAttr ".mnrl" -type "double3" -360 -360 -360 ;
	setAttr ".mxrl" -type "double3" 360 360 360 ;
	setAttr ".jot" -type "string" "yxz";
	setAttr ".jo" -type "double3" 89.999999999999986 0 0 ;
	setAttr ".bps" -type "matrix" -1 -1.2246467991473532e-016 0 0 2.7192621468937821e-032 -2.2204460492503131e-016 1 0
		 -1.2246467991473532e-016 1 2.2204460492503131e-016 0 1.3486489690923311 5.5511151231257827e-015 1.476681409489522 1;
	setAttr -k on -cb off ".radi" 0.05;
createNode joint -n "toeBLFT_tmpJnt" -p "ballBLFT_tmpJnt";
	addAttr -ci true -sn "liw" -ln "lockInfluenceWeights" -min 0 -max 1 -at "bool";
	setAttr ".uoc" yes;
	setAttr ".oc" 6;
	setAttr ".t" -type "double3" 5.5511151231257827e-017 0.36349446353254278 2.109103638837838e-017 ;
	setAttr ".mnrl" -type "double3" -360 -360 -360 ;
	setAttr ".mxrl" -type "double3" 360 360 360 ;
	setAttr ".bps" -type "matrix" -1 -1.2246467991473532e-016 0 0 2.7192621468937821e-032 -2.2204460492503131e-016 1 0
		 -1.2246467991473532e-016 1 2.2204460492503131e-016 0 1.3486489690923309 5.0024078434460801e-015 3.3551152167720435 1;
	setAttr -k on -cb off ".radi" 0.05;
createNode joint -n "heelBLFT_tmpJnt" -p "ankleBLFT_tmpJnt";
	setAttr ".t" -type "double3" 1.1102230246251565e-015 0.2963959746922018 -0.17641374320282499 ;
	setAttr ".jo" -type "double3" 89.999999999999986 0 0 ;
	setAttr ".radi" 0.05;
createNode joint -n "footInBLFT_tmpJnt" -p "ankleBLFT_tmpJnt";
	setAttr ".t" -type "double3" 0.208 0.29639597469220158 0.29318962914799829 ;
	setAttr ".radi" 0.05;
createNode joint -n "footOutBLFT_tmpJnt" -p "ankleBLFT_tmpJnt";
	setAttr ".t" -type "double3" -0.20775340663338893 0.29639597469220225 0.29476611755364313 ;
	setAttr ".radi" 0.05;
createNode joint -n "hipRGT_tmpJnt" -p "pelvis_tmpJnt";
	addAttr -ci true -sn "liw" -ln "lockInfluenceWeights" -min 0 -max 1 -at "bool";
	setAttr ".uoc" yes;
	setAttr ".oc" 2;
	setAttr ".t" -type "double3" -0.191665 0.012080158970533494 -0.097183963859256872 ;
	setAttr ".r" -type "double3" 2.0001041917445067e-029 -1.4026788238829408e-014 4.3133423655002705e-016 ;
	setAttr ".mnrl" -type "double3" -360 -360 -360 ;
	setAttr ".mxrl" -type "double3" 360 360 360 ;
	setAttr ".jot" -type "string" "yxz";
	setAttr ".jo" -type "double3" 0 0 -180 ;
	setAttr ".bps" -type "matrix" -1 -1.2246467991473532e-016 0 0 1.2246467991473532e-016 -1 0 0
		 0 0 1 0 1.3486489690923307 14.656585133659888 1.5144370407379352e-017 1;
	setAttr -k on -cb off ".radi" 0.05;
createNode joint -n "upLegBRGT_tmpJnt" -p "hipRGT_tmpJnt";
	addAttr -ci true -sn "liw" -ln "lockInfluenceWeights" -min 0 -max 1 -at "bool";
	setAttr ".uoc" yes;
	setAttr ".oc" 2;
	setAttr ".t" -type "double3" 0.12760999999999997 0.19286999999999987 -0.21987199999999996 ;
	setAttr ".r" -type "double3" 2.0001041917445067e-029 -1.4026788238829408e-014 4.3133423655002705e-016 ;
	setAttr ".mnrl" -type "double3" -360 -360 -360 ;
	setAttr ".mxrl" -type "double3" 360 360 360 ;
	setAttr ".jot" -type "string" "yxz";
	setAttr ".bps" -type "matrix" -1 -1.2246467991473532e-016 0 0 1.2246467991473532e-016 -1 0 0
		 0 0 1 0 1.3486489690923307 14.656585133659888 1.5144370407379352e-017 1;
	setAttr -k on -cb off ".radi" 0.05;
createNode joint -n "midLegBRGT_tmpJnt" -p "upLegBRGT_tmpJnt";
	addAttr -ci true -sn "liw" -ln "lockInfluenceWeights" -min 0 -max 1 -at "bool";
	setAttr ".uoc" yes;
	setAttr ".oc" 3;
	setAttr ".t" -type "double3" 5.5511151231257827e-017 0.27442999999999995 -0.062760999999999956 ;
	setAttr ".mnrl" -type "double3" -360 -360 -360 ;
	setAttr ".mxrl" -type "double3" 360 360 360 ;
	setAttr ".jot" -type "string" "yxz";
	setAttr ".bps" -type "matrix" -1 -1.2246467991473532e-016 0 0 1.2246467991473532e-016 -1 0 0
		 0 0 1 0 1.3486489690923305 7.7535119809750004 0.15259281481888803 1;
	setAttr -k on -cb off ".radi" 0.05;
createNode joint -n "kneeIkBRGT_tmpJnt" -p "midLegBRGT_tmpJnt";
	addAttr -ci true -sn "liw" -ln "lockInfluenceWeights" -min 0 -max 1 -at "bool";
	setAttr ".uoc" yes;
	setAttr ".oc" 2;
	setAttr ".t" -type "double3" 0 0 0.66592599999999991 ;
	setAttr ".mnrl" -type "double3" -360 -360 -360 ;
	setAttr ".mxrl" -type "double3" 360 360 360 ;
	setAttr ".jot" -type "string" "yxz";
	setAttr ".bps" -type "matrix" -1 -1.2246467991473532e-016 0 0 1.2246467991473532e-016 -1 0 0
		 0 0 1 0 1.3486489690923307 14.656585133659888 1.5144370407379352e-017 1;
	setAttr -k on -cb off ".radi" 0.05;
createNode joint -n "lowLegBRGT_tmpJnt" -p "midLegBRGT_tmpJnt";
	addAttr -ci true -sn "liw" -ln "lockInfluenceWeights" -min 0 -max 1 -at "bool";
	setAttr ".uoc" yes;
	setAttr ".oc" 3;
	setAttr ".t" -type "double3" 5.5511151231257827e-017 0.4543910000000001 -0.28246000000000016 ;
	setAttr ".mnrl" -type "double3" -360 -360 -360 ;
	setAttr ".mxrl" -type "double3" 360 360 360 ;
	setAttr ".jot" -type "string" "yxz";
	setAttr ".bps" -type "matrix" -1 -1.2246467991473532e-016 0 0 1.2246467991473532e-016 -1 0 0
		 0 0 1 0 1.3486489690923305 7.7535119809750004 0.15259281481888803 1;
	setAttr -k on -cb off ".radi" 0.05;
createNode joint -n "ankleBRGT_tmpJnt" -p "lowLegBRGT_tmpJnt";
	addAttr -ci true -sn "liw" -ln "lockInfluenceWeights" -min 0 -max 1 -at "bool";
	setAttr ".uoc" yes;
	setAttr ".oc" 4;
	setAttr ".t" -type "double3" 5.5511151231257827e-017 0.612333 0.021900000000000031 ;
	setAttr ".mnrl" -type "double3" -360 -360 -360 ;
	setAttr ".mxrl" -type "double3" 360 360 360 ;
	setAttr ".jot" -type "string" "yxz";
	setAttr ".bps" -type "matrix" -1 -1.2246467991473532e-016 0 0 1.2246467991473532e-016 -1 0 0
		 0 0 1 0 1.348648969092332 1.0615915425310156 0 1;
	setAttr -k on -cb off ".radi" 0.05;
createNode joint -n "ballBRGT_tmpJnt" -p "ankleBRGT_tmpJnt";
	addAttr -ci true -sn "liw" -ln "lockInfluenceWeights" -min 0 -max 1 -at "bool";
	setAttr ".uoc" yes;
	setAttr ".oc" 5;
	setAttr ".t" -type "double3" 5.5511151231257827e-017 0.29639599999999988 0.16080000000000005 ;
	setAttr ".mnrl" -type "double3" -360 -360 -360 ;
	setAttr ".mxrl" -type "double3" 360 360 360 ;
	setAttr ".jot" -type "string" "yxz";
	setAttr ".jo" -type "double3" 89.999999999999986 0 0 ;
	setAttr ".bps" -type "matrix" -1 -1.2246467991473532e-016 0 0 2.7192621468937821e-032 -2.2204460492503131e-016 1 0
		 -1.2246467991473532e-016 1 2.2204460492503131e-016 0 1.3486489690923311 5.5511151231257827e-015 1.476681409489522 1;
	setAttr -k on -cb off ".radi" 0.05;
createNode joint -n "toeBRGT_tmpJnt" -p "ballBRGT_tmpJnt";
	addAttr -ci true -sn "liw" -ln "lockInfluenceWeights" -min 0 -max 1 -at "bool";
	setAttr ".uoc" yes;
	setAttr ".oc" 6;
	setAttr ".t" -type "double3" 5.5511151231257827e-017 0.36349299999999996 2.1090757115498718e-017 ;
	setAttr ".mnrl" -type "double3" -360 -360 -360 ;
	setAttr ".mxrl" -type "double3" 360 360 360 ;
	setAttr ".bps" -type "matrix" -1 -1.2246467991473532e-016 0 0 2.7192621468937821e-032 -2.2204460492503131e-016 1 0
		 -1.2246467991473532e-016 1 2.2204460492503131e-016 0 1.3486489690923309 5.0024078434460801e-015 3.3551152167720435 1;
	setAttr -k on -cb off ".radi" 0.05;
createNode joint -n "heelBRGT_tmpJnt" -p "ankleBRGT_tmpJnt";
	setAttr ".t" -type "double3" 5.5511151231257827e-017 0.29639599999999988 -0.17640999999999996 ;
	setAttr ".jo" -type "double3" 89.999999999999986 0 0 ;
	setAttr ".radi" 0.05;
createNode joint -n "footInBRGT_tmpJnt" -p "ankleBRGT_tmpJnt";
	setAttr ".t" -type "double3" -0.20799999999999991 0.29639599999999972 0.29319000000000006 ;
	setAttr ".radi" 0.05;
createNode joint -n "footOutBRGT_tmpJnt" -p "ankleBRGT_tmpJnt";
	setAttr ".t" -type "double3" 0.20775300000000013 0.29639600000000033 0.29477 ;
	setAttr ".radi" 0.05;
createNode lightLinker -s -n "lightLinker1";
	setAttr -s 8 ".lnk";
	setAttr -s 8 ".slnk";
createNode displayLayerManager -n "layerManager";
createNode displayLayer -n "defaultLayer";
createNode renderLayerManager -n "renderLayerManager";
createNode renderLayer -n "defaultRenderLayer";
	setAttr ".g" yes;
createNode groupId -n "groupId196";
	setAttr ".ihi" 0;
createNode groupId -n "templateRootControl_groupId10";
	setAttr ".ihi" 0;
createNode groupId -n "groupId19";
	setAttr ".ihi" 0;
createNode groupId -n "groupId25";
	setAttr ".ihi" 0;
createNode materialInfo -n "materialInfo64";
createNode shadingEngine -n "LEGO138";
	setAttr ".ihi" 0;
	setAttr ".ro" yes;
createNode shadingEngine -n "VRayMtl2SG";
	setAttr ".ihi" 0;
	setAttr ".ro" yes;
createNode materialInfo -n "materialInfo33022";
createNode shadingEngine -n "VRayMtl3SG";
	setAttr ".ihi" 0;
	setAttr ".ro" yes;
createNode materialInfo -n "materialInfo33023";
createNode shadingEngine -n "VRayMtl5SG";
	setAttr ".ihi" 0;
	setAttr ".ro" yes;
createNode materialInfo -n "materialInfo33025";
createNode shadingEngine -n "BlackSG";
	setAttr ".ihi" 0;
	setAttr ".ro" yes;
createNode materialInfo -n "materialInfo33026";
createNode shadingEngine -n "Silver1SG";
	setAttr ".ihi" 0;
	setAttr ".ro" yes;
createNode materialInfo -n "materialInfo33027";
createNode script -n "sceneConfigurationScriptNode";
	setAttr ".b" -type "string" "playbackOptions -min 1 -max 154 -ast 1 -aet 500 ";
	setAttr ".st" 6;
createNode renderGlobals -s -n "swiffworksRenderGlobals";
	addAttr -ci true -sn "rm" -ln "renderMode" -at "short";
	addAttr -ci true -sn "twos" -ln "twoSided" -dv 1 -min 0 -max 1 -at "bool";
	addAttr -ci true -sn "ctc" -ln "convertToCurves" -dv 1 -min 0 -max 1 -at "bool";
	addAttr -ci true -sn "cqlty" -ln "curveQuality" -at "short";
	addAttr -ci true -sn "inttype" -ln "intersType" -at "short";
	addAttr -ci true -sn "dlt" -ln "defaultLineThickness" -dv 0.2 -at "float";
	addAttr -ci true -sn "dlo" -ln "defaultLineOpacity" -dv 1 -at "float";
	addAttr -ci true -sn "dlcr" -ln "defaultLineColorR" -at "float";
	addAttr -ci true -sn "dlcg" -ln "defaultLineColorG" -at "float";
	addAttr -ci true -sn "dlcb" -ln "defaultLineColorB" -at "float";
	addAttr -ci true -sn "bw" -ln "bandwidth" -dv 14400 -at "float";
	addAttr -ci true -sn "oswg" -ln "onlySWG" -min 0 -max 1 -at "bool";
	addAttr -ci true -sn "fa" -ln "defaultFoldAngle" -dv 45 -at "float";
	addAttr -ci true -sn "df" -ln "defaultDisplayFolds" -at "short";
createNode renderGlobals -s -n "inkPaintRenderGlobals";
	addAttr -ci true -sn "regMode" -ln "regionMode" -at "short";
	addAttr -ci true -sn "dpi" -ln "dpiValue" -dv 100 -at "short";
createNode renderGlobals -s -n "inkworksRenderGlobals";
	addAttr -ci true -sn "bb" -ln "blendBackgr" -dv 1 -min 0 -max 1 -at "bool";
	addAttr -ci true -sn "rm" -ln "renderMode" -at "short";
	addAttr -ci true -sn "as" -ln "adaptiveSubdv" -dv 1 -min 0 -max 1 -at "bool";
	addAttr -ci true -sn "twos" -ln "twoSided" -dv 1 -min 0 -max 1 -at "bool";
	addAttr -ci true -sn "oiw" -ln "onlyIW" -min 0 -max 1 -at "bool";
createNode mentalrayItemsList -s -n "mentalrayItemsList";
createNode mentalrayGlobals -s -n "mentalrayGlobals";
	setAttr ".rvb" 3;
	setAttr ".ivb" no;
createNode mentalrayOptions -s -n "miDefaultOptions";
	addAttr -ci true -m -sn "stringOptions" -ln "stringOptions" -at "compound" -nc 
		3;
	addAttr -ci true -sn "name" -ln "name" -dt "string" -p "stringOptions";
	addAttr -ci true -sn "value" -ln "value" -dt "string" -p "stringOptions";
	addAttr -ci true -sn "type" -ln "type" -dt "string" -p "stringOptions";
	setAttr ".minsp" -1;
	setAttr ".maxsp" 1;
	setAttr ".fil" 1;
	setAttr ".rflr" 2;
	setAttr ".rfrr" 2;
	setAttr ".maxr" 4;
	setAttr ".fgr" 186;
	setAttr ".stringOptions[0].name" -type "string" "rast motion factor";
	setAttr ".stringOptions[0].value" -type "string" "1.0";
	setAttr ".stringOptions[0].type" -type "string" "scalar";
createNode mentalrayFramebuffer -s -n "miDefaultFramebuffer";
createNode mentalrayOptions -s -n "miContourPreset";
createNode mentalrayOptions -s -n "Draft";
	setAttr ".maxr" 2;
createNode mentalrayOptions -s -n "DraftMotionBlur";
	setAttr ".maxr" 2;
	setAttr ".mb" 1;
	setAttr ".tconr" 1;
	setAttr ".tcong" 1;
	setAttr ".tconb" 1;
	setAttr ".tcona" 1;
createNode mentalrayOptions -s -n "DraftRapidMotion";
	setAttr ".scan" 3;
	setAttr ".rapc" 1;
	setAttr ".raps" 0.25;
	setAttr ".maxr" 2;
	setAttr ".mb" 1;
	setAttr ".tconr" 1;
	setAttr ".tcong" 1;
	setAttr ".tconb" 1;
	setAttr ".tcona" 1;
createNode mentalrayOptions -s -n "Preview";
	setAttr ".minsp" -1;
	setAttr ".maxsp" 1;
	setAttr ".fil" 1;
	setAttr ".rflr" 2;
	setAttr ".rfrr" 2;
	setAttr ".maxr" 4;
createNode mentalrayOptions -s -n "PreviewMotionblur";
	setAttr ".minsp" -1;
	setAttr ".maxsp" 1;
	setAttr ".fil" 1;
	setAttr ".rflr" 2;
	setAttr ".rfrr" 2;
	setAttr ".maxr" 4;
	setAttr ".mb" 1;
	setAttr ".tconr" 0.5;
	setAttr ".tcong" 0.5;
	setAttr ".tconb" 0.5;
	setAttr ".tcona" 0.5;
createNode mentalrayOptions -s -n "PreviewRapidMotion";
	setAttr ".minsp" -1;
	setAttr ".maxsp" 1;
	setAttr ".fil" 1;
	setAttr ".scan" 3;
	setAttr ".rapc" 3;
	setAttr ".rflr" 2;
	setAttr ".rfrr" 2;
	setAttr ".maxr" 4;
	setAttr ".mb" 1;
	setAttr ".tconr" 0.5;
	setAttr ".tcong" 0.5;
	setAttr ".tconb" 0.5;
	setAttr ".tcona" 0.5;
createNode mentalrayOptions -s -n "PreviewCaustics";
	setAttr ".minsp" -1;
	setAttr ".maxsp" 1;
	setAttr ".fil" 1;
	setAttr ".rflr" 2;
	setAttr ".rfrr" 2;
	setAttr ".maxr" 4;
	setAttr ".ca" yes;
	setAttr ".cc" 1;
	setAttr ".cr" 1;
createNode mentalrayOptions -s -n "PreviewGlobalIllum";
	setAttr ".minsp" -1;
	setAttr ".maxsp" 1;
	setAttr ".fil" 1;
	setAttr ".rflr" 2;
	setAttr ".rfrr" 2;
	setAttr ".maxr" 4;
	setAttr ".gi" yes;
	setAttr ".gc" 1;
	setAttr ".gr" 1;
createNode mentalrayOptions -s -n "PreviewFinalGather";
	setAttr ".minsp" -1;
	setAttr ".maxsp" 1;
	setAttr ".fil" 1;
	setAttr ".rflr" 2;
	setAttr ".rfrr" 2;
	setAttr ".maxr" 4;
	setAttr ".fg" yes;
createNode mentalrayOptions -s -n "Production";
	setAttr ".minsp" 0;
	setAttr ".maxsp" 2;
	setAttr ".fil" 2;
	setAttr ".rflr" 10;
	setAttr ".rfrr" 10;
	setAttr ".maxr" 20;
createNode mentalrayOptions -s -n "ProductionMotionblur";
	setAttr ".minsp" 0;
	setAttr ".maxsp" 2;
	setAttr ".fil" 2;
	setAttr ".rflr" 10;
	setAttr ".rfrr" 10;
	setAttr ".maxr" 20;
	setAttr ".mb" 2;
createNode mentalrayOptions -s -n "ProductionRapidMotion";
	setAttr ".minsp" 0;
	setAttr ".maxsp" 2;
	setAttr ".fil" 2;
	setAttr ".scan" 3;
	setAttr ".rapc" 8;
	setAttr ".raps" 2;
	setAttr ".rflr" 10;
	setAttr ".rfrr" 10;
	setAttr ".maxr" 20;
	setAttr ".mb" 2;
createNode mentalrayOptions -s -n "ProductionFineTrace";
	setAttr ".conr" 0.019999999552965164;
	setAttr ".cong" 0.019999999552965164;
	setAttr ".conb" 0.019999999552965164;
	setAttr ".minsp" 1;
	setAttr ".maxsp" 2;
	setAttr ".fil" 1;
	setAttr ".filw" 0.75;
	setAttr ".filh" 0.75;
	setAttr ".jit" yes;
	setAttr ".scan" 0;
createNode mentalrayOptions -s -n "ProductionRapidFur";
	setAttr ".conr" 0.039999999105930328;
	setAttr ".cong" 0.029999999329447746;
	setAttr ".conb" 0.070000000298023224;
	setAttr ".minsp" 0;
	setAttr ".maxsp" 2;
	setAttr ".fil" 1;
	setAttr ".filw" 1.1449999809265137;
	setAttr ".filh" 1.1449999809265137;
	setAttr ".jit" yes;
	setAttr ".scan" 3;
	setAttr ".rapc" 3;
	setAttr ".raps" 0.25;
	setAttr ".ray" no;
	setAttr ".shmth" 3;
	setAttr ".shmap" 3;
	setAttr ".mbsm" no;
	setAttr ".bism" 0.019999999552965164;
createNode mentalrayOptions -s -n "ProductionRapidHair";
	setAttr ".conr" 0.039999999105930328;
	setAttr ".cong" 0.029999999329447746;
	setAttr ".conb" 0.070000000298023224;
	setAttr ".minsp" 0;
	setAttr ".maxsp" 2;
	setAttr ".fil" 1;
	setAttr ".filw" 1.1449999809265137;
	setAttr ".filh" 1.1449999809265137;
	setAttr ".jit" yes;
	setAttr ".scan" 3;
	setAttr ".rapc" 6;
	setAttr ".ray" no;
	setAttr ".shmth" 3;
	setAttr ".shmap" 3;
	setAttr ".mbsm" no;
	setAttr ".bism" 0.019999999552965164;
createNode mentalrayOptions -s -n "PreviewImrRayTracyOff";
	setAttr ".splck" no;
	setAttr ".minsp" 0;
	setAttr ".fil" 1;
	setAttr ".ray" no;
createNode mentalrayOptions -s -n "PreviewImrRayTracyOn";
	setAttr ".splck" no;
	setAttr ".minsp" 0;
	setAttr ".fil" 1;
	setAttr ".rfrr" 2;
	setAttr ".maxr" 3;
	setAttr ".shrd" 1;
createNode mentalrayOptions -s -n "FineTrace";
	setAttr ".conr" 0.019999999552965164;
	setAttr ".cong" 0.019999999552965164;
	setAttr ".conb" 0.019999999552965164;
	setAttr ".minsp" 1;
	setAttr ".maxsp" 2;
	setAttr ".fil" 1;
	setAttr ".filw" 0.75;
	setAttr ".filh" 0.75;
	setAttr ".jit" yes;
	setAttr ".scan" 0;
createNode mentalrayOptions -s -n "PreviewFinalgather";
	setAttr ".minsp" -1;
	setAttr ".maxsp" 1;
	setAttr ".fil" 1;
	setAttr ".rflr" 2;
	setAttr ".rfrr" 2;
	setAttr ".maxr" 4;
	setAttr ".gi" yes;
	setAttr ".fg" yes;
select -ne :time1;
	setAttr -av -k on ".cch";
	setAttr -cb on ".ihi";
	setAttr -av -k on ".nds";
	setAttr -cb on ".bnm";
	setAttr -k on ".o" 58;
	setAttr -av ".unw" 58;
lockNode -l 1 ;
select -ne :renderPartition;
	setAttr -k on ".cch";
	setAttr -cb on ".ihi";
	setAttr -k on ".nds";
	setAttr -cb on ".bnm";
	setAttr -s 8 ".st";
	setAttr -cb on ".an";
	setAttr -cb on ".pt";
lockNode -l 1 ;
select -ne :initialShadingGroup;
	setAttr -k on ".cch";
	setAttr -cb on ".ihi";
	setAttr -av -k on ".nds";
	setAttr -cb on ".bnm";
	setAttr -k on ".mwc";
	setAttr -cb on ".an";
	setAttr -cb on ".il";
	setAttr -cb on ".vo";
	setAttr -cb on ".eo";
	setAttr -cb on ".fo";
	setAttr -cb on ".epo";
	setAttr -k on ".ro" yes;
	setAttr -cb on ".mimt";
	setAttr -cb on ".miop";
	setAttr -k on ".mico";
	setAttr -cb on ".mise";
	setAttr -cb on ".mism";
	setAttr -cb on ".mice";
	setAttr -av -cb on ".micc";
	setAttr -k on ".micr";
	setAttr -k on ".micg";
	setAttr -k on ".micb";
	setAttr -cb on ".mica";
	setAttr -av -cb on ".micw";
	setAttr -cb on ".mirw";
lockNode -l 1 ;
select -ne :initialParticleSE;
	setAttr -av -k on ".cch";
	setAttr -cb on ".ihi";
	setAttr -av -k on ".nds";
	setAttr -cb on ".bnm";
	setAttr -k on ".mwc";
	setAttr -cb on ".an";
	setAttr -cb on ".il";
	setAttr -cb on ".vo";
	setAttr -cb on ".eo";
	setAttr -cb on ".fo";
	setAttr -cb on ".epo";
	setAttr -k on ".ro" yes;
	setAttr -cb on ".mimt";
	setAttr -cb on ".miop";
	setAttr -k on ".mico";
	setAttr -cb on ".mise";
	setAttr -cb on ".mism";
	setAttr -cb on ".mice";
	setAttr -av -cb on ".micc";
	setAttr -k on ".micr";
	setAttr -k on ".micg";
	setAttr -k on ".micb";
	setAttr -cb on ".mica";
	setAttr -av -cb on ".micw";
	setAttr -cb on ".mirw";
lockNode -l 1 ;
select -ne :defaultShaderList1;
	setAttr -k on ".cch";
	setAttr -cb on ".ihi";
	setAttr -k on ".nds";
	setAttr -cb on ".bnm";
	setAttr -s 2 ".s";
lockNode -l 1 ;
select -ne :postProcessList1;
	setAttr -k on ".cch";
	setAttr -cb on ".ihi";
	setAttr -k on ".nds";
	setAttr -cb on ".bnm";
	setAttr -s 2 ".p";
lockNode -l 1 ;
select -ne :defaultRenderingList1;
select -ne :renderGlobalsList1;
	setAttr -k on ".cch";
	setAttr -cb on ".ihi";
	setAttr -k on ".nds";
	setAttr -cb on ".bnm";
lockNode -l 1 ;
select -ne :defaultResolution;
	setAttr -av -k on ".cch";
	setAttr -k on ".ihi";
	setAttr -av -k on ".nds";
	setAttr -k on ".bnm";
	setAttr -av -k on ".w";
	setAttr -av -k on ".h";
	setAttr -av -k on ".pa" 1;
	setAttr -av -k on ".al";
	setAttr -av -k on ".dar";
	setAttr -av -k on ".ldar";
	setAttr -k on ".dpi";
	setAttr -av -k on ".off";
	setAttr -av -k on ".fld";
	setAttr -av -k on ".zsl";
	setAttr -k on ".isu";
	setAttr -k on ".pdu";
select -ne :defaultLightSet;
	setAttr -k on ".cch";
	setAttr -k on ".ihi";
	setAttr -av -k on ".nds";
	setAttr -k on ".bnm";
	setAttr -k on ".mwc";
	setAttr -k on ".an";
	setAttr -k on ".il";
	setAttr -k on ".vo";
	setAttr -k on ".eo";
	setAttr -k on ".fo";
	setAttr -k on ".epo";
	setAttr -k on ".ro" yes;
lockNode -l 1 ;
select -ne :defaultObjectSet;
	setAttr -k on ".cch";
	setAttr -k on ".ihi";
	setAttr -k on ".nds";
	setAttr -k on ".bnm";
	setAttr -k on ".mwc";
	setAttr -k on ".an";
	setAttr -k on ".il";
	setAttr -k on ".vo";
	setAttr -k on ".eo";
	setAttr -k on ".fo";
	setAttr -k on ".epo";
	setAttr ".ro" yes;
lockNode -l 1 ;
select -ne :defaultHardwareRenderGlobals;
	setAttr -k on ".cch";
	setAttr -cb on ".ihi";
	setAttr -k on ".nds";
	setAttr -cb on ".bnm";
	setAttr -av -k on ".rp";
	setAttr -k on ".cai";
	setAttr -k on ".coi";
	setAttr -cb on ".bc";
	setAttr -av -k on ".bcb";
	setAttr -av -k on ".bcg";
	setAttr -av -k on ".bcr";
	setAttr -k on ".ei";
	setAttr -k on ".ex";
	setAttr -av -k on ".es";
	setAttr -av -k on ".ef";
	setAttr -av -k on ".bf";
	setAttr -k on ".fii";
	setAttr -av -k on ".sf";
	setAttr -k on ".gr";
	setAttr -k on ".li";
	setAttr -k on ".ls";
	setAttr -k on ".mb";
	setAttr -k on ".ti";
	setAttr -k on ".txt";
	setAttr -k on ".mpr";
	setAttr -k on ".wzd";
	setAttr -k on ".fn" -type "string" "im";
	setAttr -k on ".if";
	setAttr -k on ".res" -type "string" "ntsc_4d 646 485 1.333";
	setAttr -k on ".as";
	setAttr -k on ".ds";
	setAttr -k on ".lm";
	setAttr -k on ".fir";
	setAttr -k on ".aap";
	setAttr -k on ".gh";
	setAttr -cb on ".sd";
lockNode -l 1 ;
connectAttr "root_tmpJnt.s" "spine1_tmpJnt.is";
connectAttr "spine1_tmpJnt.s" "spine2_tmpJnt.is";
connectAttr "spine2_tmpJnt.s" "clavLFT_tmpJnt.is";
connectAttr "clavLFT_tmpJnt.s" "upLegLFT_tmpJnt.is";
connectAttr "upLegLFT_tmpJnt.s" "lowLegLFT_tmpJnt.is";
connectAttr "lowLegLFT_tmpJnt.s" "ankleLFT_tmpJnt.is";
connectAttr "ballLFT_tmpJnt.s" "toeLFT_tmpJnt.is";
connectAttr "ankleLFT_tmpJnt.s" "heelLFT_tmpJnt.is";
connectAttr "ankleLFT_tmpJnt.s" "footInLFT_tmpJnt.is";
connectAttr "ankleLFT_tmpJnt.s" "footOutLFT_tmpJnt.is";
connectAttr "lowLegLFT_tmpJnt.s" "kneeIkLFT_tmpJnt.is";
connectAttr "spine2_tmpJnt.s" "clavRGT_tmpJnt.is";
connectAttr "clavRGT_tmpJnt.s" "upLegRGT_tmpJnt.is";
connectAttr "upLegRGT_tmpJnt.s" "lowLegRGT_tmpJnt.is";
connectAttr "lowLegRGT_tmpJnt.s" "ankleRGT_tmpJnt.is";
connectAttr "ballRGT_tmpJnt.s" "toeRGT_tmpJnt.is";
connectAttr "ankleRGT_tmpJnt.s" "heelRGT_tmpJnt.is";
connectAttr "ankleRGT_tmpJnt.s" "footInRGT_tmpJnt.is";
connectAttr "ankleRGT_tmpJnt.s" "footOutRGT_tmpJnt.is";
connectAttr "lowLegRGT_tmpJnt.s" "kneeIkRGT_tmpJnt.is";
connectAttr "spine2_tmpJnt.s" "neck1_tmpJnt.is";
connectAttr "neck1_tmpJnt.s" "head1_tmpJnt.is";
connectAttr "head1_tmpJnt.s" "head2_tmpJnt.is";
connectAttr "head1_tmpJnt.s" "jaw1LWR_tmpJnt.is";
connectAttr "jaw1LWR_tmpJnt.s" "jaw2LWR_tmpJnt.is";
connectAttr "jaw2LWR_tmpJnt.s" "jaw3LWR_tmpJnt.is";
connectAttr "jaw1LWR_tmpJnt.s" "toothUPR_tmpJnt.is";
connectAttr "toothUPR_tmpJnt.s" "toothUPRTip_tmpJnt.is";
connectAttr "jaw1LWR_tmpJnt.s" "jaw1UPR_tmpJnt.is";
connectAttr "jaw1UPR_tmpJnt.s" "jaw2UPR_tmpJnt.is";
connectAttr "jaw1LWR_tmpJnt.s" "toothLWR_tmpJnt.is";
connectAttr "toothLWR_tmpJnt.s" "toothLWRTip_tmpJnt.is";
connectAttr "jaw1LWR_tmpJnt.s" "tongue1_tmpJnt.is";
connectAttr "tongue1_tmpJnt.s" "tongueTip_tmpJnt.is";
connectAttr "head1_tmpJnt.s" "Ear1RGT_tmpJnt.is";
connectAttr "head1_tmpJnt.s" "Ear1LFT_tmpJnt.is";
connectAttr "head1_tmpJnt.s" "eye_tmpJnt.is";
connectAttr "eye_tmpJnt.s" "eyeTrgtRGT_tmpJnt.is";
connectAttr "eye_tmpJnt.s" "eyeTrgtLFT_tmpJnt.is";
connectAttr "root_tmpJnt.s" "pelvis_tmpJnt.is";
connectAttr "pelvis_tmpJnt.s" "hipLFT_tmpJnt.is";
connectAttr "hipLFT_tmpJnt.s" "upLegBLFT_tmpJnt.is";
connectAttr "upLegBLFT_tmpJnt.s" "midLegBLFT_tmpJnt.is";
connectAttr "midLegBLFT_tmpJnt.s" "kneeIkBLFT_tmpJnt.is";
connectAttr "midLegBLFT_tmpJnt.s" "lowLegBLFT_tmpJnt.is";
connectAttr "lowLegBLFT_tmpJnt.s" "ankleBLFT_tmpJnt.is";
connectAttr "ballBLFT_tmpJnt.s" "toeBLFT_tmpJnt.is";
connectAttr "ankleBLFT_tmpJnt.s" "heelBLFT_tmpJnt.is";
connectAttr "ankleBLFT_tmpJnt.s" "footInBLFT_tmpJnt.is";
connectAttr "ankleBLFT_tmpJnt.s" "footOutBLFT_tmpJnt.is";
connectAttr "pelvis_tmpJnt.s" "hipRGT_tmpJnt.is";
connectAttr "hipRGT_tmpJnt.s" "upLegBRGT_tmpJnt.is";
connectAttr "upLegBRGT_tmpJnt.s" "midLegBRGT_tmpJnt.is";
connectAttr "midLegBRGT_tmpJnt.s" "kneeIkBRGT_tmpJnt.is";
connectAttr "midLegBRGT_tmpJnt.s" "lowLegBRGT_tmpJnt.is";
connectAttr "lowLegBRGT_tmpJnt.s" "ankleBRGT_tmpJnt.is";
connectAttr "ballBRGT_tmpJnt.s" "toeBRGT_tmpJnt.is";
connectAttr "ankleBRGT_tmpJnt.s" "heelBRGT_tmpJnt.is";
connectAttr "ankleBRGT_tmpJnt.s" "footInBRGT_tmpJnt.is";
connectAttr "ankleBRGT_tmpJnt.s" "footOutBRGT_tmpJnt.is";
relationship "link" ":lightLinker1" ":initialShadingGroup.message" ":defaultLightSet.message";
relationship "link" ":lightLinker1" ":initialParticleSE.message" ":defaultLightSet.message";
relationship "link" ":lightLinker1" "LEGO138.message" ":defaultLightSet.message";
relationship "link" ":lightLinker1" "VRayMtl2SG.message" ":defaultLightSet.message";
relationship "link" ":lightLinker1" "VRayMtl3SG.message" ":defaultLightSet.message";
relationship "link" ":lightLinker1" "VRayMtl5SG.message" ":defaultLightSet.message";
relationship "link" ":lightLinker1" "BlackSG.message" ":defaultLightSet.message";
relationship "link" ":lightLinker1" "Silver1SG.message" ":defaultLightSet.message";
relationship "shadowLink" ":lightLinker1" ":initialShadingGroup.message" ":defaultLightSet.message";
relationship "shadowLink" ":lightLinker1" ":initialParticleSE.message" ":defaultLightSet.message";
relationship "shadowLink" ":lightLinker1" "LEGO138.message" ":defaultLightSet.message";
relationship "shadowLink" ":lightLinker1" "VRayMtl2SG.message" ":defaultLightSet.message";
relationship "shadowLink" ":lightLinker1" "VRayMtl3SG.message" ":defaultLightSet.message";
relationship "shadowLink" ":lightLinker1" "VRayMtl5SG.message" ":defaultLightSet.message";
relationship "shadowLink" ":lightLinker1" "BlackSG.message" ":defaultLightSet.message";
relationship "shadowLink" ":lightLinker1" "Silver1SG.message" ":defaultLightSet.message";
connectAttr "layerManager.dli[0]" "defaultLayer.id";
connectAttr "renderLayerManager.rlmi[0]" "defaultRenderLayer.rlid";
connectAttr "LEGO138.msg" "materialInfo64.sg";
connectAttr "VRayMtl2SG.msg" "materialInfo33022.sg";
connectAttr "VRayMtl3SG.msg" "materialInfo33023.sg";
connectAttr "VRayMtl5SG.msg" "materialInfo33025.sg";
connectAttr "BlackSG.msg" "materialInfo33026.sg";
connectAttr "Silver1SG.msg" "materialInfo33027.sg";
connectAttr "LEGO138.pa" ":renderPartition.st" -na;
connectAttr "VRayMtl2SG.pa" ":renderPartition.st" -na;
connectAttr "VRayMtl3SG.pa" ":renderPartition.st" -na;
connectAttr "VRayMtl5SG.pa" ":renderPartition.st" -na;
connectAttr "BlackSG.pa" ":renderPartition.st" -na;
connectAttr "Silver1SG.pa" ":renderPartition.st" -na;
connectAttr "defaultRenderLayer.msg" ":defaultRenderingList1.r" -na;
// End of quardrupedTemplateJnt.ma
