//Maya ASCII 2020 scene
//Name: characterTmp.ma
//Last modified: Wed, Jun 07, 2023 06:06:43 PM
//Codeset: 1252
requires maya "2020";
requires "stereoCamera" "10.0";
requires -nodeType "ilrOptionsNode" -nodeType "ilrUIOptionsNode" -nodeType "ilrBakeLayerManager"
		 "Turtle" "2020.0.0";
requires -nodeType "renderSetup" "renderSetup.py" "1.0";
currentUnit -l centimeter -a degree -t film;
fileInfo "application" "maya";
fileInfo "product" "Maya 2020";
fileInfo "version" "2020";
fileInfo "cutIdentifier" "202011110415-b1e20b88e2";
fileInfo "osv" "Microsoft Windows 10 Technical Preview  (Build 19041)\n";
fileInfo "UUID" "3A3782EA-4017-F4F8-FD55-84AA1040CF69";
createNode transform -s -n "persp";
	rename -uid "ABB16ACF-4C9D-A4EB-2901-C5897DA2578F";
	setAttr ".v" no;
	setAttr ".t" -type "double3" 29.413363068823571 30.813967830990276 39.186681759961623 ;
	setAttr ".r" -type "double3" -25.538352729602849 31.000000000000188 9.2763532826622817e-16 ;
createNode camera -s -n "perspShape" -p "persp";
	rename -uid "3DFF4B27-49CB-8B65-DE8F-6481DFD1EB5A";
	setAttr -k off ".v" no;
	setAttr ".fl" 34.999999999999993;
	setAttr ".coi" 58.284743555064942;
	setAttr ".imn" -type "string" "persp";
	setAttr ".den" -type "string" "persp_depth";
	setAttr ".man" -type "string" "persp_mask";
	setAttr ".hc" -type "string" "viewSet -p %camera";
createNode transform -s -n "top";
	rename -uid "1746A5D1-4888-7426-ABD6-73A30A2C87FA";
	setAttr ".v" no;
	setAttr ".t" -type "double3" 0 1000.1 0 ;
	setAttr ".r" -type "double3" -90 0 0 ;
createNode camera -s -n "topShape" -p "top";
	rename -uid "EA3CEF26-477A-C8B5-A0C7-55834A531FC9";
	setAttr -k off ".v" no;
	setAttr ".rnd" no;
	setAttr ".coi" 1000.1;
	setAttr ".ow" 30;
	setAttr ".imn" -type "string" "top";
	setAttr ".den" -type "string" "top_depth";
	setAttr ".man" -type "string" "top_mask";
	setAttr ".hc" -type "string" "viewSet -t %camera";
	setAttr ".o" yes;
createNode transform -s -n "front";
	rename -uid "2CB637A8-4F06-455F-1925-01BD34CD3B0E";
	setAttr ".v" no;
	setAttr ".t" -type "double3" 0 0 1000.1 ;
createNode camera -s -n "frontShape" -p "front";
	rename -uid "610D28A8-479C-5BB1-2360-28964388769A";
	setAttr -k off ".v" no;
	setAttr ".rnd" no;
	setAttr ".coi" 1000.1;
	setAttr ".ow" 30;
	setAttr ".imn" -type "string" "front";
	setAttr ".den" -type "string" "front_depth";
	setAttr ".man" -type "string" "front_mask";
	setAttr ".hc" -type "string" "viewSet -f %camera";
	setAttr ".o" yes;
createNode transform -s -n "side";
	rename -uid "8F45E9D7-4DAE-F534-B1BB-01B6EEF9680C";
	setAttr ".v" no;
	setAttr ".t" -type "double3" 1000.1 0 0 ;
	setAttr ".r" -type "double3" 0 90 0 ;
createNode camera -s -n "sideShape" -p "side";
	rename -uid "FC60D159-4922-1462-A647-D79E9A4BB8A7";
	setAttr -k off ".v" no;
	setAttr ".rnd" no;
	setAttr ".coi" 1000.1;
	setAttr ".ow" 30;
	setAttr ".imn" -type "string" "side";
	setAttr ".den" -type "string" "side_depth";
	setAttr ".man" -type "string" "side_mask";
	setAttr ".hc" -type "string" "viewSet -s %camera";
	setAttr ".o" yes;
createNode transform -n "Export_Grp";
	rename -uid "CB6EDDD6-49E7-0EED-B033-94A2CCFD3635";
createNode transform -n "TmpJnt_Grp" -p "Export_Grp";
	rename -uid "D67D59E3-4377-27DD-F951-8281105AD680";
createNode joint -n "Root_TmpJnt" -p "TmpJnt_Grp";
	rename -uid "AC0E7D8D-4426-FF63-04AD-EE90D49FA8EB";
	addAttr -ci true -sn "liw" -ln "lockInfluenceWeights" -min 0 -max 1 -at "bool";
	setAttr ".uoc" 1;
	setAttr ".t" -type "double3" 1.97094821868652e-16 4.4338126684733909 -0.14209277542188523 ;
	setAttr ".mnrl" -type "double3" -360 -360 -360 ;
	setAttr ".mxrl" -type "double3" 360 360 360 ;
	setAttr ".jot" -type "string" "yxz";
	setAttr ".bps" -type "matrix" 1 0 0 0 0 1 0 0 0 0 1 0 0 5.9085930435879632 0.25737377958398538 1;
	setAttr -k on -cb off ".radi" 0.1;
createNode joint -n "Spine1_TmpJnt" -p "Root_TmpJnt";
	rename -uid "B4899620-474E-E7BA-4FC5-6FAE01BD569C";
	addAttr -ci true -sn "liw" -ln "lockInfluenceWeights" -min 0 -max 1 -at "bool";
	setAttr ".uoc" 1;
	setAttr ".t" -type "double3" -4.7220516771895065e-35 0.27896210072097105 -8.5193044899755307e-20 ;
	setAttr ".mnrl" -type "double3" -360 -360 -360 ;
	setAttr ".mxrl" -type "double3" 360 360 360 ;
	setAttr ".jot" -type "string" "yxz";
	setAttr ".bps" -type "matrix" 1 0 0 0 0 0.9929076298768893 0.11888834481250959 0
		 0 -0.11888834481250959 0.9929076298768893 0 0 5.9241052559495255 0.25737377958398538 1;
	setAttr -k on -cb off ".radi" 0.1;
createNode joint -n "Spine2_TmpJnt" -p "Spine1_TmpJnt";
	rename -uid "CA522D14-4BDD-2525-D583-4FB51CF63354";
	addAttr -ci true -sn "liw" -ln "lockInfluenceWeights" -min 0 -max 1 -at "bool";
	setAttr ".uoc" 1;
	setAttr ".oc" 1;
	setAttr ".t" -type "double3" 0 0.58176529909965069 0 ;
	setAttr ".mnrl" -type "double3" -360 -360 -360 ;
	setAttr ".mxrl" -type "double3" 360 360 360 ;
	setAttr ".jot" -type "string" "yxz";
	setAttr ".bps" -type "matrix" 1 0 0 0 0 0.99378521342456361 0.11131464224752535 0
		 0 -0.11131464224752535 0.99378521342456361 0 0 6.1698303513532089 0.28679630489488678 1;
	setAttr -k on -cb off ".radi" 0.1;
createNode joint -n "Spine3_TmpJnt" -p "Spine2_TmpJnt";
	rename -uid "FF1FF646-40B4-23E3-E931-B798B5CED267";
	addAttr -ci true -sn "liw" -ln "lockInfluenceWeights" -min 0 -max 1 -at "bool";
	setAttr ".uoc" 1;
	setAttr ".oc" 2;
	setAttr ".t" -type "double3" 0 0.58176529909965069 0 ;
	setAttr ".mnrl" -type "double3" -360 -360 -360 ;
	setAttr ".mxrl" -type "double3" 360 360 360 ;
	setAttr ".jot" -type "string" "yxz";
	setAttr ".bps" -type "matrix" 1 0 0 0 0 0.99929237552487415 0.037613138899243809 0
		 0 -0.037613138899243809 0.99929237552487415 0 0 6.4157726314118264 0.31434448789101449 1;
	setAttr -k on -cb off ".radi" 0.1;
createNode joint -n "Spine4_TmpJnt" -p "Spine3_TmpJnt";
	rename -uid "139C4416-44B1-1C7E-45E0-8A9B2C6436A5";
	addAttr -ci true -sn "liw" -ln "lockInfluenceWeights" -min 0 -max 1 -at "bool";
	setAttr ".uoc" 1;
	setAttr ".oc" 3;
	setAttr ".t" -type "double3" 0 0.58176529909965069 0 ;
	setAttr ".mnrl" -type "double3" -360 -360 -360 ;
	setAttr ".mxrl" -type "double3" 360 360 360 ;
	setAttr ".jot" -type "string" "yxz";
	setAttr ".bps" -type "matrix" 1 0 0 0 0 0.98867100769888516 -0.15009876260539556 0
		 0 0.15009876260539556 0.98867100769888516 0 0 6.6630778256950727 0.32365299944469711 1;
	setAttr -k on -cb off ".radi" 0.1;
createNode joint -n "Spine5_TmpJnt" -p "Spine4_TmpJnt";
	rename -uid "BEF47A4E-4EC0-8378-CAFA-D8AB614B5592";
	addAttr -ci true -sn "liw" -ln "lockInfluenceWeights" -min 0 -max 1 -at "bool";
	setAttr ".uoc" 1;
	setAttr ".oc" 4;
	setAttr ".t" -type "double3" 0 0.53809577408592357 0 ;
	setAttr ".mnrl" -type "double3" -360 -360 -360 ;
	setAttr ".mxrl" -type "double3" 360 360 360 ;
	setAttr ".jot" -type "string" "yxz";
	setAttr ".bps" -type "matrix" 1 0 0 0 0 0.98867100769888516 -0.15009876260539556 0
		 0 0.15009876260539556 0.98867100769888516 0 0 6.9036805062932469 0.28712500949040259 1;
	setAttr -k on -cb off ".radi" 0.1;
createNode joint -n "Neck_TmpJnt" -p "Spine5_TmpJnt";
	rename -uid "0D2027D0-48D6-35FD-357B-7F901FA6D6F0";
	addAttr -ci true -sn "liw" -ln "lockInfluenceWeights" -min 0 -max 1 -at "bool";
	setAttr ".uoc" 1;
	setAttr ".oc" 5;
	setAttr ".t" -type "double3" 4.8571237917054553e-09 1.609962265551184 -0.059598018728606789 ;
	setAttr ".mnrl" -type "double3" -360 -360 -360 ;
	setAttr ".mxrl" -type "double3" 360 360 360 ;
	setAttr ".jot" -type "string" "yxz";
	setAttr ".bps" -type "matrix" 1 0 0 0 0 1 0 0 0 0 1 0 0 22.764810214551506 1.2852494451027699e-16 1;
	setAttr -k on -cb off ".radi" 0.1;
createNode joint -n "Head_TmpJnt" -p "Neck_TmpJnt";
	rename -uid "9838AD83-4808-7419-696E-4FB34CC2A735";
	addAttr -ci true -sn "liw" -ln "lockInfluenceWeights" -min 0 -max 1 -at "bool";
	setAttr ".uoc" 1;
	setAttr ".oc" 6;
	setAttr ".t" -type "double3" 4.7505727041471677e-17 0.10365588856115515 1.113077463532619e-09 ;
	setAttr ".mnrl" -type "double3" -360 -360 -360 ;
	setAttr ".mxrl" -type "double3" 360 360 360 ;
	setAttr ".jot" -type "string" "yxz";
	setAttr ".bps" -type "matrix" 1 0 0 0 0 1 0 0 0 0 1 0 0 25.118764441136726 1.5379363139276727e-16 1;
	setAttr -k on -cb off ".radi" 0.1;
createNode joint -n "HeadEnd_TmpJnt" -p "Head_TmpJnt";
	rename -uid "07619263-48BA-2756-6F8C-9896A54C1476";
	addAttr -ci true -sn "liw" -ln "lockInfluenceWeights" -min 0 -max 1 -at "bool";
	setAttr ".uoc" 1;
	setAttr ".oc" 7;
	setAttr ".t" -type "double3" 0 7.7209985740246481 0 ;
	setAttr ".mnrl" -type "double3" -360 -360 -360 ;
	setAttr ".mxrl" -type "double3" 360 360 360 ;
	setAttr ".bps" -type "matrix" 1 0 0 0 0 1 0 0 0 0 1 0 0 27.864768711571326 -1.9234515956468954e-15 1;
	setAttr -k on -cb off ".radi" 0.1;
createNode joint -n "HairRoot_TmpJnt" -p "HeadEnd_TmpJnt";
	rename -uid "49D0C08D-45FD-172C-1838-76A0ECD8F24A";
	addAttr -ci true -sn "liw" -ln "lockInfluenceWeights" -min 0 -max 1 -at "bool";
	setAttr ".uoc" 1;
	setAttr ".mnrl" -type "double3" -360 -360 -360 ;
	setAttr ".mxrl" -type "double3" 360 360 360 ;
	setAttr ".bps" -type "matrix" 1 0 0 0 0 1 0 0 0 0 1 0 0 27.864768711571326 -1.9234515956468954e-15 1;
	setAttr -k on -cb off ".radi" 0.1;
createNode joint -n "JawLwr1_TmpJnt" -p "Head_TmpJnt";
	rename -uid "BC6B7BC2-4175-5A2D-3B6E-10AE1522D747";
	addAttr -ci true -sn "liw" -ln "lockInfluenceWeights" -min 0 -max 1 -at "bool";
	setAttr ".uoc" 1;
	setAttr ".oc" 7;
	setAttr ".t" -type "double3" 7.2569963349397324e-09 0.93446765939922116 1.8016569407379515 ;
	setAttr ".mnrl" -type "double3" -360 -360 -360 ;
	setAttr ".mxrl" -type "double3" 360 360 360 ;
	setAttr ".jot" -type "string" "yxz";
	setAttr ".jo" -type "double3" 31.983454365182002 0 0 ;
	setAttr ".bps" -type "matrix" 1 0 0 0 0 1 0 0 0 0 1 0 0 25.105065775409837 0.43032997634803533 1;
	setAttr -k on -cb off ".radi" 0.1;
createNode joint -n "JawLwr2_TmpJnt" -p "JawLwr1_TmpJnt";
	rename -uid "4CF224EC-4F83-FB58-8300-7A942C17A1FC";
	addAttr -ci true -sn "liw" -ln "lockInfluenceWeights" -min 0 -max 1 -at "bool";
	setAttr ".uoc" 1;
	setAttr ".t" -type "double3" 0 -0.064865005761177486 0.087897085122844221 ;
	setAttr ".mnrl" -type "double3" -360 -360 -360 ;
	setAttr ".mxrl" -type "double3" 360 360 360 ;
	setAttr ".jot" -type "string" "yxz";
	setAttr ".jo" -type "double3" -12.993675171478799 0 0 ;
	setAttr ".bps" -type "matrix" 1 0 0 0 0 1 0 0 0 0 1 0 0 24.169010636166544 0.55021567872571864 1;
	setAttr -k on -cb off ".radi" 0.1;
createNode joint -n "JawLwrEnd_TmpJnt" -p "JawLwr2_TmpJnt";
	rename -uid "2F6A1ACD-430E-A944-D9AB-ED8BEBFC06E4";
	addAttr -ci true -sn "liw" -ln "lockInfluenceWeights" -min 0 -max 1 -at "bool";
	setAttr ".uoc" 1;
	setAttr ".oc" 1;
	setAttr ".t" -type "double3" 0 0 0.28092865898857267 ;
	setAttr ".mnrl" -type "double3" -360 -360 -360 ;
	setAttr ".mxrl" -type "double3" 360 360 360 ;
	setAttr ".bps" -type "matrix" 1 0 0 0 0 1 0 0 0 0 1 0 0 24.169010636166544 2.0776527139297967 1;
	setAttr -k on -cb off ".radi" 0.1;
createNode joint -n "EyeTrgt_TmpJnt" -p "Head_TmpJnt";
	rename -uid "7396CFA3-4CF4-FF36-5763-97BCC325CCB4";
	addAttr -ci true -sn "liw" -ln "lockInfluenceWeights" -min 0 -max 1 -at "bool";
	setAttr ".uoc" 1;
	setAttr ".oc" 7;
	setAttr ".t" -type "double3" 0.0032107870877974842 3.6098810082181263 9.3010696543462785 ;
	setAttr ".mnrl" -type "double3" -360 -360 -360 ;
	setAttr ".mxrl" -type "double3" 360 360 360 ;
	setAttr ".bps" -type "matrix" 1 0 0 0 0 1 0 0 0 0 1 0 -0.53833200000000003 25.828300000000006 1.4860499999999996 1;
	setAttr -k on -cb off ".radi" 0.1;
createNode joint -n "EyeTrgt_L_TmpJnt" -p "EyeTrgt_TmpJnt";
	rename -uid "0EF49DAE-476B-902D-CFD4-ADA02293A330";
	addAttr -ci true -sn "liw" -ln "lockInfluenceWeights" -min 0 -max 1 -at "bool";
	setAttr ".uoc" 1;
	setAttr ".t" -type "double3" 0.13165460265937926 0 0 ;
	setAttr ".mnrl" -type "double3" -360 -360 -360 ;
	setAttr ".mxrl" -type "double3" 360 360 360 ;
	setAttr ".bps" -type "matrix" 1 0 0 0 0 1 0 0 0 0 1 0 0.53833165295886931 25.828273426804412 1.4860476249829009 1;
	setAttr -k on -cb off ".radi" 0.1;
createNode joint -n "EyeTrgt_R_TmpJnt" -p "EyeTrgt_TmpJnt";
	rename -uid "5DA45490-4B95-FE5E-6EB8-DC9216FA8C8A";
	addAttr -ci true -sn "liw" -ln "lockInfluenceWeights" -min 0 -max 1 -at "bool";
	setAttr ".uoc" 1;
	setAttr ".t" -type "double3" -0.13168866525825379 2.0384623757863096e-05 8.7842820484240747e-07 ;
	setAttr ".mnrl" -type "double3" -360 -360 -360 ;
	setAttr ".mxrl" -type "double3" 360 360 360 ;
	setAttr ".bps" -type "matrix" 1 0 0 0 0 1 0 0 0 0 1 0 0.53833165295886931 25.828273426804412 1.4860476249829009 1;
	setAttr -k on -cb off ".radi" 0.1;
createNode joint -n "Eye_R_TmpJnt" -p "Head_TmpJnt";
	rename -uid "F3C69D38-4791-8E8D-9DF1-D4A77C646D32";
	addAttr -ci true -sn "liw" -ln "lockInfluenceWeights" -min 0 -max 1 -at "bool";
	setAttr ".uoc" 1;
	setAttr ".oc" 7;
	setAttr ".t" -type "double3" -0.67833676308211943 3.6096798779394295 2.2963077934010809 ;
	setAttr ".mnrl" -type "double3" -360 -360 -360 ;
	setAttr ".mxrl" -type "double3" 360 360 360 ;
	setAttr ".jo" -type "double3" 8.6642519207315658 -16.234510924258434 0 ;
	setAttr ".bps" -type "matrix" 1 0 0 0 0 1 0 0 0 0 1 0 0.53833165295886931 25.828273426804412 1.4860476249829009 1;
	setAttr -k on -cb off ".radi" 0.1;
createNode joint -n "EyeDot_R_TmpJnt" -p "Eye_R_TmpJnt";
	rename -uid "89A4EEC8-43BE-0724-C12C-7399D0CCC749";
	addAttr -ci true -sn "liw" -ln "lockInfluenceWeights" -min 0 -max 1 -at "bool";
	setAttr ".uoc" 1;
	setAttr ".t" -type "double3" 0.028610502592692932 0.015838640871477239 0.15407352537496449 ;
	setAttr ".mnrl" -type "double3" -360 -360 -360 ;
	setAttr ".mxrl" -type "double3" 360 360 360 ;
	setAttr ".jo" -type "double3" 2.7315927480625222 3.7856385849993126 -2.3141872583995755 ;
	setAttr ".bps" -type "matrix" 1 0 0 0 0 1 0 0 0 0 1 0 0.53833165295886931 25.828273426804412 1.4860476249829009 1;
	setAttr -k on -cb off ".radi" 0.1;
createNode joint -n "Iris_R_TmpJnt" -p "Eye_R_TmpJnt";
	rename -uid "E9D1BF8D-43CD-3100-F129-F0BA787C91C5";
	setAttr ".uoc" 1;
	setAttr ".t" -type "double3" -5.5511151231257827e-16 1.7763568394002505e-15 0.14192966564703519 ;
	setAttr ".mnrl" -type "double3" -360 -360 -360 ;
	setAttr ".mxrl" -type "double3" 360 360 360 ;
	setAttr ".radi" 0.1;
createNode joint -n "Pupil_R_TmpJnt" -p "Iris_R_TmpJnt";
	rename -uid "E6FD76BF-4855-54A1-FB1C-F580D0D666DB";
	setAttr ".uoc" 1;
	setAttr ".oc" 1;
	setAttr ".t" -type "double3" 0 -7.1054273576010019e-15 5.5511151231257827e-17 ;
	setAttr ".mnrl" -type "double3" -360 -360 -360 ;
	setAttr ".mxrl" -type "double3" 360 360 360 ;
	setAttr ".radi" 0.1;
createNode joint -n "Eye_L_TmpJnt" -p "Head_TmpJnt";
	rename -uid "3EC66FE2-478D-4AAB-A861-E2BF3E35D27D";
	addAttr -ci true -sn "liw" -ln "lockInfluenceWeights" -min 0 -max 1 -at "bool";
	setAttr ".uoc" 1;
	setAttr ".oc" 7;
	setAttr ".t" -type "double3" 0.6847583372577144 3.6100821384968231 2.3179476032313793 ;
	setAttr ".mnrl" -type "double3" -360 -360 -360 ;
	setAttr ".mxrl" -type "double3" 360 360 360 ;
	setAttr ".jo" -type "double3" 0 16.237868166857456 0 ;
	setAttr ".bps" -type "matrix" 1 0 0 0 0 1 0 0 0 0 1 0 0.53833165295886931 25.828273426804412 1.4860476249829009 1;
	setAttr -k on -cb off ".radi" 0.1;
createNode joint -n "EyeDot_L_TmpJnt" -p "Eye_L_TmpJnt";
	rename -uid "8012FD77-4657-0EDA-5C9A-269005661976";
	addAttr -ci true -sn "liw" -ln "lockInfluenceWeights" -min 0 -max 1 -at "bool";
	setAttr ".uoc" 1;
	setAttr ".t" -type "double3" 0.020962029049274578 0.016654528145085834 0.15500560614851633 ;
	setAttr ".mnrl" -type "double3" -360 -360 -360 ;
	setAttr ".mxrl" -type "double3" 360 360 360 ;
	setAttr ".jo" -type "double3" 3.8900028248569845 7.3342329978712248 -0.0037638976323363738 ;
	setAttr ".bps" -type "matrix" 1 0 0 0 0 1 0 0 0 0 1 0 0.53833165295886931 25.828273426804412 1.4860476249829009 1;
	setAttr -k on -cb off ".radi" 0.1;
createNode joint -n "Iris_L_TmpJnt" -p "Eye_L_TmpJnt";
	rename -uid "58CB39D1-4BBC-F8CB-A6BD-33B0FA050B1E";
	setAttr ".uoc" 1;
	setAttr ".t" -type "double3" 0 0 0.14192920645651341 ;
	setAttr ".mnrl" -type "double3" -360 -360 -360 ;
	setAttr ".mxrl" -type "double3" 360 360 360 ;
	setAttr ".radi" 0.1;
createNode joint -n "Pupil_L_TmpJnt" -p "Iris_L_TmpJnt";
	rename -uid "775502C2-4C22-E92C-7B76-F984E4CB033D";
	setAttr ".uoc" 1;
	setAttr ".oc" 1;
	setAttr ".t" -type "double3" 2.2204460492503131e-16 1.7763568394002505e-15 -4.4408920985006262e-16 ;
	setAttr ".mnrl" -type "double3" -360 -360 -360 ;
	setAttr ".mxrl" -type "double3" 360 360 360 ;
	setAttr ".radi" 0.1;
createNode joint -n "JawUprRoot_TmpJnt" -p "Head_TmpJnt";
	rename -uid "D5BD6403-4AB7-F65C-9930-0C9504594D75";
	addAttr -ci true -sn "liw" -ln "lockInfluenceWeights" -min 0 -max 1 -at "bool";
	setAttr ".uoc" 1;
	setAttr ".oc" 7;
	setAttr ".t" -type "double3" 7.2569963396372448e-09 1.4715392674259551 0.43451811051732253 ;
	setAttr ".mnrl" -type "double3" -360 -360 -360 ;
	setAttr ".mxrl" -type "double3" 360 360 360 ;
	setAttr ".jot" -type "string" "yxz";
	setAttr ".jo" -type "double3" -19.138830081411815 0 180 ;
	setAttr ".bps" -type "matrix" -1 1.2246467991473532e-16 0 0 -1.2246467991473532e-16 -1 0 0
		 0 0 1 0 0 24.387496966804516 0.55021567872571864 1;
	setAttr -k on -cb off ".radi" 0.1;
createNode joint -n "JawUpr1_TmpJnt" -p "JawUprRoot_TmpJnt";
	rename -uid "CCE3ADA7-4AD6-D174-443E-B98AD9CF81F8";
	addAttr -ci true -sn "liw" -ln "lockInfluenceWeights" -min 0 -max 1 -at "bool";
	setAttr ".uoc" 1;
	setAttr ".t" -type "double3" -2.9054983713721114e-17 -0.29608671958185617 1.5768188544668691 ;
	setAttr ".mnrl" -type "double3" -360 -360 -360 ;
	setAttr ".mxrl" -type "double3" 360 360 360 ;
	setAttr ".jot" -type "string" "yxz";
	setAttr ".bps" -type "matrix" -1 1.2246467991473532e-16 0 0 -1.2246467991473532e-16 -1 0 0
		 0 0 1 0 0 24.387496966804516 0.55021567872571864 1;
	setAttr -k on -cb off ".radi" 0.1;
createNode joint -n "JawUprEnd_TmpJnt" -p "JawUpr1_TmpJnt";
	rename -uid "0160BC45-4DFC-9527-AFFB-D8B8A1BA5DB6";
	addAttr -ci true -sn "liw" -ln "lockInfluenceWeights" -min 0 -max 1 -at "bool";
	setAttr ".uoc" 1;
	setAttr ".oc" 1;
	setAttr ".t" -type "double3" -1.6543612251060553e-24 1.7763568394002505e-15 0.19982447308372531 ;
	setAttr ".mnrl" -type "double3" -360 -360 -360 ;
	setAttr ".mxrl" -type "double3" 360 360 360 ;
	setAttr ".bps" -type "matrix" -1 1.2246467991473532e-16 0 0 -1.2246467991473532e-16 -1 0 0
		 0 0 1 0 -3.2163030071266839e-32 24.387496966804516 2.0776527139297962 1;
	setAttr -k on -cb off ".radi" 0.1;
createNode joint -n "Clav_L_TmpJnt" -p "Spine5_TmpJnt";
	rename -uid "72A6EE67-48D9-2FE5-7281-059C0A2276C1";
	addAttr -ci true -sn "liw" -ln "lockInfluenceWeights" -min 0 -max 1 -at "bool";
	setAttr ".uoc" 1;
	setAttr ".oc" 5;
	setAttr ".ove" yes;
	setAttr ".t" -type "double3" 0.92829504356014847 0.80112817611998022 0.37246948312898986 ;
	setAttr ".mnrl" -type "double3" -360 -360 -360 ;
	setAttr ".mxrl" -type "double3" 360 360 360 ;
	setAttr ".jot" -type "string" "yxz";
	setAttr ".jo" -type "double3" 1.931470907385485e-15 0 -89.999999999999986 ;
	setAttr ".bps" -type "matrix" 2.2204460492503131e-16 -1 0 0 1 2.2204460492503131e-16 0 0
		 0 0 1 0 0.40396301701286447 22.628380391977608 0.93191360083425789 1;
	setAttr -k on -cb off ".radi" 0.1;
createNode joint -n "UpArm_L_TmpJnt" -p "Clav_L_TmpJnt";
	rename -uid "AF414914-4F82-BD28-3B2A-3B9092ADF771";
	addAttr -ci true -sn "liw" -ln "lockInfluenceWeights" -min 0 -max 1 -at "bool";
	setAttr ".uoc" 1;
	setAttr ".oc" 6;
	setAttr ".t" -type "double3" -0.029709710354283315 1.529386062007603 -0.57362791138242741 ;
	setAttr ".ro" 4;
	setAttr ".mnrl" -type "double3" -360 -360 -360 ;
	setAttr ".mxrl" -type "double3" 360 360 360 ;
	setAttr ".jot" -type "string" "yxz";
	setAttr ".bps" -type "matrix" 2.2204460492503131e-16 -1 0 0 1 2.2204460492503131e-16 0 0
		 0 0 1 0 2.6840862727483024 21.950819439051291 -0.34347723857962076 1;
	setAttr -k on -cb off ".radi" 0.1;
createNode joint -n "Forearm_L_TmpJnt" -p "UpArm_L_TmpJnt";
	rename -uid "6B0A35D2-4C74-50C4-F5CE-A1BD4C17C559";
	addAttr -ci true -sn "liw" -ln "lockInfluenceWeights" -min 0 -max 1 -at "bool";
	setAttr ".uoc" 1;
	setAttr ".oc" 7;
	setAttr ".t" -type "double3" -4.0486437102243532e-15 1.7220415382288436 -0.02 ;
	setAttr ".r" -type "double3" 5.9496752765300066e-05 0 0 ;
	setAttr ".mnrl" -type "double3" -360 -360 -360 ;
	setAttr ".mxrl" -type "double3" 360 360 360 ;
	setAttr ".jot" -type "string" "yxz";
	setAttr ".jo" -type "double3" -5.9496752765300066e-05 0 0 ;
	setAttr ".bps" -type "matrix" 2.2204460492503131e-16 -1 0 0 0.99999999999946088 2.2204460492491157e-16 -1.0384142298428127e-06 0
		 1.0384142298428127e-06 2.3057427741397801e-22 0.99999999999946088 0 6.7891781465089913 21.950819439060187 -0.42637972484178432 1;
	setAttr -k on -cb off ".radi" 0.1;
createNode joint -n "Elbow_L_TmpJnt" -p "Forearm_L_TmpJnt";
	rename -uid "B9395258-4948-6B68-F6F0-D3BC1A00B0A9";
	addAttr -ci true -sn "liw" -ln "lockInfluenceWeights" -min 0 -max 1 -at "bool";
	setAttr ".uoc" 1;
	setAttr ".t" -type "double3" 8.8817841970012523e-16 2.8296317866605136e-06 -2.8921194291600667 ;
	setAttr ".mnrl" -type "double3" -360 -360 -360 ;
	setAttr ".mxrl" -type "double3" 360 360 360 ;
	setAttr ".jot" -type "string" "yxz";
	setAttr ".jo" -type "double3" 0 0 6.3611093629270304e-15 ;
	setAttr ".bps" -type "matrix" -1 -1.2246467991473532e-16 0 0 1.2246467991473532e-16 -1 0 0
		 0 0 1 0 1.3486489690923307 14.656585133659888 1.5144370407379352e-17 1;
	setAttr -k on -cb off ".radi" 0.1;
createNode joint -n "Wrist_L_TmpJnt" -p "Forearm_L_TmpJnt";
	rename -uid "22087C38-4596-B9EC-E005-04A3CA244B32";
	addAttr -ci true -sn "liw" -ln "lockInfluenceWeights" -min 0 -max 1 -at "bool";
	setAttr ".uoc" 1;
	setAttr ".t" -type "double3" 8.8817841970012523e-15 1.928349985902778 0.019999999999999629 ;
	setAttr ".r" -type "double3" 5.9496752765300066e-05 0 0 ;
	setAttr ".mnrl" -type "double3" -360 -360 -360 ;
	setAttr ".mxrl" -type "double3" 360 360 360 ;
	setAttr ".jot" -type "string" "yxz";
	setAttr ".jo" -type "double3" -5.9496752765300066e-05 0 1.272221872585407e-14 ;
	setAttr ".bps" -type "matrix" 2.2204460492503131e-16 -1 0 0 1 2.2204460492503131e-16 8.3960588285190204e-14 0
		 -8.3960588285190204e-14 -1.8642995655058271e-29 1 0 11.145136555499452 21.950819439088733 -0.34347297829513029 1;
	setAttr -k on -cb off ".radi" 0.1;
createNode joint -n "Hand1_L_TmpJnt" -p "Wrist_L_TmpJnt";
	rename -uid "C64223B4-4C87-97D4-4C67-65B4F8E7C2B7";
	setAttr ".t" -type "double3" 0.013601592278636334 0.35246940200207888 0.039429906797623371 ;
	setAttr ".r" -type "double3" 0 0 -89.999999999999986 ;
	setAttr ".jo" -type "double3" 0 0 89.999999999999986 ;
	setAttr ".radi" 0.1;
createNode joint -n "Hand2_L_TmpJnt" -p "Hand1_L_TmpJnt";
	rename -uid "56BF3FB1-4777-3D5E-77B4-9CB95ECD5C1D";
	addAttr -ci true -sn "liw" -ln "lockInfluenceWeights" -min 0 -max 1 -at "bool";
	setAttr ".uoc" 1;
	setAttr ".oc" 1;
	setAttr ".t" -type "double3" -0.014202989559851886 0.36200165089260317 -0.034839833245042473 ;
	setAttr ".mnrl" -type "double3" -360 -360 -360 ;
	setAttr ".mxrl" -type "double3" 360 360 360 ;
	setAttr ".jo" -type "double3" 0 0 6.3611093629270304e-15 ;
	setAttr ".bps" -type "matrix" 2.2204460492503131e-16 -1 0 0 1 2.2204460492503131e-16 8.3960588285190204e-14 0
		 -8.3960588285190204e-14 -1.8642995655058271e-29 1 0 11.94334900537585 21.950819439093973 -0.34347375639834526 1;
	setAttr -k on -cb off ".radi" 0.1;
createNode joint -n "Hand_L_TmpJnt" -p "Wrist_L_TmpJnt";
	rename -uid "C1114146-49EE-907C-304F-FF864A1AA94F";
	addAttr -ci true -sn "liw" -ln "lockInfluenceWeights" -min 0 -max 1 -at "bool";
	setAttr ".uoc" 1;
	setAttr ".oc" 1;
	setAttr ".t" -type "double3" -0.00060139728121288982 0.7083042882220365 0.0039201485255257462 ;
	setAttr ".mnrl" -type "double3" -360 -360 -360 ;
	setAttr ".mxrl" -type "double3" 360 360 360 ;
	setAttr ".jo" -type "double3" 0 0 6.3611093629270233e-15 ;
	setAttr ".bps" -type "matrix" 2.2204460492503131e-16 -1 0 0 1 2.2204460492503131e-16 8.3960588285190204e-14 0
		 -8.3960588285190204e-14 -1.8642995655058271e-29 1 0 11.94334900537585 21.950819439093973 -0.34347375639834526 1;
	setAttr -k on -cb off ".radi" 0.1;
createNode joint -n "Index1_L_TmpJnt" -p "Wrist_L_TmpJnt";
	rename -uid "C7993D8A-41A7-4F61-1B19-39B084FA36CC";
	setAttr ".t" -type "double3" -0.52576743197970632 -0.43350731445279322 -0.038223559479660385 ;
	setAttr ".r" -type "double3" 0 0 -90 ;
	setAttr ".mnrl" -type "double3" -360 -360 -360 ;
	setAttr ".mxrl" -type "double3" 360 360 360 ;
	setAttr ".jo" -type "double3" 0 0 89.999999999999986 ;
	setAttr ".radi" 0.1;
createNode joint -n "Index2_L_TmpJnt" -p "Index1_L_TmpJnt";
	rename -uid "C78E7C50-4912-3D59-2CA2-4896E427B502";
	setAttr ".t" -type "double3" 0 0.59100174903869629 0 ;
	setAttr ".r" -type "double3" 0 0 -90 ;
	setAttr ".mnrl" -type "double3" -360 -360 -360 ;
	setAttr ".mxrl" -type "double3" 360 360 360 ;
	setAttr ".jo" -type "double3" 0 0 90 ;
	setAttr ".radi" 0.1;
createNode joint -n "Index3_L_TmpJnt" -p "Index2_L_TmpJnt";
	rename -uid "178A2DEB-42B2-871B-1351-A0B682C35CF2";
	setAttr ".t" -type "double3" 0 0.54086685180664063 0.0097958594560623169 ;
	setAttr ".r" -type "double3" 0 0 -90 ;
	setAttr ".mnrl" -type "double3" -360 -360 -360 ;
	setAttr ".mxrl" -type "double3" 360 360 360 ;
	setAttr ".jo" -type "double3" 0 0 90 ;
	setAttr ".radi" 0.1;
createNode joint -n "Index4_L_TmpJnt" -p "Index3_L_TmpJnt";
	rename -uid "FC555E03-4FCF-9F41-7398-BE9E24A0E599";
	setAttr ".t" -type "double3" 0 0.55852293968200684 -0.0097958594560623169 ;
	setAttr ".r" -type "double3" 0 0 -90 ;
	setAttr ".mnrl" -type "double3" -360 -360 -360 ;
	setAttr ".mxrl" -type "double3" 360 360 360 ;
	setAttr ".jo" -type "double3" 0 0 90 ;
	setAttr ".radi" 0.1;
createNode joint -n "Thumb1_L_TmpJnt" -p "Wrist_L_TmpJnt";
	rename -uid "715354E8-40E8-26B4-D45E-F3B2A135E888";
	setAttr ".t" -type "double3" -0.24447737765841726 -0.067692628631260909 -0.019342804770416611 ;
	setAttr ".mnrl" -type "double3" -360 -360 -360 ;
	setAttr ".mxrl" -type "double3" 360 360 360 ;
	setAttr ".jo" -type "double3" 0 0 89.999999999999986 ;
	setAttr ".radi" 0.1;
createNode joint -n "Thumb2_L_TmpJnt" -p "Thumb1_L_TmpJnt";
	rename -uid "91FA2BFD-42A1-B4D1-DD9D-BEBAC4D56FDB";
	setAttr ".t" -type "double3" 0.0163726806640625 0.78641796112060547 0 ;
	setAttr ".mnrl" -type "double3" -360 -360 -360 ;
	setAttr ".mxrl" -type "double3" 360 360 360 ;
	setAttr ".radi" 0.1;
createNode joint -n "Thumb3_L_TmpJnt" -p "Thumb2_L_TmpJnt";
	rename -uid "0505FC27-4834-5C70-9EC0-AFBF1E2008C3";
	setAttr ".t" -type "double3" -0.07999420166015625 0.60472774505615234 0 ;
	setAttr ".mnrl" -type "double3" -360 -360 -360 ;
	setAttr ".mxrl" -type "double3" 360 360 360 ;
	setAttr ".radi" 0.1;
createNode joint -n "ElbowPos_L_TmpJnt" -p "Forearm_L_TmpJnt";
	rename -uid "AB7CB8E7-46B3-D085-1275-06A78256E137";
	addAttr -ci true -sn "liw" -ln "lockInfluenceWeights" -min 0 -max 1 -at "bool";
	setAttr ".uoc" 1;
	setAttr ".t" -type "double3" 5.3290705182007514e-15 0.52444393819343826 -0.70363191522159063 ;
	setAttr ".mnrl" -type "double3" -360 -360 -360 ;
	setAttr ".mxrl" -type "double3" 360 360 360 ;
	setAttr ".jot" -type "string" "yxz";
	setAttr ".jo" -type "double3" 0 0 6.3611093629270304e-15 ;
	setAttr ".bps" -type "matrix" -1 -1.2246467991473532e-16 0 0 1.2246467991473532e-16 -1 0 0
		 0 0 1 0 1.3486489690923307 14.656585133659888 1.5144370407379352e-17 1;
	setAttr -k on -cb off ".radi" 0.1;
createNode joint -n "Clav_R_TmpJnt" -p "Spine5_TmpJnt";
	rename -uid "207ADA3B-46AC-7288-42F5-6795A576C137";
	addAttr -ci true -sn "liw" -ln "lockInfluenceWeights" -min 0 -max 1 -at "bool";
	setAttr ".uoc" 1;
	setAttr ".oc" 5;
	setAttr ".ove" yes;
	setAttr ".t" -type "double3" -0.9282950000000002 0.80112355942076263 0.3724697754218852 ;
	setAttr ".mnrl" -type "double3" -360 -360 -360 ;
	setAttr ".mxrl" -type "double3" 360 360 360 ;
	setAttr ".jot" -type "string" "yxz";
	setAttr ".jo" -type "double3" -180 7.0622500768802503e-31 89.999999999999972 ;
	setAttr ".bps" -type "matrix" 2.2204460492503131e-16 -1 0 0 1 2.2204460492503131e-16 0 0
		 0 0 1 0 0.40396301701286447 22.628380391977608 0.93191360083425789 1;
	setAttr -k on -cb off ".radi" 0.1;
createNode joint -n "UpArm_R_TmpJnt" -p "Clav_R_TmpJnt";
	rename -uid "A69D5163-48C3-583B-5727-93B42E9BA9FC";
	addAttr -ci true -sn "liw" -ln "lockInfluenceWeights" -min 0 -max 1 -at "bool";
	setAttr ".uoc" 1;
	setAttr ".oc" 6;
	setAttr ".t" -type "double3" 0.029709999999998793 -1.529385 0.57362800000000014 ;
	setAttr ".ro" 4;
	setAttr ".mnrl" -type "double3" -360 -360 -360 ;
	setAttr ".mxrl" -type "double3" 360 360 360 ;
	setAttr ".jot" -type "string" "yxz";
	setAttr ".bps" -type "matrix" 2.2204460492503131e-16 -1 0 0 1 2.2204460492503131e-16 0 0
		 0 0 1 0 2.6840862727483024 21.950819439051291 -0.34347723857962076 1;
	setAttr -k on -cb off ".radi" 0.1;
createNode joint -n "Forearm_R_TmpJnt" -p "UpArm_R_TmpJnt";
	rename -uid "969DE9A0-4CF9-4438-4B22-DB949D1979E8";
	addAttr -ci true -sn "liw" -ln "lockInfluenceWeights" -min 0 -max 1 -at "bool";
	setAttr ".uoc" 1;
	setAttr ".oc" 7;
	setAttr ".t" -type "double3" -8.8817841970012523e-16 -1.7220399999999998 0.02000000000000024 ;
	setAttr ".r" -type "double3" 5.9496752765300066e-05 0 0 ;
	setAttr ".mnrl" -type "double3" -360 -360 -360 ;
	setAttr ".mxrl" -type "double3" 360 360 360 ;
	setAttr ".jot" -type "string" "yxz";
	setAttr ".jo" -type "double3" 5.9482968125927472e-05 -1.3207872157287424e-20 -6.8560323730178595e-27 ;
	setAttr ".bps" -type "matrix" 2.2204460492503131e-16 -1 0 0 0.99999999999946088 2.2204460492491157e-16 -1.0384142298428127e-06 0
		 1.0384142298428127e-06 2.3057427741397801e-22 0.99999999999946088 0 6.7891781465089913 21.950819439060187 -0.42637972484178432 1;
	setAttr -k on -cb off ".radi" 0.1;
createNode joint -n "Elbow_R_TmpJnt" -p "Forearm_R_TmpJnt";
	rename -uid "603F982B-449B-550F-C21A-80899D55F0B5";
	addAttr -ci true -sn "liw" -ln "lockInfluenceWeights" -min 0 -max 1 -at "bool";
	setAttr ".uoc" 1;
	setAttr ".t" -type "double3" -8.8817841970012523e-16 -3.9942607585885526e-06 2.8921190000145303 ;
	setAttr ".mnrl" -type "double3" -360 -360 -360 ;
	setAttr ".mxrl" -type "double3" 360 360 360 ;
	setAttr ".jot" -type "string" "yxz";
	setAttr ".jo" -type "double3" 0.00011897206330547642 -2.6417104793761344e-20 2.7430485050085014e-26 ;
	setAttr ".bps" -type "matrix" -1 -1.2246467991473532e-16 0 0 1.2246467991473532e-16 -1 0 0
		 0 0 1 0 1.3486489690923307 14.656585133659888 1.5144370407379352e-17 1;
	setAttr -k on -cb off ".radi" 0.1;
createNode joint -n "Wrist_R_TmpJnt" -p "Forearm_R_TmpJnt";
	rename -uid "93D3D5FE-4EAE-10EC-D657-60BDAFA5A3BB";
	addAttr -ci true -sn "liw" -ln "lockInfluenceWeights" -min 0 -max 1 -at "bool";
	setAttr ".uoc" 1;
	setAttr ".t" -type "double3" -1.7763568394002505e-15 -1.9283500415276 -0.019995995611732376 ;
	setAttr ".r" -type "double3" 5.9496752765300066e-05 0 0 ;
	setAttr ".mnrl" -type "double3" -360 -360 -360 ;
	setAttr ".mxrl" -type "double3" 360 360 360 ;
	setAttr ".jot" -type "string" "yxz";
	setAttr ".jo" -type "double3" -0.00017847136940552451 3.9628604709801327e-20 -1.4401210827763586e-25 ;
	setAttr ".bps" -type "matrix" 2.2204460492503131e-16 -1 0 0 1 2.2204460492503131e-16 8.3960588285190204e-14 0
		 -8.3960588285190204e-14 -1.8642995655058271e-29 1 0 11.145136555499452 21.950819439088733 -0.34347297829513029 1;
	setAttr -k on -cb off ".radi" 0.1;
createNode joint -n "Hand1_R_TmpJnt" -p "Wrist_R_TmpJnt";
	rename -uid "8C60A54E-4691-26C6-2162-FEA1D8BEEC87";
	setAttr ".t" -type "double3" -0.01359999999999939 -0.35247000000351303 -0.039429999968599805 ;
	setAttr ".r" -type "double3" 0 0 -89.999999999999986 ;
	setAttr ".jo" -type "double3" 5.104258019815522e-09 5.104258019815522e-09 90 ;
	setAttr ".radi" 0.1;
createNode joint -n "Hand2_R_TmpJnt" -p "Hand1_R_TmpJnt";
	rename -uid "7D3ECD74-41EC-C766-C1C0-6A9C8874CE15";
	addAttr -ci true -sn "liw" -ln "lockInfluenceWeights" -min 0 -max 1 -at "bool";
	setAttr ".uoc" 1;
	setAttr ".oc" 1;
	setAttr ".t" -type "double3" 0.014210000000000278 -0.3619999999968968 0.034840000032249074 ;
	setAttr ".mnrl" -type "double3" -360 -360 -360 ;
	setAttr ".mxrl" -type "double3" 360 360 360 ;
	setAttr ".bps" -type "matrix" 2.2204460492503131e-16 -1 0 0 1 2.2204460492503131e-16 8.3960588285190204e-14 0
		 -8.3960588285190204e-14 -1.8642995655058271e-29 1 0 11.94334900537585 21.950819439093973 -0.34347375639834526 1;
	setAttr -k on -cb off ".radi" 0.1;
createNode joint -n "Hand_R_TmpJnt" -p "Wrist_R_TmpJnt";
	rename -uid "5984D3DD-4B4D-4363-3182-1CA35AB52788";
	addAttr -ci true -sn "liw" -ln "lockInfluenceWeights" -min 0 -max 1 -at "bool";
	setAttr ".uoc" 1;
	setAttr ".oc" 1;
	setAttr ".t" -type "double3" 0.00061000000000088761 -0.70831000000034905 -0.0039199999368994543 ;
	setAttr ".mnrl" -type "double3" -360 -360 -360 ;
	setAttr ".mxrl" -type "double3" 360 360 360 ;
	setAttr ".bps" -type "matrix" 2.2204460492503131e-16 -1 0 0 1 2.2204460492503131e-16 8.3960588285190204e-14 0
		 -8.3960588285190204e-14 -1.8642995655058271e-29 1 0 11.94334900537585 21.950819439093973 -0.34347375639834526 1;
	setAttr -k on -cb off ".radi" 0.1;
createNode joint -n "Index1_R_TmpJnt" -p "Wrist_R_TmpJnt";
	rename -uid "44D6B78A-4635-3393-4364-3EAD9D28F14C";
	setAttr ".t" -type "double3" 0.5257700000000014 0.43350000000340483 0.03822399996138115 ;
	setAttr ".r" -type "double3" 0 0 -90 ;
	setAttr ".mnrl" -type "double3" -360 -360 -360 ;
	setAttr ".mxrl" -type "double3" 360 360 360 ;
	setAttr ".jo" -type "double3" 5.104258019815522e-09 5.104258019815522e-09 90 ;
	setAttr ".radi" 0.1;
createNode joint -n "Index2_R_TmpJnt" -p "Index1_R_TmpJnt";
	rename -uid "9E1DEDC7-45E8-AC5B-8797-0280D0F35685";
	setAttr ".t" -type "double3" -1.7763568394002505e-15 -0.59100000000000019 5.2649884452193874e-11 ;
	setAttr ".r" -type "double3" 0 0 -90 ;
	setAttr ".mnrl" -type "double3" -360 -360 -360 ;
	setAttr ".mxrl" -type "double3" 360 360 360 ;
	setAttr ".jo" -type "double3" 5.104258019815522e-09 5.104258019815522e-09 90 ;
	setAttr ".radi" 0.1;
createNode joint -n "Index3_R_TmpJnt" -p "Index2_R_TmpJnt";
	rename -uid "5BAAB1AD-4784-BD0A-3F0E-3BB2D6D5F379";
	setAttr ".t" -type "double3" 1.7763568394002505e-15 -0.54086000000087253 -0.0097959999518169028 ;
	setAttr ".r" -type "double3" 0 0 -90 ;
	setAttr ".mnrl" -type "double3" -360 -360 -360 ;
	setAttr ".mxrl" -type "double3" 360 360 360 ;
	setAttr ".jo" -type "double3" 5.104258019815522e-09 5.104258019815522e-09 90 ;
	setAttr ".radi" 0.1;
createNode joint -n "Index4_R_TmpJnt" -p "Index3_R_TmpJnt";
	rename -uid "03BA46E0-4467-620A-40DA-1EB36493B4B5";
	setAttr ".t" -type "double3" 0 -0.55852999999912623 0.0097960000497572808 ;
	setAttr ".r" -type "double3" 0 0 -90 ;
	setAttr ".mnrl" -type "double3" -360 -360 -360 ;
	setAttr ".mxrl" -type "double3" 360 360 360 ;
	setAttr ".jo" -type "double3" 5.104258019815522e-09 5.104258019815522e-09 90 ;
	setAttr ".radi" 0.1;
createNode joint -n "Thumb1_R_TmpJnt" -p "Wrist_R_TmpJnt";
	rename -uid "A0541665-4F9F-C06D-D7C8-4190DC1FE639";
	setAttr ".t" -type "double3" 0.24447999999999936 0.067690000001722872 0.019342999993969767 ;
	setAttr ".mnrl" -type "double3" -360 -360 -360 ;
	setAttr ".mxrl" -type "double3" 360 360 360 ;
	setAttr ".jo" -type "double3" 5.104258019815522e-09 5.104258019815522e-09 90 ;
	setAttr ".radi" 0.1;
createNode joint -n "Thumb2_R_TmpJnt" -p "Thumb1_R_TmpJnt";
	rename -uid "A375EC0B-44FD-E65F-095A-69813B6E977C";
	setAttr ".t" -type "double3" -0.016370000000000218 -0.78642000000000323 1.4583334539963744e-12 ;
	setAttr ".mnrl" -type "double3" -360 -360 -360 ;
	setAttr ".mxrl" -type "double3" 360 360 360 ;
	setAttr ".radi" 0.1;
createNode joint -n "Thumb3_R_TmpJnt" -p "Thumb2_R_TmpJnt";
	rename -uid "A14498BC-467F-4CB7-D2AD-048C52181525";
	setAttr ".t" -type "double3" 0.079989999999999561 -0.60473000000000177 -7.1259664835565673e-12 ;
	setAttr ".mnrl" -type "double3" -360 -360 -360 ;
	setAttr ".mxrl" -type "double3" 360 360 360 ;
	setAttr ".radi" 0.1;
createNode joint -n "ElbowPos_R_TmpJnt" -p "Forearm_R_TmpJnt";
	rename -uid "259A7BC2-4314-21CD-0D65-F0A3CE81561D";
	addAttr -ci true -sn "liw" -ln "lockInfluenceWeights" -min 0 -max 1 -at "bool";
	setAttr ".uoc" 1;
	setAttr ".t" -type "double3" -1.7763568394002505e-15 -0.52444853885142173 0.70363008906499314 ;
	setAttr ".mnrl" -type "double3" -360 -360 -360 ;
	setAttr ".mxrl" -type "double3" 360 360 360 ;
	setAttr ".jot" -type "string" "yxz";
	setAttr ".jo" -type "double3" 0.0001189720632988541 3.30235064011527e-20 1.5902773407283294e-14 ;
	setAttr ".bps" -type "matrix" -1 -1.2246467991473532e-16 0 0 1.2246467991473532e-16 -1 0 0
		 0 0 1 0 1.3486489690923307 14.656585133659888 1.5144370407379352e-17 1;
	setAttr -k on -cb off ".radi" 0.1;
createNode joint -n "Pelvis_TmpJnt" -p "Root_TmpJnt";
	rename -uid "079715F8-45D4-FCED-0975-0694D333450A";
	addAttr -ci true -sn "liw" -ln "lockInfluenceWeights" -min 0 -max 1 -at "bool";
	setAttr ".uoc" 1;
	setAttr ".oc" 1;
	setAttr ".t" -type "double3" -4.7220516771895065e-35 -0.051701144751467254 -0.020824139441280087 ;
	setAttr ".mnrl" -type "double3" -360 -360 -360 ;
	setAttr ".mxrl" -type "double3" 360 360 360 ;
	setAttr ".jot" -type "string" "yxz";
	setAttr ".bps" -type "matrix" 1 0 0 0 0 1 0 0 0 0 1 0 0 15.4830611404753 0 1;
	setAttr -k on -cb off ".radi" 0.1;
createNode joint -n "UpLeg_L_TmpJnt" -p "Pelvis_TmpJnt";
	rename -uid "5C308D9C-405D-7B88-4F3E-55A73C4579C7";
	addAttr -ci true -sn "liw" -ln "lockInfluenceWeights" -min 0 -max 1 -at "bool";
	setAttr ".uoc" 1;
	setAttr ".oc" 2;
	setAttr ".t" -type "double3" 1.2919788704361062 0.071764520749996841 -0.00066374962151902195 ;
	setAttr ".mnrl" -type "double3" -360 -360 -360 ;
	setAttr ".mxrl" -type "double3" 360 360 360 ;
	setAttr ".jot" -type "string" "yxz";
	setAttr ".jo" -type "double3" 0 0 -180 ;
	setAttr ".bps" -type "matrix" -1 -1.2246467991473532e-16 0 0 1.2246467991473532e-16 -1 0 0
		 0 0 1 0 1.3486489690923307 14.656585133659888 1.5144370407379352e-17 1;
	setAttr -k on -cb off ".radi" 0.1;
createNode joint -n "LowLeg_L_TmpJnt" -p "UpLeg_L_TmpJnt";
	rename -uid "77D2E154-4232-1D71-F38E-56AC53B45FDB";
	addAttr -ci true -sn "liw" -ln "lockInfluenceWeights" -min 0 -max 1 -at "bool";
	setAttr ".uoc" 1;
	setAttr ".oc" 3;
	setAttr ".t" -type "double3" 0 2.4982640215499314 0.03 ;
	setAttr ".mnrl" -type "double3" -360 -360 -360 ;
	setAttr ".mxrl" -type "double3" 360 360 360 ;
	setAttr ".jot" -type "string" "yxz";
	setAttr ".bps" -type "matrix" -1 -1.2246467991473532e-16 0 0 1.2246467991473532e-16 -1 0 0
		 0 0 1 0 1.3486489690923305 7.7535119809750004 0.15259281481888803 1;
	setAttr -k on -cb off ".radi" 0.1;
createNode joint -n "Ankle_L_TmpJnt" -p "LowLeg_L_TmpJnt";
	rename -uid "96A5DA6B-45D2-8502-7826-8BB42CE3C697";
	addAttr -ci true -sn "liw" -ln "lockInfluenceWeights" -min 0 -max 1 -at "bool";
	setAttr ".uoc" 1;
	setAttr ".oc" 4;
	setAttr ".t" -type "double3" 0 1.739735978450069 -0.03 ;
	setAttr ".mnrl" -type "double3" -360 -360 -360 ;
	setAttr ".mxrl" -type "double3" 360 360 360 ;
	setAttr ".jot" -type "string" "yxz";
	setAttr ".bps" -type "matrix" -1 -1.2246467991473532e-16 0 0 1.2246467991473532e-16 -1 0 0
		 0 0 1 0 1.348648969092332 1.0615915425310156 0 1;
	setAttr -k on -cb off ".radi" 0.1;
createNode joint -n "HeelIkTwistPiv_L_TmpJnt" -p "Ankle_L_TmpJnt";
	rename -uid "6617C43D-47F8-1F9A-E785-01B86AEA53D4";
	setAttr ".t" -type "double3" 0.0089999999999981206 0.21539171513818189 -0.37966020731543865 ;
	setAttr ".jo" -type "double3" 0 0 180 ;
	setAttr ".radi" 0.1;
createNode joint -n "Ball_L_TmpJnt" -p "Ankle_L_TmpJnt";
	rename -uid "ED0004A9-4A34-A406-BA7B-C6BD00F69EA9";
	addAttr -ci true -sn "liw" -ln "lockInfluenceWeights" -min 0 -max 1 -at "bool";
	setAttr ".uoc" 1;
	setAttr ".oc" 5;
	setAttr ".t" -type "double3" -1.9984014443252818e-15 0.21539171513818189 0.34734878111387846 ;
	setAttr ".mnrl" -type "double3" -360 -360 -360 ;
	setAttr ".mxrl" -type "double3" 360 360 360 ;
	setAttr ".jot" -type "string" "yxz";
	setAttr ".jo" -type "double3" 89.999999999999986 0 0 ;
	setAttr ".bps" -type "matrix" -1 -1.2246467991473532e-16 0 0 2.7192621468937821e-32 -2.2204460492503131e-16 1 0
		 -1.2246467991473532e-16 1 2.2204460492503131e-16 0 1.3486489690923311 5.5511151231257827e-15 1.476681409489522 1;
	setAttr -k on -cb off ".radi" 0.1;
createNode joint -n "Toe_L_TmpJnt" -p "Ball_L_TmpJnt";
	rename -uid "B61EC7C9-4022-C39E-F347-B0A8B8BC95D3";
	addAttr -ci true -sn "liw" -ln "lockInfluenceWeights" -min 0 -max 1 -at "bool";
	setAttr ".uoc" 1;
	setAttr ".oc" 6;
	setAttr ".t" -type "double3" -2.4424906541753444e-15 0.58369663778668246 -0.0019769884794318265 ;
	setAttr ".mnrl" -type "double3" -360 -360 -360 ;
	setAttr ".mxrl" -type "double3" 360 360 360 ;
	setAttr ".bps" -type "matrix" -1 -1.2246467991473532e-16 0 0 2.7192621468937821e-32 -2.2204460492503131e-16 1 0
		 -1.2246467991473532e-16 1 2.2204460492503131e-16 0 1.3486489690923309 5.0024078434460801e-15 3.3551152167720435 1;
	setAttr -k on -cb off ".radi" 0.1;
createNode joint -n "ToeIkTwistPiv_L_TmpJnt" -p "Ball_L_TmpJnt";
	rename -uid "9AD8463F-4455-CCEB-3F81-D9A182E20B81";
	setAttr ".t" -type "double3" -0.0090909042223119574 0.31392242753014837 -1.4394627379430004e-15 ;
	setAttr ".mnrl" -type "double3" -360 -360 -360 ;
	setAttr ".mxrl" -type "double3" 360 360 360 ;
	setAttr ".jo" -type "double3" 89.999999999999986 7.0622500768802538e-31 180 ;
	setAttr ".radi" 0.1;
createNode joint -n "FootSmartIk_L_TmpJnt" -p "Ball_L_TmpJnt";
	rename -uid "D73CBF70-4884-8881-6CDC-15AC7B1747CE";
	setAttr ".t" -type "double3" -0.0090909042223115133 1.1453157525708626 0.74125528114188166 ;
	setAttr ".mnrl" -type "double3" -360 -360 -360 ;
	setAttr ".mxrl" -type "double3" 360 360 360 ;
	setAttr ".jo" -type "double3" 89.999999999999986 7.0622500768802538e-31 180 ;
	setAttr ".radi" 0.1;
createNode joint -n "FootOut_L_TmpJnt" -p "Ankle_L_TmpJnt";
	rename -uid "B62DCCF1-49CC-6879-FBA9-998C2D79070D";
	setAttr ".t" -type "double3" -0.94944091630453609 0.215391715138182 0.0076839777162988065 ;
	setAttr ".jo" -type "double3" 89.999999999999986 0 0 ;
	setAttr ".radi" 0.1;
createNode joint -n "FootIn_L_TmpJnt" -p "Ankle_L_TmpJnt";
	rename -uid "0EA2431A-46C1-F644-345C-74A730958F27";
	setAttr ".t" -type "double3" 0.949 0.21539171513818178 0.0092848559549767451 ;
	setAttr ".jo" -type "double3" 89.999999999999986 0 0 ;
	setAttr ".radi" 0.1;
createNode joint -n "Heel_L_TmpJnt" -p "Ankle_L_TmpJnt";
	rename -uid "F363807F-4F8F-AA1C-0D60-F8939F085131";
	setAttr ".t" -type "double3" 0.0089999999999985647 0.21539171513818189 -0.85935033561338181 ;
	setAttr ".jo" -type "double3" 89.999999999999986 0 0 ;
	setAttr ".radi" 0.1;
createNode joint -n "Foot_L_TmpJnt" -p "Ankle_L_TmpJnt";
	rename -uid "FABB97E9-4303-7E62-36EC-CABF8A0FCF79";
	setAttr ".t" -type "double3" 0.0051956653666158648 0.20982372116945669 -0.032744141289087814 ;
	setAttr ".radi" 0.1;
createNode joint -n "Knee_L_TmpJnt" -p "LowLeg_L_TmpJnt";
	rename -uid "88CFAD3B-4BC7-5B0B-5A44-65BF8FC24AC0";
	addAttr -ci true -sn "liw" -ln "lockInfluenceWeights" -min 0 -max 1 -at "bool";
	setAttr ".uoc" 1;
	setAttr ".oc" 2;
	setAttr ".t" -type "double3" 4.4408920985006262e-16 -6.6613381477509392e-16 4.1466776784658785 ;
	setAttr ".mnrl" -type "double3" -360 -360 -360 ;
	setAttr ".mxrl" -type "double3" 360 360 360 ;
	setAttr ".jot" -type "string" "yxz";
	setAttr ".bps" -type "matrix" -1 -1.2246467991473532e-16 0 0 1.2246467991473532e-16 -1 0 0
		 0 0 1 0 1.3486489690923307 14.656585133659888 1.5144370407379352e-17 1;
	setAttr -k on -cb off ".radi" 0.1;
createNode joint -n "KneePos_L_TmpJnt" -p "LowLeg_L_TmpJnt";
	rename -uid "D91C700A-4DE1-2D28-4CFF-C8BBF5D292F9";
	addAttr -ci true -sn "liw" -ln "lockInfluenceWeights" -min 0 -max 1 -at "bool";
	setAttr ".uoc" 1;
	setAttr ".oc" 3;
	setAttr ".t" -type "double3" 4.4408920985006262e-16 0.23948322993231597 -0.88644777609760228 ;
	setAttr ".mnrl" -type "double3" -360 -360 -360 ;
	setAttr ".mxrl" -type "double3" 360 360 360 ;
	setAttr ".jot" -type "string" "yxz";
	setAttr ".bps" -type "matrix" -1 -1.2246467991473532e-16 0 0 1.2246467991473532e-16 -1 0 0
		 0 0 1 0 1.3486489690923305 7.7535119809750004 0.15259281481888803 1;
	setAttr -k on -cb off ".radi" 0.1;
createNode joint -n "UpLeg_R_TmpJnt" -p "Pelvis_TmpJnt";
	rename -uid "BA95CE1B-4D42-E192-F11B-E796B09B382A";
	addAttr -ci true -sn "liw" -ln "lockInfluenceWeights" -min 0 -max 1 -at "bool";
	setAttr ".uoc" 1;
	setAttr ".oc" 2;
	setAttr ".t" -type "double3" -1.2919800000000001 0.071768476278076143 -0.00066408513683469117 ;
	setAttr ".mnrl" -type "double3" -360 -360 -360 ;
	setAttr ".mxrl" -type "double3" 360 360 360 ;
	setAttr ".jot" -type "string" "yxz";
	setAttr ".jo" -type "double3" 0 180 0 ;
	setAttr ".bps" -type "matrix" -1 -1.2246467991473532e-16 0 0 1.2246467991473532e-16 -1 0 0
		 0 0 1 0 1.3486489690923307 14.656585133659888 1.5144370407379352e-17 1;
	setAttr -k on -cb off ".radi" 0.1;
createNode joint -n "LowLeg_R_TmpJnt" -p "UpLeg_R_TmpJnt";
	rename -uid "6FE658E1-401A-3E1A-E2FD-B8853A3886F3";
	addAttr -ci true -sn "liw" -ln "lockInfluenceWeights" -min 0 -max 1 -at "bool";
	setAttr ".uoc" 1;
	setAttr ".oc" 3;
	setAttr ".t" -type "double3" 0 -2.4982699999999998 -0.03 ;
	setAttr ".mnrl" -type "double3" -360 -360 -360 ;
	setAttr ".mxrl" -type "double3" 360 360 360 ;
	setAttr ".jot" -type "string" "yxz";
	setAttr ".bps" -type "matrix" -1 -1.2246467991473532e-16 0 0 1.2246467991473532e-16 -1 0 0
		 0 0 1 0 1.3486489690923305 7.7535119809750004 0.15259281481888803 1;
	setAttr -k on -cb off ".radi" 0.1;
createNode joint -n "Ankle_R_TmpJnt" -p "LowLeg_R_TmpJnt";
	rename -uid "57E36EB1-42BD-4DE2-A6A8-C7BEE8DCB1F8";
	addAttr -ci true -sn "liw" -ln "lockInfluenceWeights" -min 0 -max 1 -at "bool";
	setAttr ".uoc" 1;
	setAttr ".oc" 4;
	setAttr ".t" -type "double3" 0 -1.7397340000000001 0.03 ;
	setAttr ".mnrl" -type "double3" -360 -360 -360 ;
	setAttr ".mxrl" -type "double3" 360 360 360 ;
	setAttr ".jot" -type "string" "yxz";
	setAttr ".bps" -type "matrix" -1 -1.2246467991473532e-16 0 0 1.2246467991473532e-16 -1 0 0
		 0 0 1 0 1.348648969092332 1.0615915425310156 0 1;
	setAttr -k on -cb off ".radi" 0.1;
createNode joint -n "HeelIkTwistPiv_R_TmpJnt" -p "Ankle_R_TmpJnt";
	rename -uid "A4BD7187-4BDE-EDAF-8156-D3A22CC72102";
	setAttr ".t" -type "double3" -0.008999999999999897 -0.21539167099999995 0.37966 ;
	setAttr ".jo" -type "double3" 7.016709298534876e-15 -2.1050127895604626e-14 180 ;
	setAttr ".radi" 0.1;
createNode joint -n "Ball_R_TmpJnt" -p "Ankle_R_TmpJnt";
	rename -uid "2FD28808-45F7-8C27-9680-CDA71AF778A4";
	addAttr -ci true -sn "liw" -ln "lockInfluenceWeights" -min 0 -max 1 -at "bool";
	setAttr ".uoc" 1;
	setAttr ".oc" 5;
	setAttr ".t" -type "double3" 0 -0.21539167099999995 -0.347349 ;
	setAttr ".mnrl" -type "double3" -360 -360 -360 ;
	setAttr ".mxrl" -type "double3" 360 360 360 ;
	setAttr ".jot" -type "string" "yxz";
	setAttr ".jo" -type "double3" 89.999999999999986 1.403341859706975e-14 -1.4124500153760508e-30 ;
	setAttr ".bps" -type "matrix" -1 -1.2246467991473532e-16 0 0 2.7192621468937821e-32 -2.2204460492503131e-16 1 0
		 -1.2246467991473532e-16 1 2.2204460492503131e-16 0 1.3486489690923311 5.5511151231257827e-15 1.476681409489522 1;
	setAttr -k on -cb off ".radi" 0.1;
createNode joint -n "Toe_R_TmpJnt" -p "Ball_R_TmpJnt";
	rename -uid "32F43108-43E8-6120-5906-92A012813D24";
	addAttr -ci true -sn "liw" -ln "lockInfluenceWeights" -min 0 -max 1 -at "bool";
	setAttr ".uoc" 1;
	setAttr ".oc" 6;
	setAttr ".t" -type "double3" 2.2204460492503131e-16 -0.58369699999999969 0.0019769889999998753 ;
	setAttr ".mnrl" -type "double3" -360 -360 -360 ;
	setAttr ".mxrl" -type "double3" 360 360 360 ;
	setAttr ".bps" -type "matrix" -1 -1.2246467991473532e-16 0 0 2.7192621468937821e-32 -2.2204460492503131e-16 1 0
		 -1.2246467991473532e-16 1 2.2204460492503131e-16 0 1.3486489690923309 5.0024078434460801e-15 3.3551152167720435 1;
	setAttr -k on -cb off ".radi" 0.1;
createNode joint -n "ToeIkTwistPiv_R_TmpJnt" -p "Ball_R_TmpJnt";
	rename -uid "75705CC7-41C0-7221-206E-C8B479F4791F";
	setAttr ".t" -type "double3" 0.0090900000000002645 -0.31392299999999995 -6.4130558502517587e-17 ;
	setAttr ".mnrl" -type "double3" -360 -360 -360 ;
	setAttr ".mxrl" -type "double3" 360 360 360 ;
	setAttr ".jo" -type "double3" 89.999999999999972 7.0167092985348665e-15 179.99999999999997 ;
	setAttr ".radi" 0.1;
createNode joint -n "FootSmartIk_R_TmpJnt" -p "Ball_R_TmpJnt";
	rename -uid "7EDE7246-4AD4-D3F8-CA6C-95BD918E027E";
	setAttr ".t" -type "double3" 0.0090900000000000425 -1.1453119999999997 -0.74125567100000012 ;
	setAttr ".mnrl" -type "double3" -360 -360 -360 ;
	setAttr ".mxrl" -type "double3" 360 360 360 ;
	setAttr ".jo" -type "double3" 89.999999999999972 7.0167092985348665e-15 179.99999999999997 ;
	setAttr ".radi" 0.1;
createNode joint -n "FootOut_R_TmpJnt" -p "Ankle_R_TmpJnt";
	rename -uid "272A3975-4E01-9731-E156-29AC82668E61";
	setAttr ".t" -type "double3" 0.94944000000000028 -0.21539167099999995 -0.0076840000000001074 ;
	setAttr ".jo" -type "double3" 89.999999999999986 1.403341859706975e-14 -1.4124500153760508e-30 ;
	setAttr ".radi" 0.1;
createNode joint -n "FootIn_R_TmpJnt" -p "Ankle_R_TmpJnt";
	rename -uid "15A3F302-4EB6-7B7E-B35F-3193C7F2FF46";
	setAttr ".t" -type "double3" -0.949001 -0.21539167099999995 -0.0092849999999999044 ;
	setAttr ".jo" -type "double3" 89.999999999999986 1.403341859706975e-14 -1.4124500153760508e-30 ;
	setAttr ".radi" 0.1;
createNode joint -n "Heel_R_TmpJnt" -p "Ankle_R_TmpJnt";
	rename -uid "4ADC1230-41BD-F7E5-A579-DF9EE9A3F2EA";
	setAttr ".t" -type "double3" -0.0089999999999996749 -0.21539167099999995 0.85934899999999981 ;
	setAttr ".jo" -type "double3" 89.999999999999986 1.403341859706975e-14 -1.4124500153760508e-30 ;
	setAttr ".radi" 0.1;
createNode joint -n "Foot_R_TmpJnt" -p "Ankle_R_TmpJnt";
	rename -uid "7BFEDCA8-43DE-6B48-F0D6-8D98AC085D19";
	setAttr ".t" -type "double3" -0.0051999999999998714 -0.20982367999999996 0.032743999999999995 ;
	setAttr ".radi" 0.1;
createNode joint -n "Knee_R_TmpJnt" -p "LowLeg_R_TmpJnt";
	rename -uid "1C823C9C-4E21-E2F1-21A1-5D999193C547";
	addAttr -ci true -sn "liw" -ln "lockInfluenceWeights" -min 0 -max 1 -at "bool";
	setAttr ".uoc" 1;
	setAttr ".oc" 2;
	setAttr ".t" -type "double3" -4.4408920985006262e-16 0 -4.1466809999999992 ;
	setAttr ".mnrl" -type "double3" -360 -360 -360 ;
	setAttr ".mxrl" -type "double3" 360 360 360 ;
	setAttr ".jot" -type "string" "yxz";
	setAttr ".bps" -type "matrix" -1 -1.2246467991473532e-16 0 0 1.2246467991473532e-16 -1 0 0
		 0 0 1 0 1.3486489690923307 14.656585133659888 1.5144370407379352e-17 1;
	setAttr -k on -cb off ".radi" 0.1;
createNode joint -n "KneePos_R_TmpJnt" -p "LowLeg_R_TmpJnt";
	rename -uid "1FE25AD2-4800-43D2-8956-33B1D5BB1EF5";
	addAttr -ci true -sn "liw" -ln "lockInfluenceWeights" -min 0 -max 1 -at "bool";
	setAttr ".uoc" 1;
	setAttr ".oc" 3;
	setAttr ".t" -type "double3" 2.2204460492503131e-16 -0.23948000000000014 0.88644899999999993 ;
	setAttr ".mnrl" -type "double3" -360 -360 -360 ;
	setAttr ".mxrl" -type "double3" 360 360 360 ;
	setAttr ".jot" -type "string" "yxz";
	setAttr ".bps" -type "matrix" -1 -1.2246467991473532e-16 0 0 1.2246467991473532e-16 -1 0 0
		 0 0 1 0 1.3486489690923305 7.7535119809750004 0.15259281481888803 1;
	setAttr -k on -cb off ".radi" 0.1;
createNode lightLinker -s -n "lightLinker1";
	rename -uid "3142D886-4BC3-4151-FE21-3DAAE07C54AD";
	setAttr -s 2 ".lnk";
	setAttr -s 2 ".slnk";
createNode shapeEditorManager -n "shapeEditorManager";
	rename -uid "4111916E-41B7-2926-B8A9-12BADD554D36";
	setAttr -s 3 ".bsdt";
	setAttr ".bsdt[0].bscd" -type "Int32Array" 0 ;
	setAttr ".bsdt[3].bscd" -type "Int32Array" 0 ;
	setAttr ".bsdt[4].bscd" -type "Int32Array" 0 ;
createNode poseInterpolatorManager -n "poseInterpolatorManager";
	rename -uid "91960ED9-4105-1DE6-D608-26BE99E8280E";
createNode displayLayerManager -n "layerManager";
	rename -uid "85A5B3BA-4927-3EF6-1F9D-12B225066055";
createNode displayLayer -n "defaultLayer";
	rename -uid "8E6E4E94-4F79-746E-E472-B7AEC7E81482";
createNode renderLayerManager -n "renderLayerManager";
	rename -uid "0386A81E-4B82-E450-4857-37B4563C28CD";
createNode renderLayer -n "defaultRenderLayer";
	rename -uid "FA56832D-4E7F-6620-E1DD-6289D1A8B8F2";
	setAttr ".g" yes;
createNode ilrOptionsNode -s -n "TurtleRenderOptions";
	rename -uid "AE0CA713-46EA-9ECB-23D6-8D931CA82337";
lockNode -l 1 ;
createNode ilrUIOptionsNode -s -n "TurtleUIOptions";
	rename -uid "805CEF25-43C0-7669-B416-92B89FFB87DA";
lockNode -l 1 ;
createNode ilrBakeLayerManager -s -n "TurtleBakeLayerManager";
	rename -uid "49B0AFF8-45DB-8659-EB8B-9593227DD204";
lockNode -l 1 ;
createNode renderSetup -n "renderSetup";
	rename -uid "A2E49E0E-40B7-848E-B3A5-84A3D703C9D7";
createNode renderSetup -n "ep00_braveCookie_mod_v05_renderSetup";
	rename -uid "16D65355-44B3-F141-AEF8-928F742B14C2";
createNode nodeGraphEditorInfo -n "ep00_braveCookie_mod_v05_hyperShadePrimaryNodeEditorSavedTabsInfo";
	rename -uid "D22735FF-4604-A58A-8733-06937BACAFF8";
	setAttr ".def" no;
	setAttr ".tgi[0].tn" -type "string" "Untitled_1";
	setAttr ".tgi[0].vl" -type "double2" -922.84387867339422 -563.69045379143017 ;
	setAttr ".tgi[0].vh" -type "double2" 84.470896114327658 765.19838229216089 ;
createNode nodeGraphEditorInfo -n "hyperShadePrimaryNodeEditorSavedTabsInfo";
	rename -uid "CF426E26-48BC-7395-765B-87875DD465F3";
	setAttr ".def" no;
	setAttr ".tgi[0].tn" -type "string" "Untitled_1";
	setAttr ".tgi[0].vl" -type "double2" -226.19046720247454 -366.93450922885643 ;
	setAttr ".tgi[0].vh" -type "double2" 272.61903678614044 406.22022195349678 ;
	setAttr ".tgi[0].ni[0].x" -80;
	setAttr ".tgi[0].ni[0].y" 90;
	setAttr ".tgi[0].ni[0].nvs" 1923;
createNode nodeGraphEditorInfo -n "hyperShadePrimaryNodeEditorSavedTabsInfo1";
	rename -uid "80DCE0B0-4EA3-5432-9C55-4B892C1ED3C2";
	setAttr ".tgi[0].tn" -type "string" "Untitled_1";
	setAttr ".tgi[0].vl" -type "double2" -119.04761431709188 -184.52380219149242 ;
	setAttr ".tgi[0].vh" -type "double2" 119.04761431709188 184.52380219149242 ;
createNode script -n "sceneConfigurationScriptNode";
	rename -uid "45ED43C3-49C2-CCEA-05ED-38BEE7088FCD";
	setAttr ".b" -type "string" "playbackOptions -min 1 -max 120 -ast 1 -aet 200 ";
	setAttr ".st" 6;
createNode RedshiftOptions -s -n "redshiftOptions";
	rename -uid "6F8A58C2-4B28-F3AF-77E8-05BC5D685DB6";
select -ne :time1;
	setAttr -av -k on ".cch";
	setAttr -k on ".fzn";
	setAttr -av -cb on ".ihi";
	setAttr -av -k on ".nds";
	setAttr -cb on ".bnm";
	setAttr -k on ".o" 1;
	setAttr -av -k on ".unw" 1;
	setAttr -av -k on ".etw";
	setAttr -av -k on ".tps";
	setAttr -av -k on ".tms";
select -ne :hardwareRenderingGlobals;
	setAttr -av -k on ".cch";
	setAttr -k on ".fzn";
	setAttr -av -k on ".ihi";
	setAttr -av -k on ".nds";
	setAttr -cb on ".bnm";
	setAttr -k on ".rm";
	setAttr -k on ".lm";
	setAttr ".otfna" -type "stringArray" 22 "NURBS Curves" "NURBS Surfaces" "Polygons" "Subdiv Surface" "Particles" "Particle Instance" "Fluids" "Strokes" "Image Planes" "UI" "Lights" "Cameras" "Locators" "Joints" "IK Handles" "Deformers" "Motion Trails" "Components" "Hair Systems" "Follicles" "Misc. UI" "Ornaments"  ;
	setAttr ".otfva" -type "Int32Array" 22 0 1 1 1 1 1
		 1 1 1 0 0 0 0 0 0 0 0 0
		 0 0 0 0 ;
	setAttr -k on ".hom";
	setAttr -k on ".hodm";
	setAttr -k on ".xry";
	setAttr -k on ".jxr";
	setAttr -k on ".sslt";
	setAttr -k on ".cbr";
	setAttr -k on ".bbr";
	setAttr -k on ".mhl";
	setAttr -k on ".cons";
	setAttr -k on ".vac";
	setAttr -av -k on ".hwi";
	setAttr -k on ".csvd";
	setAttr -av -k on ".ta";
	setAttr -av -k on ".tq";
	setAttr -k on ".ts";
	setAttr -av -k on ".etmr";
	setAttr -av -k on ".tmr";
	setAttr -av -k on ".aoon";
	setAttr -av -k on ".aoam";
	setAttr -av -k on ".aora";
	setAttr -k on ".aofr";
	setAttr -av -k on ".aosm";
	setAttr -av -k on ".hff";
	setAttr -av -k on ".hfd";
	setAttr -av -k on ".hfs";
	setAttr -av -k on ".hfe";
	setAttr -av ".hfc";
	setAttr -av -k on ".hfcr";
	setAttr -av -k on ".hfcg";
	setAttr -av -k on ".hfcb";
	setAttr -av -k on ".hfa";
	setAttr -av -k on ".mbe";
	setAttr -k on ".mbt";
	setAttr -av -k on ".mbsof";
	setAttr -k on ".mbsc";
	setAttr -k on ".mbc";
	setAttr -k on ".mbfa";
	setAttr -k on ".mbftb";
	setAttr -k on ".mbftg";
	setAttr -k on ".mbftr";
	setAttr -k on ".mbfta";
	setAttr -k on ".mbfe";
	setAttr -k on ".mbme";
	setAttr -k on ".mbcsx";
	setAttr -k on ".mbcsy";
	setAttr -k on ".mbasx";
	setAttr -k on ".mbasy";
	setAttr -av -k on ".blen";
	setAttr -k on ".blth";
	setAttr -k on ".blfr";
	setAttr -k on ".blfa";
	setAttr -av -k on ".blat";
	setAttr -av -k on ".msaa";
	setAttr -av -k on ".aasc";
	setAttr -k on ".aasq";
	setAttr -k on ".laa";
	setAttr -k on ".fprt" yes;
	setAttr -k on ".rtfm";
select -ne :renderPartition;
	setAttr -av -k on ".cch";
	setAttr -cb on ".ihi";
	setAttr -av -k on ".nds";
	setAttr -cb on ".bnm";
	setAttr -s 2 ".st";
	setAttr -cb on ".an";
	setAttr -cb on ".pt";
select -ne :renderGlobalsList1;
	setAttr -k on ".cch";
	setAttr -cb on ".ihi";
	setAttr -k on ".nds";
	setAttr -cb on ".bnm";
select -ne :defaultShaderList1;
	setAttr -k on ".cch";
	setAttr -cb on ".ihi";
	setAttr -k on ".nds";
	setAttr -cb on ".bnm";
	setAttr -s 5 ".s";
select -ne :postProcessList1;
	setAttr -k on ".cch";
	setAttr -cb on ".ihi";
	setAttr -k on ".nds";
	setAttr -cb on ".bnm";
	setAttr -s 2 ".p";
select -ne :defaultRenderingList1;
	setAttr -k on ".ihi";
select -ne :initialShadingGroup;
	setAttr -av -k on ".cch";
	setAttr -k on ".fzn";
	setAttr -k on ".ihi";
	setAttr -av -k on ".nds";
	setAttr -cb on ".bnm";
	setAttr -k on ".bbx";
	setAttr -k on ".vwm";
	setAttr -k on ".tpv";
	setAttr -k on ".uit";
	setAttr -k on ".mwc";
	setAttr -av -k on ".an";
	setAttr -k on ".il";
	setAttr -k on ".vo";
	setAttr -k on ".eo";
	setAttr -k on ".fo";
	setAttr -k on ".epo";
	setAttr -k on ".ro" yes;
select -ne :initialParticleSE;
	setAttr -av -k on ".cch";
	setAttr -k on ".ihi";
	setAttr -av -k on ".nds";
	setAttr -cb on ".bnm";
	setAttr -k on ".mwc";
	setAttr -k on ".an";
	setAttr -k on ".il";
	setAttr -k on ".vo";
	setAttr -k on ".eo";
	setAttr -k on ".fo";
	setAttr -k on ".epo";
	setAttr -k on ".ro" yes;
lockNode -l 0 -lu 1;
select -ne :defaultRenderGlobals;
	addAttr -ci true -h true -sn "dss" -ln "defaultSurfaceShader" -dt "string";
	setAttr -av -k on ".cch";
	setAttr -cb on ".ihi";
	setAttr -av -k on ".nds";
	setAttr -cb on ".bnm";
	setAttr -av -k on ".macc";
	setAttr -av -k on ".macd";
	setAttr -av -k on ".macq";
	setAttr -av -k on ".mcfr";
	setAttr -cb on ".ifg";
	setAttr -av -k on ".clip";
	setAttr -av -k on ".edm";
	setAttr -av -k on ".edl";
	setAttr -av -cb on ".ren";
	setAttr -av -k on ".esr";
	setAttr -av -k on ".ors";
	setAttr -cb on ".sdf";
	setAttr -av -k on ".outf";
	setAttr -av -cb on ".imfkey";
	setAttr -av -k on ".gama";
	setAttr -av -k on ".exrc";
	setAttr -av -k on ".expt";
	setAttr -av -k on ".an";
	setAttr -cb on ".ar";
	setAttr -av -k on ".fs";
	setAttr -av -k on ".ef";
	setAttr -av -k on ".bfs";
	setAttr -av -cb on ".me";
	setAttr -cb on ".se";
	setAttr -av -k on ".be";
	setAttr -av -cb on ".ep";
	setAttr -av -k on ".fec";
	setAttr -av -k on ".ofc";
	setAttr -cb on ".ofe";
	setAttr -cb on ".efe";
	setAttr -cb on ".oft";
	setAttr -cb on ".umfn";
	setAttr -cb on ".ufe";
	setAttr -av -k on ".pff";
	setAttr -av -cb on ".peie";
	setAttr -av -cb on ".ifp";
	setAttr -k on ".rv";
	setAttr -av -k on ".comp";
	setAttr -av -k on ".cth";
	setAttr -av -k on ".soll";
	setAttr -av -cb on ".sosl";
	setAttr -av -k on ".rd";
	setAttr -av -k on ".lp";
	setAttr -av -k on ".sp";
	setAttr -av -k on ".shs";
	setAttr -av -k on ".lpr";
	setAttr -cb on ".gv";
	setAttr -cb on ".sv";
	setAttr -av -k on ".mm";
	setAttr -av -k on ".npu";
	setAttr -av -k on ".itf";
	setAttr -av -k on ".shp";
	setAttr -cb on ".isp";
	setAttr -av -k on ".uf";
	setAttr -av -k on ".oi";
	setAttr -av -k on ".rut";
	setAttr -av -k on ".mot";
	setAttr -av -k on ".mb";
	setAttr -av -k on ".mbf";
	setAttr -av -k on ".mbso";
	setAttr -av -k on ".mbsc";
	setAttr -av -k on ".afp";
	setAttr -av -k on ".pfb";
	setAttr -av -k on ".pram";
	setAttr -av -k on ".poam";
	setAttr -av -k on ".prlm";
	setAttr -av -k on ".polm";
	setAttr -av -cb on ".prm";
	setAttr -av -cb on ".pom";
	setAttr -cb on ".pfrm";
	setAttr -cb on ".pfom";
	setAttr -av -k on ".bll";
	setAttr -av -k on ".bls";
	setAttr -av -k on ".smv";
	setAttr -av -k on ".ubc";
	setAttr -av -k on ".mbc";
	setAttr -cb on ".mbt";
	setAttr -av -k on ".udbx";
	setAttr -av -k on ".smc";
	setAttr -av -k on ".kmv";
	setAttr -cb on ".isl";
	setAttr -cb on ".ism";
	setAttr -cb on ".imb";
	setAttr -av -k on ".rlen";
	setAttr -av -k on ".frts";
	setAttr -av -k on ".tlwd";
	setAttr -av -k on ".tlht";
	setAttr -av -k on ".jfc";
	setAttr -cb on ".rsb";
	setAttr -av -k on ".ope";
	setAttr -av -k on ".oppf";
	setAttr -av -k on ".rcp";
	setAttr -av -k on ".icp";
	setAttr -av -k on ".ocp";
	setAttr -cb on ".hbl";
	setAttr ".dss" -type "string" "lambert1";
select -ne :defaultResolution;
	setAttr -av -k on ".cch";
	setAttr -av -k on ".ihi";
	setAttr -av -k on ".nds";
	setAttr -k on ".bnm";
	setAttr -av -k on ".w";
	setAttr -av -k on ".h";
	setAttr -av -k on ".pa" 1;
	setAttr -av -k on ".al";
	setAttr -av -k on ".dar";
	setAttr -av -k on ".ldar";
	setAttr -av -k on ".dpi";
	setAttr -av -k on ".off";
	setAttr -av -k on ".fld";
	setAttr -av -k on ".zsl";
	setAttr -av -k on ".isu";
	setAttr -av -k on ".pdu";
select -ne :hardwareRenderGlobals;
	setAttr -av -k on ".cch";
	setAttr -av -cb on ".ihi";
	setAttr -av -k on ".nds";
	setAttr -cb on ".bnm";
	setAttr -av -k off -cb on ".ctrs" 256;
	setAttr -av -k off -cb on ".btrs" 512;
	setAttr -av -k off -cb on ".fbfm";
	setAttr -av -k off -cb on ".ehql";
	setAttr -av -k off -cb on ".eams";
	setAttr -av -k off -cb on ".eeaa";
	setAttr -av -k off -cb on ".engm";
	setAttr -av -k off -cb on ".mes";
	setAttr -av -k off -cb on ".emb";
	setAttr -av -k off -cb on ".mbbf";
	setAttr -av -k off -cb on ".mbs";
	setAttr -av -k off -cb on ".trm";
	setAttr -av -k off -cb on ".tshc";
	setAttr -av -k off -cb on ".enpt";
	setAttr -av -k off -cb on ".clmt";
	setAttr -av -k off -cb on ".tcov";
	setAttr -av -k off -cb on ".lith";
	setAttr -av -k off -cb on ".sobc";
	setAttr -av -k off -cb on ".cuth";
	setAttr -av -k off -cb on ".hgcd";
	setAttr -av -k off -cb on ".hgci";
	setAttr -av -k off -cb on ".mgcs";
	setAttr -av -k off -cb on ".twa";
	setAttr -av -k off -cb on ".twz";
	setAttr -av -k on ".hwcc";
	setAttr -av -k on ".hwdp";
	setAttr -av -k on ".hwql";
	setAttr -av -k on ".hwfr";
	setAttr -av -k on ".soll";
	setAttr -av -k on ".sosl";
	setAttr -av -k on ".bswa";
	setAttr -av -k on ".shml";
	setAttr -av -k on ".hwel";
connectAttr "Root_TmpJnt.s" "Spine1_TmpJnt.is";
connectAttr "Spine1_TmpJnt.s" "Spine2_TmpJnt.is";
connectAttr "Spine2_TmpJnt.s" "Spine3_TmpJnt.is";
connectAttr "Spine3_TmpJnt.s" "Spine4_TmpJnt.is";
connectAttr "Spine4_TmpJnt.s" "Spine5_TmpJnt.is";
connectAttr "Spine5_TmpJnt.s" "Neck_TmpJnt.is";
connectAttr "Neck_TmpJnt.s" "Head_TmpJnt.is";
connectAttr "Head_TmpJnt.s" "HeadEnd_TmpJnt.is";
connectAttr "HeadEnd_TmpJnt.s" "HairRoot_TmpJnt.is";
connectAttr "Head_TmpJnt.s" "JawLwr1_TmpJnt.is";
connectAttr "JawLwr1_TmpJnt.s" "JawLwr2_TmpJnt.is";
connectAttr "JawLwr2_TmpJnt.s" "JawLwrEnd_TmpJnt.is";
connectAttr "Head_TmpJnt.s" "EyeTrgt_TmpJnt.is";
connectAttr "EyeTrgt_TmpJnt.s" "EyeTrgt_L_TmpJnt.is";
connectAttr "EyeTrgt_TmpJnt.s" "EyeTrgt_R_TmpJnt.is";
connectAttr "Head_TmpJnt.s" "Eye_R_TmpJnt.is";
connectAttr "Eye_R_TmpJnt.s" "EyeDot_R_TmpJnt.is";
connectAttr "Eye_R_TmpJnt.s" "Iris_R_TmpJnt.is";
connectAttr "Iris_R_TmpJnt.s" "Pupil_R_TmpJnt.is";
connectAttr "Head_TmpJnt.s" "Eye_L_TmpJnt.is";
connectAttr "Eye_L_TmpJnt.s" "EyeDot_L_TmpJnt.is";
connectAttr "Eye_L_TmpJnt.s" "Iris_L_TmpJnt.is";
connectAttr "Iris_L_TmpJnt.s" "Pupil_L_TmpJnt.is";
connectAttr "Head_TmpJnt.s" "JawUprRoot_TmpJnt.is";
connectAttr "JawUprRoot_TmpJnt.s" "JawUpr1_TmpJnt.is";
connectAttr "JawUpr1_TmpJnt.s" "JawUprEnd_TmpJnt.is";
connectAttr "Spine5_TmpJnt.s" "Clav_L_TmpJnt.is";
connectAttr "Clav_L_TmpJnt.s" "UpArm_L_TmpJnt.is";
connectAttr "UpArm_L_TmpJnt.s" "Forearm_L_TmpJnt.is";
connectAttr "Forearm_L_TmpJnt.s" "Elbow_L_TmpJnt.is";
connectAttr "Forearm_L_TmpJnt.s" "Wrist_L_TmpJnt.is";
connectAttr "Wrist_L_TmpJnt.s" "Hand1_L_TmpJnt.is";
connectAttr "Hand1_L_TmpJnt.s" "Hand2_L_TmpJnt.is";
connectAttr "Wrist_L_TmpJnt.s" "Hand_L_TmpJnt.is";
connectAttr "Wrist_L_TmpJnt.s" "Index1_L_TmpJnt.is";
connectAttr "Index1_L_TmpJnt.s" "Index2_L_TmpJnt.is";
connectAttr "Index2_L_TmpJnt.s" "Index3_L_TmpJnt.is";
connectAttr "Index3_L_TmpJnt.s" "Index4_L_TmpJnt.is";
connectAttr "Wrist_L_TmpJnt.s" "Thumb1_L_TmpJnt.is";
connectAttr "Thumb1_L_TmpJnt.s" "Thumb2_L_TmpJnt.is";
connectAttr "Thumb2_L_TmpJnt.s" "Thumb3_L_TmpJnt.is";
connectAttr "Forearm_L_TmpJnt.s" "ElbowPos_L_TmpJnt.is";
connectAttr "Spine5_TmpJnt.s" "Clav_R_TmpJnt.is";
connectAttr "Clav_R_TmpJnt.s" "UpArm_R_TmpJnt.is";
connectAttr "UpArm_R_TmpJnt.s" "Forearm_R_TmpJnt.is";
connectAttr "Forearm_R_TmpJnt.s" "Elbow_R_TmpJnt.is";
connectAttr "Forearm_R_TmpJnt.s" "Wrist_R_TmpJnt.is";
connectAttr "Wrist_R_TmpJnt.s" "Hand1_R_TmpJnt.is";
connectAttr "Hand1_R_TmpJnt.s" "Hand2_R_TmpJnt.is";
connectAttr "Wrist_R_TmpJnt.s" "Hand_R_TmpJnt.is";
connectAttr "Wrist_R_TmpJnt.s" "Index1_R_TmpJnt.is";
connectAttr "Index1_R_TmpJnt.s" "Index2_R_TmpJnt.is";
connectAttr "Index2_R_TmpJnt.s" "Index3_R_TmpJnt.is";
connectAttr "Index3_R_TmpJnt.s" "Index4_R_TmpJnt.is";
connectAttr "Wrist_R_TmpJnt.s" "Thumb1_R_TmpJnt.is";
connectAttr "Thumb1_R_TmpJnt.s" "Thumb2_R_TmpJnt.is";
connectAttr "Thumb2_R_TmpJnt.s" "Thumb3_R_TmpJnt.is";
connectAttr "Forearm_R_TmpJnt.s" "ElbowPos_R_TmpJnt.is";
connectAttr "Root_TmpJnt.s" "Pelvis_TmpJnt.is";
connectAttr "Pelvis_TmpJnt.s" "UpLeg_L_TmpJnt.is";
connectAttr "UpLeg_L_TmpJnt.s" "LowLeg_L_TmpJnt.is";
connectAttr "LowLeg_L_TmpJnt.s" "Ankle_L_TmpJnt.is";
connectAttr "Ankle_L_TmpJnt.s" "HeelIkTwistPiv_L_TmpJnt.is";
connectAttr "Ankle_L_TmpJnt.s" "Ball_L_TmpJnt.is";
connectAttr "Ball_L_TmpJnt.s" "Toe_L_TmpJnt.is";
connectAttr "Ball_L_TmpJnt.s" "ToeIkTwistPiv_L_TmpJnt.is";
connectAttr "Ball_L_TmpJnt.s" "FootSmartIk_L_TmpJnt.is";
connectAttr "Ankle_L_TmpJnt.s" "FootOut_L_TmpJnt.is";
connectAttr "Ankle_L_TmpJnt.s" "FootIn_L_TmpJnt.is";
connectAttr "Ankle_L_TmpJnt.s" "Heel_L_TmpJnt.is";
connectAttr "Ankle_L_TmpJnt.s" "Foot_L_TmpJnt.is";
connectAttr "LowLeg_L_TmpJnt.s" "Knee_L_TmpJnt.is";
connectAttr "LowLeg_L_TmpJnt.s" "KneePos_L_TmpJnt.is";
connectAttr "Pelvis_TmpJnt.s" "UpLeg_R_TmpJnt.is";
connectAttr "UpLeg_R_TmpJnt.s" "LowLeg_R_TmpJnt.is";
connectAttr "LowLeg_R_TmpJnt.s" "Ankle_R_TmpJnt.is";
connectAttr "Ankle_R_TmpJnt.s" "HeelIkTwistPiv_R_TmpJnt.is";
connectAttr "Ankle_R_TmpJnt.s" "Ball_R_TmpJnt.is";
connectAttr "Ball_R_TmpJnt.s" "Toe_R_TmpJnt.is";
connectAttr "Ball_R_TmpJnt.s" "ToeIkTwistPiv_R_TmpJnt.is";
connectAttr "Ball_R_TmpJnt.s" "FootSmartIk_R_TmpJnt.is";
connectAttr "Ankle_R_TmpJnt.s" "FootOut_R_TmpJnt.is";
connectAttr "Ankle_R_TmpJnt.s" "FootIn_R_TmpJnt.is";
connectAttr "Ankle_R_TmpJnt.s" "Heel_R_TmpJnt.is";
connectAttr "Ankle_R_TmpJnt.s" "Foot_R_TmpJnt.is";
connectAttr "LowLeg_R_TmpJnt.s" "Knee_R_TmpJnt.is";
connectAttr "LowLeg_R_TmpJnt.s" "KneePos_R_TmpJnt.is";
relationship "link" ":lightLinker1" ":initialShadingGroup.message" ":defaultLightSet.message";
relationship "link" ":lightLinker1" ":initialParticleSE.message" ":defaultLightSet.message";
relationship "shadowLink" ":lightLinker1" ":initialShadingGroup.message" ":defaultLightSet.message";
relationship "shadowLink" ":lightLinker1" ":initialParticleSE.message" ":defaultLightSet.message";
connectAttr "layerManager.dli[0]" "defaultLayer.id";
connectAttr "renderLayerManager.rlmi[0]" "defaultRenderLayer.rlid";
connectAttr ":initialShadingGroup.msg" "hyperShadePrimaryNodeEditorSavedTabsInfo.tgi[0].ni[0].dn"
		;
connectAttr "defaultRenderLayer.msg" ":defaultRenderingList1.r" -na;

// End of characterTmp.ma
