{
  "type": "service_account",
  "project_id": "iron-fountain-298610",
  "private_key_id": "e6f9675e41e77217bf979512ba0077b406cacce8",
  "private_key": "-----BEGIN PRIVATE KEY-----\nMIIEvAIBADANBgkqhkiG9w0BAQEFAASCBKYwggSiAgEAAoIBAQC2Htkbst6r16xL\nxjsKk/rCiczTSSeJMoOY+qBtgZHKlD+mq1MR+SLAC89sSCDqzWt/dSYMY24NX1Tb\n4/NFPujV4mUQD39uRx8CRuA/HtfClMASeYHEsCkBqlswLJphqtU/LAGBF9QnTAW5\nHaKhSwTXyh276VvpjFtto+UjXvKZ0Ia49A9IOM9eb0pbrT+S45yLQfWfq9aDOmSp\naJ4chrWeSP9LaP60YbVQhVHvkkTz75QMkTpdWShTOpsg7T0o4LKqoZ8YhyyknoxT\nJwm3IFKF3lfbeFkw2RxTfNjxSE4aC2A3x8RPtZc2TUk3PZeqtV5EdSbj82sQGT3x\n0Cou812HAgMBAAECggEAJx38Gv9x5W4XI1VqJA0BzNwlQvKRC95uNqMKZ0rvwhfS\njh15Y8BjzuUagdMCQvypTMCgUgPfRP8Hbo2JGIP5JcuRUoBJqimbhvUrQFODG1ew\n46b2kQUXYbSyDmheJoE3eXCdyBkSp/gjuI2de1BuM11FwrFOXR0ZHDUaR90idZff\nalvJimNTAKtkTI7oln035OByk0JHedQKvqoFbrRQ1sQvv1PqPFytizfZK/weaRq8\n8ogUJTmCQC5/OCpewD0f+5ugO8wvDN2RT0sPUDovMbnRh1RNLSAQVMAFARM4AYM2\nZ95Omsm0FaalwKoySUA+CfWpiGSUhV+KKVrW1QS5WQKBgQD2xODYDvLSWoMq+F8v\n+lcNtZ2QRcIZqH/d+xwlsa5Hae1sjk77OIJtFHHfHN3gURz4FiQRMRsHrgvEIDVk\ny6YaaK03fFuyUgzk4b+rnxt97uFVhPA1UnzPFrnKUfFBaTLFgKabJE89IWfkWYlq\n0mhInOdi7Z8fVZ9ViCnvE28drwKBgQC87uERl8718zYF+4VTmLK0twdB+ZwkNJZF\nMns1H7HpOXoI+hYoLcpslPtah3Zl1Q9LzSk/9G0OzQ1QrPDvARJmH20L88i16L/m\nFErG1TPJ+s3GSwqG51TF+tbUg+3eDowYjeNdN5Q9A27WyeZaKDrEAynuhGrGk/cs\nu0mtXaHLqQKBgBdYWM0X3PD5jx8pkBfB3yp03AsiDlLPFgmyD9+hB5PJ+aQjcmVh\n2zTmkj9BQ9xM0CjIL3FQ6/W2CXbsdSCsA3LMJFbzdNlR2dZtZOyfiMJJLxggE3l3\n7EbLJ5h0WBaQFTWKDjjvHm/yERoRPmbUsPjtnxZE1KDqQMCeuRjdBc4RAoGARZv1\njJfUBsYO93FOFBjEbtSodeRTZPuDCgepYU9GK1mj3r7VfwQv+oWBfj8+nhI7yn/S\nXN/fdn6SE1FEi6pnbvzRHoA5SNxyJ4D+c/eFVztyqUZooH+GulLK6A2bjB7r+vf7\n9xJNKZWkNrq4hisgS6umvVxIQtWtUevHH3rJ69ECgYA4wksOkZtxKnQCMy6BM0SA\n6hLpCeRHDvxSIPyZNwJtJGS6sLApRhHMqKBNpC5heuj4hKw7wqmiN/3w+s19ryPh\nCDVRAxFQuHRlRTf5cp3Navd4P15yb+oUwN2JHWK9EFCrv2VC99zBCYG1rYn5HFod\nd0CWfAw2Z2N+dblaehG0wg==\n-----END PRIVATE KEY-----\n",
  "client_email": "sheetapi@iron-fountain-298610.iam.gserviceaccount.com",
  "client_id": "106314773339939290207",
  "auth_uri": "https://accounts.google.com/o/oauth2/auth",
  "token_uri": "https://oauth2.googleapis.com/token",
  "auth_provider_x509_cert_url": "https://www.googleapis.com/oauth2/v1/certs",
  "client_x509_cert_url": "https://www.googleapis.com/robot/v1/metadata/x509/sheetapi%40iron-fountain-298610.iam.gserviceaccount.com"
}
