//Maya ASCII 2018ff09 scene
//Name: previsCharTmp.ma
//Last modified: Tue, Sep 22, 2020 03:23:12 PM
//Codeset: 1252
requires maya "2018ff09";
requires "stereoCamera" "10.0";
requires "mtoa" "3.3.0.2";
requires -nodeType "ilrOptionsNode" -nodeType "ilrUIOptionsNode" -nodeType "ilrBakeLayerManager"
		 "Turtle" "2018.0.0";
currentUnit -l centimeter -a degree -t film;
fileInfo "application" "maya";
fileInfo "product" "Maya 2018";
fileInfo "version" "2018";
fileInfo "cutIdentifier" "201903222215-65bada0e52";
fileInfo "osv" "Microsoft Windows 8 Business Edition, 64-bit  (Build 9200)\n";
createNode transform -s -n "persp";
	rename -uid "0DBD6F61-4192-F300-457D-638872CE2AA3";
	setAttr ".v" no;
	setAttr ".t" -type "double3" 4.9048248421190266 3.2064672068715092 2.4073679130359169 ;
	setAttr ".r" -type "double3" -25.538352729604473 66.600000000000193 0 ;
createNode camera -s -n "perspShape" -p "persp";
	rename -uid "5A53ACB0-4FE6-FDA9-78B7-06AB2E42FADD";
	setAttr -k off ".v" no;
	setAttr ".fl" 34.999999999999993;
	setAttr ".coi" 5.444287600544369;
	setAttr ".imn" -type "string" "persp";
	setAttr ".den" -type "string" "persp_depth";
	setAttr ".man" -type "string" "persp_mask";
	setAttr ".hc" -type "string" "viewSet -p %camera";
	setAttr ".ai_translator" -type "string" "perspective";
createNode transform -s -n "top";
	rename -uid "19C13674-4E29-1AE0-77F2-2D815A834440";
	setAttr ".v" no;
	setAttr ".t" -type "double3" 0 1000.1 0 ;
	setAttr ".r" -type "double3" -89.999999999999986 0 0 ;
createNode camera -s -n "topShape" -p "top";
	rename -uid "B3AB100F-4BD9-DB8B-288B-56976E682CAC";
	setAttr -k off ".v" no;
	setAttr ".rnd" no;
	setAttr ".coi" 1000.1;
	setAttr ".ow" 30;
	setAttr ".imn" -type "string" "top";
	setAttr ".den" -type "string" "top_depth";
	setAttr ".man" -type "string" "top_mask";
	setAttr ".hc" -type "string" "viewSet -t %camera";
	setAttr ".o" yes;
	setAttr ".ai_translator" -type "string" "orthographic";
createNode transform -s -n "front";
	rename -uid "E638C21D-4931-0838-8AE0-8796C9A8BEAD";
	setAttr ".v" no;
	setAttr ".t" -type "double3" 0 0 1000.1 ;
createNode camera -s -n "frontShape" -p "front";
	rename -uid "18C8AC29-4A63-D57C-110A-A1819322A22A";
	setAttr -k off ".v" no;
	setAttr ".rnd" no;
	setAttr ".coi" 1000.1;
	setAttr ".ow" 30;
	setAttr ".imn" -type "string" "front";
	setAttr ".den" -type "string" "front_depth";
	setAttr ".man" -type "string" "front_mask";
	setAttr ".hc" -type "string" "viewSet -f %camera";
	setAttr ".o" yes;
	setAttr ".ai_translator" -type "string" "orthographic";
createNode transform -s -n "side";
	rename -uid "A6E2E17E-49FE-A701-9E2B-01BD28EBB186";
	setAttr ".v" no;
	setAttr ".t" -type "double3" 1000.1 0 0 ;
	setAttr ".r" -type "double3" 0 89.999999999999986 0 ;
createNode camera -s -n "sideShape" -p "side";
	rename -uid "30A3D478-473A-C888-E809-7783EB25F228";
	setAttr -k off ".v" no;
	setAttr ".rnd" no;
	setAttr ".coi" 1000.1;
	setAttr ".ow" 30;
	setAttr ".imn" -type "string" "side";
	setAttr ".den" -type "string" "side_depth";
	setAttr ".man" -type "string" "side_mask";
	setAttr ".hc" -type "string" "viewSet -s %camera";
	setAttr ".o" yes;
	setAttr ".ai_translator" -type "string" "orthographic";
createNode transform -n "TmpJnt_Grp";
	rename -uid "599EC679-461D-4464-D878-BA8E76A1DA89";
	setAttr ".rp" -type "double3" 0 0 -0.18478895077392443 ;
	setAttr ".sp" -type "double3" 0 0 -0.18478895077392443 ;
createNode joint -n "Root_TmpJnt" -p "TmpJnt_Grp";
	rename -uid "50669F45-4BFF-632B-6F8A-17B5BE96B961";
	setAttr ".t" -type "double3" 0 5.2615821001840262 0.090152766281478447 ;
	setAttr ".ro" 2;
	setAttr ".bps" -type "matrix" 1 0 0 0 0 1 0 0 0 0 1 0 0 55.198331887049953 2.7449132371197802 1;
	setAttr ".radi" 0.025;
createNode joint -n "Pelvis_TmpJnt" -p "Root_TmpJnt";
	rename -uid "F2CC64C5-42B2-B94A-9AD9-BCA327191517";
	setAttr ".t" -type "double3" 0 -0.056951529606583229 -0.013292753015314171 ;
	setAttr ".ro" 3;
	setAttr ".radi" 0.025;
createNode joint -n "UpLeg_L_TmpJnt" -p "Pelvis_TmpJnt";
	rename -uid "6ED87625-4A27-C8FC-0909-289CC05EC8CE";
	setAttr ".t" -type "double3" 0.46485887608790122 -0.25839705400604274 -0.067540535215572323 ;
	setAttr ".ro" 1;
	setAttr ".jo" -type "double3" 0 0 180 ;
	setAttr ".radi" 0.025;
createNode joint -n "LowLeg_L_TmpJnt" -p "UpLeg_L_TmpJnt";
	rename -uid "22EA6C50-4BE1-C323-F702-C8B445A0C99B";
	setAttr ".t" -type "double3" 1.609823385706477e-15 2.4527516084756007 0.075454955632400789 ;
	setAttr ".ro" 1;
	setAttr ".jo" -type "double3" -2.4278505038386962e-06 0 0 ;
	setAttr ".radi" 0.025;
createNode joint -n "Ankle_L_TmpJnt" -p "LowLeg_L_TmpJnt";
	rename -uid "2A65FBF8-4895-6ADC-42DD-54A861CFA17E";
	setAttr ".t" -type "double3" -9.4368957093138306e-16 2.0593086605218773 -0.31432662108861376 ;
	setAttr ".ro" 1;
	setAttr ".radi" 0.025;
createNode joint -n "Ball_L_TmpJnt" -p "Ankle_L_TmpJnt";
	rename -uid "78D5D66B-41E9-48D3-353C-F1AB9F121EE4";
	setAttr ".t" -type "double3" 3.3306690738754696e-16 0.43417325116615002 0.57703221944078575 ;
	setAttr ".ro" 1;
	setAttr ".jo" -type "double3" 89.999999999999986 0 0 ;
	setAttr ".radi" 0.025;
createNode joint -n "Toe_L_TmpJnt" -p "Ball_L_TmpJnt";
	rename -uid "14E037E9-44B2-AD6B-F6FF-31B2169E9FBB";
	setAttr ".t" -type "double3" -5.5511151231257827e-16 0.43388753963819088 -1.0508108883943685e-08 ;
	setAttr ".ro" 1;
	setAttr ".radi" 0.025;
createNode joint -n "HeelIkTwistPiv_L_TmpJnt" -p "Ball_L_TmpJnt";
	rename -uid "931FF820-420E-C397-5665-5E8C3E923373";
	setAttr ".t" -type "double3" 5.5511151231257827e-17 -0.50344017613631908 -1.3729450856878532e-16 ;
	setAttr ".r" -type "double3" 89.999997572149496 0 180 ;
	setAttr ".jo" -type "double3" 89.999997572149482 -7.0167092985348704e-15 -180 ;
	setAttr ".radi" 0.025;
createNode joint -n "Heel_L_TmpJnt" -p "HeelIkTwistPiv_L_TmpJnt";
	rename -uid "606581BC-4779-90B3-6D3C-8DBBBDB5140A";
	setAttr ".t" -type "double3" 5.5511151231257827e-17 -0.19967450623769245 8.8507444385542829e-24 ;
	setAttr ".r" -type "double3" 89.999997572149496 0 180 ;
	setAttr ".jo" -type "double3" 89.999997572149496 -7.0167092985348704e-15 -180 ;
	setAttr ".radi" 0.025;
createNode joint -n "FootOut_L_TmpJnt" -p "Ankle_L_TmpJnt";
	rename -uid "A894D6EE-4590-66FD-04BD-73BFBB93412A";
	setAttr ".t" -type "double3" -0.22779149686523303 0.43417323691065685 0.5659731773455825 ;
	setAttr ".jo" -type "double3" -2.4278505276912694e-06 -2.1047145357371133e-38 180 ;
	setAttr ".radi" 0.025;
createNode joint -n "FootIn_L_TmpJnt" -p "Ankle_L_TmpJnt";
	rename -uid "CCFDA74D-4971-54BB-9D67-F5890546BB96";
	setAttr ".t" -type "double3" 0.1846753516688 0.43417323693278304 0.56545100939352011 ;
	setAttr ".jo" -type "double3" -2.4278505276912694e-06 -2.1047145357371133e-38 180 ;
	setAttr ".radi" 0.025;
createNode joint -n "Knee_L_TmpJnt" -p "LowLeg_L_TmpJnt";
	rename -uid "D2E8DE1D-49B4-77FD-A48C-BA9C6AF0DBFE";
	addAttr -ci true -sn "liw" -ln "lockInfluenceWeights" -min 0 -max 1 -at "bool";
	setAttr ".uoc" 1;
	setAttr ".oc" 2;
	setAttr ".t" -type "double3" -9.9920072216264089e-16 -1.9897178793470971e-07 2.6614643600408283 ;
	setAttr ".mnrl" -type "double3" -360 -360 -360 ;
	setAttr ".mxrl" -type "double3" 360 360 360 ;
	setAttr ".jot" -type "string" "yxz";
	setAttr ".jo" -type "double3" -2.4278505038386971e-06 0 180 ;
	setAttr ".bps" -type "matrix" -1 -1.2246467991473532e-16 0 0 1.2246467991473532e-16 -1 0 0
		 0 0 1 0 1.3486489690923307 14.656585133659888 1.5144370407379352e-17 1;
	setAttr -k on -cb off ".radi" 0.025;
createNode joint -n "KneePos_L_TmpJnt" -p "LowLeg_L_TmpJnt";
	rename -uid "095A28BF-4C66-DB02-7FFF-509BAC5A9185";
	setAttr ".t" -type "double3" 5.5511151231257827e-17 0.15517051115058145 -0.37330971197490492 ;
	setAttr ".r" -type "double3" -2.4278505038386967e-06 0 180 ;
	setAttr ".jo" -type "double3" -2.4278505038386967e-06 2.9732593483343481e-22 -180 ;
	setAttr ".radi" 0.025;
createNode joint -n "UpLeg_R_TmpJnt" -p "Pelvis_TmpJnt";
	rename -uid "D1F5ED55-4B05-7BF6-9792-01860CED4D0E";
	setAttr ".t" -type "double3" -0.464859 -0.25840057057744303 -0.067540533266164271 ;
	setAttr ".ro" 1;
	setAttr ".jo" -type "double3" 0 180 0 ;
	setAttr ".radi" 0.025;
createNode joint -n "LowLeg_R_TmpJnt" -p "UpLeg_R_TmpJnt";
	rename -uid "7DC938B4-4977-25E6-E2BE-09A58852B788";
	setAttr ".t" -type "double3" 0 -2.45275 -0.075454919999999995 ;
	setAttr ".ro" 1;
	setAttr ".jo" -type "double3" 2.4148365394514671e-06 -2.957321776182411e-22 -2.9573219008242072e-22 ;
	setAttr ".radi" 0.025;
createNode joint -n "Ankle_R_TmpJnt" -p "LowLeg_R_TmpJnt";
	rename -uid "778C2837-4DF7-6904-E341-B5A559A1AFE9";
	setAttr ".t" -type "double3" 0 -2.059306986752131 0.31432648679329989 ;
	setAttr ".ro" 1;
	setAttr ".jo" -type "double3" 4.8296730789029342e-06 -5.9146436770066192e-22 -5.9146436770066201e-22 ;
	setAttr ".radi" 0.025;
createNode joint -n "Ball_R_TmpJnt" -p "Ankle_R_TmpJnt";
	rename -uid "9314FBCF-4EFF-15B2-F356-5D953EEF4C0E";
	setAttr ".t" -type "double3" -5.5511151231257827e-17 -0.43417308768433727 -0.57703194510292255 ;
	setAttr ".ro" 1;
	setAttr ".jo" -type "double3" 89.999990327639864 -2.9589153405008536e-21 -1.40334174125469e-14 ;
	setAttr ".radi" 0.025;
createNode joint -n "Toe_R_TmpJnt" -p "Ball_R_TmpJnt";
	rename -uid "B3D45C78-4201-6C21-30E0-CC9D1928884B";
	setAttr ".t" -type "double3" -5.5511151231257827e-17 -0.43388700000000091 1.0508178715558324e-08 ;
	setAttr ".ro" 1;
	setAttr ".radi" 0.025;
createNode joint -n "HeelIkTwistPiv_R_TmpJnt" -p "Ball_R_TmpJnt";
	rename -uid "B72FC36A-498D-BACB-9191-0ABFB08BD2CF";
	setAttr ".t" -type "double3" 5.5511151231257827e-17 0.50344000000000044 -7.9694822416054312e-16 ;
	setAttr ".r" -type "double3" 89.999997572149496 0 180 ;
	setAttr ".jo" -type "double3" 89.999997572149482 7.0167092985348523e-15 180 ;
	setAttr ".radi" 0.025;
createNode joint -n "Heel_R_TmpJnt" -p "HeelIkTwistPiv_R_TmpJnt";
	rename -uid "78D45FD8-47A4-0ED5-FAD2-64A240C19476";
	setAttr ".t" -type "double3" 0 0.19967500000000019 -1.4558501783052947e-14 ;
	setAttr ".r" -type "double3" 89.999997572149496 0 180 ;
	setAttr ".jo" -type "double3" 89.999997572149496 -7.0167092985348917e-15 -180 ;
	setAttr ".radi" 0.025;
createNode joint -n "FootOut_R_TmpJnt" -p "Ankle_R_TmpJnt";
	rename -uid "DD396449-4FF6-F742-102C-3BA89DCD2C2E";
	setAttr ".t" -type "double3" 0.22779099999999997 -0.43417307156193136 -0.56597294510292462 ;
	setAttr ".jo" -type "double3" 7.2445096286087952e-06 -2.1050121977773111e-14 179.99999999999997 ;
	setAttr ".radi" 0.025;
createNode joint -n "FootIn_R_TmpJnt" -p "Ankle_R_TmpJnt";
	rename -uid "54D6EDC5-4407-17D1-FDB0-049B9FC50DFB";
	setAttr ".t" -type "double3" -0.18467500000000009 -0.43417307149592915 -0.5654509451029246 ;
	setAttr ".jo" -type "double3" 7.2445096286087952e-06 -2.1050121977773111e-14 179.99999999999997 ;
	setAttr ".radi" 0.025;
createNode joint -n "Knee_R_TmpJnt" -p "LowLeg_R_TmpJnt";
	rename -uid "71150728-4EAC-7504-A923-3D820816EB9C";
	addAttr -ci true -sn "liw" -ln "lockInfluenceWeights" -min 0 -max 1 -at "bool";
	setAttr ".uoc" 1;
	setAttr ".oc" 2;
	setAttr ".t" -type "double3" -3.8857805861880479e-16 -1.1217238737870616e-07 -2.6614655999999974 ;
	setAttr ".mnrl" -type "double3" -360 -360 -360 ;
	setAttr ".mxrl" -type "double3" 360 360 360 ;
	setAttr ".jot" -type "string" "yxz";
	setAttr ".jo" -type "double3" 2.4148365305844463e-06 -2.1050125526559623e-14 179.99999999999997 ;
	setAttr ".bps" -type "matrix" -1 -1.2246467991473532e-16 0 0 1.2246467991473532e-16 -1 0 0
		 0 0 1 0 1.3486489690923307 14.656585133659888 1.5144370407379352e-17 1;
	setAttr -k on -cb off ".radi" 0.025;
createNode joint -n "KneePos_R_TmpJnt" -p "LowLeg_R_TmpJnt";
	rename -uid "3207BB38-439B-E23F-DC3D-98A8918E33DC";
	setAttr ".t" -type "double3" 0 -0.15516998426618533 0.37330940653992611 ;
	setAttr ".r" -type "double3" -2.4278505038386967e-06 0 180 ;
	setAttr ".jo" -type "double3" 2.4148365305844463e-06 -2.1050128490256459e-14 180 ;
	setAttr ".radi" 0.025;
createNode joint -n "Spine1_TmpJnt" -p "Root_TmpJnt";
	rename -uid "32CB75F6-455F-4DA0-6760-8A988C81B4E5";
	setAttr ".t" -type "double3" 7.8323576668343205e-33 0.057259928294856266 0.0079141896581863269 ;
	setAttr ".ro" 1;
	setAttr ".radi" 0.025;
createNode joint -n "Spine2_TmpJnt" -p "Spine1_TmpJnt";
	rename -uid "D7A38101-4B26-7433-43A7-0BBE0C894782";
	setAttr ".t" -type "double3" 0 0.24473768280831809 0.011868365091062372 ;
	setAttr ".ro" 1;
	setAttr ".radi" 0.025;
createNode joint -n "Spine3_TmpJnt" -p "Spine2_TmpJnt";
	rename -uid "DFB79F05-4AF1-5489-BADB-5BA8986AC43B";
	setAttr ".t" -type "double3" 2.0548877703358704e-16 0.2447376828083172 0.0011258135138966369 ;
	setAttr ".ro" 1;
	setAttr ".radi" 0.025;
createNode joint -n "Spine4_TmpJnt" -p "Spine3_TmpJnt";
	rename -uid "8F68F2D7-4CE1-CA99-DA11-3FAB57607C09";
	setAttr ".t" -type "double3" -1.8396339308336377e-12 0.24473768280831543 -0.027761791970956004 ;
	setAttr ".ro" 1;
	setAttr ".radi" 0.025;
createNode joint -n "Spine5_TmpJnt" -p "Spine4_TmpJnt";
	rename -uid "525A3185-45D8-C59F-D827-4695D8F26223";
	setAttr ".t" -type "double3" 4.0389678347315804e-28 0.24488964599591156 -0.042927092318398627 ;
	setAttr ".ro" 1;
	setAttr ".radi" 0.025;
createNode joint -n "Clav_L_TmpJnt" -p "Spine5_TmpJnt";
	rename -uid "0D385A62-4252-5124-1798-DB801B7D7BC1";
	setAttr ".t" -type "double3" 0.18704895421138998 0.5480913419900677 0.095015205703406144 ;
	setAttr ".jo" -type "double3" 0 0 -89.999999999999986 ;
	setAttr ".radi" 0.025;
createNode joint -n "UpArm_L_TmpJnt" -p "Clav_L_TmpJnt";
	rename -uid "C2F21219-4B57-A729-A3D5-6AAEB5038244";
	setAttr ".t" -type "double3" 0.06895515662024998 0.4959839585364712 -0.36680919052575173 ;
	setAttr ".r" -type "double3" 0 0 0.33050558684108822 ;
	setAttr ".ro" 4;
	setAttr ".jo" -type "double3" 1.6377796436742997 0.049867557000624937 -46.743543592063297 ;
	setAttr ".radi" 0.025;
createNode joint -n "Forearm_L_TmpJnt" -p "UpArm_L_TmpJnt";
	rename -uid "26313D8D-4B67-CDCB-1126-E9BB2ED95026";
	setAttr ".t" -type "double3" 0.00044870029538035539 1.1955130318859339 -0.18119867967237979 ;
	setAttr ".r" -type "double3" -0.52050293153886495 0 0 ;
	setAttr ".ro" 4;
	setAttr ".jo" -type "double3" -5.9496752757945022e-05 0 0 ;
	setAttr ".radi" 0.025;
createNode joint -n "Wrist_L_TmpJnt" -p "Forearm_L_TmpJnt";
	rename -uid "D1ACFB8B-49ED-DA80-C004-2092F386CE0D";
	setAttr ".t" -type "double3" -0.00044870030779442516 1.3385839590297228 0.056421842322574522 ;
	setAttr ".ro" 4;
	setAttr ".radi" 0.025;
createNode joint -n "Hand_L_TmpJnt" -p "Wrist_L_TmpJnt";
	rename -uid "BCAAF0C2-4608-2F08-82F8-13B1AA20C554";
	setAttr ".t" -type "double3" -1.7159607068606419e-12 0.0927649893543121 -2.5772510264809867e-07 ;
	setAttr ".ro" 4;
	setAttr ".radi" 0.025;
createNode joint -n "Thumb1_L_TmpJnt" -p "Hand_L_TmpJnt";
	rename -uid "53CEAF75-4EF6-CCBA-EA3C-098CB126576D";
	setAttr ".t" -type "double3" 0.058945989852292158 0.087832817940932451 0.10818708721427217 ;
	setAttr ".r" -type "double3" -11.355970923828295 0 0 ;
	setAttr ".jo" -type "double3" 52.467509212935767 -12.638563865876236 -44.751904736014836 ;
	setAttr ".radi" 0.025;
createNode joint -n "Thumb2_L_TmpJnt" -p "Thumb1_L_TmpJnt";
	rename -uid "6BAE9FC0-4C73-DD77-4FD0-90A8DEC5B8AC";
	setAttr ".t" -type "double3" -0.014905533383509972 0.19379844583038475 -0.012998111494144204 ;
	setAttr ".jo" -type "double3" -15.075276046926515 33.359422421085199 6.3606933596809299 ;
	setAttr ".radi" 0.025;
createNode joint -n "Thumb3_L_TmpJnt" -p "Thumb2_L_TmpJnt";
	rename -uid "9F5CE288-4CE4-188C-B23B-16A1F99B47E1";
	setAttr ".t" -type "double3" -3.5527136788005009e-15 0.21807716300444646 2.3314683517128287e-15 ;
	setAttr ".radi" 0.025;
createNode joint -n "Thumb4_L_TmpJnt" -p "Thumb3_L_TmpJnt";
	rename -uid "DAAD527B-4737-58FF-BB75-C18CA1E8F5F7";
	setAttr ".t" -type "double3" -9.7699626167013776e-15 0.17899801452990038 3.8857805861880479e-15 ;
	setAttr ".radi" 0.025;
createNode joint -n "HandCupOuter_L_TmpJnt" -p "Hand_L_TmpJnt";
	rename -uid "A7D177D0-47C6-0161-7D3F-6D84324FB684";
	addAttr -ci true -sn "liw" -ln "lockInfluenceWeights" -min 0 -max 1 -at "bool";
	setAttr ".uoc" 1;
	setAttr ".oc" 6;
	setAttr ".t" -type "double3" 0.025890873188123997 -0.0070354548420430429 -0.027436553761828297 ;
	setAttr ".mnrl" -type "double3" -360 -360 -360 ;
	setAttr ".mxrl" -type "double3" 360 360 360 ;
	setAttr ".jot" -type "string" "yxz";
	setAttr ".bps" -type "matrix" 2.2204460492503131e-16 -1 0 0 1 2.2204460492503131e-16 8.3960588285190204e-14 0
		 -8.3960588285190204e-14 -1.8642995655058271e-29 1 0 11.145136555499452 21.950819439088733 -0.34347297829513029 1;
	setAttr -k on -cb off ".radi" 0.025;
createNode joint -n "Ring1_L_TmpJnt" -p "HandCupOuter_L_TmpJnt";
	rename -uid "536594B9-4C69-40B7-1D16-9B821B9B62FD";
	setAttr ".t" -type "double3" -0.054950237954161096 0.14823161189223644 -0.038882706172968129 ;
	setAttr ".jo" -type "double3" -89.999999999913214 -86.852713978127312 89.999999999913342 ;
	setAttr ".radi" 0.025;
createNode joint -n "Ring2_L_TmpJnt" -p "Ring1_L_TmpJnt";
	rename -uid "990DA5AD-4774-2B18-CA58-AC97738184CE";
	setAttr ".t" -type "double3" 0.0054571593141752306 0.22459859297123308 0.0018620488196843255 ;
	setAttr ".radi" 0.025;
createNode joint -n "Ring3_L_TmpJnt" -p "Ring2_L_TmpJnt";
	rename -uid "0064DF54-4E5B-64BC-B3F8-04AB1FAB531C";
	setAttr ".t" -type "double3" 1.6653345369377348e-16 0.21980039402938067 0.00042718610434278048 ;
	setAttr ".r" -type "double3" 1.239422402432814e-13 0 0 ;
	setAttr ".jo" -type "double3" 0.32663852910164964 0 0 ;
	setAttr ".radi" 0.025;
createNode joint -n "Ring4_L_TmpJnt" -p "Ring3_L_TmpJnt";
	rename -uid "EE29B26E-4FC1-1A64-5D60-FE9E0BBCEA0F";
	setAttr ".t" -type "double3" 4.9960036108132044e-16 0.12632235989736329 8.8817841970012523e-16 ;
	setAttr ".radi" 0.025;
createNode joint -n "Ring5_L_TmpJnt" -p "Ring4_L_TmpJnt";
	rename -uid "04BC951B-40D6-31BB-62E6-6DAEEB960DC1";
	setAttr ".t" -type "double3" -4.4408920985006262e-16 0.14035448763592073 -7.9936057773011271e-15 ;
	setAttr ".radi" 0.025;
createNode joint -n "Pinky1_L_TmpJnt" -p "HandCupOuter_L_TmpJnt";
	rename -uid "39DB0948-44F9-266D-1495-548204A3AA5C";
	setAttr ".t" -type "double3" -0.039063990411514204 0.1319122067862244 -0.13751941519129712 ;
	setAttr ".jo" -type "double3" -88.733402544756373 -86.270615253175961 89.253948869217297 ;
	setAttr ".radi" 0.025;
createNode joint -n "Pinky2_L_TmpJnt" -p "Pinky1_L_TmpJnt";
	rename -uid "D5C3084B-406F-25B1-EB28-03A15B743B90";
	setAttr ".t" -type "double3" 0.0088768015585619642 0.22650912535885426 0.00024976083020877837 ;
	setAttr ".r" -type "double3" 2.2562059771631816e-14 0 0 ;
	setAttr ".jo" -type "double3" -0.7849976207657442 0 0 ;
	setAttr ".radi" 0.025;
createNode joint -n "Pinky3_L_TmpJnt" -p "Pinky2_L_TmpJnt";
	rename -uid "18CB14E8-4DC1-E444-12A1-BB9846CCE177";
	setAttr ".t" -type "double3" -1.8873791418627661e-15 0.16552908092910923 3.5527136788005009e-15 ;
	setAttr ".radi" 0.025;
createNode joint -n "Pinky4_L_TmpJnt" -p "Pinky3_L_TmpJnt";
	rename -uid "CC301C0F-4B63-0AF0-5427-58942B846110";
	setAttr ".t" -type "double3" 4.4408920985006262e-16 0.099922810587067312 -1.7763568394002505e-15 ;
	setAttr ".radi" 0.025;
createNode joint -n "Pinky5_L_TmpJnt" -p "Pinky4_L_TmpJnt";
	rename -uid "3145AC26-468E-5FE8-0427-64A938566082";
	setAttr ".t" -type "double3" 0 0.099492250593004483 -1.4210854715202004e-14 ;
	setAttr ".radi" 0.025;
createNode joint -n "HandCupInner_L_TmpJnt" -p "Hand_L_TmpJnt";
	rename -uid "6E22E831-4883-10CB-D405-D081771AD25F";
	addAttr -ci true -sn "liw" -ln "lockInfluenceWeights" -min 0 -max 1 -at "bool";
	setAttr ".uoc" 1;
	setAttr ".oc" 6;
	setAttr ".t" -type "double3" 0.025890873188122221 -0.0070354548420441532 0.032689973517135623 ;
	setAttr ".mnrl" -type "double3" -360 -360 -360 ;
	setAttr ".mxrl" -type "double3" 360 360 360 ;
	setAttr ".jot" -type "string" "yxz";
	setAttr ".bps" -type "matrix" 2.2204460492503131e-16 -1 0 0 1 2.2204460492503131e-16 8.3960588285190204e-14 0
		 -8.3960588285190204e-14 -1.8642995655058271e-29 1 0 11.145136555499452 21.950819439088733 -0.34347297829513029 1;
	setAttr -k on -cb off ".radi" 0.025;
createNode joint -n "Middle1_L_TmpJnt" -p "HandCupInner_L_TmpJnt";
	rename -uid "F0ACCF2B-4708-1A79-9648-4E91C07030FF";
	setAttr ".t" -type "double3" -0.053300130283399305 0.15989133902604458 0.0064340116295631411 ;
	setAttr ".jo" -type "double3" -90.420694975593236 -87.465129828948946 90.197025323187674 ;
	setAttr ".radi" 0.025;
createNode joint -n "Middle2_L_TmpJnt" -p "Middle1_L_TmpJnt";
	rename -uid "F7A55D6A-45C1-F260-EA9D-F9B8D0E092F1";
	setAttr ".t" -type "double3" 0.0028472577974473778 0.21878515938007514 0.0017184111079062703 ;
	setAttr ".r" -type "double3" -1.6790346948113497e-12 0 0 ;
	setAttr ".jo" -type "double3" 0.87380832394483454 0 0 ;
	setAttr ".radi" 0.025;
createNode joint -n "Middle3_L_TmpJnt" -p "Middle2_L_TmpJnt";
	rename -uid "36C30373-46CE-A8A1-BEE5-42AB91D567C2";
	setAttr ".t" -type "double3" 5.5511151231257827e-17 0.2695658314637408 -1.9539925233402755e-14 ;
	setAttr ".radi" 0.025;
createNode joint -n "Middle4_L_TmpJnt" -p "Middle3_L_TmpJnt";
	rename -uid "18B3812C-4B71-6F7C-4C64-CE984DF24486";
	setAttr ".t" -type "double3" 0 0.15148494089601927 -2.6645352591003757e-14 ;
	setAttr ".radi" 0.025;
createNode joint -n "Middle5_L_TmpJnt" -p "Middle4_L_TmpJnt";
	rename -uid "32196005-468D-AF05-BD96-608EDCCDB7AB";
	setAttr ".t" -type "double3" -2.7755575615628914e-16 0.15121002589571075 8.8817841970012523e-15 ;
	setAttr ".radi" 0.025;
createNode joint -n "Index1_L_TmpJnt" -p "HandCupInner_L_TmpJnt";
	rename -uid "E61940EB-4EBE-8832-1214-31A0CC8F06A1";
	setAttr ".t" -type "double3" -0.041857658409526266 0.16318301321732065 0.11363752306764702 ;
	setAttr ".jo" -type "double3" -90.467122455687331 -87.792142478367495 92.461062665683372 ;
	setAttr ".radi" 0.025;
createNode joint -n "Index2_L_TmpJnt" -p "Index1_L_TmpJnt";
	rename -uid "6383109E-4980-B1AA-79DE-879F669B43A8";
	setAttr ".t" -type "double3" 2.4091839634365897e-14 0.21001543014894186 -0.0005564065380667671 ;
	setAttr ".r" -type "double3" 1.2418078184439118e-12 0 0 ;
	setAttr ".jo" -type "double3" -1.4492525844148112 0 0 ;
	setAttr ".radi" 0.025;
createNode joint -n "Index3_L_TmpJnt" -p "Index2_L_TmpJnt";
	rename -uid "F63A6ACA-45F3-7EB8-D680-76A28D55F511";
	setAttr ".t" -type "double3" 3.0531133177191805e-16 0.25871895736900008 7.9936057773011271e-15 ;
	setAttr ".radi" 0.025;
createNode joint -n "Index4_L_TmpJnt" -p "Index3_L_TmpJnt";
	rename -uid "6A78FC8B-477A-F0BD-76C3-04A24F780554";
	setAttr ".t" -type "double3" 2.7755575615628914e-17 0.13981167712082765 2.6645352591003757e-15 ;
	setAttr ".radi" 0.025;
createNode joint -n "Index5_L_TmpJnt" -p "Index4_L_TmpJnt";
	rename -uid "089459D6-43DD-29BE-D5F3-9695DF991B59";
	setAttr ".t" -type "double3" 2.7755575615628914e-17 0.14451886949402681 -2.1316282072803006e-14 ;
	setAttr ".radi" 0.025;
createNode joint -n "Elbow_L_TmpJnt" -p "Forearm_L_TmpJnt";
	rename -uid "D5DE714A-4430-ED0E-A64B-90B3BE0873B9";
	addAttr -ci true -sn "liw" -ln "lockInfluenceWeights" -min 0 -max 1 -at "bool";
	setAttr ".uoc" 1;
	setAttr ".oc" 2;
	setAttr ".t" -type "double3" -0.00044870029538834899 -0.010464528274370277 -1.9750337044501463 ;
	setAttr ".mnrl" -type "double3" -360 -360 -360 ;
	setAttr ".mxrl" -type "double3" 360 360 360 ;
	setAttr ".jot" -type "string" "yxz";
	setAttr ".jo" -type "double3" 1.1587375031949416 1.1585006131888267 135.01171543182093 ;
	setAttr ".bps" -type "matrix" -1 -1.2246467991473532e-16 0 0 1.2246467991473532e-16 -1 0 0
		 0 0 1 0 1.3486489690923307 14.656585133659888 1.5144370407379352e-17 1;
	setAttr -k on -cb off ".radi" 0.025;
createNode joint -n "Neck_TmpJnt" -p "Spine5_TmpJnt";
	rename -uid "CE06ACB8-4E30-D81F-3AF6-189EAF57564B";
	setAttr ".t" -type "double3" 4.8467614016778965e-27 0.69985438209889761 -0.2319656241874743 ;
	setAttr ".ro" 3;
	setAttr ".bps" -type "matrix" 1 0 0 0 0 1 0 0 0 0 1 0 -1.9297120085528687e-11 73.41267894747979 -0.071384005920493099 1;
	setAttr ".radi" 0.025;
createNode joint -n "NeckEnd_TmpJnt" -p "Neck_TmpJnt";
	rename -uid "9ACA2A1F-4757-ADF9-19CA-E69126527181";
	setAttr ".t" -type "double3" -8.0779356694631609e-28 0.56722265028512986 0.15848627308916183 ;
	setAttr ".ro" 3;
	setAttr ".bps" -type "matrix" 1 0 0 0 0 1 0 0 0 0 1 0 -1.9297120085528694e-11 77.607794990570611 0.4333734284434686 1;
	setAttr ".radi" 0.025;
createNode joint -n "Head_TmpJnt" -p "NeckEnd_TmpJnt";
	rename -uid "A99DF2EF-4901-4D36-3BB3-90AEA8F1506F";
	addAttr -ci true -sn "liw" -ln "lockInfluenceWeights" -min 0 -max 1 -at "bool";
	setAttr ".t" -type "double3" 4.0389678347315804e-28 -8.6008942190574089e-09 -6.9388939039072284e-18 ;
	setAttr ".ro" 3;
	setAttr ".bps" -type "matrix" 1 0 0 0 0 1 0 0 0 0 1 0 -1.9297120085528694e-11 77.607794900340153 0.4333734284434686 1;
	setAttr ".radi" 0.025;
createNode joint -n "HeadEnd_TmpJnt" -p "Head_TmpJnt";
	rename -uid "04AFC753-4703-10B5-33DC-12B8AA6BFF2A";
	setAttr ".t" -type "double3" 4.0389678347315804e-28 0.92266696491576905 -7.6327832942979512e-17 ;
	setAttr ".radi" 0.025;
createNode joint -n "EyeTrgt_TmpJnt" -p "Head_TmpJnt";
	rename -uid "176D6FCD-4BB8-F5E0-D541-35BD25A25371";
	addAttr -ci true -sn "liw" -ln "lockInfluenceWeights" -min 0 -max 1 -at "bool";
	setAttr ".uoc" 1;
	setAttr ".oc" 6;
	setAttr ".t" -type "double3" 1.8644845707341199e-09 0.18876243300462292 2.3399187610435428 ;
	setAttr ".r" -type "double3" 0.00056835471808699793 0.00099488426345113235 4.9344573885472178e-09 ;
	setAttr ".mnrl" -type "double3" -360 -360 -360 ;
	setAttr ".mxrl" -type "double3" 360 360 360 ;
	setAttr ".bps" -type "matrix" 1 0 0 0 0 1 0 0 0 0 1 0 -0.53833200000000003 25.828300000000006 1.4860499999999996 1;
	setAttr -k on -cb off ".radi" 0.025;
createNode joint -n "EyeTrgt_L_TmpJnt" -p "EyeTrgt_TmpJnt";
	rename -uid "8FA3873C-4287-AC3B-7075-078DB5FDECF2";
	addAttr -ci true -sn "liw" -ln "lockInfluenceWeights" -min 0 -max 1 -at "bool";
	setAttr ".uoc" 1;
	setAttr ".oc" 6;
	setAttr ".t" -type "double3" 0.13423592797507428 -3.3750779948604759e-14 -4.4408920985006262e-16 ;
	setAttr ".mnrl" -type "double3" -360 -360 -360 ;
	setAttr ".mxrl" -type "double3" 360 360 360 ;
	setAttr ".bps" -type "matrix" 1 0 0 0 0 1 0 0 0 0 1 0 0.53833165295886931 25.828273426804412 1.4860476249829009 1;
	setAttr -k on -cb off ".radi" 0.025;
createNode joint -n "EyeTrgt_R_TmpJnt" -p "EyeTrgt_TmpJnt";
	rename -uid "732B182B-4BC3-4F3B-5AA5-0AAD9A935543";
	addAttr -ci true -sn "liw" -ln "lockInfluenceWeights" -min 0 -max 1 -at "bool";
	setAttr ".uoc" 1;
	setAttr ".oc" 6;
	setAttr ".t" -type "double3" -0.13423592797507483 -3.1974423109204508e-14 -4.4408920985006262e-16 ;
	setAttr ".mnrl" -type "double3" -360 -360 -360 ;
	setAttr ".mxrl" -type "double3" 360 360 360 ;
	setAttr ".bps" -type "matrix" 1 0 0 0 0 1 0 0 0 0 1 0 -0.53833200000000003 25.828300000000006 1.4860499999999996 1;
	setAttr -k on -cb off ".radi" 0.025;
createNode joint -n "JawUprRoot_TmpJnt" -p "Head_TmpJnt";
	rename -uid "6522C9DF-4DB1-FB7D-2232-2AB6D439ED99";
	setAttr ".t" -type "double3" 2.0102082437583443e-17 -0.024294037553807435 0.43709646532301516 ;
	setAttr ".ro" 5;
	setAttr ".jo" -type "double3" 45.48692090312769 0 0 ;
	setAttr ".radi" 0.025;
createNode joint -n "JawUpr1_TmpJnt" -p "JawUprRoot_TmpJnt";
	rename -uid "7D3D463B-497E-BBB0-9533-CD98017A439B";
	setAttr ".t" -type "double3" 8.0779356694631609e-28 -3.5527136788005009e-15 1.7763568394002505e-15 ;
	setAttr ".ro" 5;
	setAttr ".jo" -type "double3" 0 0 -180 ;
	setAttr ".radi" 0.025;
createNode joint -n "JawUprEnd_TmpJnt" -p "JawUpr1_TmpJnt";
	rename -uid "C2B55126-41C5-A53A-0E58-E38FED874AFB";
	setAttr ".t" -type "double3" -2.5272334929129612e-18 0.00098108856310119563 0.081266196886002007 ;
	setAttr ".ro" 5;
	setAttr ".radi" 0.025;
createNode joint -n "TeethUpr_TmpJnt" -p "JawUpr1_TmpJnt";
	rename -uid "C01F1D28-4813-8C90-8D1C-F09525CE8740";
	setAttr ".t" -type "double3" -1.839388991775681e-12 0.088029649022858258 -0.035095323044513016 ;
	setAttr ".ro" 5;
	setAttr ".jo" -type "double3" 45.000000000000014 -7.0622500768802555e-31 -1.4033418597069752e-14 ;
	setAttr ".radi" 0.025;
createNode joint -n "JawLwr1_TmpJnt" -p "Head_TmpJnt";
	rename -uid "6CE2B956-4479-7966-56AD-F1A791A947EC";
	setAttr ".t" -type "double3" 0 0.066477882967323154 0.14643272837075427 ;
	setAttr ".ro" 5;
	setAttr ".jo" -type "double3" 37.799446144037262 0 0 ;
	setAttr ".radi" 0.025;
createNode joint -n "JawLwr2_TmpJnt" -p "JawLwr1_TmpJnt";
	rename -uid "93C241E7-42EC-2F06-3CC7-FDAA52399443";
	setAttr ".t" -type "double3" 4.0389678347315804e-28 -0.092440682224309789 0.10185149952354955 ;
	setAttr ".ro" 5;
	setAttr ".jo" -type "double3" -3.580667149197486 0 0 ;
	setAttr ".radi" 0.025;
createNode joint -n "JawLwrEnd_TmpJnt" -p "JawLwr2_TmpJnt";
	rename -uid "B01E6C33-4437-66C0-6967-5383DCFE9C2D";
	setAttr ".t" -type "double3" -4.0389678347315804e-28 8.8817841970012523e-16 0.33707898159263472 ;
	setAttr ".ro" 5;
	setAttr ".radi" 0.025;
createNode joint -n "TeethLwr_TmpJnt" -p "JawLwr2_TmpJnt";
	rename -uid "AD01A328-4F15-CBBE-15F4-CCAF777F7134";
	setAttr ".t" -type "double3" 1.8394284420565978e-12 0.04875521541644634 0.17571827065467716 ;
	setAttr ".ro" 5;
	setAttr ".jo" -type "double3" -34.218778994839774 0 0 ;
	setAttr ".radi" 0.025;
createNode joint -n "Tongue1_TmpJnt" -p "JawLwr2_TmpJnt";
	rename -uid "83285D65-4B17-C0D8-A0E5-59BA7A4B7A0F";
	setAttr ".t" -type "double3" -4.4428646182047385e-27 -0.12111154945598734 0.091212017138685653 ;
	setAttr ".jo" -type "double3" -19.009888348461086 0 0 ;
	setAttr ".radi" 0.025;
createNode joint -n "Tongue2_TmpJnt" -p "Tongue1_TmpJnt";
	rename -uid "17628609-42B9-745E-FB92-26B06E587657";
	setAttr ".t" -type "double3" -1.2116903504194741e-27 0.05120631113636076 -2.2204460492503131e-15 ;
	setAttr ".jo" -type "double3" 39.663607254030268 0 0 ;
	setAttr ".radi" 0.025;
createNode joint -n "Tongue3_TmpJnt" -p "Tongue2_TmpJnt";
	rename -uid "D6C9C915-4F76-32F3-88C9-DBBEC0E94FF0";
	setAttr ".t" -type "double3" 4.0389678347315804e-28 0.060230720215476374 0 ;
	setAttr ".jo" -type "double3" 33.353851237872746 0 0 ;
	setAttr ".radi" 0.025;
createNode joint -n "Tongue4_TmpJnt" -p "Tongue3_TmpJnt";
	rename -uid "6ADAE660-476A-221E-D7BF-779542CF21EF";
	setAttr ".t" -type "double3" -4.0389678347315804e-28 0.064453255102178753 0 ;
	setAttr ".jo" -type "double3" 11.905785175822563 0 0 ;
	setAttr ".radi" 0.025;
createNode joint -n "Tongue5_TmpJnt" -p "Tongue4_TmpJnt";
	rename -uid "42D887F2-4E0E-8AC9-F61A-53AC1BF360AF";
	setAttr ".t" -type "double3" 1.2116903504194741e-27 0.058013210441514973 8.8817841970012523e-16 ;
	setAttr ".jo" -type "double3" 5.1577481803425087 0 0 ;
	setAttr ".radi" 0.025;
createNode joint -n "Tongue6_TmpJnt" -p "Tongue5_TmpJnt";
	rename -uid "6FED8DA7-4A4F-0116-A80E-52B654BDE0B0";
	setAttr ".t" -type "double3" -4.0389678347315804e-28 0.056719837031061093 0 ;
	setAttr ".r" -type "double3" 3.1805546814635168e-15 0 0 ;
	setAttr ".jo" -type "double3" -9.5416640443905503e-15 0 0 ;
	setAttr ".radi" 0.025;
createNode joint -n "Eye_L_TmpJnt" -p "Head_TmpJnt";
	rename -uid "20E51D91-4B50-AD89-2BCA-EB958CEC5339";
	setAttr ".t" -type "double3" 0.1055221147853649 0.18876243300462292 0.29814299088582513 ;
	setAttr ".jo" -type "double3" 0 0.001989768526902266 0 ;
	setAttr ".radi" 0.025;
createNode joint -n "EyeLid_L_TmpJnt" -p "Eye_L_TmpJnt";
	rename -uid "9F993D91-47D1-469F-58BF-5EAB712749EA";
	setAttr ".t" -type "double3" 0 -3.5527136788005009e-15 0 ;
	setAttr ".jo" -type "double3" 0 -0.0005969304664955803 0 ;
	setAttr ".radi" 0.025;
createNode joint -n "EyeDot_L_TmpJnt" -p "Eye_L_TmpJnt";
	rename -uid "0335178C-4381-2990-4DEE-7F8BAFC5EF75";
	setAttr ".t" -type "double3" 0.048326839170355643 0.0032296180725088774 0.11734296579991821 ;
	setAttr ".r" -type "double3" 0 3.1805546814635168e-15 0 ;
	setAttr ".s" -type "double3" 0.99999999999999978 1 0.99999999999999978 ;
	setAttr ".jo" -type "double3" 0 17.393003299703452 0 ;
	setAttr ".bps" -type "matrix" 0.95426645728245563 0 -0.29895740249338415 0 0 1 0 0
		 0.29895740249338415 0 0.95426645728245563 0 2.1518555879592891 80.633293151855469 4.6595699787139866 1;
	setAttr ".radi" 0.025;
createNode joint -n "Iris_L_TmpJnt" -p "Eye_L_TmpJnt";
	rename -uid "EF80577F-49D8-9274-5D80-9DBA9E36D55D";
	setAttr ".t" -type "double3" 0.031744854787953233 -0.0027675628662109375 0.12169132363993218 ;
	setAttr ".r" -type "double3" 0 3.1805546814635168e-15 0 ;
	setAttr ".s" -type "double3" 0.99999999999999978 1 0.99999999999999978 ;
	setAttr ".jo" -type "double3" 0 17.393003299703452 0 ;
	setAttr ".bps" -type "matrix" 0.95426645728245563 0 -0.29895740249338415 0 0 1 0 0
		 0.29895740249338415 0 0.95426645728245563 0 1.8760650157928465 80.468818664550781 4.5679631233215323 1;
	setAttr ".radi" 0.025;
createNode joint -n "Pupil_L_TmpJnt" -p "Iris_L_TmpJnt";
	rename -uid "EA07D75D-4C28-D8C9-7AB0-95A7D546D3F7";
	setAttr ".t" -type "double3" -6.591949208711867e-17 -3.5527136788005009e-15 5.5511151231257827e-17 ;
	setAttr ".r" -type "double3" 0 3.1805546814635168e-15 0 ;
	setAttr ".s" -type "double3" 0.99999999999999978 1 0.99999999999999978 ;
	setAttr ".jo" -type "double3" 0 -3.1805546814635152e-15 0 ;
	setAttr ".bps" -type "matrix" 0.95426645728245563 0 -0.29895740249338415 0 0 1 0 0
		 0.29895740249338415 0 0.95426645728245563 0 1.8760650157928465 80.468818664550781 4.5679631233215323 1;
	setAttr ".radi" 0.025;
createNode joint -n "Eye_R_TmpJnt" -p "Head_TmpJnt";
	rename -uid "C9F49162-4F5A-64C7-AE22-A3A76DD6B858";
	setAttr ".t" -type "double3" -0.10552211105639576 0.18876243300462292 0.29814299088582513 ;
	setAttr ".jo" -type "double3" 0.0011367094360026319 0 0 ;
	setAttr ".radi" 0.025;
createNode joint -n "EyeLid_R_TmpJnt" -p "Eye_R_TmpJnt";
	rename -uid "AE6DF0C4-407F-BE95-5885-C2B422B00435";
	setAttr ".t" -type "double3" -5.5511151231257827e-17 0 0 ;
	setAttr ".jo" -type "double3" -0.00034101283080257948 0 0 ;
	setAttr ".radi" 0.025;
createNode joint -n "EyeDot_R_TmpJnt" -p "Eye_R_TmpJnt";
	rename -uid "6C043DFD-4F65-F275-E47D-E2899C78D9B3";
	setAttr ".t" -type "double3" -0.013625249266624451 0.0032321212255173037 0.12617126402911999 ;
	setAttr ".r" -type "double3" -9.6456183310069878e-19 9.5416640462418775e-15 1.9412565194479465e-19 ;
	setAttr ".s" -type "double3" 0.99999999999999978 1.0000000000000002 1 ;
	setAttr ".jo" -type "double3" -0.0011911866201659185 -17.394993064881021 0.00035611405782631599 ;
	setAttr ".bps" -type "matrix" 0.95426645728245563 0 0.29895740249338415 0 0 1 0 0
		 -0.29895740249338415 0 0.95426645728245563 0 -1.6059451699256897 80.625598907470689 4.8269281387329102 1;
	setAttr ".radi" 0.025;
createNode joint -n "Iris_R_TmpJnt" -p "Eye_R_TmpJnt";
	rename -uid "782BD6A0-43E3-C285-E64E-39B577223B3B";
	setAttr ".t" -type "double3" -0.031749084591865567 -0.0027651486141513359 0.1216902760134711 ;
	setAttr ".r" -type "double3" -9.6456183310069878e-19 9.5416640462418775e-15 1.9412565194479465e-19 ;
	setAttr ".s" -type "double3" 0.99999999999999978 1.0000000000000002 1 ;
	setAttr ".jo" -type "double3" -0.0011911866201659185 -17.394993064881021 0.00035611405782631599 ;
	setAttr ".bps" -type "matrix" 0.95426645728245563 0 0.29895740249338415 0 0 1 0 0
		 -0.29895740249338415 0 0.95426645728245563 0 -1.876070000000001 80.468800000000002 4.5679600000000029 1;
	setAttr ".radi" 0.025;
createNode joint -n "Pupil_R_TmpJnt" -p "Iris_R_TmpJnt";
	rename -uid "7C9DB5EC-43D8-CE8F-8311-9CAAE30E6DB6";
	setAttr ".t" -type "double3" -1.0408340855860843e-17 -8.8817841970012523e-16 1.1102230246251565e-16 ;
	setAttr ".r" -type "double3" -9.6456183310069878e-19 9.5416640462418775e-15 1.9412565194479465e-19 ;
	setAttr ".s" -type "double3" 0.99999999999999978 1.0000000000000002 1 ;
	setAttr ".jo" -type "double3" 2.7787139722350938e-19 -6.361109362927032e-15 -2.4265706493098817e-20 ;
	setAttr ".bps" -type "matrix" 0.95426645728245563 0 0.29895740249338415 0 0 1 0 0
		 -0.29895740249338415 0 0.95426645728245563 0 -1.876070000000001 80.468800000000002 4.5679600000000029 1;
	setAttr ".radi" 0.025;
createNode joint -n "Clav_R_TmpJnt" -p "Spine5_TmpJnt";
	rename -uid "96D17615-4B7C-6EDB-2362-4E9450D6E501";
	setAttr ".t" -type "double3" -0.18704899999816058 0.54809527710025474 0.095014749744730884 ;
	setAttr ".jo" -type "double3" -180 0 89.999999999999986 ;
	setAttr ".radi" 0.025;
createNode joint -n "UpArm_R_TmpJnt" -p "Clav_R_TmpJnt";
	rename -uid "0367DC4F-4AB1-DA15-A33B-4BA7424F6B30";
	setAttr ".t" -type "double3" -0.0689599999999988 -0.495984 0.36680900000000011 ;
	setAttr ".r" -type "double3" 0 0 0.33050558684108822 ;
	setAttr ".ro" 4;
	setAttr ".jo" -type "double3" 1.6377796436742618 0.049867557000619754 -46.743543592063283 ;
	setAttr ".radi" 0.025;
createNode joint -n "Forearm_R_TmpJnt" -p "UpArm_R_TmpJnt";
	rename -uid "F378202F-4B01-70E9-15F8-108830BE2C7A";
	setAttr ".t" -type "double3" -0.00044533434054816468 -1.19551319498576 0.18119886661419987 ;
	setAttr ".r" -type "double3" -0.52050293153886495 0 0 ;
	setAttr ".ro" 4;
	setAttr ".jo" -type "double3" 5.948909502176962e-05 -1.9490350398800157e-20 5.9982319814865649e-22 ;
	setAttr ".radi" 0.025;
createNode joint -n "Wrist_R_TmpJnt" -p "Forearm_R_TmpJnt";
	rename -uid "2B7AEC34-45BD-BF8B-3974-07976119219D";
	setAttr ".t" -type "double3" 0.0004466228014505802 -1.3385870770413826 -0.056418963964977475 ;
	setAttr ".ro" 4;
	setAttr ".jo" -type "double3" -0.00011899044257332808 3.8973626803396392e-20 -8.5150446559112617e-22 ;
	setAttr ".radi" 0.025;
createNode joint -n "Hand_R_TmpJnt" -p "Wrist_R_TmpJnt";
	rename -uid "4004818E-4C21-BD98-3C02-F292A112400C";
	setAttr ".t" -type "double3" -2.4930094193464925e-06 -0.09276178348209152 7.7574488888121351e-08 ;
	setAttr ".ro" 4;
	setAttr ".radi" 0.025;
createNode joint -n "Thumb1_R_TmpJnt" -p "Hand_R_TmpJnt";
	rename -uid "3F2E06C0-46E8-27E8-EC86-5494BAA45E89";
	setAttr ".t" -type "double3" -0.058942026762936806 -0.087831715666784937 -0.10818725409264313 ;
	setAttr ".r" -type "double3" -11.355970923828295 0 0 ;
	setAttr ".jo" -type "double3" 52.467509216279865 -12.6385638626413 -44.751904736746553 ;
	setAttr ".radi" 0.025;
createNode joint -n "Thumb2_R_TmpJnt" -p "Thumb1_R_TmpJnt";
	rename -uid "B0D4E463-46F6-B79A-0369-1ABDE187B4D6";
	setAttr ".t" -type "double3" 0.014899838451334801 -0.19379893693466599 0.012999876080888928 ;
	setAttr ".jo" -type "double3" -15.075276046926547 33.359422421085199 6.3606933596809583 ;
	setAttr ".radi" 0.025;
createNode joint -n "Thumb3_R_TmpJnt" -p "Thumb2_R_TmpJnt";
	rename -uid "814B58E6-40A1-801C-C1FC-929C695810B1";
	setAttr ".t" -type "double3" 5.7843870324703062e-06 -0.21808320637737566 3.793741798263639e-06 ;
	setAttr ".radi" 0.025;
createNode joint -n "Thumb4_R_TmpJnt" -p "Thumb3_R_TmpJnt";
	rename -uid "D48E9940-4EF4-C86C-BF7A-39A8613A32C4";
	setAttr ".t" -type "double3" -3.4877711962977287e-06 -0.17899413070761172 -2.4127406920149141e-06 ;
	setAttr ".radi" 0.025;
createNode joint -n "HandCupOuter_R_TmpJnt" -p "Hand_R_TmpJnt";
	rename -uid "8874E3CD-46D4-8DFB-D1FE-1B9DC85612C9";
	addAttr -ci true -sn "liw" -ln "lockInfluenceWeights" -min 0 -max 1 -at "bool";
	setAttr ".uoc" 1;
	setAttr ".oc" 6;
	setAttr ".t" -type "double3" -0.025890924791285741 0.0070350431410173275 0.027435759101142265 ;
	setAttr ".mnrl" -type "double3" -360 -360 -360 ;
	setAttr ".mxrl" -type "double3" 360 360 360 ;
	setAttr ".jot" -type "string" "yxz";
	setAttr ".bps" -type "matrix" 2.2204460492503131e-16 -1 0 0 1 2.2204460492503131e-16 8.3960588285190204e-14 0
		 -8.3960588285190204e-14 -1.8642995655058271e-29 1 0 11.145136555499452 21.950819439088733 -0.34347297829513029 1;
	setAttr -k on -cb off ".radi" 0.025;
createNode joint -n "Ring1_R_TmpJnt" -p "HandCupOuter_R_TmpJnt";
	rename -uid "10E36502-4BEE-6097-DE7D-B5898C9A6F99";
	setAttr ".t" -type "double3" 0.054951377450494832 -0.14822660957818568 0.038882949286918878 ;
	setAttr ".jo" -type "double3" -89.999999999913925 -86.85271398272215 89.999999999913811 ;
	setAttr ".radi" 0.025;
createNode joint -n "Ring2_R_TmpJnt" -p "Ring1_R_TmpJnt";
	rename -uid "BDC9F8AC-436E-53E3-C481-3E8D38BA2762";
	setAttr ".t" -type "double3" -0.0054574442823626668 -0.2246036715386297 -0.001862319326254358 ;
	setAttr ".radi" 0.025;
createNode joint -n "Ring3_R_TmpJnt" -p "Ring2_R_TmpJnt";
	rename -uid "317BED1E-4380-2D3B-84E6-B991822012F2";
	setAttr ".t" -type "double3" 1.0420998031168693e-07 -0.21980022229716178 -0.00042685255952079615 ;
	setAttr ".r" -type "double3" 1.239422402432814e-13 0 0 ;
	setAttr ".jo" -type "double3" 0.32663852910127111 -2.9240875165937376e-17 -7.8526060526207668e-17 ;
	setAttr ".radi" 0.025;
createNode joint -n "Ring4_R_TmpJnt" -p "Ring3_R_TmpJnt";
	rename -uid "C92CE20E-42CB-2AFB-4D87-B2BA34166E35";
	setAttr ".t" -type "double3" 3.840749869254978e-07 -0.12632044124291841 -2.1566521191118682e-07 ;
	setAttr ".radi" 0.025;
createNode joint -n "Ring5_R_TmpJnt" -p "Ring4_R_TmpJnt";
	rename -uid "24157A83-4085-BF37-3D5B-A889497B7F24";
	setAttr ".t" -type "double3" -5.9404536806306751e-07 -0.140353577021191 -4.1235956427243536e-06 ;
	setAttr ".radi" 0.025;
createNode joint -n "Pinky1_R_TmpJnt" -p "HandCupOuter_R_TmpJnt";
	rename -uid "2B07EEB6-4240-2436-3E8D-AF95021BA65C";
	setAttr ".t" -type "double3" 0.039064455590576586 -0.13190703136310211 0.13751925441691965 ;
	setAttr ".jo" -type "double3" -88.73340254383649 -86.270615257770402 89.253948868299233 ;
	setAttr ".radi" 0.025;
createNode joint -n "Pinky2_R_TmpJnt" -p "Pinky1_R_TmpJnt";
	rename -uid "0F770B59-47EA-30F4-1E1E-C59628270249";
	setAttr ".t" -type "double3" -0.0088760687106795855 -0.22651040792389021 -0.00025220308359763521 ;
	setAttr ".r" -type "double3" 2.2562059771631816e-14 0 0 ;
	setAttr ".jo" -type "double3" -0.78499762076654034 1.2474104685766174e-16 -7.9156607436188852e-17 ;
	setAttr ".radi" 0.025;
createNode joint -n "Pinky3_R_TmpJnt" -p "Pinky2_R_TmpJnt";
	rename -uid "ABEDF7D1-4F8C-A429-710A-CB96D180D2C6";
	setAttr ".t" -type "double3" -4.258666493894836e-07 -0.16552870610062298 -2.3393224886092412e-06 ;
	setAttr ".radi" 0.025;
createNode joint -n "Pinky4_R_TmpJnt" -p "Pinky3_R_TmpJnt";
	rename -uid "35FC6230-43A0-D07B-03D3-4BA8DF791732";
	setAttr ".t" -type "double3" 1.7766403037633438e-07 -0.099926389928282733 3.4451581321093272e-06 ;
	setAttr ".radi" 0.025;
createNode joint -n "Pinky5_R_TmpJnt" -p "Pinky4_R_TmpJnt";
	rename -uid "57FC98D6-4B0E-E476-210A-31801E8D87AA";
	setAttr ".t" -type "double3" 1.8945143431814415e-07 -0.099487301960959895 2.1197104267400846e-06 ;
	setAttr ".radi" 0.025;
createNode joint -n "HandCupInner_R_TmpJnt" -p "Hand_R_TmpJnt";
	rename -uid "8027D878-45AC-2D1F-222B-FA996CA29E2D";
	addAttr -ci true -sn "liw" -ln "lockInfluenceWeights" -min 0 -max 1 -at "bool";
	setAttr ".uoc" 1;
	setAttr ".oc" 6;
	setAttr ".t" -type "double3" -0.02589160126186929 0.0070355228903860034 -0.032690701166465552 ;
	setAttr ".mnrl" -type "double3" -360 -360 -360 ;
	setAttr ".mxrl" -type "double3" 360 360 360 ;
	setAttr ".jot" -type "string" "yxz";
	setAttr ".bps" -type "matrix" 2.2204460492503131e-16 -1 0 0 1 2.2204460492503131e-16 8.3960588285190204e-14 0
		 -8.3960588285190204e-14 -1.8642995655058271e-29 1 0 11.145136555499452 21.950819439088733 -0.34347297829513029 1;
	setAttr -k on -cb off ".radi" 0.025;
createNode joint -n "Middle1_R_TmpJnt" -p "HandCupInner_R_TmpJnt";
	rename -uid "6C26F499-4E23-CB73-B2E5-5FADA06ED5B3";
	setAttr ".t" -type "double3" 0.053297198981468341 -0.15989135293357615 -0.0064333569619970943 ;
	setAttr ".jo" -type "double3" -90.420694975951463 -87.465129833543742 90.197025323545432 ;
	setAttr ".radi" 0.025;
createNode joint -n "Middle2_R_TmpJnt" -p "Middle1_R_TmpJnt";
	rename -uid "E26EC00B-4DCF-8BD6-2380-4BAA440FE76C";
	setAttr ".t" -type "double3" -0.0028472974013969421 -0.21878708161353377 -0.0017233228197444106 ;
	setAttr ".r" -type "double3" -1.6790346948113497e-12 0 0 ;
	setAttr ".jo" -type "double3" 0.87380832394440722 -3.792152621960308e-17 -1.9545424172047741e-16 ;
	setAttr ".radi" 0.025;
createNode joint -n "Middle3_R_TmpJnt" -p "Middle2_R_TmpJnt";
	rename -uid "C3CAEB49-4D41-E1C4-B987-03999D5E806F";
	setAttr ".t" -type "double3" -6.3337486633230355e-07 -0.26956343803168625 1.0654548328048463e-06 ;
	setAttr ".radi" 0.025;
createNode joint -n "Middle4_R_TmpJnt" -p "Middle3_R_TmpJnt";
	rename -uid "99B74247-431D-88DA-4576-44B2E664E2A7";
	setAttr ".t" -type "double3" 1.1159110474556755e-07 -0.15148664962501657 1.1724683872671449e-06 ;
	setAttr ".radi" 0.025;
createNode joint -n "Middle5_R_TmpJnt" -p "Middle4_R_TmpJnt";
	rename -uid "BC2C148A-4056-7AB5-4026-8CA9DBF47312";
	setAttr ".t" -type "double3" -6.2561581248843368e-08 -0.15121071958039589 -2.230492912147497e-06 ;
	setAttr ".radi" 0.025;
createNode joint -n "Index1_R_TmpJnt" -p "HandCupInner_R_TmpJnt";
	rename -uid "33C59360-4180-911B-2A35-83AFFC9B20EA";
	setAttr ".t" -type "double3" 0.041859054416870656 -0.16318628053670747 -0.11363758309608883 ;
	setAttr ".jo" -type "double3" -90.467122460809293 -87.792142482958084 92.461062670801354 ;
	setAttr ".radi" 0.025;
createNode joint -n "Index2_R_TmpJnt" -p "Index1_R_TmpJnt";
	rename -uid "C61BADFF-402E-0E6E-FB4E-13BCCA6949C0";
	setAttr ".t" -type "double3" 6.7594363473144625e-07 -0.21001140179734401 0.0005560131808142188 ;
	setAttr ".r" -type "double3" 1.2418078184439118e-12 0 0 ;
	setAttr ".jo" -type "double3" -1.4492525844140784 7.8637451922387611e-17 6.5151538293079973e-16 ;
	setAttr ".radi" 0.025;
createNode joint -n "Index3_R_TmpJnt" -p "Index2_R_TmpJnt";
	rename -uid "21C9C8A4-4AE4-3C3D-C4A0-7E8A0DD050F5";
	setAttr ".t" -type "double3" -1.5347948986721427e-07 -0.2587149295181923 -6.1075960111622862e-07 ;
	setAttr ".radi" 0.025;
createNode joint -n "Index4_R_TmpJnt" -p "Index3_R_TmpJnt";
	rename -uid "2AFC7366-4318-B03F-F125-FEA75E9E2A00";
	setAttr ".t" -type "double3" 7.0326168361001251e-08 -0.13982221157238905 2.9331839179747021e-08 ;
	setAttr ".radi" 0.025;
createNode joint -n "Index5_R_TmpJnt" -p "Index4_R_TmpJnt";
	rename -uid "1999EFE2-4BBA-483E-F6E4-5A827B20A7EF";
	setAttr ".t" -type "double3" -1.7520090800360322e-07 -0.14451877634309673 -5.1313810534026061e-07 ;
	setAttr ".radi" 0.025;
createNode joint -n "Elbow_R_TmpJnt" -p "Forearm_R_TmpJnt";
	rename -uid "CDAAE1AD-4735-977B-B62C-5E9CE2873AA6";
	addAttr -ci true -sn "liw" -ln "lockInfluenceWeights" -min 0 -max 1 -at "bool";
	setAttr ".uoc" 1;
	setAttr ".oc" 2;
	setAttr ".t" -type "double3" 0.000444618449833456 0.010474465455224458 1.9750292174387862 ;
	setAttr ".mnrl" -type "double3" -360 -360 -360 ;
	setAttr ".mxrl" -type "double3" 360 360 360 ;
	setAttr ".jot" -type "string" "yxz";
	setAttr ".jo" -type "double3" 1.1588216733039989 1.1585847316821583 135.0117171336569 ;
	setAttr ".bps" -type "matrix" -1 -1.2246467991473532e-16 0 0 1.2246467991473532e-16 -1 0 0
		 0 0 1 0 1.3486489690923307 14.656585133659888 1.5144370407379352e-17 1;
	setAttr -k on -cb off ".radi" 0.025;
createNode lightLinker -s -n "lightLinker1";
	rename -uid "4CF3B73B-439E-C2C1-B110-D08780588273";
	setAttr -s 2 ".lnk";
	setAttr -s 2 ".slnk";
createNode shapeEditorManager -n "shapeEditorManager";
	rename -uid "BC172ECF-470A-2C0B-AD71-0591CB87B041";
	setAttr ".bsdt[0].bscd" -type "Int32Array" 0 ;
createNode poseInterpolatorManager -n "poseInterpolatorManager";
	rename -uid "D045F5AC-47FF-F5C6-8F82-5AB879E04FAF";
createNode displayLayerManager -n "layerManager";
	rename -uid "395D1075-429B-4390-8ADB-1DBC12D63C41";
createNode displayLayer -n "defaultLayer";
	rename -uid "45483CD7-4F5C-069F-787B-A29AFC653B9D";
createNode renderLayerManager -n "renderLayerManager";
	rename -uid "03D2FCD5-4347-AC65-157C-E98C7C8D3A20";
createNode renderLayer -n "defaultRenderLayer";
	rename -uid "69C75EDF-41B9-73E1-DB5F-6F880B0409DF";
	setAttr ".g" yes;
createNode script -n "sceneConfigurationScriptNode";
	rename -uid "88A28D54-435E-39E0-26DF-40AD9AC6D5A0";
	setAttr ".b" -type "string" "playbackOptions -min 1 -max 120 -ast 1 -aet 200 ";
	setAttr ".st" 6;
createNode ilrOptionsNode -s -n "TurtleRenderOptions";
	rename -uid "738E948C-477D-769B-33EB-D8B4B4DCC4CC";
lockNode -l 1 ;
createNode ilrUIOptionsNode -s -n "TurtleUIOptions";
	rename -uid "60EB280D-4880-16E6-9DEF-5D97989645FB";
lockNode -l 1 ;
createNode ilrBakeLayerManager -s -n "TurtleBakeLayerManager";
	rename -uid "0BEC0EC6-4120-49EE-AD5F-AA9F31B8EEB5";
lockNode -l 1 ;
createNode renderGlobals -s -n "swiffworksRenderGlobals";
	rename -uid "70408C54-478C-7055-C303-19BB7BA03223";
	addAttr -ci true -sn "rm" -ln "renderMode" -at "short";
	addAttr -ci true -sn "twos" -ln "twoSided" -dv 1 -min 0 -max 1 -at "bool";
	addAttr -ci true -sn "ctc" -ln "convertToCurves" -dv 1 -min 0 -max 1 -at "bool";
	addAttr -ci true -sn "cqlty" -ln "curveQuality" -at "short";
	addAttr -ci true -sn "inttype" -ln "intersType" -at "short";
	addAttr -ci true -sn "dlt" -ln "defaultLineThickness" -dv 0.2 -at "float";
	addAttr -ci true -sn "dlo" -ln "defaultLineOpacity" -dv 1 -at "float";
	addAttr -ci true -sn "dlcr" -ln "defaultLineColorR" -at "float";
	addAttr -ci true -sn "dlcg" -ln "defaultLineColorG" -at "float";
	addAttr -ci true -sn "dlcb" -ln "defaultLineColorB" -at "float";
	addAttr -ci true -sn "bw" -ln "bandwidth" -dv 14400 -at "float";
	addAttr -ci true -sn "oswg" -ln "onlySWG" -min 0 -max 1 -at "bool";
	addAttr -ci true -sn "fa" -ln "defaultFoldAngle" -dv 45 -at "float";
	addAttr -ci true -sn "df" -ln "defaultDisplayFolds" -at "short";
createNode renderGlobals -s -n "inkPaintRenderGlobals";
	rename -uid "8414D715-4400-8278-DF1C-6A9C2C1D2BCB";
	addAttr -ci true -sn "regMode" -ln "regionMode" -at "short";
	addAttr -ci true -sn "dpi" -ln "dpiValue" -dv 100 -at "short";
createNode renderGlobals -s -n "inkworksRenderGlobals";
	rename -uid "889D6D20-4038-35B7-CEEC-F7903C3F6052";
	addAttr -ci true -sn "bb" -ln "blendBackgr" -dv 1 -min 0 -max 1 -at "bool";
	addAttr -ci true -sn "rm" -ln "renderMode" -at "short";
	addAttr -ci true -sn "as" -ln "adaptiveSubdv" -dv 1 -min 0 -max 1 -at "bool";
	addAttr -ci true -sn "twos" -ln "twoSided" -dv 1 -min 0 -max 1 -at "bool";
	addAttr -ci true -sn "oiw" -ln "onlyIW" -min 0 -max 1 -at "bool";
createNode animLayer -s -n "BaseAnimation";
	rename -uid "BC0DD98C-4144-343B-78C8-1EA952AF8FE4";
	setAttr ".ovrd" yes;
createNode nodeGraphEditorInfo -n "MayaNodeEditorSavedTabsInfo";
	rename -uid "E1CE7F24-4575-0D8B-7053-2497558FB63E";
	setAttr ".tgi[0].tn" -type "string" "Untitled_1";
	setAttr ".tgi[0].vl" -type "double2" -714.80056683447276 -383.33331810103584 ;
	setAttr ".tgi[0].vh" -type "double2" 715.9910429776437 383.33331810103584 ;
	setAttr -s 130 ".tgi[0].ni";
	setAttr ".tgi[0].ni[0].x" 215.71427917480469;
	setAttr ".tgi[0].ni[0].y" -265.71429443359375;
	setAttr ".tgi[0].ni[0].nvs" 18304;
	setAttr ".tgi[0].ni[1].x" 2058.571533203125;
	setAttr ".tgi[0].ni[1].y" -280;
	setAttr ".tgi[0].ni[1].nvs" 18304;
	setAttr ".tgi[0].ni[2].x" 2058.571533203125;
	setAttr ".tgi[0].ni[2].y" -1432.857177734375;
	setAttr ".tgi[0].ni[2].nvs" 18304;
	setAttr ".tgi[0].ni[3].x" 1751.4285888671875;
	setAttr ".tgi[0].ni[3].y" -1220;
	setAttr ".tgi[0].ni[3].nvs" 18304;
	setAttr ".tgi[0].ni[4].x" 2365.71435546875;
	setAttr ".tgi[0].ni[4].y" -18.571428298950195;
	setAttr ".tgi[0].ni[4].nvs" 18304;
	setAttr ".tgi[0].ni[5].x" -1627.142822265625;
	setAttr ".tgi[0].ni[5].y" 507.14285278320313;
	setAttr ".tgi[0].ni[5].nvs" 18304;
	setAttr ".tgi[0].ni[6].x" 2365.71435546875;
	setAttr ".tgi[0].ni[6].y" 1705.7142333984375;
	setAttr ".tgi[0].ni[6].nvs" 18304;
	setAttr ".tgi[0].ni[7].x" 1137.142822265625;
	setAttr ".tgi[0].ni[7].y" -592.85711669921875;
	setAttr ".tgi[0].ni[7].nvs" 18304;
	setAttr ".tgi[0].ni[8].x" 1137.142822265625;
	setAttr ".tgi[0].ni[8].y" 785.71429443359375;
	setAttr ".tgi[0].ni[8].nvs" 18304;
	setAttr ".tgi[0].ni[9].x" 1751.4285888671875;
	setAttr ".tgi[0].ni[9].y" 1770;
	setAttr ".tgi[0].ni[9].nvs" 18304;
	setAttr ".tgi[0].ni[10].x" 1751.4285888671875;
	setAttr ".tgi[0].ni[10].y" -1118.5714111328125;
	setAttr ".tgi[0].ni[10].nvs" 18304;
	setAttr ".tgi[0].ni[11].x" 2058.571533203125;
	setAttr ".tgi[0].ni[11].y" 738.5714111328125;
	setAttr ".tgi[0].ni[11].nvs" 18304;
	setAttr ".tgi[0].ni[12].x" 2365.71435546875;
	setAttr ".tgi[0].ni[12].y" 995.71429443359375;
	setAttr ".tgi[0].ni[12].nvs" 18304;
	setAttr ".tgi[0].ni[13].x" 1444.2857666015625;
	setAttr ".tgi[0].ni[13].y" 1612.857177734375;
	setAttr ".tgi[0].ni[13].nvs" 18304;
	setAttr ".tgi[0].ni[14].x" 2365.71435546875;
	setAttr ".tgi[0].ni[14].y" 1502.857177734375;
	setAttr ".tgi[0].ni[14].nvs" 18304;
	setAttr ".tgi[0].ni[15].x" 2058.571533203125;
	setAttr ".tgi[0].ni[15].y" -1331.4285888671875;
	setAttr ".tgi[0].ni[15].nvs" 18304;
	setAttr ".tgi[0].ni[16].x" 2365.71435546875;
	setAttr ".tgi[0].ni[16].y" 82.857139587402344;
	setAttr ".tgi[0].ni[16].nvs" 18304;
	setAttr ".tgi[0].ni[17].x" 2058.571533203125;
	setAttr ".tgi[0].ni[17].y" -495.71429443359375;
	setAttr ".tgi[0].ni[17].nvs" 18304;
	setAttr ".tgi[0].ni[18].x" 2365.71435546875;
	setAttr ".tgi[0].ni[18].y" -1844.2857666015625;
	setAttr ".tgi[0].ni[18].nvs" 18304;
	setAttr ".tgi[0].ni[19].x" -705.71429443359375;
	setAttr ".tgi[0].ni[19].y" 417.14285278320313;
	setAttr ".tgi[0].ni[19].nvs" 18304;
	setAttr ".tgi[0].ni[20].x" 2365.71435546875;
	setAttr ".tgi[0].ni[20].y" -1235.7142333984375;
	setAttr ".tgi[0].ni[20].nvs" 18304;
	setAttr ".tgi[0].ni[21].x" 2365.71435546875;
	setAttr ".tgi[0].ni[21].y" -2918.571533203125;
	setAttr ".tgi[0].ni[21].nvs" 18304;
	setAttr ".tgi[0].ni[22].x" 2365.71435546875;
	setAttr ".tgi[0].ni[22].y" 1604.2857666015625;
	setAttr ".tgi[0].ni[22].nvs" 18304;
	setAttr ".tgi[0].ni[23].x" 215.71427917480469;
	setAttr ".tgi[0].ni[23].y" 527.14288330078125;
	setAttr ".tgi[0].ni[23].nvs" 18304;
	setAttr ".tgi[0].ni[24].x" 2365.71435546875;
	setAttr ".tgi[0].ni[24].y" -1910;
	setAttr ".tgi[0].ni[24].nvs" 18304;
	setAttr ".tgi[0].ni[25].x" 1751.4285888671875;
	setAttr ".tgi[0].ni[25].y" 785.71429443359375;
	setAttr ".tgi[0].ni[25].nvs" 18304;
	setAttr ".tgi[0].ni[26].x" 830;
	setAttr ".tgi[0].ni[26].y" 660;
	setAttr ".tgi[0].ni[26].nvs" 18304;
	setAttr ".tgi[0].ni[27].x" 1751.4285888671875;
	setAttr ".tgi[0].ni[27].y" 582.85711669921875;
	setAttr ".tgi[0].ni[27].nvs" 18304;
	setAttr ".tgi[0].ni[28].x" 2365.71435546875;
	setAttr ".tgi[0].ni[28].y" 1198.5714111328125;
	setAttr ".tgi[0].ni[28].nvs" 18304;
	setAttr ".tgi[0].ni[29].x" 2365.71435546875;
	setAttr ".tgi[0].ni[29].y" -1742.857177734375;
	setAttr ".tgi[0].ni[29].nvs" 18304;
	setAttr ".tgi[0].ni[30].x" 2365.71435546875;
	setAttr ".tgi[0].ni[30].y" 792.85711669921875;
	setAttr ".tgi[0].ni[30].nvs" 18304;
	setAttr ".tgi[0].ni[31].x" 2365.71435546875;
	setAttr ".tgi[0].ni[31].y" 387.14285278320313;
	setAttr ".tgi[0].ni[31].nvs" 18304;
	setAttr ".tgi[0].ni[32].x" -2241.428466796875;
	setAttr ".tgi[0].ni[32].y" 635.71429443359375;
	setAttr ".tgi[0].ni[32].nvs" 18304;
	setAttr ".tgi[0].ni[33].x" 2058.571533203125;
	setAttr ".tgi[0].ni[33].y" 535.71429443359375;
	setAttr ".tgi[0].ni[33].nvs" 18304;
	setAttr ".tgi[0].ni[34].x" 1751.4285888671875;
	setAttr ".tgi[0].ni[34].y" 1611.4285888671875;
	setAttr ".tgi[0].ni[34].nvs" 18304;
	setAttr ".tgi[0].ni[35].x" 1137.142822265625;
	setAttr ".tgi[0].ni[35].y" 684.28570556640625;
	setAttr ".tgi[0].ni[35].nvs" 18304;
	setAttr ".tgi[0].ni[36].x" 1751.4285888671875;
	setAttr ".tgi[0].ni[36].y" -451.42855834960938;
	setAttr ".tgi[0].ni[36].nvs" 18304;
	setAttr ".tgi[0].ni[37].x" 1751.4285888671875;
	setAttr ".tgi[0].ni[37].y" 684.28570556640625;
	setAttr ".tgi[0].ni[37].nvs" 18304;
	setAttr ".tgi[0].ni[38].x" 830;
	setAttr ".tgi[0].ni[38].y" -98.571426391601563;
	setAttr ".tgi[0].ni[38].nvs" 18304;
	setAttr ".tgi[0].ni[39].x" 2365.71435546875;
	setAttr ".tgi[0].ni[39].y" -424.28570556640625;
	setAttr ".tgi[0].ni[39].nvs" 18304;
	setAttr ".tgi[0].ni[40].x" 2058.571533203125;
	setAttr ".tgi[0].ni[40].y" 434.28570556640625;
	setAttr ".tgi[0].ni[40].nvs" 18304;
	setAttr ".tgi[0].ni[41].x" 1137.142822265625;
	setAttr ".tgi[0].ni[41].y" 582.85711669921875;
	setAttr ".tgi[0].ni[41].nvs" 18304;
	setAttr ".tgi[0].ni[42].x" -705.71429443359375;
	setAttr ".tgi[0].ni[42].y" 315.71429443359375;
	setAttr ".tgi[0].ni[42].nvs" 18304;
	setAttr ".tgi[0].ni[43].x" 2058.571533203125;
	setAttr ".tgi[0].ni[43].y" -1534.2857666015625;
	setAttr ".tgi[0].ni[43].nvs" 18304;
	setAttr ".tgi[0].ni[44].x" -1320;
	setAttr ".tgi[0].ni[44].y" 442.85714721679688;
	setAttr ".tgi[0].ni[44].nvs" 18304;
	setAttr ".tgi[0].ni[45].x" 1751.4285888671875;
	setAttr ".tgi[0].ni[45].y" -772.85711669921875;
	setAttr ".tgi[0].ni[45].nvs" 18304;
	setAttr ".tgi[0].ni[46].x" 1444.2857666015625;
	setAttr ".tgi[0].ni[46].y" -1008.5714111328125;
	setAttr ".tgi[0].ni[46].nvs" 18304;
	setAttr ".tgi[0].ni[47].x" -2548.571533203125;
	setAttr ".tgi[0].ni[47].y" 701.4285888671875;
	setAttr ".tgi[0].ni[47].nvs" 18304;
	setAttr ".tgi[0].ni[48].x" 1444.2857666015625;
	setAttr ".tgi[0].ni[48].y" 631.4285888671875;
	setAttr ".tgi[0].ni[48].nvs" 18304;
	setAttr ".tgi[0].ni[49].x" 522.85711669921875;
	setAttr ".tgi[0].ni[49].y" 1352.857177734375;
	setAttr ".tgi[0].ni[49].nvs" 18304;
	setAttr ".tgi[0].ni[50].x" 2365.71435546875;
	setAttr ".tgi[0].ni[50].y" -1438.5714111328125;
	setAttr ".tgi[0].ni[50].nvs" 18304;
	setAttr ".tgi[0].ni[51].x" 2058.571533203125;
	setAttr ".tgi[0].ni[51].y" -1015.7142944335938;
	setAttr ".tgi[0].ni[51].nvs" 18304;
	setAttr ".tgi[0].ni[52].x" 1751.4285888671875;
	setAttr ".tgi[0].ni[52].y" -134.28572082519531;
	setAttr ".tgi[0].ni[52].nvs" 18304;
	setAttr ".tgi[0].ni[53].x" 2365.71435546875;
	setAttr ".tgi[0].ni[53].y" 1097.142822265625;
	setAttr ".tgi[0].ni[53].nvs" 18304;
	setAttr ".tgi[0].ni[54].x" -398.57144165039063;
	setAttr ".tgi[0].ni[54].y" 28.571428298950195;
	setAttr ".tgi[0].ni[54].nvs" 18304;
	setAttr ".tgi[0].ni[55].x" 1444.2857666015625;
	setAttr ".tgi[0].ni[55].y" -691.4285888671875;
	setAttr ".tgi[0].ni[55].nvs" 18304;
	setAttr ".tgi[0].ni[56].x" 830;
	setAttr ".tgi[0].ni[56].y" 1468.5714111328125;
	setAttr ".tgi[0].ni[56].nvs" 18304;
	setAttr ".tgi[0].ni[57].x" 2365.71435546875;
	setAttr ".tgi[0].ni[57].y" 184.28572082519531;
	setAttr ".tgi[0].ni[57].nvs" 18304;
	setAttr ".tgi[0].ni[58].x" 2365.71435546875;
	setAttr ".tgi[0].ni[58].y" 1300;
	setAttr ".tgi[0].ni[58].nvs" 18304;
	setAttr ".tgi[0].ni[59].x" 1751.4285888671875;
	setAttr ".tgi[0].ni[59].y" 481.42855834960938;
	setAttr ".tgi[0].ni[59].nvs" 18304;
	setAttr ".tgi[0].ni[60].x" 2365.71435546875;
	setAttr ".tgi[0].ni[60].y" 1807.142822265625;
	setAttr ".tgi[0].ni[60].nvs" 18304;
	setAttr ".tgi[0].ni[61].x" 1137.142822265625;
	setAttr ".tgi[0].ni[61].y" -897.14288330078125;
	setAttr ".tgi[0].ni[61].nvs" 18304;
	setAttr ".tgi[0].ni[62].x" 2365.71435546875;
	setAttr ".tgi[0].ni[62].y" -120;
	setAttr ".tgi[0].ni[62].nvs" 18304;
	setAttr ".tgi[0].ni[63].x" 2365.71435546875;
	setAttr ".tgi[0].ni[63].y" -830;
	setAttr ".tgi[0].ni[63].nvs" 18304;
	setAttr ".tgi[0].ni[64].x" 2058.571533203125;
	setAttr ".tgi[0].ni[64].y" 64.285713195800781;
	setAttr ".tgi[0].ni[64].nvs" 18304;
	setAttr ".tgi[0].ni[65].x" 2365.71435546875;
	setAttr ".tgi[0].ni[65].y" 894.28570556640625;
	setAttr ".tgi[0].ni[65].nvs" 18304;
	setAttr ".tgi[0].ni[66].x" 1444.2857666015625;
	setAttr ".tgi[0].ni[66].y" 224.28572082519531;
	setAttr ".tgi[0].ni[66].nvs" 18304;
	setAttr ".tgi[0].ni[67].x" 1444.2857666015625;
	setAttr ".tgi[0].ni[67].y" 1511.4285888671875;
	setAttr ".tgi[0].ni[67].nvs" 18304;
	setAttr ".tgi[0].ni[68].x" 2365.71435546875;
	setAttr ".tgi[0].ni[68].y" -525.71429443359375;
	setAttr ".tgi[0].ni[68].nvs" 18304;
	setAttr ".tgi[0].ni[69].x" 2365.71435546875;
	setAttr ".tgi[0].ni[69].y" -728.5714111328125;
	setAttr ".tgi[0].ni[69].nvs" 18304;
	setAttr ".tgi[0].ni[70].x" 1444.2857666015625;
	setAttr ".tgi[0].ni[70].y" 530;
	setAttr ".tgi[0].ni[70].nvs" 18304;
	setAttr ".tgi[0].ni[71].x" -1934.2857666015625;
	setAttr ".tgi[0].ni[71].y" 571.4285888671875;
	setAttr ".tgi[0].ni[71].nvs" 18304;
	setAttr ".tgi[0].ni[72].x" 2365.71435546875;
	setAttr ".tgi[0].ni[72].y" 285.71429443359375;
	setAttr ".tgi[0].ni[72].nvs" 18304;
	setAttr ".tgi[0].ni[73].x" 830;
	setAttr ".tgi[0].ni[73].y" -627.14288330078125;
	setAttr ".tgi[0].ni[73].nvs" 18304;
	setAttr ".tgi[0].ni[74].x" 1137.142822265625;
	setAttr ".tgi[0].ni[74].y" -694.28570556640625;
	setAttr ".tgi[0].ni[74].nvs" 18304;
	setAttr ".tgi[0].ni[75].x" 1137.142822265625;
	setAttr ".tgi[0].ni[75].y" -245.71427917480469;
	setAttr ".tgi[0].ni[75].nvs" 18304;
	setAttr ".tgi[0].ni[76].x" 1137.142822265625;
	setAttr ".tgi[0].ni[76].y" 310;
	setAttr ".tgi[0].ni[76].nvs" 18304;
	setAttr ".tgi[0].ni[77].x" 1751.4285888671875;
	setAttr ".tgi[0].ni[77].y" -1322.857177734375;
	setAttr ".tgi[0].ni[77].nvs" 18304;
	setAttr ".tgi[0].ni[78].x" 270;
	setAttr ".tgi[0].ni[78].y" 115.71428680419922;
	setAttr ".tgi[0].ni[78].nvs" 18304;
	setAttr ".tgi[0].ni[79].x" 1751.4285888671875;
	setAttr ".tgi[0].ni[79].y" 128.57142639160156;
	setAttr ".tgi[0].ni[79].nvs" 18304;
	setAttr ".tgi[0].ni[80].x" 2365.71435546875;
	setAttr ".tgi[0].ni[80].y" 691.4285888671875;
	setAttr ".tgi[0].ni[80].nvs" 18304;
	setAttr ".tgi[0].ni[81].x" 1444.2857666015625;
	setAttr ".tgi[0].ni[81].y" -907.14288330078125;
	setAttr ".tgi[0].ni[81].nvs" 18304;
	setAttr ".tgi[0].ni[82].x" 2365.71435546875;
	setAttr ".tgi[0].ni[82].y" -627.14288330078125;
	setAttr ".tgi[0].ni[82].nvs" 18304;
	setAttr ".tgi[0].ni[83].x" 2058.571533203125;
	setAttr ".tgi[0].ni[83].y" 1504.2857666015625;
	setAttr ".tgi[0].ni[83].nvs" 18304;
	setAttr ".tgi[0].ni[84].x" 2365.71435546875;
	setAttr ".tgi[0].ni[84].y" 590;
	setAttr ".tgi[0].ni[84].nvs" 18304;
	setAttr ".tgi[0].ni[85].x" 2058.571533203125;
	setAttr ".tgi[0].ni[85].y" -597.14288330078125;
	setAttr ".tgi[0].ni[85].nvs" 18304;
	setAttr ".tgi[0].ni[86].x" 522.85711669921875;
	setAttr ".tgi[0].ni[86].y" 327.14285278320313;
	setAttr ".tgi[0].ni[86].nvs" 18304;
	setAttr ".tgi[0].ni[87].x" 2365.71435546875;
	setAttr ".tgi[0].ni[87].y" -2528.571533203125;
	setAttr ".tgi[0].ni[87].nvs" 18304;
	setAttr ".tgi[0].ni[88].x" -91.428573608398438;
	setAttr ".tgi[0].ni[88].y" 232.85714721679688;
	setAttr ".tgi[0].ni[88].nvs" 18304;
	setAttr ".tgi[0].ni[89].x" 2365.71435546875;
	setAttr ".tgi[0].ni[89].y" -1641.4285888671875;
	setAttr ".tgi[0].ni[89].nvs" 18304;
	setAttr ".tgi[0].ni[90].x" 522.85711669921875;
	setAttr ".tgi[0].ni[90].y" 580;
	setAttr ".tgi[0].ni[90].nvs" 18304;
	setAttr ".tgi[0].ni[91].x" 2365.71435546875;
	setAttr ".tgi[0].ni[91].y" -1032.857177734375;
	setAttr ".tgi[0].ni[91].nvs" 18304;
	setAttr ".tgi[0].ni[92].x" 1444.2857666015625;
	setAttr ".tgi[0].ni[92].y" 732.85711669921875;
	setAttr ".tgi[0].ni[92].nvs" 18304;
	setAttr ".tgi[0].ni[93].x" 1751.4285888671875;
	setAttr ".tgi[0].ni[93].y" -554.28570556640625;
	setAttr ".tgi[0].ni[93].nvs" 18304;
	setAttr ".tgi[0].ni[94].x" 2365.71435546875;
	setAttr ".tgi[0].ni[94].y" 1401.4285888671875;
	setAttr ".tgi[0].ni[94].nvs" 18304;
	setAttr ".tgi[0].ni[95].x" 1444.2857666015625;
	setAttr ".tgi[0].ni[95].y" -1110;
	setAttr ".tgi[0].ni[95].nvs" 18304;
	setAttr ".tgi[0].ni[96].x" 1444.2857666015625;
	setAttr ".tgi[0].ni[96].y" 834.28570556640625;
	setAttr ".tgi[0].ni[96].nvs" 18304;
	setAttr ".tgi[0].ni[97].x" 2365.71435546875;
	setAttr ".tgi[0].ni[97].y" 488.57144165039063;
	setAttr ".tgi[0].ni[97].nvs" 18304;
	setAttr ".tgi[0].ni[98].x" 215.71427917480469;
	setAttr ".tgi[0].ni[98].y" 368.57144165039063;
	setAttr ".tgi[0].ni[98].nvs" 18304;
	setAttr ".tgi[0].ni[99].x" 2365.71435546875;
	setAttr ".tgi[0].ni[99].y" -322.85714721679688;
	setAttr ".tgi[0].ni[99].nvs" 18304;
	setAttr ".tgi[0].ni[100].x" 522.85711669921875;
	setAttr ".tgi[0].ni[100].y" -402.85714721679688;
	setAttr ".tgi[0].ni[100].nvs" 18304;
	setAttr ".tgi[0].ni[101].x" 2365.71435546875;
	setAttr ".tgi[0].ni[101].y" -1337.142822265625;
	setAttr ".tgi[0].ni[101].nvs" 18304;
	setAttr ".tgi[0].ni[102].x" 2365.71435546875;
	setAttr ".tgi[0].ni[102].y" -1540;
	setAttr ".tgi[0].ni[102].nvs" 18304;
	setAttr ".tgi[0].ni[103].x" 1751.4285888671875;
	setAttr ".tgi[0].ni[103].y" -350;
	setAttr ".tgi[0].ni[103].nvs" 18304;
	setAttr ".tgi[0].ni[104].x" -91.428573608398438;
	setAttr ".tgi[0].ni[104].y" 458.57144165039063;
	setAttr ".tgi[0].ni[104].nvs" 18304;
	setAttr ".tgi[0].ni[105].x" 2058.571533203125;
	setAttr ".tgi[0].ni[105].y" -755.71429443359375;
	setAttr ".tgi[0].ni[105].nvs" 18304;
	setAttr ".tgi[0].ni[106].x" 2365.71435546875;
	setAttr ".tgi[0].ni[106].y" -2658.571533203125;
	setAttr ".tgi[0].ni[106].nvs" 18304;
	setAttr ".tgi[0].ni[107].x" -705.71429443359375;
	setAttr ".tgi[0].ni[107].y" 204.28572082519531;
	setAttr ".tgi[0].ni[107].nvs" 18304;
	setAttr ".tgi[0].ni[108].x" 2058.571533203125;
	setAttr ".tgi[0].ni[108].y" 1844.2857666015625;
	setAttr ".tgi[0].ni[108].nvs" 18304;
	setAttr ".tgi[0].ni[109].x" -398.57144165039063;
	setAttr ".tgi[0].ni[109].y" 274.28570556640625;
	setAttr ".tgi[0].ni[109].nvs" 18304;
	setAttr ".tgi[0].ni[110].x" 2365.71435546875;
	setAttr ".tgi[0].ni[110].y" -2788.571533203125;
	setAttr ".tgi[0].ni[110].nvs" 18304;
	setAttr ".tgi[0].ni[111].x" 1444.2857666015625;
	setAttr ".tgi[0].ni[111].y" -590;
	setAttr ".tgi[0].ni[111].nvs" 18304;
	setAttr ".tgi[0].ni[112].x" 2058.571533203125;
	setAttr ".tgi[0].ni[112].y" 637.14288330078125;
	setAttr ".tgi[0].ni[112].nvs" 18304;
	setAttr ".tgi[0].ni[113].x" 830;
	setAttr ".tgi[0].ni[113].y" 1367.142822265625;
	setAttr ".tgi[0].ni[113].nvs" 18304;
	setAttr ".tgi[0].ni[114].x" 1751.4285888671875;
	setAttr ".tgi[0].ni[114].y" -670;
	setAttr ".tgi[0].ni[114].nvs" 18304;
	setAttr ".tgi[0].ni[115].x" 830;
	setAttr ".tgi[0].ni[115].y" -525.71429443359375;
	setAttr ".tgi[0].ni[115].nvs" 18304;
	setAttr ".tgi[0].ni[116].x" 2365.71435546875;
	setAttr ".tgi[0].ni[116].y" -931.4285888671875;
	setAttr ".tgi[0].ni[116].nvs" 18304;
	setAttr ".tgi[0].ni[117].x" -91.428573608398438;
	setAttr ".tgi[0].ni[117].y" -141.42857360839844;
	setAttr ".tgi[0].ni[117].nvs" 18304;
	setAttr ".tgi[0].ni[118].x" 1137.142822265625;
	setAttr ".tgi[0].ni[118].y" -795.71429443359375;
	setAttr ".tgi[0].ni[118].nvs" 18304;
	setAttr ".tgi[0].ni[119].x" 2058.571533203125;
	setAttr ".tgi[0].ni[119].y" -857.14288330078125;
	setAttr ".tgi[0].ni[119].nvs" 18304;
	setAttr ".tgi[0].ni[120].x" 830;
	setAttr ".tgi[0].ni[120].y" 501.42855834960938;
	setAttr ".tgi[0].ni[120].nvs" 18304;
	setAttr ".tgi[0].ni[121].x" 2365.71435546875;
	setAttr ".tgi[0].ni[121].y" 1908.5714111328125;
	setAttr ".tgi[0].ni[121].nvs" 18304;
	setAttr ".tgi[0].ni[122].x" 2058.571533203125;
	setAttr ".tgi[0].ni[122].y" -121.42857360839844;
	setAttr ".tgi[0].ni[122].nvs" 18304;
	setAttr ".tgi[0].ni[123].x" 2365.71435546875;
	setAttr ".tgi[0].ni[123].y" -221.42857360839844;
	setAttr ".tgi[0].ni[123].nvs" 18304;
	setAttr ".tgi[0].ni[124].x" 1137.142822265625;
	setAttr ".tgi[0].ni[124].y" 1431.4285888671875;
	setAttr ".tgi[0].ni[124].nvs" 18304;
	setAttr ".tgi[0].ni[125].x" -398.57144165039063;
	setAttr ".tgi[0].ni[125].y" 437.14285278320313;
	setAttr ".tgi[0].ni[125].nvs" 18304;
	setAttr ".tgi[0].ni[126].x" 1137.142822265625;
	setAttr ".tgi[0].ni[126].y" 1532.857177734375;
	setAttr ".tgi[0].ni[126].nvs" 18304;
	setAttr ".tgi[0].ni[127].x" 1444.2857666015625;
	setAttr ".tgi[0].ni[127].y" -400;
	setAttr ".tgi[0].ni[127].nvs" 18304;
	setAttr ".tgi[0].ni[128].x" 2365.71435546875;
	setAttr ".tgi[0].ni[128].y" -1134.2857666015625;
	setAttr ".tgi[0].ni[128].nvs" 18304;
	setAttr ".tgi[0].ni[129].x" -1012.8571166992188;
	setAttr ".tgi[0].ni[129].y" 377.14285278320313;
	setAttr ".tgi[0].ni[129].nvs" 18304;
createNode nodeGraphEditorInfo -n "hyperShadePrimaryNodeEditorSavedTabsInfo";
	rename -uid "6B57DE8C-41F6-E240-7FAF-AAAA404D5E8A";
	setAttr ".tgi[0].tn" -type "string" "Untitled_1";
	setAttr ".tgi[0].vl" -type "double2" -224.99999105930365 -130.95237574880107 ;
	setAttr ".tgi[0].vh" -type "double2" 226.19046720247457 129.76189960563016 ;
select -ne :time1;
	setAttr -av -k on ".cch";
	setAttr -av -cb on ".ihi";
	setAttr -av -k on ".nds";
	setAttr -cb on ".bnm";
	setAttr -k on ".o" 1;
	setAttr -av -k on ".unw" 1;
	setAttr -av -k on ".etw";
	setAttr -av -k on ".tps";
	setAttr -av -k on ".tms";
select -ne :hardwareRenderingGlobals;
	setAttr -av -k on ".ihi";
	setAttr ".otfna" -type "stringArray" 22 "NURBS Curves" "NURBS Surfaces" "Polygons" "Subdiv Surface" "Particles" "Particle Instance" "Fluids" "Strokes" "Image Planes" "UI" "Lights" "Cameras" "Locators" "Joints" "IK Handles" "Deformers" "Motion Trails" "Components" "Hair Systems" "Follicles" "Misc. UI" "Ornaments"  ;
	setAttr ".otfva" -type "Int32Array" 22 0 1 1 1 1 1
		 1 1 1 0 0 0 0 0 0 0 0 0
		 0 0 0 0 ;
	setAttr -av ".ta";
	setAttr -av ".tq";
	setAttr -av ".tmr";
	setAttr -av ".aoam";
	setAttr -av ".aora";
	setAttr -av ".hfd";
	setAttr -av ".hfs";
	setAttr -av ".hfe";
	setAttr -av ".hfcr";
	setAttr -av ".hfcg";
	setAttr -av ".hfcb";
	setAttr -av ".hfa";
	setAttr -av ".mbe";
	setAttr -av -k on ".mbsof";
	setAttr ".fprt" yes;
select -ne :renderPartition;
	setAttr -av -k on ".cch";
	setAttr -cb on ".ihi";
	setAttr -av -k on ".nds";
	setAttr -cb on ".bnm";
	setAttr -s 2 ".st";
	setAttr -cb on ".an";
	setAttr -cb on ".pt";
select -ne :renderGlobalsList1;
	setAttr -k on ".cch";
	setAttr -cb on ".ihi";
	setAttr -k on ".nds";
	setAttr -cb on ".bnm";
select -ne :defaultShaderList1;
	setAttr -k on ".cch";
	setAttr -cb on ".ihi";
	setAttr -k on ".nds";
	setAttr -cb on ".bnm";
	setAttr -s 4 ".s";
select -ne :postProcessList1;
	setAttr -k on ".cch";
	setAttr -cb on ".ihi";
	setAttr -k on ".nds";
	setAttr -cb on ".bnm";
	setAttr -s 2 ".p";
select -ne :defaultRenderingList1;
	setAttr -k on ".ihi";
select -ne :initialShadingGroup;
	setAttr -av -k on ".cch";
	setAttr -k on ".fzn";
	setAttr -cb on ".ihi";
	setAttr -av -k on ".nds";
	setAttr -cb on ".bnm";
	setAttr -k on ".bbx";
	setAttr -k on ".vwm";
	setAttr -k on ".tpv";
	setAttr -k on ".uit";
	setAttr -k on ".mwc";
	setAttr -cb on ".an";
	setAttr -cb on ".il";
	setAttr -cb on ".vo";
	setAttr -cb on ".eo";
	setAttr -cb on ".fo";
	setAttr -cb on ".epo";
	setAttr -k on ".ro" yes;
select -ne :initialParticleSE;
	setAttr -av -k on ".cch";
	setAttr -cb on ".ihi";
	setAttr -av -k on ".nds";
	setAttr -cb on ".bnm";
	setAttr -k on ".mwc";
	setAttr -cb on ".an";
	setAttr -cb on ".il";
	setAttr -cb on ".vo";
	setAttr -cb on ".eo";
	setAttr -cb on ".fo";
	setAttr -cb on ".epo";
	setAttr -k on ".ro" yes;
select -ne :defaultRenderGlobals;
	setAttr -av -k on ".cch";
	setAttr -cb on ".ihi";
	setAttr -av -k on ".nds";
	setAttr -cb on ".bnm";
	setAttr -av -k on ".macc";
	setAttr -av -k on ".macd";
	setAttr -av -k on ".macq";
	setAttr -av -k on ".mcfr";
	setAttr -cb on ".ifg";
	setAttr -av -k on ".clip";
	setAttr -av -k on ".edm";
	setAttr -av -k on ".edl";
	setAttr -cb on ".ren" -type "string" "arnold";
	setAttr -av -k on ".esr";
	setAttr -av -k on ".ors";
	setAttr -cb on ".sdf";
	setAttr -av -k on ".outf";
	setAttr -av -cb on ".imfkey";
	setAttr -av -k on ".gama";
	setAttr -k on ".exrc";
	setAttr -k on ".expt";
	setAttr -av -k on ".an";
	setAttr -cb on ".ar";
	setAttr -k on ".fs";
	setAttr -av -k on ".ef";
	setAttr -av -k on ".bfs";
	setAttr -cb on ".me";
	setAttr -cb on ".se";
	setAttr -av -k on ".be";
	setAttr -av -cb on ".ep";
	setAttr -av -k on ".fec";
	setAttr -av -k on ".ofc";
	setAttr -cb on ".ofe";
	setAttr -cb on ".efe";
	setAttr -cb on ".oft";
	setAttr -cb on ".umfn";
	setAttr -cb on ".ufe";
	setAttr -av -k on ".pff";
	setAttr -av -cb on ".peie";
	setAttr -av -cb on ".ifp";
	setAttr -k on ".rv";
	setAttr -av -k on ".comp";
	setAttr -av -k on ".cth";
	setAttr -av -k on ".soll";
	setAttr -cb on ".sosl";
	setAttr -av -k on ".rd";
	setAttr -av -k on ".lp";
	setAttr -av -k on ".sp";
	setAttr -av -k on ".shs";
	setAttr -av -k on ".lpr";
	setAttr -cb on ".gv";
	setAttr -cb on ".sv";
	setAttr -av -k on ".mm";
	setAttr -av -k on ".npu";
	setAttr -av -k on ".itf";
	setAttr -av -k on ".shp";
	setAttr -cb on ".isp";
	setAttr -av -k on ".uf";
	setAttr -av -k on ".oi";
	setAttr -av -k on ".rut";
	setAttr -av -k on ".mot";
	setAttr -av -cb on ".mb";
	setAttr -av -k on ".mbf";
	setAttr -av -k on ".mbso";
	setAttr -av -k on ".mbsc";
	setAttr -av -k on ".afp";
	setAttr -av -k on ".pfb";
	setAttr -k on ".pram" -type "string" "";
	setAttr -k on ".poam";
	setAttr -k on ".prlm";
	setAttr -k on ".polm";
	setAttr -cb on ".prm";
	setAttr -cb on ".pom";
	setAttr -cb on ".pfrm";
	setAttr -cb on ".pfom";
	setAttr -av -k on ".bll";
	setAttr -av -k on ".bls";
	setAttr -av -k on ".smv";
	setAttr -av -k on ".ubc";
	setAttr -av -k on ".mbc";
	setAttr -cb on ".mbt";
	setAttr -av -k on ".udbx";
	setAttr -av -k on ".smc";
	setAttr -av -k on ".kmv";
	setAttr -cb on ".isl";
	setAttr -cb on ".ism";
	setAttr -cb on ".imb";
	setAttr -av -k on ".rlen";
	setAttr -av -k on ".frts";
	setAttr -av -k on ".tlwd";
	setAttr -av -k on ".tlht";
	setAttr -av -k on ".jfc";
	setAttr -cb on ".rsb";
	setAttr -av -k on ".ope";
	setAttr -av -k on ".oppf";
	setAttr -av -k on ".rcp";
	setAttr -av -k on ".icp";
	setAttr -av -k on ".ocp";
	setAttr -cb on ".hbl";
select -ne :defaultResolution;
	setAttr -av -k on ".cch";
	setAttr -av -k on ".ihi";
	setAttr -av -k on ".nds";
	setAttr -k on ".bnm";
	setAttr -av -k on ".w";
	setAttr -av -k on ".h";
	setAttr -av -k on ".pa" 1;
	setAttr -av -k on ".al";
	setAttr -av -k on ".dar";
	setAttr -av -k on ".ldar";
	setAttr -av -k on ".dpi";
	setAttr -av -k on ".off";
	setAttr -av -k on ".fld";
	setAttr -av -k on ".zsl";
	setAttr -av -k on ".isu";
	setAttr -av -k on ".pdu";
select -ne :hardwareRenderGlobals;
	setAttr -av -k on ".cch";
	setAttr -cb on ".ihi";
	setAttr -av -k on ".nds";
	setAttr -cb on ".bnm";
	setAttr -av -k off -cb on ".ctrs" 256;
	setAttr -av -k off -cb on ".btrs" 512;
	setAttr -av -k off -cb on ".fbfm";
	setAttr -av -k off -cb on ".ehql";
	setAttr -av -k off -cb on ".eams";
	setAttr -av -k off -cb on ".eeaa";
	setAttr -av -k off -cb on ".engm";
	setAttr -av -k off -cb on ".mes";
	setAttr -av -k off -cb on ".emb";
	setAttr -av -k off -cb on ".mbbf";
	setAttr -av -k off -cb on ".mbs";
	setAttr -av -k off -cb on ".trm";
	setAttr -av -k off -cb on ".tshc";
	setAttr -av -k off -cb on ".enpt";
	setAttr -av -k off -cb on ".clmt";
	setAttr -av -k off -cb on ".tcov";
	setAttr -av -k off -cb on ".lith";
	setAttr -av -k off -cb on ".sobc";
	setAttr -av -k off -cb on ".cuth";
	setAttr -av -k off -cb on ".hgcd";
	setAttr -av -k off -cb on ".hgci";
	setAttr -av -k off -cb on ".mgcs";
	setAttr -av -k off -cb on ".twa";
	setAttr -av -k off -cb on ".twz";
	setAttr -k on ".hwcc";
	setAttr -k on ".hwdp";
	setAttr -k on ".hwql";
	setAttr -k on ".hwfr";
	setAttr -k on ".soll";
	setAttr -k on ".sosl";
	setAttr -k on ".bswa";
	setAttr -k on ".shml";
	setAttr -k on ".hwel";
connectAttr "Root_TmpJnt.s" "Pelvis_TmpJnt.is";
connectAttr "Pelvis_TmpJnt.s" "UpLeg_L_TmpJnt.is";
connectAttr "UpLeg_L_TmpJnt.s" "LowLeg_L_TmpJnt.is";
connectAttr "LowLeg_L_TmpJnt.s" "Ankle_L_TmpJnt.is";
connectAttr "Ankle_L_TmpJnt.s" "Ball_L_TmpJnt.is";
connectAttr "Ball_L_TmpJnt.s" "Toe_L_TmpJnt.is";
connectAttr "Ball_L_TmpJnt.s" "HeelIkTwistPiv_L_TmpJnt.is";
connectAttr "HeelIkTwistPiv_L_TmpJnt.s" "Heel_L_TmpJnt.is";
connectAttr "Ankle_L_TmpJnt.s" "FootOut_L_TmpJnt.is";
connectAttr "Ankle_L_TmpJnt.s" "FootIn_L_TmpJnt.is";
connectAttr "LowLeg_L_TmpJnt.s" "Knee_L_TmpJnt.is";
connectAttr "LowLeg_L_TmpJnt.s" "KneePos_L_TmpJnt.is";
connectAttr "Pelvis_TmpJnt.s" "UpLeg_R_TmpJnt.is";
connectAttr "UpLeg_R_TmpJnt.s" "LowLeg_R_TmpJnt.is";
connectAttr "LowLeg_R_TmpJnt.s" "Ankle_R_TmpJnt.is";
connectAttr "Ankle_R_TmpJnt.s" "Ball_R_TmpJnt.is";
connectAttr "Ball_R_TmpJnt.s" "Toe_R_TmpJnt.is";
connectAttr "Ball_R_TmpJnt.s" "HeelIkTwistPiv_R_TmpJnt.is";
connectAttr "HeelIkTwistPiv_R_TmpJnt.s" "Heel_R_TmpJnt.is";
connectAttr "Ankle_R_TmpJnt.s" "FootOut_R_TmpJnt.is";
connectAttr "Ankle_R_TmpJnt.s" "FootIn_R_TmpJnt.is";
connectAttr "LowLeg_R_TmpJnt.s" "Knee_R_TmpJnt.is";
connectAttr "LowLeg_R_TmpJnt.s" "KneePos_R_TmpJnt.is";
connectAttr "Root_TmpJnt.s" "Spine1_TmpJnt.is";
connectAttr "Spine1_TmpJnt.s" "Spine2_TmpJnt.is";
connectAttr "Spine2_TmpJnt.s" "Spine3_TmpJnt.is";
connectAttr "Spine3_TmpJnt.s" "Spine4_TmpJnt.is";
connectAttr "Spine4_TmpJnt.s" "Spine5_TmpJnt.is";
connectAttr "Spine5_TmpJnt.s" "Clav_L_TmpJnt.is";
connectAttr "Clav_L_TmpJnt.s" "UpArm_L_TmpJnt.is";
connectAttr "UpArm_L_TmpJnt.s" "Forearm_L_TmpJnt.is";
connectAttr "Forearm_L_TmpJnt.s" "Wrist_L_TmpJnt.is";
connectAttr "Wrist_L_TmpJnt.s" "Hand_L_TmpJnt.is";
connectAttr "Hand_L_TmpJnt.s" "Thumb1_L_TmpJnt.is";
connectAttr "Thumb1_L_TmpJnt.s" "Thumb2_L_TmpJnt.is";
connectAttr "Thumb2_L_TmpJnt.s" "Thumb3_L_TmpJnt.is";
connectAttr "Thumb3_L_TmpJnt.s" "Thumb4_L_TmpJnt.is";
connectAttr "Hand_L_TmpJnt.s" "HandCupOuter_L_TmpJnt.is";
connectAttr "HandCupOuter_L_TmpJnt.s" "Ring1_L_TmpJnt.is";
connectAttr "Ring1_L_TmpJnt.s" "Ring2_L_TmpJnt.is";
connectAttr "Ring2_L_TmpJnt.s" "Ring3_L_TmpJnt.is";
connectAttr "Ring3_L_TmpJnt.s" "Ring4_L_TmpJnt.is";
connectAttr "Ring4_L_TmpJnt.s" "Ring5_L_TmpJnt.is";
connectAttr "HandCupOuter_L_TmpJnt.s" "Pinky1_L_TmpJnt.is";
connectAttr "Pinky1_L_TmpJnt.s" "Pinky2_L_TmpJnt.is";
connectAttr "Pinky2_L_TmpJnt.s" "Pinky3_L_TmpJnt.is";
connectAttr "Pinky3_L_TmpJnt.s" "Pinky4_L_TmpJnt.is";
connectAttr "Pinky4_L_TmpJnt.s" "Pinky5_L_TmpJnt.is";
connectAttr "Hand_L_TmpJnt.s" "HandCupInner_L_TmpJnt.is";
connectAttr "HandCupInner_L_TmpJnt.s" "Middle1_L_TmpJnt.is";
connectAttr "Middle1_L_TmpJnt.s" "Middle2_L_TmpJnt.is";
connectAttr "Middle2_L_TmpJnt.s" "Middle3_L_TmpJnt.is";
connectAttr "Middle3_L_TmpJnt.s" "Middle4_L_TmpJnt.is";
connectAttr "Middle4_L_TmpJnt.s" "Middle5_L_TmpJnt.is";
connectAttr "HandCupInner_L_TmpJnt.s" "Index1_L_TmpJnt.is";
connectAttr "Index1_L_TmpJnt.s" "Index2_L_TmpJnt.is";
connectAttr "Index2_L_TmpJnt.s" "Index3_L_TmpJnt.is";
connectAttr "Index3_L_TmpJnt.s" "Index4_L_TmpJnt.is";
connectAttr "Index4_L_TmpJnt.s" "Index5_L_TmpJnt.is";
connectAttr "Forearm_L_TmpJnt.s" "Elbow_L_TmpJnt.is";
connectAttr "Spine5_TmpJnt.s" "Neck_TmpJnt.is";
connectAttr "Neck_TmpJnt.s" "NeckEnd_TmpJnt.is";
connectAttr "NeckEnd_TmpJnt.s" "Head_TmpJnt.is";
connectAttr "Head_TmpJnt.s" "HeadEnd_TmpJnt.is";
connectAttr "Head_TmpJnt.s" "EyeTrgt_TmpJnt.is";
connectAttr "EyeTrgt_TmpJnt.s" "EyeTrgt_L_TmpJnt.is";
connectAttr "EyeTrgt_TmpJnt.s" "EyeTrgt_R_TmpJnt.is";
connectAttr "Head_TmpJnt.s" "JawUprRoot_TmpJnt.is";
connectAttr "JawUprRoot_TmpJnt.s" "JawUpr1_TmpJnt.is";
connectAttr "JawUpr1_TmpJnt.s" "JawUprEnd_TmpJnt.is";
connectAttr "JawUpr1_TmpJnt.s" "TeethUpr_TmpJnt.is";
connectAttr "Head_TmpJnt.s" "JawLwr1_TmpJnt.is";
connectAttr "JawLwr1_TmpJnt.s" "JawLwr2_TmpJnt.is";
connectAttr "JawLwr2_TmpJnt.s" "JawLwrEnd_TmpJnt.is";
connectAttr "JawLwr2_TmpJnt.s" "TeethLwr_TmpJnt.is";
connectAttr "JawLwr2_TmpJnt.s" "Tongue1_TmpJnt.is";
connectAttr "Tongue1_TmpJnt.s" "Tongue2_TmpJnt.is";
connectAttr "Tongue2_TmpJnt.s" "Tongue3_TmpJnt.is";
connectAttr "Tongue3_TmpJnt.s" "Tongue4_TmpJnt.is";
connectAttr "Tongue4_TmpJnt.s" "Tongue5_TmpJnt.is";
connectAttr "Tongue5_TmpJnt.s" "Tongue6_TmpJnt.is";
connectAttr "Head_TmpJnt.s" "Eye_L_TmpJnt.is";
connectAttr "Eye_L_TmpJnt.s" "EyeLid_L_TmpJnt.is";
connectAttr "Eye_L_TmpJnt.s" "EyeDot_L_TmpJnt.is";
connectAttr "Eye_L_TmpJnt.s" "Iris_L_TmpJnt.is";
connectAttr "Iris_L_TmpJnt.s" "Pupil_L_TmpJnt.is";
connectAttr "Head_TmpJnt.s" "Eye_R_TmpJnt.is";
connectAttr "Eye_R_TmpJnt.s" "EyeLid_R_TmpJnt.is";
connectAttr "Eye_R_TmpJnt.s" "EyeDot_R_TmpJnt.is";
connectAttr "Eye_R_TmpJnt.s" "Iris_R_TmpJnt.is";
connectAttr "Iris_R_TmpJnt.s" "Pupil_R_TmpJnt.is";
connectAttr "Spine5_TmpJnt.s" "Clav_R_TmpJnt.is";
connectAttr "Clav_R_TmpJnt.s" "UpArm_R_TmpJnt.is";
connectAttr "UpArm_R_TmpJnt.s" "Forearm_R_TmpJnt.is";
connectAttr "Forearm_R_TmpJnt.s" "Wrist_R_TmpJnt.is";
connectAttr "Wrist_R_TmpJnt.s" "Hand_R_TmpJnt.is";
connectAttr "Hand_R_TmpJnt.s" "Thumb1_R_TmpJnt.is";
connectAttr "Thumb1_R_TmpJnt.s" "Thumb2_R_TmpJnt.is";
connectAttr "Thumb2_R_TmpJnt.s" "Thumb3_R_TmpJnt.is";
connectAttr "Thumb3_R_TmpJnt.s" "Thumb4_R_TmpJnt.is";
connectAttr "Hand_R_TmpJnt.s" "HandCupOuter_R_TmpJnt.is";
connectAttr "HandCupOuter_R_TmpJnt.s" "Ring1_R_TmpJnt.is";
connectAttr "Ring1_R_TmpJnt.s" "Ring2_R_TmpJnt.is";
connectAttr "Ring2_R_TmpJnt.s" "Ring3_R_TmpJnt.is";
connectAttr "Ring3_R_TmpJnt.s" "Ring4_R_TmpJnt.is";
connectAttr "Ring4_R_TmpJnt.s" "Ring5_R_TmpJnt.is";
connectAttr "HandCupOuter_R_TmpJnt.s" "Pinky1_R_TmpJnt.is";
connectAttr "Pinky1_R_TmpJnt.s" "Pinky2_R_TmpJnt.is";
connectAttr "Pinky2_R_TmpJnt.s" "Pinky3_R_TmpJnt.is";
connectAttr "Pinky3_R_TmpJnt.s" "Pinky4_R_TmpJnt.is";
connectAttr "Pinky4_R_TmpJnt.s" "Pinky5_R_TmpJnt.is";
connectAttr "Hand_R_TmpJnt.s" "HandCupInner_R_TmpJnt.is";
connectAttr "HandCupInner_R_TmpJnt.s" "Middle1_R_TmpJnt.is";
connectAttr "Middle1_R_TmpJnt.s" "Middle2_R_TmpJnt.is";
connectAttr "Middle2_R_TmpJnt.s" "Middle3_R_TmpJnt.is";
connectAttr "Middle3_R_TmpJnt.s" "Middle4_R_TmpJnt.is";
connectAttr "Middle4_R_TmpJnt.s" "Middle5_R_TmpJnt.is";
connectAttr "HandCupInner_R_TmpJnt.s" "Index1_R_TmpJnt.is";
connectAttr "Index1_R_TmpJnt.s" "Index2_R_TmpJnt.is";
connectAttr "Index2_R_TmpJnt.s" "Index3_R_TmpJnt.is";
connectAttr "Index3_R_TmpJnt.s" "Index4_R_TmpJnt.is";
connectAttr "Index4_R_TmpJnt.s" "Index5_R_TmpJnt.is";
connectAttr "Forearm_R_TmpJnt.s" "Elbow_R_TmpJnt.is";
relationship "link" ":lightLinker1" ":initialShadingGroup.message" ":defaultLightSet.message";
relationship "link" ":lightLinker1" ":initialParticleSE.message" ":defaultLightSet.message";
relationship "shadowLink" ":lightLinker1" ":initialShadingGroup.message" ":defaultLightSet.message";
relationship "shadowLink" ":lightLinker1" ":initialParticleSE.message" ":defaultLightSet.message";
connectAttr "layerManager.dli[0]" "defaultLayer.id";
connectAttr "renderLayerManager.rlmi[0]" "defaultRenderLayer.rlid";
connectAttr "Wrist_R_TmpJnt.msg" "MayaNodeEditorSavedTabsInfo.tgi[0].ni[0].dn";
connectAttr "JawUpr1_TmpJnt.msg" "MayaNodeEditorSavedTabsInfo.tgi[0].ni[1].dn";
connectAttr "Ring4_R_TmpJnt.msg" "MayaNodeEditorSavedTabsInfo.tgi[0].ni[2].dn";
connectAttr "Ring3_R_TmpJnt.msg" "MayaNodeEditorSavedTabsInfo.tgi[0].ni[3].dn";
connectAttr "Index5_L_TmpJnt.msg" "MayaNodeEditorSavedTabsInfo.tgi[0].ni[4].dn";
connectAttr "Spine3_TmpJnt.msg" "MayaNodeEditorSavedTabsInfo.tgi[0].ni[5].dn";
connectAttr "KneePos_R_TmpJnt.msg" "MayaNodeEditorSavedTabsInfo.tgi[0].ni[6].dn"
		;
connectAttr "Pinky1_R_TmpJnt.msg" "MayaNodeEditorSavedTabsInfo.tgi[0].ni[7].dn";
connectAttr "Ring1_L_TmpJnt.msg" "MayaNodeEditorSavedTabsInfo.tgi[0].ni[8].dn";
connectAttr "Ball_L_TmpJnt.msg" "MayaNodeEditorSavedTabsInfo.tgi[0].ni[9].dn";
connectAttr "Middle3_R_TmpJnt.msg" "MayaNodeEditorSavedTabsInfo.tgi[0].ni[10].dn"
		;
connectAttr "Thumb3_L_TmpJnt.msg" "MayaNodeEditorSavedTabsInfo.tgi[0].ni[11].dn"
		;
connectAttr "Knee_L_TmpJnt.msg" "MayaNodeEditorSavedTabsInfo.tgi[0].ni[12].dn";
connectAttr "Ankle_L_TmpJnt.msg" "MayaNodeEditorSavedTabsInfo.tgi[0].ni[13].dn";
connectAttr "Toe_L_TmpJnt.msg" "MayaNodeEditorSavedTabsInfo.tgi[0].ni[14].dn";
connectAttr "Middle4_R_TmpJnt.msg" "MayaNodeEditorSavedTabsInfo.tgi[0].ni[15].dn"
		;
connectAttr "JawLwrEnd_TmpJnt.msg" "MayaNodeEditorSavedTabsInfo.tgi[0].ni[16].dn"
		;
connectAttr "EyeTrgt_TmpJnt.msg" "MayaNodeEditorSavedTabsInfo.tgi[0].ni[17].dn";
connectAttr "Elbow_R_TmpJnt.msg" "MayaNodeEditorSavedTabsInfo.tgi[0].ni[18].dn";
connectAttr "Clav_L_TmpJnt.msg" "MayaNodeEditorSavedTabsInfo.tgi[0].ni[19].dn";
connectAttr "Pinky5_R_TmpJnt.msg" "MayaNodeEditorSavedTabsInfo.tgi[0].ni[20].dn"
		;
connectAttr ":TurtleBakeLayerManager.msg" "MayaNodeEditorSavedTabsInfo.tgi[0].ni[21].dn"
		;
connectAttr "KneePos_L_TmpJnt.msg" "MayaNodeEditorSavedTabsInfo.tgi[0].ni[22].dn"
		;
connectAttr "Wrist_L_TmpJnt.msg" "MayaNodeEditorSavedTabsInfo.tgi[0].ni[23].dn";
connectAttr "TmpJnt_Grp.msg" "MayaNodeEditorSavedTabsInfo.tgi[0].ni[24].dn";
connectAttr "Thumb2_L_TmpJnt.msg" "MayaNodeEditorSavedTabsInfo.tgi[0].ni[25].dn"
		;
connectAttr "HandCupOuter_L_TmpJnt.msg" "MayaNodeEditorSavedTabsInfo.tgi[0].ni[26].dn"
		;
connectAttr "Pinky3_L_TmpJnt.msg" "MayaNodeEditorSavedTabsInfo.tgi[0].ni[27].dn"
		;
connectAttr "FootOut_R_TmpJnt.msg" "MayaNodeEditorSavedTabsInfo.tgi[0].ni[28].dn"
		;
connectAttr "Index5_R_TmpJnt.msg" "MayaNodeEditorSavedTabsInfo.tgi[0].ni[29].dn"
		;
connectAttr "FootIn_R_TmpJnt.msg" "MayaNodeEditorSavedTabsInfo.tgi[0].ni[30].dn"
		;
connectAttr "Middle5_L_TmpJnt.msg" "MayaNodeEditorSavedTabsInfo.tgi[0].ni[31].dn"
		;
connectAttr "Spine1_TmpJnt.msg" "MayaNodeEditorSavedTabsInfo.tgi[0].ni[32].dn";
connectAttr "Pinky4_L_TmpJnt.msg" "MayaNodeEditorSavedTabsInfo.tgi[0].ni[33].dn"
		;
connectAttr "Ball_R_TmpJnt.msg" "MayaNodeEditorSavedTabsInfo.tgi[0].ni[34].dn";
connectAttr "Pinky1_L_TmpJnt.msg" "MayaNodeEditorSavedTabsInfo.tgi[0].ni[35].dn"
		;
connectAttr "Eye_R_TmpJnt.msg" "MayaNodeEditorSavedTabsInfo.tgi[0].ni[36].dn";
connectAttr "Ring3_L_TmpJnt.msg" "MayaNodeEditorSavedTabsInfo.tgi[0].ni[37].dn";
connectAttr "Tongue1_TmpJnt.msg" "MayaNodeEditorSavedTabsInfo.tgi[0].ni[38].dn";
connectAttr "HeadEnd_TmpJnt.msg" "MayaNodeEditorSavedTabsInfo.tgi[0].ni[39].dn";
connectAttr "Middle4_L_TmpJnt.msg" "MayaNodeEditorSavedTabsInfo.tgi[0].ni[40].dn"
		;
connectAttr "Middle1_L_TmpJnt.msg" "MayaNodeEditorSavedTabsInfo.tgi[0].ni[41].dn"
		;
connectAttr "Neck_TmpJnt.msg" "MayaNodeEditorSavedTabsInfo.tgi[0].ni[42].dn";
connectAttr "Index4_R_TmpJnt.msg" "MayaNodeEditorSavedTabsInfo.tgi[0].ni[43].dn"
		;
connectAttr "Spine4_TmpJnt.msg" "MayaNodeEditorSavedTabsInfo.tgi[0].ni[44].dn";
connectAttr "Pinky3_R_TmpJnt.msg" "MayaNodeEditorSavedTabsInfo.tgi[0].ni[45].dn"
		;
connectAttr "Ring2_R_TmpJnt.msg" "MayaNodeEditorSavedTabsInfo.tgi[0].ni[46].dn";
connectAttr "Root_TmpJnt.msg" "MayaNodeEditorSavedTabsInfo.tgi[0].ni[47].dn";
connectAttr "Pinky2_L_TmpJnt.msg" "MayaNodeEditorSavedTabsInfo.tgi[0].ni[48].dn"
		;
connectAttr "Pelvis_TmpJnt.msg" "MayaNodeEditorSavedTabsInfo.tgi[0].ni[49].dn";
connectAttr "Pupil_L_TmpJnt.msg" "MayaNodeEditorSavedTabsInfo.tgi[0].ni[50].dn";
connectAttr "Iris_L_TmpJnt.msg" "MayaNodeEditorSavedTabsInfo.tgi[0].ni[51].dn";
connectAttr "JawUprRoot_TmpJnt.msg" "MayaNodeEditorSavedTabsInfo.tgi[0].ni[52].dn"
		;
connectAttr "Knee_R_TmpJnt.msg" "MayaNodeEditorSavedTabsInfo.tgi[0].ni[53].dn";
connectAttr "UpArm_R_TmpJnt.msg" "MayaNodeEditorSavedTabsInfo.tgi[0].ni[54].dn";
connectAttr "Pinky2_R_TmpJnt.msg" "MayaNodeEditorSavedTabsInfo.tgi[0].ni[55].dn"
		;
connectAttr "UpLeg_R_TmpJnt.msg" "MayaNodeEditorSavedTabsInfo.tgi[0].ni[56].dn";
connectAttr "Elbow_L_TmpJnt.msg" "MayaNodeEditorSavedTabsInfo.tgi[0].ni[57].dn";
connectAttr "FootIn_L_TmpJnt.msg" "MayaNodeEditorSavedTabsInfo.tgi[0].ni[58].dn"
		;
connectAttr "Middle3_L_TmpJnt.msg" "MayaNodeEditorSavedTabsInfo.tgi[0].ni[59].dn"
		;
connectAttr "Toe_R_TmpJnt.msg" "MayaNodeEditorSavedTabsInfo.tgi[0].ni[60].dn";
connectAttr "Index1_R_TmpJnt.msg" "MayaNodeEditorSavedTabsInfo.tgi[0].ni[61].dn"
		;
connectAttr "TeethUpr_TmpJnt.msg" "MayaNodeEditorSavedTabsInfo.tgi[0].ni[62].dn"
		;
connectAttr "EyeTrgt_R_TmpJnt.msg" "MayaNodeEditorSavedTabsInfo.tgi[0].ni[63].dn"
		;
connectAttr "Index4_L_TmpJnt.msg" "MayaNodeEditorSavedTabsInfo.tgi[0].ni[64].dn"
		;
connectAttr "FootOut_L_TmpJnt.msg" "MayaNodeEditorSavedTabsInfo.tgi[0].ni[65].dn"
		;
connectAttr "Index2_L_TmpJnt.msg" "MayaNodeEditorSavedTabsInfo.tgi[0].ni[66].dn"
		;
connectAttr "Ankle_R_TmpJnt.msg" "MayaNodeEditorSavedTabsInfo.tgi[0].ni[67].dn";
connectAttr "EyeLid_L_TmpJnt.msg" "MayaNodeEditorSavedTabsInfo.tgi[0].ni[68].dn"
		;
connectAttr "EyeTrgt_L_TmpJnt.msg" "MayaNodeEditorSavedTabsInfo.tgi[0].ni[69].dn"
		;
connectAttr "Middle2_L_TmpJnt.msg" "MayaNodeEditorSavedTabsInfo.tgi[0].ni[70].dn"
		;
connectAttr "Spine2_TmpJnt.msg" "MayaNodeEditorSavedTabsInfo.tgi[0].ni[71].dn";
connectAttr "TeethLwr_TmpJnt.msg" "MayaNodeEditorSavedTabsInfo.tgi[0].ni[72].dn"
		;
connectAttr "HandCupInner_R_TmpJnt.msg" "MayaNodeEditorSavedTabsInfo.tgi[0].ni[73].dn"
		;
connectAttr "Middle1_R_TmpJnt.msg" "MayaNodeEditorSavedTabsInfo.tgi[0].ni[74].dn"
		;
connectAttr "Tongue2_TmpJnt.msg" "MayaNodeEditorSavedTabsInfo.tgi[0].ni[75].dn";
connectAttr "Index1_L_TmpJnt.msg" "MayaNodeEditorSavedTabsInfo.tgi[0].ni[76].dn"
		;
connectAttr "Index3_R_TmpJnt.msg" "MayaNodeEditorSavedTabsInfo.tgi[0].ni[77].dn"
		;
connectAttr "sceneConfigurationScriptNode.msg" "MayaNodeEditorSavedTabsInfo.tgi[0].ni[78].dn"
		;
connectAttr "Index3_L_TmpJnt.msg" "MayaNodeEditorSavedTabsInfo.tgi[0].ni[79].dn"
		;
connectAttr "Thumb4_L_TmpJnt.msg" "MayaNodeEditorSavedTabsInfo.tgi[0].ni[80].dn"
		;
connectAttr "Middle2_R_TmpJnt.msg" "MayaNodeEditorSavedTabsInfo.tgi[0].ni[81].dn"
		;
connectAttr "JawUprEnd_TmpJnt.msg" "MayaNodeEditorSavedTabsInfo.tgi[0].ni[82].dn"
		;
connectAttr "HeelIkTwistPiv_R_TmpJnt.msg" "MayaNodeEditorSavedTabsInfo.tgi[0].ni[83].dn"
		;
connectAttr "Ring5_L_TmpJnt.msg" "MayaNodeEditorSavedTabsInfo.tgi[0].ni[84].dn";
connectAttr "Tongue5_TmpJnt.msg" "MayaNodeEditorSavedTabsInfo.tgi[0].ni[85].dn";
connectAttr "JawLwr2_TmpJnt.msg" "MayaNodeEditorSavedTabsInfo.tgi[0].ni[86].dn";
connectAttr ":TurtleUIOptions.msg" "MayaNodeEditorSavedTabsInfo.tgi[0].ni[87].dn"
		;
connectAttr "Head_TmpJnt.msg" "MayaNodeEditorSavedTabsInfo.tgi[0].ni[88].dn";
connectAttr "Ring5_R_TmpJnt.msg" "MayaNodeEditorSavedTabsInfo.tgi[0].ni[89].dn";
connectAttr "Hand_L_TmpJnt.msg" "MayaNodeEditorSavedTabsInfo.tgi[0].ni[90].dn";
connectAttr "EyeDot_R_TmpJnt.msg" "MayaNodeEditorSavedTabsInfo.tgi[0].ni[91].dn"
		;
connectAttr "Ring2_L_TmpJnt.msg" "MayaNodeEditorSavedTabsInfo.tgi[0].ni[92].dn";
connectAttr "Tongue4_TmpJnt.msg" "MayaNodeEditorSavedTabsInfo.tgi[0].ni[93].dn";
connectAttr "Heel_R_TmpJnt.msg" "MayaNodeEditorSavedTabsInfo.tgi[0].ni[94].dn";
connectAttr "Index2_R_TmpJnt.msg" "MayaNodeEditorSavedTabsInfo.tgi[0].ni[95].dn"
		;
connectAttr "Thumb1_L_TmpJnt.msg" "MayaNodeEditorSavedTabsInfo.tgi[0].ni[96].dn"
		;
connectAttr "Pinky5_L_TmpJnt.msg" "MayaNodeEditorSavedTabsInfo.tgi[0].ni[97].dn"
		;
connectAttr "JawLwr1_TmpJnt.msg" "MayaNodeEditorSavedTabsInfo.tgi[0].ni[98].dn";
connectAttr "EyeDot_L_TmpJnt.msg" "MayaNodeEditorSavedTabsInfo.tgi[0].ni[99].dn"
		;
connectAttr "Hand_R_TmpJnt.msg" "MayaNodeEditorSavedTabsInfo.tgi[0].ni[100].dn";
connectAttr "EyeLid_R_TmpJnt.msg" "MayaNodeEditorSavedTabsInfo.tgi[0].ni[101].dn"
		;
connectAttr "Middle5_R_TmpJnt.msg" "MayaNodeEditorSavedTabsInfo.tgi[0].ni[102].dn"
		;
connectAttr "Eye_L_TmpJnt.msg" "MayaNodeEditorSavedTabsInfo.tgi[0].ni[103].dn";
connectAttr "Forearm_L_TmpJnt.msg" "MayaNodeEditorSavedTabsInfo.tgi[0].ni[104].dn"
		;
connectAttr "Thumb3_R_TmpJnt.msg" "MayaNodeEditorSavedTabsInfo.tgi[0].ni[105].dn"
		;
connectAttr ":BaseAnimation.msg" "MayaNodeEditorSavedTabsInfo.tgi[0].ni[106].dn"
		;
connectAttr "Clav_R_TmpJnt.msg" "MayaNodeEditorSavedTabsInfo.tgi[0].ni[107].dn";
connectAttr "HeelIkTwistPiv_L_TmpJnt.msg" "MayaNodeEditorSavedTabsInfo.tgi[0].ni[108].dn"
		;
connectAttr "NeckEnd_TmpJnt.msg" "MayaNodeEditorSavedTabsInfo.tgi[0].ni[109].dn"
		;
connectAttr ":TurtleRenderOptions.msg" "MayaNodeEditorSavedTabsInfo.tgi[0].ni[110].dn"
		;
connectAttr "Thumb1_R_TmpJnt.msg" "MayaNodeEditorSavedTabsInfo.tgi[0].ni[111].dn"
		;
connectAttr "Ring4_L_TmpJnt.msg" "MayaNodeEditorSavedTabsInfo.tgi[0].ni[112].dn"
		;
connectAttr "UpLeg_L_TmpJnt.msg" "MayaNodeEditorSavedTabsInfo.tgi[0].ni[113].dn"
		;
connectAttr "Thumb2_R_TmpJnt.msg" "MayaNodeEditorSavedTabsInfo.tgi[0].ni[114].dn"
		;
connectAttr "HandCupOuter_R_TmpJnt.msg" "MayaNodeEditorSavedTabsInfo.tgi[0].ni[115].dn"
		;
connectAttr "Tongue6_TmpJnt.msg" "MayaNodeEditorSavedTabsInfo.tgi[0].ni[116].dn"
		;
connectAttr "Forearm_R_TmpJnt.msg" "MayaNodeEditorSavedTabsInfo.tgi[0].ni[117].dn"
		;
connectAttr "Ring1_R_TmpJnt.msg" "MayaNodeEditorSavedTabsInfo.tgi[0].ni[118].dn"
		;
connectAttr "Pinky4_R_TmpJnt.msg" "MayaNodeEditorSavedTabsInfo.tgi[0].ni[119].dn"
		;
connectAttr "HandCupInner_L_TmpJnt.msg" "MayaNodeEditorSavedTabsInfo.tgi[0].ni[120].dn"
		;
connectAttr "Heel_L_TmpJnt.msg" "MayaNodeEditorSavedTabsInfo.tgi[0].ni[121].dn";
connectAttr "Iris_R_TmpJnt.msg" "MayaNodeEditorSavedTabsInfo.tgi[0].ni[122].dn";
connectAttr "Pupil_R_TmpJnt.msg" "MayaNodeEditorSavedTabsInfo.tgi[0].ni[123].dn"
		;
connectAttr "LowLeg_L_TmpJnt.msg" "MayaNodeEditorSavedTabsInfo.tgi[0].ni[124].dn"
		;
connectAttr "UpArm_L_TmpJnt.msg" "MayaNodeEditorSavedTabsInfo.tgi[0].ni[125].dn"
		;
connectAttr "LowLeg_R_TmpJnt.msg" "MayaNodeEditorSavedTabsInfo.tgi[0].ni[126].dn"
		;
connectAttr "Tongue3_TmpJnt.msg" "MayaNodeEditorSavedTabsInfo.tgi[0].ni[127].dn"
		;
connectAttr "Thumb4_R_TmpJnt.msg" "MayaNodeEditorSavedTabsInfo.tgi[0].ni[128].dn"
		;
connectAttr "Spine5_TmpJnt.msg" "MayaNodeEditorSavedTabsInfo.tgi[0].ni[129].dn";
connectAttr "defaultRenderLayer.msg" ":defaultRenderingList1.r" -na;
// End of previsCharTmp.ma
