//Maya ASCII 2018ff09 scene
//Name: previsCharTmp.ma
//Last modified: Wed, Jul 01, 2020 12:59:16 PM
//Codeset: 1252
requires maya "2018ff09";
requires -nodeType "ilrOptionsNode" -nodeType "ilrUIOptionsNode" -nodeType "ilrBakeLayerManager"
		 "Turtle" "2018.0.0";
requires "stereoCamera" "10.0";
currentUnit -l centimeter -a degree -t film;
fileInfo "application" "maya";
fileInfo "product" "Maya 2018";
fileInfo "version" "2018";
fileInfo "cutIdentifier" "201903222215-65bada0e52";
fileInfo "osv" "Microsoft Windows 8 Business Edition, 64-bit  (Build 9200)\n";
fileInfo "vrayBuild" "3.52.03 b05f456";
createNode transform -s -n "persp";
	rename -uid "55D91CF0-4174-028C-AB3E-B783365A84BC";
	setAttr ".v" no;
	setAttr ".t" -type "double3" 15.346131838593013 23.295368992809671 36.268095568002614 ;
	setAttr ".r" -type "double3" -22.53835272958732 24.200000000000511 8.7174776245775031e-16 ;
	setAttr ".rp" -type "double3" 1.2490009027033011e-16 -1.7763568394002505e-15 -8.8817841970012523e-16 ;
	setAttr ".rpt" -type "double3" -6.9126617953226463e-16 -7.9903663801131593e-17 4.4837055728371754e-16 ;
createNode camera -s -n "perspShape" -p "persp";
	rename -uid "87CA264F-402C-8A8C-6542-878FC16E721B";
	setAttr -k off ".v" no;
	setAttr ".fl" 34.999999999999979;
	setAttr ".coi" 40.200697406800131;
	setAttr ".imn" -type "string" "persp";
	setAttr ".den" -type "string" "persp_depth";
	setAttr ".man" -type "string" "persp_mask";
	setAttr ".tp" -type "double3" 0.55542624698535548 11.577205916169927 0.2198038385166754 ;
	setAttr ".hc" -type "string" "viewSet -p %camera";
createNode transform -s -n "top";
	rename -uid "83CA69B1-4331-EE27-E940-DBBF2C677A44";
	setAttr ".v" no;
	setAttr ".t" -type "double3" 0 1000.1 0 ;
	setAttr ".r" -type "double3" -89.999999999999986 0 0 ;
createNode camera -s -n "topShape" -p "top";
	rename -uid "51E1E102-4960-9788-0D04-868C6976E1F2";
	setAttr -k off ".v" no;
	setAttr ".rnd" no;
	setAttr ".coi" 1000.1;
	setAttr ".ow" 30;
	setAttr ".imn" -type "string" "top";
	setAttr ".den" -type "string" "top_depth";
	setAttr ".man" -type "string" "top_mask";
	setAttr ".hc" -type "string" "viewSet -t %camera";
	setAttr ".o" yes;
createNode transform -s -n "front";
	rename -uid "F569C215-49C8-5BAA-D552-19B82B1B344F";
	setAttr ".v" no;
	setAttr ".t" -type "double3" 1.100639105902778 17.728276282244639 1000.195989455337 ;
createNode camera -s -n "frontShape" -p "front";
	rename -uid "2ED6BF06-487B-DE10-7B9D-F0A13D59606A";
	setAttr -k off ".v" no;
	setAttr ".rnd" no;
	setAttr ".coi" 1000.195989455337;
	setAttr ".ow" 22.757226562499998;
	setAttr ".imn" -type "string" "front";
	setAttr ".den" -type "string" "front_depth";
	setAttr ".man" -type "string" "front_mask";
	setAttr ".tp" -type "double3" 1.100639105902778 17.728276282244639 0 ;
	setAttr ".hc" -type "string" "viewSet -f %camera";
	setAttr ".o" yes;
createNode transform -s -n "side";
	rename -uid "3F72F437-4DAE-5212-4626-32B8BEF88BEF";
	setAttr ".v" no;
	setAttr ".t" -type "double3" 1000.1004140897326 12.212560477299839 1.0952854175233151 ;
	setAttr ".r" -type "double3" 0 89.999999999999986 0 ;
createNode camera -s -n "sideShape" -p "side";
	rename -uid "FD0102CD-4EFB-A46C-3BEA-72A1ECB2F32B";
	setAttr -k off ".v" no;
	setAttr ".rnd" no;
	setAttr ".coi" 999.51532991962927;
	setAttr ".ow" 1.0526315789473684;
	setAttr ".imn" -type "string" "side";
	setAttr ".den" -type "string" "side_depth";
	setAttr ".man" -type "string" "side_mask";
	setAttr ".tp" -type "double3" 0.58508417010307312 12.203959465026855 1.0939621848657111 ;
	setAttr ".hc" -type "string" "viewSet -s %camera";
	setAttr ".o" yes;
createNode transform -n "Export_Grp";
	rename -uid "3D9A1DE1-4FEB-9036-F213-838DB79670CA";
createNode transform -n "TmpJnt_Grp" -p "Export_Grp";
	rename -uid "72ED4B28-47D2-1B0B-9B2D-96B07E045087";
createNode joint -n "Root_TmpJnt" -p "TmpJnt_Grp";
	rename -uid "06EACF38-4558-CAB6-EA03-B3A8D04AC021";
	addAttr -ci true -sn "liw" -ln "lockInfluenceWeights" -min 0 -max 1 -at "bool";
	setAttr ".uoc" 1;
	setAttr ".t" -type "double3" 0 7.3509799766627761 0.36272652352661428 ;
	setAttr ".mnrl" -type "double3" -360 -360 -360 ;
	setAttr ".mxrl" -type "double3" 360 360 360 ;
	setAttr ".jot" -type "string" "yxz";
	setAttr ".bps" -type "matrix" 1 0 0 0 0 1 0 0 0 0 1 0 0 15.73707328056101 0 1;
	setAttr -k on -cb off ".radi" 0.05;
createNode joint -n "Spine1_TmpJnt" -p "Root_TmpJnt";
	rename -uid "8CBF09F9-4390-7748-17FE-C480003D92B3";
	addAttr -ci true -sn "liw" -ln "lockInfluenceWeights" -min 0 -max 1 -at "bool";
	setAttr ".uoc" 1;
	setAttr ".oc" 1;
	setAttr ".t" -type "double3" 1.2191639353682723e-32 0.11392668982184073 0.0053023698430085808 ;
	setAttr ".mnrl" -type "double3" -360 -360 -360 ;
	setAttr ".mxrl" -type "double3" 360 360 360 ;
	setAttr ".jot" -type "string" "yxz";
	setAttr ".bps" -type "matrix" 1 0 0 0 0 1 0 0 0 0 1 0 0 16.462721689908392 7.9790056857053538e-17 1;
	setAttr -k on -cb off ".radi" 0.05;
createNode joint -n "Spine2_TmpJnt" -p "Spine1_TmpJnt";
	rename -uid "39638C02-4532-83C1-3652-AEBD29A17D68";
	addAttr -ci true -sn "liw" -ln "lockInfluenceWeights" -min 0 -max 1 -at "bool";
	setAttr ".uoc" 1;
	setAttr ".oc" 2;
	setAttr ".t" -type "double3" 2.18827532116929e-31 0.26851330389030093 0.0056082788197299172 ;
	setAttr ".mnrl" -type "double3" -360 -360 -360 ;
	setAttr ".mxrl" -type "double3" 360 360 360 ;
	setAttr ".jot" -type "string" "yxz";
	setAttr ".bps" -type "matrix" 1 0 0 0 0 1 0 0 0 0 1 0 0 18.962119031422834 1.1092698799812162e-16 1;
	setAttr -k on -cb off ".radi" 0.05;
createNode joint -n "Spine3_TmpJnt" -p "Spine2_TmpJnt";
	rename -uid "309E4275-44BC-1E6A-94D0-2EB55A768C35";
	addAttr -ci true -sn "liw" -ln "lockInfluenceWeights" -min 0 -max 1 -at "bool";
	setAttr ".uoc" 1;
	setAttr ".oc" 1;
	setAttr ".t" -type "double3" 3.1985835777539049e-16 0.32509547499180869 -0.0076429184310304876 ;
	setAttr ".mnrl" -type "double3" -360 -360 -360 ;
	setAttr ".mxrl" -type "double3" 360 360 360 ;
	setAttr ".jot" -type "string" "yxz";
	setAttr ".bps" -type "matrix" 1 0 0 0 0 1 0 0 0 0 1 0 0 16.462721689908392 7.9790056857053538e-17 1;
	setAttr -k on -cb off ".radi" 0.05;
createNode joint -n "Spine4_TmpJnt" -p "Spine3_TmpJnt";
	rename -uid "D35A4DCB-4F6F-F1EA-B9A6-B5B41ABAAA72";
	addAttr -ci true -sn "liw" -ln "lockInfluenceWeights" -min 0 -max 1 -at "bool";
	setAttr ".uoc" 1;
	setAttr ".oc" 1;
	setAttr ".t" -type "double3" -2.8635251838015738e-12 0.32762898273426622 -0.019369922501899506 ;
	setAttr ".mnrl" -type "double3" -360 -360 -360 ;
	setAttr ".mxrl" -type "double3" 360 360 360 ;
	setAttr ".jot" -type "string" "yxz";
	setAttr ".bps" -type "matrix" 1 0 0 0 0 1 0 0 0 0 1 0 0 16.462721689908392 7.9790056857053538e-17 1;
	setAttr -k on -cb off ".radi" 0.05;
createNode joint -n "Spine5_TmpJnt" -p "Spine4_TmpJnt";
	rename -uid "23E622F6-42DA-888D-C0CB-999C62090852";
	addAttr -ci true -sn "liw" -ln "lockInfluenceWeights" -min 0 -max 1 -at "bool";
	setAttr ".uoc" 1;
	setAttr ".oc" 1;
	setAttr ".t" -type "double3" 0 0.35611440348509404 -0.049869664149744808 ;
	setAttr ".mnrl" -type "double3" -360 -360 -360 ;
	setAttr ".mxrl" -type "double3" 360 360 360 ;
	setAttr ".jot" -type "string" "yxz";
	setAttr ".bps" -type "matrix" 1 0 0 0 0 1 0 0 0 0 1 0 0 16.462721689908392 7.9790056857053538e-17 1;
	setAttr -k on -cb off ".radi" 0.05;
createNode joint -n "Clav_L_TmpJnt" -p "Spine5_TmpJnt";
	rename -uid "D05600F6-457E-2124-44B4-53B8EF5AAC62";
	addAttr -ci true -sn "liw" -ln "lockInfluenceWeights" -min 0 -max 1 -at "bool";
	setAttr ".uoc" 1;
	setAttr ".oc" 3;
	setAttr ".ove" yes;
	setAttr ".t" -type "double3" 0.24727582311425278 1.315619877454056 -0.190877519717914 ;
	setAttr ".mnrl" -type "double3" -360 -360 -360 ;
	setAttr ".mxrl" -type "double3" 360 360 360 ;
	setAttr ".jot" -type "string" "yxz";
	setAttr ".jo" -type "double3" 0 0 -89.999999999999986 ;
	setAttr ".bps" -type "matrix" 2.2204460492503131e-16 -1 0 0 1 2.2204460492503131e-16 0 0
		 0 0 1 0 0.40396301701286447 22.628380391977608 0.93191360083425789 1;
	setAttr -k on -cb off ".radi" 0.05;
createNode joint -n "UpArm_L_TmpJnt" -p "Clav_L_TmpJnt";
	rename -uid "C4713DC7-405C-B172-2DC0-D8B32BA23C5A";
	addAttr -ci true -sn "liw" -ln "lockInfluenceWeights" -min 0 -max 1 -at "bool";
	setAttr ".uoc" 1;
	setAttr ".oc" 4;
	setAttr ".t" -type "double3" 0.23654892391681237 0.62735473917581264 -0.20160620419344621 ;
	setAttr ".ro" 4;
	setAttr ".mnrl" -type "double3" -360 -360 -360 ;
	setAttr ".mxrl" -type "double3" 360 360 360 ;
	setAttr ".jot" -type "string" "yxz";
	setAttr ".jo" -type "double3" -4.3311767654220716 0 0 ;
	setAttr ".bps" -type "matrix" 2.2204460492503131e-16 -1 0 0 1 2.2204460492503131e-16 0 0
		 0 0 1 0 2.6840862727483024 21.950819439051291 -0.34347723857962076 1;
	setAttr -k on -cb off ".radi" 0.05;
createNode joint -n "Forearm_L_TmpJnt" -p "UpArm_L_TmpJnt";
	rename -uid "E841F686-45D9-1923-413C-29835682632F";
	addAttr -ci true -sn "liw" -ln "lockInfluenceWeights" -min 0 -max 1 -at "bool";
	setAttr ".uoc" 1;
	setAttr ".oc" 5;
	setAttr ".t" -type "double3" -4.5474735088646412e-12 1.849660844833477 -0.018140870306724764 ;
	setAttr ".mnrl" -type "double3" -360 -360 -360 ;
	setAttr ".mxrl" -type "double3" 360 360 360 ;
	setAttr ".jot" -type "string" "yxz";
	setAttr ".jo" -type "double3" 4.3311172686693062 0 0 ;
	setAttr ".bps" -type "matrix" 2.2204460492503131e-16 -1 0 0 0.99999999999946088 2.2204460492491157e-16 -1.0384142298428127e-06 0
		 1.0384142298428127e-06 2.3057427741397801e-22 0.99999999999946088 0 6.7891781465089913 21.950819439060187 -0.42637972484178432 1;
	setAttr -k on -cb off ".radi" 0.05;
createNode joint -n "Wrist_L_TmpJnt" -p "Forearm_L_TmpJnt";
	rename -uid "9F61AA47-486F-EDAF-5DC3-469A028B485D";
	addAttr -ci true -sn "liw" -ln "lockInfluenceWeights" -min 0 -max 1 -at "bool";
	setAttr ".uoc" 1;
	setAttr ".oc" 6;
	setAttr ".t" -type "double3" -1.4713563700752275e-11 2.1739863867946694 0.018358648332171101 ;
	setAttr ".mnrl" -type "double3" -360 -360 -360 ;
	setAttr ".mxrl" -type "double3" 360 360 360 ;
	setAttr ".jot" -type "string" "yxz";
	setAttr ".bps" -type "matrix" 2.2204460492503131e-16 -1 0 0 1 2.2204460492503131e-16 8.3960588285190204e-14 0
		 -8.3960588285190204e-14 -1.8642995655058271e-29 1 0 11.145136555499452 21.950819439088733 -0.34347297829513029 1;
	setAttr -k on -cb off ".radi" 0.05;
createNode joint -n "Hand_L_TmpJnt" -p "Wrist_L_TmpJnt";
	rename -uid "D49091D4-40DC-C009-04AE-3096DF5C2216";
	addAttr -ci true -sn "liw" -ln "lockInfluenceWeights" -min 0 -max 1 -at "bool";
	setAttr ".uoc" 1;
	setAttr ".oc" 7;
	setAttr ".t" -type "double3" -2.7213786779611837e-12 0.59573146846045777 -4.0116803129430778e-07 ;
	setAttr ".mnrl" -type "double3" -360 -360 -360 ;
	setAttr ".mxrl" -type "double3" 360 360 360 ;
	setAttr ".bps" -type "matrix" 2.2204460492503131e-16 -1 0 0 1 2.2204460492503131e-16 8.3960588285190204e-14 0
		 -8.3960588285190204e-14 -1.8642995655058271e-29 1 0 11.94334900537585 21.950819439093973 -0.34347375639834526 1;
	setAttr -k on -cb off ".radi" 0.05;
createNode joint -n "Index1_L_TmpJnt" -p "Hand_L_TmpJnt";
	rename -uid "27545D27-422D-4D1B-C1B5-0BBC76570201";
	addAttr -ci true -sn "liw" -ln "lockInfluenceWeights" -min 0 -max 1 -at "bool";
	setAttr ".uoc" 1;
	setAttr ".t" -type "double3" -0.038352345096976492 -0.12421866028796913 0.26201475274996783 ;
	setAttr ".mnrl" -type "double3" -360 -360 -360 ;
	setAttr ".mxrl" -type "double3" 360 360 360 ;
	setAttr ".jot" -type "string" "yxz";
	setAttr ".jo" -type "double3" 89.999999999999872 -87.241493305866285 -89.999999999999872 ;
	setAttr ".bps" -type "matrix" -8.3960588285190191e-14 -8.437694987151191e-14 1 0
		 1 2.2204460492503131e-16 8.3960588285190204e-14 0 -2.2204460493211562e-16 1 8.4376949871511897e-14 0
		 11.915961054098767 22.155901831531715 0.36968006095532863 1;
	setAttr -k on -cb off ".radi" 0.05;
createNode joint -n "Index2_L_TmpJnt" -p "Index1_L_TmpJnt";
	rename -uid "08E96B63-46AF-B095-C6F9-93BAB8BC5FA2";
	addAttr -ci true -sn "liw" -ln "lockInfluenceWeights" -min 0 -max 1 -at "bool";
	setAttr ".uoc" 1;
	setAttr ".oc" 1;
	setAttr ".t" -type "double3" -1.0775588558978054e-16 0.36443626844157695 0.0010085040853926586 ;
	setAttr ".mnrl" -type "double3" -360 -360 -360 ;
	setAttr ".mxrl" -type "double3" 360 360 360 ;
	setAttr ".jot" -type "string" "yxz";
	setAttr ".bps" -type "matrix" -8.3960588285190191e-14 -8.437694987151191e-14 1 0
		 1 2.2204460492503131e-16 8.3960588285190204e-14 0 -2.2204460493211562e-16 1 8.4376949871511897e-14 0
		 13.114219270621863 22.155901831531715 0.36968006095542938 1;
	setAttr -k on -cb off ".radi" 0.05;
createNode joint -n "Index3_L_TmpJnt" -p "Index2_L_TmpJnt";
	rename -uid "8B01DB43-4401-796D-1C01-40A5CAA06C6A";
	addAttr -ci true -sn "liw" -ln "lockInfluenceWeights" -min 0 -max 1 -at "bool";
	setAttr ".uoc" 1;
	setAttr ".oc" 2;
	setAttr ".t" -type "double3" -4.842245386026166e-17 0.43245486206038919 -0.010775498683168294 ;
	setAttr ".mnrl" -type "double3" -360 -360 -360 ;
	setAttr ".mxrl" -type "double3" 360 360 360 ;
	setAttr ".jot" -type "string" "yxz";
	setAttr ".bps" -type "matrix" -8.3960588285190191e-14 -8.437694987151191e-14 1 0
		 1 2.2204460492503131e-16 8.3960588285190204e-14 0 -2.2204460493211562e-16 1 8.4376949871511897e-14 0
		 13.805785441300909 22.155901831531718 0.3696800609554875 1;
	setAttr -k on -cb off ".radi" 0.05;
createNode joint -n "Index4_L_TmpJnt" -p "Index3_L_TmpJnt";
	rename -uid "CE8894A8-4CE5-8614-ABCE-A0A4DE275673";
	addAttr -ci true -sn "liw" -ln "lockInfluenceWeights" -min 0 -max 1 -at "bool";
	setAttr ".uoc" 1;
	setAttr ".oc" 3;
	setAttr ".t" -type "double3" 5.141290607381148e-17 0.2474254322569811 -0.030214513893994877 ;
	setAttr ".mnrl" -type "double3" -360 -360 -360 ;
	setAttr ".mxrl" -type "double3" 360 360 360 ;
	setAttr ".jot" -type "string" "yxz";
	setAttr ".bps" -type "matrix" -8.3960588285190191e-14 -8.437694987151191e-14 1 0
		 1 2.2204460492503131e-16 8.3960588285190204e-14 0 -2.2204460493211562e-16 1 8.4376949871511897e-14 0
		 14.271394348292739 22.155901831531718 0.36968006095552658 1;
	setAttr -k on -cb off ".radi" 0.05;
createNode joint -n "Index5_L_TmpJnt" -p "Index4_L_TmpJnt";
	rename -uid "D4DA77ED-4488-0C03-18BF-42BEBA9C554E";
	addAttr -ci true -sn "liw" -ln "lockInfluenceWeights" -min 0 -max 1 -at "bool";
	setAttr ".uoc" 1;
	setAttr ".oc" 4;
	setAttr ".t" -type "double3" -5.5511151231258e-17 0.26974814872242281 -0.019628258556032563 ;
	setAttr ".mnrl" -type "double3" -360 -360 -360 ;
	setAttr ".mxrl" -type "double3" 360 360 360 ;
	setAttr ".bps" -type "matrix" -8.3960588285190191e-14 -8.437694987151191e-14 1 0
		 1 2.2204460492503131e-16 8.3960588285190204e-14 0 -2.2204460493211562e-16 1 8.4376949871511897e-14 0
		 14.812322343180313 22.155901831531722 0.36968006095557193 1;
	setAttr -k on -cb off ".radi" 0.05;
createNode joint -n "Thumb1_L_TmpJnt" -p "Hand_L_TmpJnt";
	rename -uid "99FD6254-43C4-F746-ED3F-5C8E26357ACB";
	addAttr -ci true -sn "liw" -ln "lockInfluenceWeights" -min 0 -max 1 -at "bool";
	setAttr ".uoc" 1;
	setAttr ".t" -type "double3" 0.07746190630449945 -0.29941979947261288 0.18744907331972965 ;
	setAttr ".mnrl" -type "double3" -360 -360 -360 ;
	setAttr ".mxrl" -type "double3" 360 360 360 ;
	setAttr ".jot" -type "string" "yxz";
	setAttr ".jo" -type "double3" 44.72036750614312 10.637194302648707 -77.29041894046172 ;
	setAttr ".bps" -type "matrix" -0.59548586752167076 -0.80336578317847407 -4.9997343752636337e-14 0
		 0.73868319246536318 -0.54754062333671982 0.39312390790336815 0 -0.31582229615899904 0.23409973134130962 0.91948550452673483 0
		 11.518645340649305 21.905429719636764 0.32567524419271171 1;
	setAttr -k on -cb off ".radi" 0.05;
createNode joint -n "Thumb2_L_TmpJnt" -p "Thumb1_L_TmpJnt";
	rename -uid "A0BC8DD8-4A45-21D5-F3D7-579B3F1ED332";
	addAttr -ci true -sn "liw" -ln "lockInfluenceWeights" -min 0 -max 1 -at "bool";
	setAttr ".uoc" 1;
	setAttr ".oc" 1;
	setAttr ".t" -type "double3" -0.062882821164431058 0.27919502856170875 0.041970177158242347 ;
	setAttr ".mnrl" -type "double3" -360 -360 -360 ;
	setAttr ".mxrl" -type "double3" 360 360 360 ;
	setAttr ".jot" -type "string" "yxz";
	setAttr ".jo" -type "double3" -19.700796181147314 40.857685490685967 24.264632059267729 ;
	setAttr ".bps" -type "matrix" -0.59548586752167076 -0.80336578317847407 -4.9997343752636337e-14 0
		 0.73868319246536318 -0.54754062333671982 0.39312390790336815 0 -0.31582229615899904 0.23409973134130962 0.91948550452673483 0
		 12.026286103962779 21.529146703032435 0.59583939943602238 1;
	setAttr -k on -cb off ".radi" 0.05;
createNode joint -n "Thumb3_L_TmpJnt" -p "Thumb2_L_TmpJnt";
	rename -uid "D9AE9F30-4184-6826-EF1D-198AB945AACB";
	addAttr -ci true -sn "liw" -ln "lockInfluenceWeights" -min 0 -max 1 -at "bool";
	setAttr ".uoc" 1;
	setAttr ".oc" 2;
	setAttr ".t" -type "double3" -1.2434497875801873e-14 0.44156608118478524 -0.011012088131048604 ;
	setAttr ".mnrl" -type "double3" -360 -360 -360 ;
	setAttr ".mxrl" -type "double3" 360 360 360 ;
	setAttr ".jot" -type "string" "yxz";
	setAttr ".bps" -type "matrix" -0.59548586752167076 -0.80336578317847407 -4.9997343752636337e-14 0
		 0.73868319246536318 -0.54754062333671982 0.39312390790336815 0 -0.31582229615899904 0.23409973134130962 0.91948550452673483 0
		 12.724953059079672 21.011267666374362 0.96766684389406166 1;
	setAttr -k on -cb off ".radi" 0.05;
createNode joint -n "Thumb4_L_TmpJnt" -p "Thumb3_L_TmpJnt";
	rename -uid "5EC22DAC-4EE9-025B-4016-9A8E669235F5";
	addAttr -ci true -sn "liw" -ln "lockInfluenceWeights" -min 0 -max 1 -at "bool";
	setAttr ".uoc" 1;
	setAttr ".oc" 3;
	setAttr ".t" -type "double3" 1.4210854715201994e-14 0.30386497438559157 -0.0076981831557087835 ;
	setAttr ".mnrl" -type "double3" -360 -360 -360 ;
	setAttr ".mxrl" -type "double3" 360 360 360 ;
	setAttr ".bps" -type "matrix" -0.59548586752167076 -0.80336578317847407 -4.9997343752636337e-14 0
		 0.73868319246536318 -0.54754062333671982 0.39312390790336815 0 -0.31582229615899904 0.23409973134130962 0.91948550452673483 0
		 13.320225968832865 20.570028305053697 1.2844684375111461 1;
	setAttr -k on -cb off ".radi" 0.05;
createNode joint -n "HandCup_L_TmpJnt" -p "Hand_L_TmpJnt";
	rename -uid "EEA8427F-41F2-6332-D3C6-61B49239312F";
	addAttr -ci true -sn "liw" -ln "lockInfluenceWeights" -min 0 -max 1 -at "bool";
	setAttr ".uoc" 1;
	setAttr ".oc" 6;
	setAttr ".t" -type "double3" 0.057333983830499577 -0.3259699612694712 0.13510183305099147 ;
	setAttr ".r" -type "double3" -89.999999999858076 -88.060670781710982 89.999999999858076 ;
	setAttr ".mnrl" -type "double3" -360 -360 -360 ;
	setAttr ".mxrl" -type "double3" 360 360 360 ;
	setAttr ".jot" -type "string" "yxz";
	setAttr ".bps" -type "matrix" 2.2204460492503131e-16 -1 0 0 1 2.2204460492503131e-16 8.3960588285190204e-14 0
		 -8.3960588285190204e-14 -1.8642995655058271e-29 1 0 11.145136555499452 21.950819439088733 -0.34347297829513029 1;
	setAttr -k on -cb off ".radi" 0.05;
createNode joint -n "Pinky1_L_TmpJnt" -p "HandCup_L_TmpJnt";
	rename -uid "34C90712-454E-6E40-8020-54AB1F172A83";
	addAttr -ci true -sn "liw" -ln "lockInfluenceWeights" -min 0 -max 1 -at "bool";
	setAttr ".uoc" 1;
	setAttr ".t" -type "double3" -0.44045160345318601 0.19692164003543286 0.13657982496343343 ;
	setAttr ".mnrl" -type "double3" -360 -360 -360 ;
	setAttr ".mxrl" -type "double3" 360 360 360 ;
	setAttr ".jot" -type "string" "yxz";
	setAttr ".jo" -type "double3" 0 0 1.8724610209345338 ;
	setAttr ".bps" -type "matrix" -8.3960588285190191e-14 -8.437694987151191e-14 1 0
		 1 2.2204460492503131e-16 8.3960588285190204e-14 0 -2.2204460493211562e-16 1 8.4376949871511897e-14 0
		 11.876633548480955 22.020988418911262 -0.95907086085240945 1;
	setAttr -k on -cb off ".radi" 0.05;
createNode joint -n "Pinky2_L_TmpJnt" -p "Pinky1_L_TmpJnt";
	rename -uid "E90C6F56-46E6-5676-F529-21AC4A58ED4B";
	addAttr -ci true -sn "liw" -ln "lockInfluenceWeights" -min 0 -max 1 -at "bool";
	setAttr ".uoc" 1;
	setAttr ".oc" 1;
	setAttr ".t" -type "double3" 2.5716657744989863e-16 0.31099083325423305 -0.0011813382686174361 ;
	setAttr ".mnrl" -type "double3" -360 -360 -360 ;
	setAttr ".mxrl" -type "double3" 360 360 360 ;
	setAttr ".jot" -type "string" "yxz";
	setAttr ".bps" -type "matrix" -8.3960588285190191e-14 -8.437694987151191e-14 1 0
		 1 2.2204460492503131e-16 8.3960588285190204e-14 0 -2.2204460493211562e-16 1 8.4376949871511897e-14 0
		 13.083100380346423 22.020988418911262 -0.95907086085230775 1;
	setAttr -k on -cb off ".radi" 0.05;
createNode joint -n "Pinky3_L_TmpJnt" -p "Pinky2_L_TmpJnt";
	rename -uid "3A0EB2CC-47FD-FC50-F9D7-6391765F7EEF";
	addAttr -ci true -sn "liw" -ln "lockInfluenceWeights" -min 0 -max 1 -at "bool";
	setAttr ".uoc" 1;
	setAttr ".oc" 2;
	setAttr ".t" -type "double3" -5.2368313847524398e-16 0.38384594935658178 -0.042519961286512142 ;
	setAttr ".mnrl" -type "double3" -360 -360 -360 ;
	setAttr ".mxrl" -type "double3" 360 360 360 ;
	setAttr ".jot" -type "string" "yxz";
	setAttr ".bps" -type "matrix" -8.3960588285190191e-14 -8.437694987151191e-14 1 0
		 1 2.2204460492503131e-16 8.3960588285190204e-14 0 -2.2204460493211562e-16 1 8.4376949871511897e-14 0
		 13.601293073636691 22.020988418911262 -0.95907086085226423 1;
	setAttr -k on -cb off ".radi" 0.05;
createNode joint -n "Pinky4_L_TmpJnt" -p "Pinky3_L_TmpJnt";
	rename -uid "A786D6FF-498B-7FDF-01FE-7D96748D1E9C";
	addAttr -ci true -sn "liw" -ln "lockInfluenceWeights" -min 0 -max 1 -at "bool";
	setAttr ".uoc" 1;
	setAttr ".oc" 3;
	setAttr ".t" -type "double3" -7.531256105771883e-16 0.22457297228422224 -0.018101266002036098 ;
	setAttr ".mnrl" -type "double3" -360 -360 -360 ;
	setAttr ".mxrl" -type "double3" 360 360 360 ;
	setAttr ".jot" -type "string" "yxz";
	setAttr ".bps" -type "matrix" -8.3960588285190191e-14 -8.437694987151191e-14 1 0
		 1 2.2204460492503131e-16 8.3960588285190204e-14 0 -2.2204460493211562e-16 1 8.4376949871511897e-14 0
		 13.978441565540829 22.020988418911262 -0.95907086085223248 1;
	setAttr -k on -cb off ".radi" 0.05;
createNode joint -n "Pinky5_L_TmpJnt" -p "Pinky4_L_TmpJnt";
	rename -uid "14A05881-449B-A3DC-0157-5BB74C567398";
	addAttr -ci true -sn "liw" -ln "lockInfluenceWeights" -min 0 -max 1 -at "bool";
	setAttr ".uoc" 1;
	setAttr ".oc" 4;
	setAttr ".t" -type "double3" 5.2735593669694916e-16 0.24720738706205425 -0.014196892786332072 ;
	setAttr ".mnrl" -type "double3" -360 -360 -360 ;
	setAttr ".mxrl" -type "double3" 360 360 360 ;
	setAttr ".bps" -type "matrix" -8.3960588285190191e-14 -8.437694987151191e-14 1 0
		 1 2.2204460492503131e-16 8.3960588285190204e-14 0 -2.2204460493211562e-16 1 8.4376949871511897e-14 0
		 14.437677801786013 22.020988418911262 -0.95907086085219373 1;
	setAttr -k on -cb off ".radi" 0.05;
createNode joint -n "Middle1_L_TmpJnt" -p "HandCup_L_TmpJnt";
	rename -uid "7ABB3971-4911-3053-261F-54B3341309E2";
	addAttr -ci true -sn "liw" -ln "lockInfluenceWeights" -min 0 -max 1 -at "bool";
	setAttr ".uoc" 1;
	setAttr ".t" -type "double3" -0.1253012654906516 0.21995595040992874 0.157134183679252 ;
	setAttr ".mnrl" -type "double3" -360 -360 -360 ;
	setAttr ".mxrl" -type "double3" 360 360 360 ;
	setAttr ".jot" -type "string" "yxz";
	setAttr ".bps" -type "matrix" -8.3960588285190191e-14 -8.437694987151191e-14 1 0
		 1 2.2204460492503131e-16 8.3960588285190204e-14 0 -2.2204460493211562e-16 1 8.4376949871511897e-14 0
		 11.876633548480955 22.169748485139639 -0.10080869585328409 1;
	setAttr -k on -cb off ".radi" 0.05;
createNode joint -n "Middle2_L_TmpJnt" -p "Middle1_L_TmpJnt";
	rename -uid "31A0240B-49D0-A2ED-00CC-4B96D0CA82B5";
	addAttr -ci true -sn "liw" -ln "lockInfluenceWeights" -min 0 -max 1 -at "bool";
	setAttr ".uoc" 1;
	setAttr ".oc" 1;
	setAttr ".t" -type "double3" 2.1351774241914102e-16 0.36531174709005132 0.0023031845772010233 ;
	setAttr ".mnrl" -type "double3" -360 -360 -360 ;
	setAttr ".mxrl" -type "double3" 360 360 360 ;
	setAttr ".jot" -type "string" "yxz";
	setAttr ".bps" -type "matrix" -8.3960588285190191e-14 -8.437694987151191e-14 1 0
		 1 2.2204460492503131e-16 8.3960588285190204e-14 0 -2.2204460493211562e-16 1 8.4376949871511897e-14 0
		 13.108601055533605 22.169748485139639 -0.10080869585318036 1;
	setAttr -k on -cb off ".radi" 0.05;
createNode joint -n "Middle3_L_TmpJnt" -p "Middle2_L_TmpJnt";
	rename -uid "0E891FE6-4D76-606C-485D-34AD4F3F8859";
	addAttr -ci true -sn "liw" -ln "lockInfluenceWeights" -min 0 -max 1 -at "bool";
	setAttr ".uoc" 1;
	setAttr ".oc" 2;
	setAttr ".t" -type "double3" 3.2914565822440847e-15 0.45542758279325568 -0.041169530829726853 ;
	setAttr ".mnrl" -type "double3" -360 -360 -360 ;
	setAttr ".mxrl" -type "double3" 360 360 360 ;
	setAttr ".jot" -type "string" "yxz";
	setAttr ".bps" -type "matrix" -8.3960588285190191e-14 -8.437694987151191e-14 1 0
		 1 2.2204460492503131e-16 8.3960588285190204e-14 0 -2.2204460493211562e-16 1 8.4376949871511897e-14 0
		 13.906913312889571 22.169748485139639 -0.10080869585311319 1;
	setAttr -k on -cb off ".radi" 0.05;
createNode joint -n "Middle4_L_TmpJnt" -p "Middle3_L_TmpJnt";
	rename -uid "ABB37D52-4F0C-5915-A949-A59F28A77448";
	addAttr -ci true -sn "liw" -ln "lockInfluenceWeights" -min 0 -max 1 -at "bool";
	setAttr ".uoc" 1;
	setAttr ".oc" 3;
	setAttr ".t" -type "double3" 5.5358745543440652e-16 0.29127838065553835 -0.018550485395048 ;
	setAttr ".mnrl" -type "double3" -360 -360 -360 ;
	setAttr ".mxrl" -type "double3" 360 360 360 ;
	setAttr ".jot" -type "string" "yxz";
	setAttr ".bps" -type "matrix" -8.3960588285190191e-14 -8.437694987151191e-14 1 0
		 1 2.2204460492503131e-16 8.3960588285190204e-14 0 -2.2204460493211562e-16 1 8.4376949871511897e-14 0
		 14.411849725499213 22.169748485139639 -0.10080869585307067 1;
	setAttr -k on -cb off ".radi" 0.05;
createNode joint -n "Middle5_L_TmpJnt" -p "Middle4_L_TmpJnt";
	rename -uid "0A286703-4B3E-EE02-6433-0E9B281C9760";
	addAttr -ci true -sn "liw" -ln "lockInfluenceWeights" -min 0 -max 1 -at "bool";
	setAttr ".uoc" 1;
	setAttr ".oc" 4;
	setAttr ".t" -type "double3" 1.1796119636642214e-16 0.34346430910569375 -0.0043640884736220187 ;
	setAttr ".mnrl" -type "double3" -360 -360 -360 ;
	setAttr ".mxrl" -type "double3" 360 360 360 ;
	setAttr ".bps" -type "matrix" -8.3960588285190191e-14 -8.437694987151191e-14 1 0
		 1 2.2204460492503131e-16 8.3960588285190204e-14 0 -2.2204460493211562e-16 1 8.4376949871511897e-14 0
		 15.081996667416741 22.169748485139635 -0.10080869585301426 1;
	setAttr -k on -cb off ".radi" 0.05;
createNode joint -n "Elbow_L_TmpJnt" -p "Forearm_L_TmpJnt";
	rename -uid "E4DBCB47-431E-B951-A27A-BCB3050073C3";
	addAttr -ci true -sn "liw" -ln "lockInfluenceWeights" -min 0 -max 1 -at "bool";
	setAttr ".uoc" 1;
	setAttr ".oc" 2;
	setAttr ".t" -type "double3" 4.5705661477768444e-12 8.1557710363000524e-08 -2.5429481496776059 ;
	setAttr ".mnrl" -type "double3" -360 -360 -360 ;
	setAttr ".mxrl" -type "double3" 360 360 360 ;
	setAttr ".jot" -type "string" "yxz";
	setAttr ".jo" -type "double3" 0 5.9496752756331688e-05 -90.000000000000014 ;
	setAttr ".bps" -type "matrix" -1 -1.2246467991473532e-16 0 0 1.2246467991473532e-16 -1 0 0
		 0 0 1 0 1.3486489690923307 14.656585133659888 1.5144370407379352e-17 1;
	setAttr -k on -cb off ".radi" 0.05;
createNode joint -n "ShoulderArmor_L_TmpJnt" -p "Clav_L_TmpJnt";
	rename -uid "98E7FDE5-4AD4-A5A4-75C5-7E8A812AFC2E";
	addAttr -ci true -sn "liw" -ln "lockInfluenceWeights" -min 0 -max 1 -at "bool";
	setAttr ".uoc" 1;
	setAttr ".oc" 4;
	setAttr ".t" -type "double3" -0.20528613543957874 0.53042158327933975 -0.19587195618162517 ;
	setAttr ".ro" 4;
	setAttr ".mnrl" -type "double3" -360 -360 -360 ;
	setAttr ".mxrl" -type "double3" 360 360 360 ;
	setAttr ".jot" -type "string" "yxz";
	setAttr ".jo" -type "double3" -4.3311767654220716 0 0 ;
	setAttr ".bps" -type "matrix" 2.2204460492503131e-16 -1 0 0 1 2.2204460492503131e-16 0 0
		 0 0 1 0 2.6840862727483024 21.950819439051291 -0.34347723857962076 1;
	setAttr -k on -cb off ".radi" 0.05;
createNode joint -n "Neck_TmpJnt" -p "Spine5_TmpJnt";
	rename -uid "DE6EADB7-4533-06E0-7560-5DBB5C39C6AE";
	addAttr -ci true -sn "liw" -ln "lockInfluenceWeights" -min 0 -max 1 -at "bool";
	setAttr ".uoc" 1;
	setAttr ".oc" 3;
	setAttr ".t" -type "double3" 0 1.5573644012619567 -0.3875671967307377 ;
	setAttr ".mnrl" -type "double3" -360 -360 -360 ;
	setAttr ".mxrl" -type "double3" 360 360 360 ;
	setAttr ".jot" -type "string" "yxz";
	setAttr ".bps" -type "matrix" 1 0 0 0 0 1 0 0 0 0 1 0 0 22.764810214551506 1.2852494451027699e-16 1;
	setAttr -k on -cb off ".radi" 0.05;
createNode joint -n "Head_TmpJnt" -p "Neck_TmpJnt";
	rename -uid "7B5DB929-4D01-3911-9CA1-0A813F8005E5";
	addAttr -ci true -sn "liw" -ln "lockInfluenceWeights" -min 0 -max 1 -at "bool";
	setAttr ".uoc" 1;
	setAttr ".oc" 5;
	setAttr ".t" -type "double3" 0 0.96255186718179964 -0.073656514289546338 ;
	setAttr ".mnrl" -type "double3" -360 -360 -360 ;
	setAttr ".mxrl" -type "double3" 360 360 360 ;
	setAttr ".jot" -type "string" "yxz";
	setAttr ".bps" -type "matrix" 1 0 0 0 0 1 0 0 0 0 1 0 0 25.118764441136726 1.5379363139276727e-16 1;
	setAttr -k on -cb off ".radi" 0.05;
createNode joint -n "HeadEnd_TmpJnt" -p "Head_TmpJnt";
	rename -uid "C19FF5A0-40C9-63A0-B1CA-129724C7D26A";
	addAttr -ci true -sn "liw" -ln "lockInfluenceWeights" -min 0 -max 1 -at "bool";
	setAttr ".uoc" 1;
	setAttr ".oc" 6;
	setAttr ".t" -type "double3" -4.0389678347315804e-28 2.6465350431800623 0 ;
	setAttr ".mnrl" -type "double3" -360 -360 -360 ;
	setAttr ".mxrl" -type "double3" 360 360 360 ;
	setAttr ".bps" -type "matrix" 1 0 0 0 0 1 0 0 0 0 1 0 0 27.864768711571326 -1.9234515956468954e-15 1;
	setAttr -k on -cb off ".radi" 0.05;
createNode joint -n "Eye_L_TmpJnt" -p "Head_TmpJnt";
	rename -uid "F8A1FC64-44CC-1334-A82A-2F9275597B22";
	addAttr -ci true -sn "liw" -ln "lockInfluenceWeights" -min 0 -max 1 -at "bool";
	setAttr ".uoc" 1;
	setAttr ".oc" 6;
	setAttr ".t" -type "double3" 0.52633771300602172 0.94948719245062563 0.74093274325442637 ;
	setAttr ".mnrl" -type "double3" -360 -360 -360 ;
	setAttr ".mxrl" -type "double3" 360 360 360 ;
	setAttr ".bps" -type "matrix" 1 0 0 0 0 1 0 0 0 0 1 0 0.53833165295886931 25.828273426804412 1.4860476249829009 1;
	setAttr -k on -cb off ".radi" 0.05;
createNode joint -n "EyeDot_L_TmpJnt" -p "Eye_L_TmpJnt";
	rename -uid "9BED35CA-4B33-E09F-53D7-D494F5A34F4D";
	addAttr -ci true -sn "liw" -ln "lockInfluenceWeights" -min 0 -max 1 -at "bool";
	setAttr ".uoc" 1;
	setAttr ".oc" 6;
	setAttr ".t" -type "double3" 0.15352907776832581 0.01448822021484375 0.36464214324951172 ;
	setAttr ".mnrl" -type "double3" -360 -360 -360 ;
	setAttr ".mxrl" -type "double3" 360 360 360 ;
	setAttr ".jo" -type "double3" 0 21.934863766566533 0 ;
	setAttr ".bps" -type "matrix" 1 0 0 0 0 1 0 0 0 0 1 0 0.53833165295886931 25.828273426804412 1.4860476249829009 1;
	setAttr -k on -cb off ".radi" 0.05;
createNode joint -n "Pupil_L_TmpJnt" -p "Eye_L_TmpJnt";
	rename -uid "32D6D525-4E84-1790-8549-CC8364937F8E";
	setAttr ".t" -type "double3" 0.058746457099914551 -0.0077028274536132813 0.32149371504783641 ;
	setAttr ".mnrl" -type "double3" -360 -360 -360 ;
	setAttr ".mxrl" -type "double3" 360 360 360 ;
	setAttr ".radi" 0.1;
createNode joint -n "Iris_L_TmpJnt" -p "Pupil_L_TmpJnt";
	rename -uid "A0AAA24B-477D-F3BF-B1D9-D6BB7283452A";
	setAttr ".mnrl" -type "double3" -360 -360 -360 ;
	setAttr ".mxrl" -type "double3" 360 360 360 ;
	setAttr ".radi" 0.05;
createNode joint -n "Eye_R_TmpJnt" -p "Head_TmpJnt";
	rename -uid "9D957B26-49B3-B9C3-969E-8E908EA64917";
	addAttr -ci true -sn "liw" -ln "lockInfluenceWeights" -min 0 -max 1 -at "bool";
	setAttr ".uoc" 1;
	setAttr ".oc" 6;
	setAttr ".t" -type "double3" -0.526 0.94948719245062563 0.74093274325442637 ;
	setAttr ".mnrl" -type "double3" -360 -360 -360 ;
	setAttr ".mxrl" -type "double3" 360 360 360 ;
	setAttr ".bps" -type "matrix" 1 0 0 0 0 1 0 0 0 0 1 0 -0.53833200000000003 25.828300000000006 1.4860499999999996 1;
	setAttr -k on -cb off ".radi" 0.05;
createNode joint -n "EyeDot_R_TmpJnt" -p "Eye_R_TmpJnt";
	rename -uid "8582FCB4-46AD-59F9-4EDF-0CB0F539E749";
	addAttr -ci true -sn "liw" -ln "lockInfluenceWeights" -min 0 -max 1 -at "bool";
	setAttr ".uoc" 1;
	setAttr ".oc" 6;
	setAttr ".t" -type "double3" 0.02745149231243349 0.01448822021484375 0.39170169830322266 ;
	setAttr ".mnrl" -type "double3" -360 -360 -360 ;
	setAttr ".mxrl" -type "double3" 360 360 360 ;
	setAttr ".jo" -type "double3" 0 1.7356856264772427 0 ;
	setAttr ".bps" -type "matrix" 1 0 0 0 0 1 0 0 0 0 1 0 0.53833165295886931 25.828273426804412 1.4860476249829009 1;
	setAttr -k on -cb off ".radi" 0.05;
createNode joint -n "Pupil_R_TmpJnt" -p "Eye_R_TmpJnt";
	rename -uid "9AE23422-4122-7B24-9D2B-CC8DC6FF64AA";
	setAttr ".t" -type "double3" -0.059083999997136871 -0.0077028274536132813 0.32149371504783641 ;
	setAttr ".mnrl" -type "double3" -360 -360 -360 ;
	setAttr ".mxrl" -type "double3" 360 360 360 ;
	setAttr ".radi" 0.1;
createNode joint -n "Iris_R_TmpJnt" -p "Pupil_R_TmpJnt";
	rename -uid "A8A4E857-4081-4E1F-99ED-BA8B873D613A";
	setAttr ".mnrl" -type "double3" -360 -360 -360 ;
	setAttr ".mxrl" -type "double3" 360 360 360 ;
	setAttr ".radi" 0.05;
createNode joint -n "JawUprRoot_TmpJnt" -p "Head_TmpJnt";
	rename -uid "AB633BFD-4507-E518-0041-C7B9085DFE05";
	addAttr -ci true -sn "liw" -ln "lockInfluenceWeights" -min 0 -max 1 -at "bool";
	setAttr ".uoc" 1;
	setAttr ".oc" 6;
	setAttr ".t" -type "double3" -1.0760815779207081e-18 0.57635246149165464 1.2604807720449307 ;
	setAttr ".mnrl" -type "double3" -360 -360 -360 ;
	setAttr ".mxrl" -type "double3" 360 360 360 ;
	setAttr ".jot" -type "string" "yxz";
	setAttr ".jo" -type "double3" -13.293318598545932 1.7655625192200634e-31 180 ;
	setAttr ".bps" -type "matrix" -1 1.2246467991473532e-16 0 0 -1.2246467991473532e-16 -1 0 0
		 0 0 1 0 0 24.387496966804516 0.55021567872571864 1;
	setAttr -k on -cb off ".radi" 0.1;
createNode joint -n "JawUpr1_TmpJnt" -p "JawUprRoot_TmpJnt";
	rename -uid "80BC138C-4584-4FCD-B482-D7AE81640367";
	addAttr -ci true -sn "liw" -ln "lockInfluenceWeights" -min 0 -max 1 -at "bool";
	setAttr ".uoc" 1;
	setAttr ".oc" 6;
	setAttr ".mnrl" -type "double3" -360 -360 -360 ;
	setAttr ".mxrl" -type "double3" 360 360 360 ;
	setAttr ".jot" -type "string" "yxz";
	setAttr ".bps" -type "matrix" -1 1.2246467991473532e-16 0 0 -1.2246467991473532e-16 -1 0 0
		 0 0 1 0 0 24.387496966804516 0.55021567872571864 1;
	setAttr -k on -cb off ".radi" 0.05;
createNode joint -n "TeethUpr_TmpJnt" -p "JawUpr1_TmpJnt";
	rename -uid "303BBDA5-45A4-FECB-1361-DB8C7E4C64EB";
	addAttr -ci true -sn "liw" -ln "lockInfluenceWeights" -min 0 -max 1 -at "bool";
	setAttr ".uoc" 1;
	setAttr ".t" -type "double3" -2.7355308705863204e-17 0.2521312665366704 0.13064812193036457 ;
	setAttr ".mnrl" -type "double3" -360 -360 -360 ;
	setAttr ".mxrl" -type "double3" 360 360 360 ;
	setAttr ".jo" -type "double3" 8.9999999999999982 0 0 ;
	setAttr ".bps" -type "matrix" 1 0 0 0 0 1 0 0 0 0 1 0 0 24.169010636166544 2.0776527139297967 1;
	setAttr -k on -cb off ".radi" 0.05;
createNode joint -n "JawUprEnd_TmpJnt" -p "JawUpr1_TmpJnt";
	rename -uid "EEB5C79E-443C-23FC-9EE7-F7A51ED0A764";
	addAttr -ci true -sn "liw" -ln "lockInfluenceWeights" -min 0 -max 1 -at "bool";
	setAttr ".uoc" 1;
	setAttr ".oc" 7;
	setAttr ".t" -type "double3" -1.3328593854614215e-26 -3.5527136788005009e-15 1.3952723249138534 ;
	setAttr ".mnrl" -type "double3" -360 -360 -360 ;
	setAttr ".mxrl" -type "double3" 360 360 360 ;
	setAttr ".bps" -type "matrix" -1 1.2246467991473532e-16 0 0 -1.2246467991473532e-16 -1 0 0
		 0 0 1 0 -3.2163030071266839e-32 24.387496966804516 2.0776527139297962 1;
	setAttr -k on -cb off ".radi" 0.05;
createNode joint -n "JawLwr1_TmpJnt" -p "Head_TmpJnt";
	rename -uid "E98A02D1-452C-9C75-F4A7-548A572F0E65";
	addAttr -ci true -sn "liw" -ln "lockInfluenceWeights" -min 0 -max 1 -at "bool";
	setAttr ".uoc" 1;
	setAttr ".oc" 6;
	setAttr ".t" -type "double3" -6.0584517520973707e-27 0.9199783271561266 0.076194824430387609 ;
	setAttr ".mnrl" -type "double3" -360 -360 -360 ;
	setAttr ".mxrl" -type "double3" 360 360 360 ;
	setAttr ".jot" -type "string" "yxz";
	setAttr ".jo" -type "double3" 30.811524785433054 0 0 ;
	setAttr ".bps" -type "matrix" 1 0 0 0 0 1 0 0 0 0 1 0 0 25.105065775409837 0.43032997634803533 1;
	setAttr -k on -cb off ".radi" 0.05;
createNode joint -n "JawLwr2_TmpJnt" -p "JawLwr1_TmpJnt";
	rename -uid "23BE29EF-4304-8F4C-1A5C-618C90222F19";
	addAttr -ci true -sn "liw" -ln "lockInfluenceWeights" -min 0 -max 1 -at "bool";
	setAttr ".uoc" 1;
	setAttr ".oc" 7;
	setAttr ".t" -type "double3" 3.6350710512584224e-27 -0.49146653045920169 0.55799105865172061 ;
	setAttr ".mnrl" -type "double3" -360 -360 -360 ;
	setAttr ".mxrl" -type "double3" 360 360 360 ;
	setAttr ".jot" -type "string" "yxz";
	setAttr ".jo" -type "double3" -23.761930192199674 0 0 ;
	setAttr ".bps" -type "matrix" 1 0 0 0 0 1 0 0 0 0 1 0 0 24.169010636166544 0.55021567872571864 1;
	setAttr -k on -cb off ".radi" 0.05;
createNode joint -n "JawLwrEnd_TmpJnt" -p "JawLwr2_TmpJnt";
	rename -uid "1E284DC0-4584-8E48-A0D3-F293A6C32EAB";
	addAttr -ci true -sn "liw" -ln "lockInfluenceWeights" -min 0 -max 1 -at "bool";
	setAttr ".uoc" 1;
	setAttr ".t" -type "double3" 0 -0.047276548850481888 1.6057358672749762 ;
	setAttr ".mnrl" -type "double3" -360 -360 -360 ;
	setAttr ".mxrl" -type "double3" 360 360 360 ;
	setAttr ".bps" -type "matrix" 1 0 0 0 0 1 0 0 0 0 1 0 0 24.169010636166544 2.0776527139297967 1;
	setAttr -k on -cb off ".radi" 0.05;
createNode joint -n "TeethLwr_TmpJnt" -p "JawLwr2_TmpJnt";
	rename -uid "92322076-4D58-6C4E-AF4B-34AD4AAFAB18";
	addAttr -ci true -sn "liw" -ln "lockInfluenceWeights" -min 0 -max 1 -at "bool";
	setAttr ".uoc" 1;
	setAttr ".t" -type "double3" -4.0389678347316163e-28 -0.0001109944409127539 0.9885288637082138 ;
	setAttr ".mnrl" -type "double3" -360 -360 -360 ;
	setAttr ".mxrl" -type "double3" 360 360 360 ;
	setAttr ".bps" -type "matrix" 1 0 0 0 0 1 0 0 0 0 1 0 0 24.169010636166544 2.0776527139297967 1;
	setAttr -k on -cb off ".radi" 0.05;
createNode joint -n "EyeTrgt_TmpJnt" -p "Head_TmpJnt";
	rename -uid "8ACF2328-4F9D-AA12-242F-A2BD3210872C";
	addAttr -ci true -sn "liw" -ln "lockInfluenceWeights" -min 0 -max 1 -at "bool";
	setAttr ".uoc" 1;
	setAttr ".oc" 6;
	setAttr ".t" -type "double3" 8.2229238859917653e-06 0.94948719245062563 5.5420865335902505 ;
	setAttr ".mnrl" -type "double3" -360 -360 -360 ;
	setAttr ".mxrl" -type "double3" 360 360 360 ;
	setAttr ".bps" -type "matrix" 1 0 0 0 0 1 0 0 0 0 1 0 -0.53833200000000003 25.828300000000006 1.4860499999999996 1;
	setAttr -k on -cb off ".radi" 0.05;
createNode joint -n "EyeTrgt_L_TmpJnt" -p "EyeTrgt_TmpJnt";
	rename -uid "C2DA37C0-4AAF-788A-5E2A-D986B5D015FB";
	addAttr -ci true -sn "liw" -ln "lockInfluenceWeights" -min 0 -max 1 -at "bool";
	setAttr ".uoc" 1;
	setAttr ".oc" 6;
	setAttr ".t" -type "double3" 0.52632949008213581 0 0 ;
	setAttr ".mnrl" -type "double3" -360 -360 -360 ;
	setAttr ".mxrl" -type "double3" 360 360 360 ;
	setAttr ".bps" -type "matrix" 1 0 0 0 0 1 0 0 0 0 1 0 0.53833165295886931 25.828273426804412 1.4860476249829009 1;
	setAttr -k on -cb off ".radi" 0.05;
createNode joint -n "EyeTrgt_R_TmpJnt" -p "EyeTrgt_TmpJnt";
	rename -uid "451B9081-4D27-3DC2-454A-4B9422E44931";
	addAttr -ci true -sn "liw" -ln "lockInfluenceWeights" -min 0 -max 1 -at "bool";
	setAttr ".uoc" 1;
	setAttr ".oc" 6;
	setAttr ".t" -type "double3" -0.52600822292388594 0 0 ;
	setAttr ".mnrl" -type "double3" -360 -360 -360 ;
	setAttr ".mxrl" -type "double3" 360 360 360 ;
	setAttr ".bps" -type "matrix" 1 0 0 0 0 1 0 0 0 0 1 0 -0.53833200000000003 25.828300000000006 1.4860499999999996 1;
	setAttr -k on -cb off ".radi" 0.05;
createNode joint -n "Tongue1_TmpJnt" -p "Head_TmpJnt";
	rename -uid "2CF373A1-4773-F23A-9158-10A2156BDAF1";
	addAttr -ci true -sn "liw" -ln "lockInfluenceWeights" -min 0 -max 1 -at "bool";
	setAttr ".uoc" 1;
	setAttr ".oc" 6;
	setAttr ".t" -type "double3" -1.6155871338926322e-27 -0.093391651932252628 0.022134295321902309 ;
	setAttr ".r" -type "double3" -8.6576709189818857 0 0 ;
	setAttr ".mnrl" -type "double3" -360 -360 -360 ;
	setAttr ".mxrl" -type "double3" 360 360 360 ;
	setAttr ".jot" -type "string" "yxz";
	setAttr ".jo" -type "double3" 56.710435076321076 0 0 ;
	setAttr ".bps" -type "matrix" 1 0 0 0 0 1 0 0 0 0 1 0 0 25.105065775409837 0.43032997634803533 1;
	setAttr -k on -cb off ".radi" 0.05;
createNode joint -n "Tongue2_TmpJnt" -p "Tongue1_TmpJnt";
	rename -uid "7B390607-48B1-0962-DA83-3187FCC9179B";
	addAttr -ci true -sn "liw" -ln "lockInfluenceWeights" -min 0 -max 1 -at "bool";
	setAttr ".uoc" 1;
	setAttr ".oc" 7;
	setAttr ".t" -type "double3" -8.0779356694631609e-28 0.3113101307378775 -1.7763568394002416e-15 ;
	setAttr ".r" -type "double3" 17.833148627704674 0 0 ;
	setAttr ".mnrl" -type "double3" -360 -360 -360 ;
	setAttr ".mxrl" -type "double3" 360 360 360 ;
	setAttr ".jot" -type "string" "yxz";
	setAttr ".bps" -type "matrix" 1 0 0 0 0 1 0 0 0 0 1 0 0 24.169010636166544 0.55021567872571864 1;
	setAttr -k on -cb off ".radi" 0.05;
createNode joint -n "Tongue3_TmpJnt" -p "Tongue2_TmpJnt";
	rename -uid "9D2CF8B6-4048-39E3-4DCB-F5B5F11594B7";
	addAttr -ci true -sn "liw" -ln "lockInfluenceWeights" -min 0 -max 1 -at "bool";
	setAttr ".uoc" 1;
	setAttr ".t" -type "double3" -1.1658803223182478e-42 0.33066658742938221 0.012871713850290116 ;
	setAttr ".r" -type "double3" 23.253698580381954 0 0 ;
	setAttr ".mnrl" -type "double3" -360 -360 -360 ;
	setAttr ".mxrl" -type "double3" 360 360 360 ;
	setAttr ".bps" -type "matrix" 1 0 0 0 0 1 0 0 0 0 1 0 0 24.169010636166544 2.0776527139297967 1;
	setAttr -k on -cb off ".radi" 0.05;
createNode joint -n "Tongue4_TmpJnt" -p "Tongue3_TmpJnt";
	rename -uid "0388554E-47C9-9CA0-4F5B-F6B48DB5E2A7";
	addAttr -ci true -sn "liw" -ln "lockInfluenceWeights" -min 0 -max 1 -at "bool";
	setAttr ".uoc" 1;
	setAttr ".t" -type "double3" 4.0389678347315804e-28 0.38535795949086826 0.0075285315478293077 ;
	setAttr ".r" -type "double3" 8.5340568518517514 0 0 ;
	setAttr ".mnrl" -type "double3" -360 -360 -360 ;
	setAttr ".mxrl" -type "double3" 360 360 360 ;
	setAttr ".bps" -type "matrix" 1 0 0 0 0 1 0 0 0 0 1 0 0 24.169010636166544 2.0776527139297967 1;
	setAttr -k on -cb off ".radi" 0.05;
createNode joint -n "Tongue5_TmpJnt" -p "Tongue4_TmpJnt";
	rename -uid "737A3D20-47D7-4BF7-1E08-9AAECECFC8D1";
	addAttr -ci true -sn "liw" -ln "lockInfluenceWeights" -min 0 -max 1 -at "bool";
	setAttr ".uoc" 1;
	setAttr ".t" -type "double3" -4.0389678347315804e-28 0.38116932054281732 2.0022503620376061e-15 ;
	setAttr ".mnrl" -type "double3" -360 -360 -360 ;
	setAttr ".mxrl" -type "double3" 360 360 360 ;
	setAttr ".bps" -type "matrix" 1 0 0 0 0 1 0 0 0 0 1 0 0 24.169010636166544 2.0776527139297967 1;
	setAttr -k on -cb off ".radi" 0.05;
createNode joint -n "Tongue6_TmpJnt" -p "Tongue5_TmpJnt";
	rename -uid "9BE6A535-490B-5920-ACC3-BFB1DC2D5044";
	addAttr -ci true -sn "liw" -ln "lockInfluenceWeights" -min 0 -max 1 -at "bool";
	setAttr ".uoc" 1;
	setAttr ".t" -type "double3" 4.0389678347315804e-28 0.37687721380316075 -4.8635547629169456e-15 ;
	setAttr ".r" -type "double3" -3.1805546814635168e-15 0 0 ;
	setAttr ".mnrl" -type "double3" -360 -360 -360 ;
	setAttr ".mxrl" -type "double3" 360 360 360 ;
	setAttr ".bps" -type "matrix" 1 0 0 0 0 1 0 0 0 0 1 0 0 24.169010636166544 2.0776527139297967 1;
	setAttr -k on -cb off ".radi" 0.05;
createNode joint -n "Clav_R_TmpJnt" -p "Spine5_TmpJnt";
	rename -uid "D1A36EBA-4BEB-6885-80D4-5CBC28FD228A";
	addAttr -ci true -sn "liw" -ln "lockInfluenceWeights" -min 0 -max 1 -at "bool";
	setAttr ".uoc" 1;
	setAttr ".oc" 3;
	setAttr ".ove" yes;
	setAttr ".t" -type "double3" -0.24727599999713679 1.3156411684139133 -0.19087766710667795 ;
	setAttr ".mnrl" -type "double3" -360 -360 -360 ;
	setAttr ".mxrl" -type "double3" 360 360 360 ;
	setAttr ".jot" -type "string" "yxz";
	setAttr ".jo" -type "double3" -180 7.0622500768802503e-31 89.999999999999972 ;
	setAttr ".bps" -type "matrix" 2.2204460492503131e-16 -1 0 0 1 2.2204460492503131e-16 0 0
		 0 0 1 0 0.40396301701286447 22.628380391977608 0.93191360083425789 1;
	setAttr -k on -cb off ".radi" 0.05;
createNode joint -n "UpArm_R_TmpJnt" -p "Clav_R_TmpJnt";
	rename -uid "DA7D5AC0-4EE2-B32E-F16E-F394F79411DB";
	addAttr -ci true -sn "liw" -ln "lockInfluenceWeights" -min 0 -max 1 -at "bool";
	setAttr ".uoc" 1;
	setAttr ".oc" 4;
	setAttr ".t" -type "double3" -0.23657000000000039 -0.62735499999999988 0.20160610000000007 ;
	setAttr ".ro" 4;
	setAttr ".mnrl" -type "double3" -360 -360 -360 ;
	setAttr ".mxrl" -type "double3" 360 360 360 ;
	setAttr ".jot" -type "string" "yxz";
	setAttr ".jo" -type "double3" -4.3311767654219304 9.6079876718733594e-16 -3.6332275256963662e-17 ;
	setAttr ".bps" -type "matrix" 2.2204460492503131e-16 -1 0 0 1 2.2204460492503131e-16 0 0
		 0 0 1 0 2.6840862727483024 21.950819439051291 -0.34347723857962076 1;
	setAttr -k on -cb off ".radi" 0.05;
createNode joint -n "Forearm_R_TmpJnt" -p "UpArm_R_TmpJnt";
	rename -uid "96122D7E-4865-3D03-CEB6-40B097D1E955";
	addAttr -ci true -sn "liw" -ln "lockInfluenceWeights" -min 0 -max 1 -at "bool";
	setAttr ".uoc" 1;
	setAttr ".oc" 5;
	setAttr ".t" -type "double3" -1.7763568394002505e-15 -1.8496613067512082 0.018140841127773418 ;
	setAttr ".mnrl" -type "double3" -360 -360 -360 ;
	setAttr ".mxrl" -type "double3" 360 360 360 ;
	setAttr ".jot" -type "string" "yxz";
	setAttr ".jo" -type "double3" 4.3311172686690211 -9.5529798408803886e-16 -1.0878731970750718e-16 ;
	setAttr ".bps" -type "matrix" 2.2204460492503131e-16 -1 0 0 0.99999999999946088 2.2204460492491157e-16 -1.0384142298428127e-06 0
		 1.0384142298428127e-06 2.3057427741397801e-22 0.99999999999946088 0 6.7891781465089913 21.950819439060187 -0.42637972484178432 1;
	setAttr -k on -cb off ".radi" 0.05;
createNode joint -n "Wrist_R_TmpJnt" -p "Forearm_R_TmpJnt";
	rename -uid "B1B408A5-40B3-499D-9165-7DAFA82FA430";
	addAttr -ci true -sn "liw" -ln "lockInfluenceWeights" -min 0 -max 1 -at "bool";
	setAttr ".uoc" 1;
	setAttr ".oc" 6;
	setAttr ".t" -type "double3" 1.7763568394002505e-15 -2.1739899809376961 -0.018358257502147118 ;
	setAttr ".mnrl" -type "double3" -360 -360 -360 ;
	setAttr ".mxrl" -type "double3" 360 360 360 ;
	setAttr ".jot" -type "string" "yxz";
	setAttr ".bps" -type "matrix" 2.2204460492503131e-16 -1 0 0 1 2.2204460492503131e-16 8.3960588285190204e-14 0
		 -8.3960588285190204e-14 -1.8642995655058271e-29 1 0 11.145136555499452 21.950819439088733 -0.34347297829513029 1;
	setAttr -k on -cb off ".radi" 0.05;
createNode joint -n "Hand_R_TmpJnt" -p "Wrist_R_TmpJnt";
	rename -uid "359B1736-46E4-90EF-90A1-BAB5C05ECE6F";
	addAttr -ci true -sn "liw" -ln "lockInfluenceWeights" -min 0 -max 1 -at "bool";
	setAttr ".uoc" 1;
	setAttr ".oc" 7;
	setAttr ".t" -type "double3" -1.7763568394002505e-15 -0.59573000000071641 3.8138548930088945e-07 ;
	setAttr ".mnrl" -type "double3" -360 -360 -360 ;
	setAttr ".mxrl" -type "double3" 360 360 360 ;
	setAttr ".bps" -type "matrix" 2.2204460492503131e-16 -1 0 0 1 2.2204460492503131e-16 8.3960588285190204e-14 0
		 -8.3960588285190204e-14 -1.8642995655058271e-29 1 0 11.94334900537585 21.950819439093973 -0.34347375639834526 1;
	setAttr -k on -cb off ".radi" 0.05;
createNode joint -n "Index1_R_TmpJnt" -p "Hand_R_TmpJnt";
	rename -uid "2A79D148-4BE2-0B1F-16AE-AE95E34505E8";
	addAttr -ci true -sn "liw" -ln "lockInfluenceWeights" -min 0 -max 1 -at "bool";
	setAttr ".uoc" 1;
	setAttr ".t" -type "double3" 0.038350000000001216 0.1242202720803478 -0.26201517100804272 ;
	setAttr ".mnrl" -type "double3" -360 -360 -360 ;
	setAttr ".mxrl" -type "double3" 360 360 360 ;
	setAttr ".jot" -type "string" "yxz";
	setAttr ".jo" -type "double3" 89.99999999999973 -87.241493305866157 -90.00000000000027 ;
	setAttr ".bps" -type "matrix" -8.3960588285190191e-14 -8.437694987151191e-14 1 0
		 1 2.2204460492503131e-16 8.3960588285190204e-14 0 -2.2204460493211562e-16 1 8.4376949871511897e-14 0
		 11.915961054098767 22.155901831531715 0.36968006095532863 1;
	setAttr -k on -cb off ".radi" 0.05;
createNode joint -n "Index2_R_TmpJnt" -p "Index1_R_TmpJnt";
	rename -uid "3F0C2B6B-4C3C-11D4-B323-65B9E0EA2F5A";
	addAttr -ci true -sn "liw" -ln "lockInfluenceWeights" -min 0 -max 1 -at "bool";
	setAttr ".uoc" 1;
	setAttr ".oc" 1;
	setAttr ".t" -type "double3" -1.5498543279313104e-07 -0.36443227435277326 -0.0010100000000008436 ;
	setAttr ".mnrl" -type "double3" -360 -360 -360 ;
	setAttr ".mxrl" -type "double3" 360 360 360 ;
	setAttr ".jot" -type "string" "yxz";
	setAttr ".bps" -type "matrix" -8.3960588285190191e-14 -8.437694987151191e-14 1 0
		 1 2.2204460492503131e-16 8.3960588285190204e-14 0 -2.2204460493211562e-16 1 8.4376949871511897e-14 0
		 13.114219270621863 22.155901831531715 0.36968006095542938 1;
	setAttr -k on -cb off ".radi" 0.05;
createNode joint -n "Index3_R_TmpJnt" -p "Index2_R_TmpJnt";
	rename -uid "B5D741C4-48C9-C677-CBED-849C23B34F8C";
	addAttr -ci true -sn "liw" -ln "lockInfluenceWeights" -min 0 -max 1 -at "bool";
	setAttr ".uoc" 1;
	setAttr ".oc" 2;
	setAttr ".t" -type "double3" 2.5823682237025025e-07 -0.43246107929655775 0.010769999999991953 ;
	setAttr ".mnrl" -type "double3" -360 -360 -360 ;
	setAttr ".mxrl" -type "double3" 360 360 360 ;
	setAttr ".jot" -type "string" "yxz";
	setAttr ".bps" -type "matrix" -8.3960588285190191e-14 -8.437694987151191e-14 1 0
		 1 2.2204460492503131e-16 8.3960588285190204e-14 0 -2.2204460493211562e-16 1 8.4376949871511897e-14 0
		 13.805785441300909 22.155901831531718 0.3696800609554875 1;
	setAttr -k on -cb off ".radi" 0.05;
createNode joint -n "Index4_R_TmpJnt" -p "Index3_R_TmpJnt";
	rename -uid "6568482D-4464-110B-D063-42B3F2868220";
	addAttr -ci true -sn "liw" -ln "lockInfluenceWeights" -min 0 -max 1 -at "bool";
	setAttr ".uoc" 1;
	setAttr ".oc" 3;
	setAttr ".t" -type "double3" 1.0587006274431765e-07 -0.24742668767687537 0.03022000000000169 ;
	setAttr ".mnrl" -type "double3" -360 -360 -360 ;
	setAttr ".mxrl" -type "double3" 360 360 360 ;
	setAttr ".jot" -type "string" "yxz";
	setAttr ".bps" -type "matrix" -8.3960588285190191e-14 -8.437694987151191e-14 1 0
		 1 2.2204460492503131e-16 8.3960588285190204e-14 0 -2.2204460493211562e-16 1 8.4376949871511897e-14 0
		 14.271394348292739 22.155901831531718 0.36968006095552658 1;
	setAttr -k on -cb off ".radi" 0.05;
createNode joint -n "Index5_R_TmpJnt" -p "Index4_R_TmpJnt";
	rename -uid "6120B7D1-49C9-7E59-AEDB-88A3FB70847A";
	addAttr -ci true -sn "liw" -ln "lockInfluenceWeights" -min 0 -max 1 -at "bool";
	setAttr ".uoc" 1;
	setAttr ".oc" 4;
	setAttr ".t" -type "double3" -3.3429028370446368e-07 -0.26974256622032744 0.019629999999997594 ;
	setAttr ".mnrl" -type "double3" -360 -360 -360 ;
	setAttr ".mxrl" -type "double3" 360 360 360 ;
	setAttr ".bps" -type "matrix" -8.3960588285190191e-14 -8.437694987151191e-14 1 0
		 1 2.2204460492503131e-16 8.3960588285190204e-14 0 -2.2204460493211562e-16 1 8.4376949871511897e-14 0
		 14.812322343180313 22.155901831531722 0.36968006095557193 1;
	setAttr -k on -cb off ".radi" 0.05;
createNode joint -n "Thumb1_R_TmpJnt" -p "Hand_R_TmpJnt";
	rename -uid "B1C4DE73-4D2A-4449-9E5C-E9B20600A724";
	addAttr -ci true -sn "liw" -ln "lockInfluenceWeights" -min 0 -max 1 -at "bool";
	setAttr ".uoc" 1;
	setAttr ".t" -type "double3" -0.077460000000000306 0.29942019465037717 -0.18744948907790943 ;
	setAttr ".mnrl" -type "double3" -360 -360 -360 ;
	setAttr ".mxrl" -type "double3" 360 360 360 ;
	setAttr ".jot" -type "string" "yxz";
	setAttr ".jo" -type "double3" 44.720367506143162 10.63719430264883 -77.290418940461706 ;
	setAttr ".bps" -type "matrix" -0.59548586752167076 -0.80336578317847407 -4.9997343752636337e-14 0
		 0.73868319246536318 -0.54754062333671982 0.39312390790336815 0 -0.31582229615899904 0.23409973134130962 0.91948550452673483 0
		 11.518645340649305 21.905429719636764 0.32567524419271171 1;
	setAttr -k on -cb off ".radi" 0.05;
createNode joint -n "Thumb2_R_TmpJnt" -p "Thumb1_R_TmpJnt";
	rename -uid "E215B109-4DE9-80CE-9502-8D8E335F0604";
	addAttr -ci true -sn "liw" -ln "lockInfluenceWeights" -min 0 -max 1 -at "bool";
	setAttr ".uoc" 1;
	setAttr ".oc" 1;
	setAttr ".t" -type "double3" 0.062880045102319926 -0.27919902610806613 -0.041967577517371346 ;
	setAttr ".mnrl" -type "double3" -360 -360 -360 ;
	setAttr ".mxrl" -type "double3" 360 360 360 ;
	setAttr ".jot" -type "string" "yxz";
	setAttr ".jo" -type "double3" -19.700796181147311 40.857685490686002 24.264632059267711 ;
	setAttr ".bps" -type "matrix" -0.59548586752167076 -0.80336578317847407 -4.9997343752636337e-14 0
		 0.73868319246536318 -0.54754062333671982 0.39312390790336815 0 -0.31582229615899904 0.23409973134130962 0.91948550452673483 0
		 12.026286103962779 21.529146703032435 0.59583939943602238 1;
	setAttr -k on -cb off ".radi" 0.05;
createNode joint -n "Thumb3_R_TmpJnt" -p "Thumb2_R_TmpJnt";
	rename -uid "198D98F8-406F-3036-9775-A3A6CA6CB85E";
	addAttr -ci true -sn "liw" -ln "lockInfluenceWeights" -min 0 -max 1 -at "bool";
	setAttr ".uoc" 1;
	setAttr ".oc" 2;
	setAttr ".t" -type "double3" 2.4415272701361346e-06 -0.44156512313392282 0.011012729986912273 ;
	setAttr ".mnrl" -type "double3" -360 -360 -360 ;
	setAttr ".mxrl" -type "double3" 360 360 360 ;
	setAttr ".jot" -type "string" "yxz";
	setAttr ".bps" -type "matrix" -0.59548586752167076 -0.80336578317847407 -4.9997343752636337e-14 0
		 0.73868319246536318 -0.54754062333671982 0.39312390790336815 0 -0.31582229615899904 0.23409973134130962 0.91948550452673483 0
		 12.724953059079672 21.011267666374362 0.96766684389406166 1;
	setAttr -k on -cb off ".radi" 0.05;
createNode joint -n "Thumb4_R_TmpJnt" -p "Thumb3_R_TmpJnt";
	rename -uid "0717E514-4C57-4C78-109F-5C8BF5A30F90";
	addAttr -ci true -sn "liw" -ln "lockInfluenceWeights" -min 0 -max 1 -at "bool";
	setAttr ".uoc" 1;
	setAttr ".oc" 3;
	setAttr ".t" -type "double3" 1.3990113600925724e-07 -0.30386041030147526 0.0076956839462125615 ;
	setAttr ".mnrl" -type "double3" -360 -360 -360 ;
	setAttr ".mxrl" -type "double3" 360 360 360 ;
	setAttr ".bps" -type "matrix" -0.59548586752167076 -0.80336578317847407 -4.9997343752636337e-14 0
		 0.73868319246536318 -0.54754062333671982 0.39312390790336815 0 -0.31582229615899904 0.23409973134130962 0.91948550452673483 0
		 13.320225968832865 20.570028305053697 1.2844684375111461 1;
	setAttr -k on -cb off ".radi" 0.05;
createNode joint -n "HandCup_R_TmpJnt" -p "Hand_R_TmpJnt";
	rename -uid "ADA8AE4E-4529-2CF2-B9D9-75B9D57712CA";
	addAttr -ci true -sn "liw" -ln "lockInfluenceWeights" -min 0 -max 1 -at "bool";
	setAttr ".uoc" 1;
	setAttr ".oc" 6;
	setAttr ".t" -type "double3" -0.057330000000000325 0.32597014029270088 -0.13510266150803979 ;
	setAttr ".r" -type "double3" -89.999999999858076 -88.060670781710982 89.999999999858076 ;
	setAttr ".mnrl" -type "double3" -360 -360 -360 ;
	setAttr ".mxrl" -type "double3" 360 360 360 ;
	setAttr ".jot" -type "string" "yxz";
	setAttr ".bps" -type "matrix" 2.2204460492503131e-16 -1 0 0 1 2.2204460492503131e-16 8.3960588285190204e-14 0
		 -8.3960588285190204e-14 -1.8642995655058271e-29 1 0 11.145136555499452 21.950819439088733 -0.34347297829513029 1;
	setAttr -k on -cb off ".radi" 0.05;
createNode joint -n "Pinky1_R_TmpJnt" -p "HandCup_R_TmpJnt";
	rename -uid "111C9CBE-4F09-CCB9-2242-5D81160FD099";
	addAttr -ci true -sn "liw" -ln "lockInfluenceWeights" -min 0 -max 1 -at "bool";
	setAttr ".uoc" 1;
	setAttr ".t" -type "double3" 0.44045212417052626 -0.19691869085915048 -0.13657999999996306 ;
	setAttr ".mnrl" -type "double3" -360 -360 -360 ;
	setAttr ".mxrl" -type "double3" 360 360 360 ;
	setAttr ".jot" -type "string" "yxz";
	setAttr ".jo" -type "double3" 1.3821474857550912e-17 8.4577642388635635e-16 1.8724610209342865 ;
	setAttr ".bps" -type "matrix" -8.3960588285190191e-14 -8.437694987151191e-14 1 0
		 1 2.2204460492503131e-16 8.3960588285190204e-14 0 -2.2204460493211562e-16 1 8.4376949871511897e-14 0
		 11.876633548480955 22.020988418911262 -0.95907086085240945 1;
	setAttr -k on -cb off ".radi" 0.05;
createNode joint -n "Pinky2_R_TmpJnt" -p "Pinky1_R_TmpJnt";
	rename -uid "833FE03E-4C93-8237-1FA4-DC8E83D274DA";
	addAttr -ci true -sn "liw" -ln "lockInfluenceWeights" -min 0 -max 1 -at "bool";
	setAttr ".uoc" 1;
	setAttr ".oc" 1;
	setAttr ".t" -type "double3" 4.3648346198521537e-07 -0.31098801524304598 0.001190000000002911 ;
	setAttr ".mnrl" -type "double3" -360 -360 -360 ;
	setAttr ".mxrl" -type "double3" 360 360 360 ;
	setAttr ".jot" -type "string" "yxz";
	setAttr ".bps" -type "matrix" -8.3960588285190191e-14 -8.437694987151191e-14 1 0
		 1 2.2204460492503131e-16 8.3960588285190204e-14 0 -2.2204460493211562e-16 1 8.4376949871511897e-14 0
		 13.083100380346423 22.020988418911262 -0.95907086085230775 1;
	setAttr -k on -cb off ".radi" 0.05;
createNode joint -n "Pinky3_R_TmpJnt" -p "Pinky2_R_TmpJnt";
	rename -uid "40F4D344-405C-4681-62EB-F29D49B887B7";
	addAttr -ci true -sn "liw" -ln "lockInfluenceWeights" -min 0 -max 1 -at "bool";
	setAttr ".uoc" 1;
	setAttr ".oc" 2;
	setAttr ".t" -type "double3" -3.9247877747783377e-07 -0.38384914787432667 0.042520000000001446 ;
	setAttr ".mnrl" -type "double3" -360 -360 -360 ;
	setAttr ".mxrl" -type "double3" 360 360 360 ;
	setAttr ".jot" -type "string" "yxz";
	setAttr ".bps" -type "matrix" -8.3960588285190191e-14 -8.437694987151191e-14 1 0
		 1 2.2204460492503131e-16 8.3960588285190204e-14 0 -2.2204460493211562e-16 1 8.4376949871511897e-14 0
		 13.601293073636691 22.020988418911262 -0.95907086085226423 1;
	setAttr -k on -cb off ".radi" 0.05;
createNode joint -n "Pinky4_R_TmpJnt" -p "Pinky3_R_TmpJnt";
	rename -uid "7B0CBE57-4092-A94D-C746-1B840D064D25";
	addAttr -ci true -sn "liw" -ln "lockInfluenceWeights" -min 0 -max 1 -at "bool";
	setAttr ".uoc" 1;
	setAttr ".oc" 3;
	setAttr ".t" -type "double3" 7.4035234443048381e-08 -0.22457682716610528 0.018100000000000449 ;
	setAttr ".mnrl" -type "double3" -360 -360 -360 ;
	setAttr ".mxrl" -type "double3" 360 360 360 ;
	setAttr ".jot" -type "string" "yxz";
	setAttr ".bps" -type "matrix" -8.3960588285190191e-14 -8.437694987151191e-14 1 0
		 1 2.2204460492503131e-16 8.3960588285190204e-14 0 -2.2204460493211562e-16 1 8.4376949871511897e-14 0
		 13.978441565540829 22.020988418911262 -0.95907086085223248 1;
	setAttr -k on -cb off ".radi" 0.05;
createNode joint -n "Pinky5_R_TmpJnt" -p "Pinky4_R_TmpJnt";
	rename -uid "C9B0A525-4CDD-CAE1-9819-718392C0FDE3";
	addAttr -ci true -sn "liw" -ln "lockInfluenceWeights" -min 0 -max 1 -at "bool";
	setAttr ".uoc" 1;
	setAttr ".oc" 4;
	setAttr ".t" -type "double3" -3.7750102321876255e-07 -0.24720686065693442 0.014190000000002811 ;
	setAttr ".mnrl" -type "double3" -360 -360 -360 ;
	setAttr ".mxrl" -type "double3" 360 360 360 ;
	setAttr ".bps" -type "matrix" -8.3960588285190191e-14 -8.437694987151191e-14 1 0
		 1 2.2204460492503131e-16 8.3960588285190204e-14 0 -2.2204460493211562e-16 1 8.4376949871511897e-14 0
		 14.437677801786013 22.020988418911262 -0.95907086085219373 1;
	setAttr -k on -cb off ".radi" 0.05;
createNode joint -n "Middle1_R_TmpJnt" -p "HandCup_R_TmpJnt";
	rename -uid "F890022A-499B-990A-42DF-C9BF3EDCBD2A";
	addAttr -ci true -sn "liw" -ln "lockInfluenceWeights" -min 0 -max 1 -at "bool";
	setAttr ".uoc" 1;
	setAttr ".t" -type "double3" 0.12530195076208125 -0.21995649458749877 -0.15712999999998978 ;
	setAttr ".mnrl" -type "double3" -360 -360 -360 ;
	setAttr ".mxrl" -type "double3" 360 360 360 ;
	setAttr ".jot" -type "string" "yxz";
	setAttr ".bps" -type "matrix" -8.3960588285190191e-14 -8.437694987151191e-14 1 0
		 1 2.2204460492503131e-16 8.3960588285190204e-14 0 -2.2204460493211562e-16 1 8.4376949871511897e-14 0
		 11.876633548480955 22.169748485139639 -0.10080869585328409 1;
	setAttr -k on -cb off ".radi" 0.05;
createNode joint -n "Middle2_R_TmpJnt" -p "Middle1_R_TmpJnt";
	rename -uid "7A6D68B2-4610-84CB-03BC-2F9714104D8E";
	addAttr -ci true -sn "liw" -ln "lockInfluenceWeights" -min 0 -max 1 -at "bool";
	setAttr ".uoc" 1;
	setAttr ".oc" 1;
	setAttr ".t" -type "double3" 1.1089723568613596e-07 -0.3653092577104875 -0.0022999999999999687 ;
	setAttr ".mnrl" -type "double3" -360 -360 -360 ;
	setAttr ".mxrl" -type "double3" 360 360 360 ;
	setAttr ".jot" -type "string" "yxz";
	setAttr ".bps" -type "matrix" -8.3960588285190191e-14 -8.437694987151191e-14 1 0
		 1 2.2204460492503131e-16 8.3960588285190204e-14 0 -2.2204460493211562e-16 1 8.4376949871511897e-14 0
		 13.108601055533605 22.169748485139639 -0.10080869585318036 1;
	setAttr -k on -cb off ".radi" 0.05;
createNode joint -n "Middle3_R_TmpJnt" -p "Middle2_R_TmpJnt";
	rename -uid "84E3FD20-4CA5-D2CC-5A50-7DA1EBD616E4";
	addAttr -ci true -sn "liw" -ln "lockInfluenceWeights" -min 0 -max 1 -at "bool";
	setAttr ".uoc" 1;
	setAttr ".oc" 2;
	setAttr ".t" -type "double3" -8.0754586100073578e-07 -0.45543084946383328 0.041170000000001039 ;
	setAttr ".mnrl" -type "double3" -360 -360 -360 ;
	setAttr ".mxrl" -type "double3" 360 360 360 ;
	setAttr ".jot" -type "string" "yxz";
	setAttr ".bps" -type "matrix" -8.3960588285190191e-14 -8.437694987151191e-14 1 0
		 1 2.2204460492503131e-16 8.3960588285190204e-14 0 -2.2204460493211562e-16 1 8.4376949871511897e-14 0
		 13.906913312889571 22.169748485139639 -0.10080869585311319 1;
	setAttr -k on -cb off ".radi" 0.05;
createNode joint -n "Middle4_R_TmpJnt" -p "Middle3_R_TmpJnt";
	rename -uid "0A555C92-4ADB-621A-DCBD-44B46B176EA7";
	addAttr -ci true -sn "liw" -ln "lockInfluenceWeights" -min 0 -max 1 -at "bool";
	setAttr ".uoc" 1;
	setAttr ".oc" 3;
	setAttr ".t" -type "double3" 5.3426458392069609e-07 -0.29127686530810237 0.018550000000002953 ;
	setAttr ".mnrl" -type "double3" -360 -360 -360 ;
	setAttr ".mxrl" -type "double3" 360 360 360 ;
	setAttr ".jot" -type "string" "yxz";
	setAttr ".bps" -type "matrix" -8.3960588285190191e-14 -8.437694987151191e-14 1 0
		 1 2.2204460492503131e-16 8.3960588285190204e-14 0 -2.2204460493211562e-16 1 8.4376949871511897e-14 0
		 14.411849725499213 22.169748485139639 -0.10080869585307067 1;
	setAttr -k on -cb off ".radi" 0.05;
createNode joint -n "Middle5_R_TmpJnt" -p "Middle4_R_TmpJnt";
	rename -uid "F2D220CB-4B16-4538-7C9D-20B70B830748";
	addAttr -ci true -sn "liw" -ln "lockInfluenceWeights" -min 0 -max 1 -at "bool";
	setAttr ".uoc" 1;
	setAttr ".oc" 4;
	setAttr ".t" -type "double3" -3.5036505686980579e-07 -0.34345672468140354 0.0043599999999983652 ;
	setAttr ".mnrl" -type "double3" -360 -360 -360 ;
	setAttr ".mxrl" -type "double3" 360 360 360 ;
	setAttr ".bps" -type "matrix" -8.3960588285190191e-14 -8.437694987151191e-14 1 0
		 1 2.2204460492503131e-16 8.3960588285190204e-14 0 -2.2204460493211562e-16 1 8.4376949871511897e-14 0
		 15.081996667416741 22.169748485139635 -0.10080869585301426 1;
	setAttr -k on -cb off ".radi" 0.05;
createNode joint -n "Elbow_R_TmpJnt" -p "Forearm_R_TmpJnt";
	rename -uid "90ACD1D8-4932-7CF7-DAE2-939E840F0938";
	addAttr -ci true -sn "liw" -ln "lockInfluenceWeights" -min 0 -max 1 -at "bool";
	setAttr ".uoc" 1;
	setAttr ".oc" 2;
	setAttr ".t" -type "double3" 1.7763568394002505e-15 -2.6406385873478655e-06 2.5429529999986289 ;
	setAttr ".mnrl" -type "double3" -360 -360 -360 ;
	setAttr ".mxrl" -type "double3" 360 360 360 ;
	setAttr ".jot" -type "string" "yxz";
	setAttr ".jo" -type "double3" -1.3784766372981863e-08 5.9496752892300412e-05 -90.000000000000057 ;
	setAttr ".bps" -type "matrix" -1 -1.2246467991473532e-16 0 0 1.2246467991473532e-16 -1 0 0
		 0 0 1 0 1.3486489690923307 14.656585133659888 1.5144370407379352e-17 1;
	setAttr -k on -cb off ".radi" 0.05;
createNode joint -n "ShoulderArmor_R_TmpJnt" -p "Clav_R_TmpJnt";
	rename -uid "670B0A4D-452E-8751-E019-4CBEC0411974";
	addAttr -ci true -sn "liw" -ln "lockInfluenceWeights" -min 0 -max 1 -at "bool";
	setAttr ".uoc" 1;
	setAttr ".oc" 4;
	setAttr ".t" -type "double3" 0.20529999999999937 -0.530421 0.19587180000000007 ;
	setAttr ".ro" 4;
	setAttr ".mnrl" -type "double3" -360 -360 -360 ;
	setAttr ".mxrl" -type "double3" 360 360 360 ;
	setAttr ".jot" -type "string" "yxz";
	setAttr ".jo" -type "double3" -4.3311767654219304 9.6079876718733594e-16 -3.6332275256963662e-17 ;
	setAttr ".bps" -type "matrix" 2.2204460492503131e-16 -1 0 0 1 2.2204460492503131e-16 0 0
		 0 0 1 0 2.6840862727483024 21.950819439051291 -0.34347723857962076 1;
	setAttr -k on -cb off ".radi" 0.05;
createNode joint -n "Pelvis_TmpJnt" -p "Root_TmpJnt";
	rename -uid "6CDDD88C-4FC8-177D-5AD0-D3BE0FB60E5E";
	addAttr -ci true -sn "liw" -ln "lockInfluenceWeights" -min 0 -max 1 -at "bool";
	setAttr ".uoc" 1;
	setAttr ".oc" 1;
	setAttr ".t" -type "double3" 0 -0.11275621285083925 -0.019370769017112766 ;
	setAttr ".mnrl" -type "double3" -360 -360 -360 ;
	setAttr ".mxrl" -type "double3" 360 360 360 ;
	setAttr ".jot" -type "string" "yxz";
	setAttr ".bps" -type "matrix" 1 0 0 0 0 1 0 0 0 0 1 0 0 15.4830611404753 0 1;
	setAttr -k on -cb off ".radi" 0.05;
createNode joint -n "UpLeg_L_TmpJnt" -p "Pelvis_TmpJnt";
	rename -uid "0697CCED-47D6-2F01-C7F1-07AFD188EAB6";
	addAttr -ci true -sn "liw" -ln "lockInfluenceWeights" -min 0 -max 1 -at "bool";
	setAttr ".uoc" 1;
	setAttr ".oc" 2;
	setAttr ".t" -type "double3" 0.64318041241209223 -0.61701708694347612 -0.039871990417926995 ;
	setAttr ".mnrl" -type "double3" -360 -360 -360 ;
	setAttr ".mxrl" -type "double3" 360 360 360 ;
	setAttr ".jot" -type "string" "yxz";
	setAttr ".jo" -type "double3" 0 0 -180 ;
	setAttr ".bps" -type "matrix" -1 -1.2246467991473532e-16 0 0 1.2246467991473532e-16 -1 0 0
		 0 0 1 0 1.3486489690923307 14.656585133659888 1.5144370407379352e-17 1;
	setAttr -k on -cb off ".radi" 0.05;
createNode joint -n "LowLeg_L_TmpJnt" -p "UpLeg_L_TmpJnt";
	rename -uid "D82D1A97-40C1-5AFF-21B4-7F92D799CE11";
	addAttr -ci true -sn "liw" -ln "lockInfluenceWeights" -min 0 -max 1 -at "bool";
	setAttr ".uoc" 1;
	setAttr ".oc" 3;
	setAttr ".t" -type "double3" 1.1704896756004554e-15 3.3342532066134507 -0.21262924734644481 ;
	setAttr ".mnrl" -type "double3" -360 -360 -360 ;
	setAttr ".mxrl" -type "double3" 360 360 360 ;
	setAttr ".jot" -type "string" "yxz";
	setAttr ".bps" -type "matrix" -1 -1.2246467991473532e-16 0 0 1.2246467991473532e-16 -1 0 0
		 0 0 1 0 1.3486489690923305 7.7535119809750004 0.15259281481888803 1;
	setAttr -k on -cb off ".radi" 0.05;
createNode joint -n "Knee_L_TmpJnt" -p "LowLeg_L_TmpJnt";
	rename -uid "11C4B0E8-44BF-8D34-2651-3BA02BB44A0D";
	addAttr -ci true -sn "liw" -ln "lockInfluenceWeights" -min 0 -max 1 -at "bool";
	setAttr ".uoc" 1;
	setAttr ".oc" 2;
	setAttr ".t" -type "double3" -1.2212453270876722e-15 1.4361446840638337e-06 3.4511827551436451 ;
	setAttr ".mnrl" -type "double3" -360 -360 -360 ;
	setAttr ".mxrl" -type "double3" 360 360 360 ;
	setAttr ".jot" -type "string" "yxz";
	setAttr ".bps" -type "matrix" -1 -1.2246467991473532e-16 0 0 1.2246467991473532e-16 -1 0 0
		 0 0 1 0 1.3486489690923307 14.656585133659888 1.5144370407379352e-17 1;
	setAttr -k on -cb off ".radi" 0.05;
createNode joint -n "Ankle_L_TmpJnt" -p "LowLeg_L_TmpJnt";
	rename -uid "129C736E-4CDE-2515-C7BE-6A95F0FB37DF";
	addAttr -ci true -sn "liw" -ln "lockInfluenceWeights" -min 0 -max 1 -at "bool";
	setAttr ".uoc" 1;
	setAttr ".oc" 4;
	setAttr ".t" -type "double3" -2.187311079585457e-15 2.8248780686585806 -0.44307383114293764 ;
	setAttr ".mnrl" -type "double3" -360 -360 -360 ;
	setAttr ".mxrl" -type "double3" 360 360 360 ;
	setAttr ".jot" -type "string" "yxz";
	setAttr ".bps" -type "matrix" -1 -1.2246467991473532e-16 0 0 1.2246467991473532e-16 -1 0 0
		 0 0 1 0 1.348648969092332 1.0615915425310156 0 1;
	setAttr -k on -cb off ".radi" 0.05;
createNode joint -n "Ball_L_TmpJnt" -p "Ankle_L_TmpJnt";
	rename -uid "0EF539A1-4077-27A2-3479-F0A865D45580";
	addAttr -ci true -sn "liw" -ln "lockInfluenceWeights" -min 0 -max 1 -at "bool";
	setAttr ".uoc" 1;
	setAttr ".oc" 5;
	setAttr ".t" -type "double3" 2.7755575615628914e-15 0.46696410323550352 1.0639842033220237 ;
	setAttr ".mnrl" -type "double3" -360 -360 -360 ;
	setAttr ".mxrl" -type "double3" 360 360 360 ;
	setAttr ".jot" -type "string" "yxz";
	setAttr ".jo" -type "double3" 89.999999999999986 0 0 ;
	setAttr ".bps" -type "matrix" -1 -1.2246467991473532e-16 0 0 2.7192621468937821e-32 -2.2204460492503131e-16 1 0
		 -1.2246467991473532e-16 1 2.2204460492503131e-16 0 1.3486489690923311 5.5511151231257827e-15 1.476681409489522 1;
	setAttr -k on -cb off ".radi" 0.05;
createNode joint -n "Toe_L_TmpJnt" -p "Ball_L_TmpJnt";
	rename -uid "4C13365C-4F8F-65A5-BB8F-959DD71EA1FC";
	addAttr -ci true -sn "liw" -ln "lockInfluenceWeights" -min 0 -max 1 -at "bool";
	setAttr ".uoc" 1;
	setAttr ".oc" 6;
	setAttr ".t" -type "double3" -1.1102230246251565e-15 0.83079981387991364 1.6306400674181987e-16 ;
	setAttr ".mnrl" -type "double3" -360 -360 -360 ;
	setAttr ".mxrl" -type "double3" 360 360 360 ;
	setAttr ".bps" -type "matrix" -1 -1.2246467991473532e-16 0 0 2.7192621468937821e-32 -2.2204460492503131e-16 1 0
		 -1.2246467991473532e-16 1 2.2204460492503131e-16 0 1.3486489690923309 5.0024078434460801e-15 3.3551152167720435 1;
	setAttr -k on -cb off ".radi" 0.05;
createNode joint -n "FootIn_L_TmpJnt" -p "Ankle_L_TmpJnt";
	rename -uid "C8BFC9B2-4AE1-1622-15F6-BE8ABF3FF65A";
	setAttr ".t" -type "double3" 0.34069780150494711 0.46198433862678723 0.86106195904330851 ;
	setAttr ".jo" -type "double3" 89.999999999999986 0 0 ;
	setAttr ".radi" 0.05;
createNode joint -n "FootOut_L_TmpJnt" -p "Ankle_L_TmpJnt";
	rename -uid "488A307C-4F97-ADC6-3ABA-F29B6BE8CD62";
	setAttr ".t" -type "double3" -0.40572428727338239 0.46198433862678717 0.86187475177116901 ;
	setAttr ".jo" -type "double3" 89.999999999999986 0 0 ;
	setAttr ".radi" 0.05;
createNode joint -n "Heel_L_TmpJnt" -p "Ankle_L_TmpJnt";
	rename -uid "0CDA8760-48BC-0DD9-EEE4-02BD0E6F5476";
	setAttr ".t" -type "double3" 2.55351295663786e-15 0.4619843386267849 -0.28631188297925947 ;
	setAttr ".jo" -type "double3" 89.999999999999986 0 0 ;
	setAttr ".radi" 0.05;
createNode joint -n "UpLeg_R_TmpJnt" -p "Pelvis_TmpJnt";
	rename -uid "69430AFF-4FEE-57E6-6834-3F9516FE5476";
	addAttr -ci true -sn "liw" -ln "lockInfluenceWeights" -min 0 -max 1 -at "bool";
	setAttr ".uoc" 1;
	setAttr ".oc" 2;
	setAttr ".t" -type "double3" -0.64318 -0.61701755001567093 -0.039871754509501534 ;
	setAttr ".mnrl" -type "double3" -360 -360 -360 ;
	setAttr ".mxrl" -type "double3" 360 360 360 ;
	setAttr ".jot" -type "string" "yxz";
	setAttr ".jo" -type "double3" 0 180 0 ;
	setAttr ".bps" -type "matrix" -1 -1.2246467991473532e-16 0 0 1.2246467991473532e-16 -1 0 0
		 0 0 1 0 1.3486489690923307 14.656585133659888 1.5144370407379352e-17 1;
	setAttr -k on -cb off ".radi" 0.05;
createNode joint -n "LowLeg_R_TmpJnt" -p "UpLeg_R_TmpJnt";
	rename -uid "8503AA58-4044-72A3-CBA4-8BAFB4278AFC";
	addAttr -ci true -sn "liw" -ln "lockInfluenceWeights" -min 0 -max 1 -at "bool";
	setAttr ".uoc" 1;
	setAttr ".oc" 3;
	setAttr ".t" -type "double3" -3.4666738998970245e-33 -3.3342486535174216 0.2126294999999998 ;
	setAttr ".mnrl" -type "double3" -360 -360 -360 ;
	setAttr ".mxrl" -type "double3" 360 360 360 ;
	setAttr ".jot" -type "string" "yxz";
	setAttr ".bps" -type "matrix" -1 -1.2246467991473532e-16 0 0 1.2246467991473532e-16 -1 0 0
		 0 0 1 0 1.3486489690923305 7.7535119809750004 0.15259281481888803 1;
	setAttr -k on -cb off ".radi" 0.05;
createNode joint -n "Knee_R_TmpJnt" -p "LowLeg_R_TmpJnt";
	rename -uid "75892A1B-4FE2-76B6-2019-77923EC2A546";
	addAttr -ci true -sn "liw" -ln "lockInfluenceWeights" -min 0 -max 1 -at "bool";
	setAttr ".uoc" 1;
	setAttr ".oc" 2;
	setAttr ".t" -type "double3" -4.4408920985006262e-16 -1.0000000000065512e-05 -3.4511854999999989 ;
	setAttr ".mnrl" -type "double3" -360 -360 -360 ;
	setAttr ".mxrl" -type "double3" 360 360 360 ;
	setAttr ".jot" -type "string" "yxz";
	setAttr ".bps" -type "matrix" -1 -1.2246467991473532e-16 0 0 1.2246467991473532e-16 -1 0 0
		 0 0 1 0 1.3486489690923307 14.656585133659888 1.5144370407379352e-17 1;
	setAttr -k on -cb off ".radi" 0.05;
createNode joint -n "Ankle_R_TmpJnt" -p "LowLeg_R_TmpJnt";
	rename -uid "2B0F2D30-45BE-60A8-9737-1EBAA2DFA941";
	addAttr -ci true -sn "liw" -ln "lockInfluenceWeights" -min 0 -max 1 -at "bool";
	setAttr ".uoc" 1;
	setAttr ".oc" 4;
	setAttr ".t" -type "double3" 3.4666738998970245e-33 -2.8248825602788443 0.44307350000000034 ;
	setAttr ".mnrl" -type "double3" -360 -360 -360 ;
	setAttr ".mxrl" -type "double3" 360 360 360 ;
	setAttr ".jot" -type "string" "yxz";
	setAttr ".bps" -type "matrix" -1 -1.2246467991473532e-16 0 0 1.2246467991473532e-16 -1 0 0
		 0 0 1 0 1.348648969092332 1.0615915425310156 0 1;
	setAttr -k on -cb off ".radi" 0.05;
createNode joint -n "Ball_R_TmpJnt" -p "Ankle_R_TmpJnt";
	rename -uid "853FCC69-4781-AD87-D172-D3ACB2926009";
	addAttr -ci true -sn "liw" -ln "lockInfluenceWeights" -min 0 -max 1 -at "bool";
	setAttr ".uoc" 1;
	setAttr ".oc" 5;
	setAttr ".t" -type "double3" -1.1102230246251565e-16 -0.46696370000000004 -1.0639840000000003 ;
	setAttr ".mnrl" -type "double3" -360 -360 -360 ;
	setAttr ".mxrl" -type "double3" 360 360 360 ;
	setAttr ".jot" -type "string" "yxz";
	setAttr ".jo" -type "double3" 89.999999999999986 0 0 ;
	setAttr ".bps" -type "matrix" -1 -1.2246467991473532e-16 0 0 2.7192621468937821e-32 -2.2204460492503131e-16 1 0
		 -1.2246467991473532e-16 1 2.2204460492503131e-16 0 1.3486489690923311 5.5511151231257827e-15 1.476681409489522 1;
	setAttr -k on -cb off ".radi" 0.05;
createNode joint -n "Toe_R_TmpJnt" -p "Ball_R_TmpJnt";
	rename -uid "150E5531-4228-2F6C-C517-40BACB91C038";
	addAttr -ci true -sn "liw" -ln "lockInfluenceWeights" -min 0 -max 1 -at "bool";
	setAttr ".uoc" 1;
	setAttr ".oc" 6;
	setAttr ".t" -type "double3" 4.4408920985006262e-16 -0.83079499999999951 -2.0383000842727483e-16 ;
	setAttr ".mnrl" -type "double3" -360 -360 -360 ;
	setAttr ".mxrl" -type "double3" 360 360 360 ;
	setAttr ".bps" -type "matrix" -1 -1.2246467991473532e-16 0 0 2.7192621468937821e-32 -2.2204460492503131e-16 1 0
		 -1.2246467991473532e-16 1 2.2204460492503131e-16 0 1.3486489690923309 5.0024078434460801e-15 3.3551152167720435 1;
	setAttr -k on -cb off ".radi" 0.05;
createNode joint -n "FootIn_R_TmpJnt" -p "Ankle_R_TmpJnt";
	rename -uid "C3DA7CC4-406D-3DCE-FF3C-138C018FA717";
	setAttr ".t" -type "double3" -0.34069699999999981 -0.46198393700000001 -0.861062 ;
	setAttr ".jo" -type "double3" 89.999999999999986 0 0 ;
	setAttr ".radi" 0.05;
createNode joint -n "FootOut_R_TmpJnt" -p "Ankle_R_TmpJnt";
	rename -uid "CD86B615-4A2D-0B52-E450-D9A0DC7ABEE4";
	setAttr ".t" -type "double3" 0.40572000000000019 -0.46198393700000001 -0.86187400000000025 ;
	setAttr ".jo" -type "double3" 89.999999999999986 0 0 ;
	setAttr ".radi" 0.05;
createNode joint -n "Heel_R_TmpJnt" -p "Ankle_R_TmpJnt";
	rename -uid "1D1217EF-422D-148A-790C-8FADE8ABC34D";
	setAttr ".t" -type "double3" 5.5511151231257827e-16 -0.46198393700000001 0.28631199999999973 ;
	setAttr ".jo" -type "double3" 89.999999999999986 0 0 ;
	setAttr ".radi" 0.05;
createNode lightLinker -s -n "lightLinker1";
	rename -uid "2EC14C29-4F41-B5D9-687F-DE87EF52478D";
	setAttr -s 2 ".lnk";
	setAttr -s 2 ".slnk";
createNode shapeEditorManager -n "shapeEditorManager";
	rename -uid "92A39858-4CCF-8572-E917-409CB5CC5200";
	setAttr ".bsdt[0].bscd" -type "Int32Array" 0 ;
createNode poseInterpolatorManager -n "poseInterpolatorManager";
	rename -uid "665FDC42-4F14-5D43-410D-D1AEA1C936CA";
createNode displayLayerManager -n "layerManager";
	rename -uid "AD9A299D-4A14-BD62-1AE5-6887C6F638E2";
	setAttr -s 3 ".dli[1:2]"  1 2;
createNode displayLayer -n "defaultLayer";
	rename -uid "8B4AD38C-41C7-CCCF-1BCB-05A2D1B03FC3";
createNode renderLayerManager -n "renderLayerManager";
	rename -uid "208A7EBC-41B6-23DA-1ACC-1FAB063CEF80";
createNode renderLayer -n "defaultRenderLayer";
	rename -uid "9E074BE8-4928-12C7-EDAD-358435705579";
	setAttr ".g" yes;
createNode script -n "sceneConfigurationScriptNode";
	rename -uid "E9F2BDFC-41BE-A00F-6659-F5BA9E35B353";
	setAttr ".b" -type "string" "playbackOptions -min 1 -max 120 -ast 1 -aet 200 ";
	setAttr ".st" 6;
createNode ilrOptionsNode -s -n "TurtleRenderOptions";
	rename -uid "738E948C-477D-769B-33EB-D8B4B4DCC4CC";
lockNode -l 1 ;
createNode ilrUIOptionsNode -s -n "TurtleUIOptions";
	rename -uid "60EB280D-4880-16E6-9DEF-5D97989645FB";
lockNode -l 1 ;
createNode ilrBakeLayerManager -s -n "TurtleBakeLayerManager";
	rename -uid "0BEC0EC6-4120-49EE-AD5F-AA9F31B8EEB5";
lockNode -l 1 ;
createNode renderGlobals -s -n "swiffworksRenderGlobals";
	rename -uid "70408C54-478C-7055-C303-19BB7BA03223";
	addAttr -ci true -sn "rm" -ln "renderMode" -at "short";
	addAttr -ci true -sn "twos" -ln "twoSided" -dv 1 -min 0 -max 1 -at "bool";
	addAttr -ci true -sn "ctc" -ln "convertToCurves" -dv 1 -min 0 -max 1 -at "bool";
	addAttr -ci true -sn "cqlty" -ln "curveQuality" -at "short";
	addAttr -ci true -sn "inttype" -ln "intersType" -at "short";
	addAttr -ci true -sn "dlt" -ln "defaultLineThickness" -dv 0.2 -at "float";
	addAttr -ci true -sn "dlo" -ln "defaultLineOpacity" -dv 1 -at "float";
	addAttr -ci true -sn "dlcr" -ln "defaultLineColorR" -at "float";
	addAttr -ci true -sn "dlcg" -ln "defaultLineColorG" -at "float";
	addAttr -ci true -sn "dlcb" -ln "defaultLineColorB" -at "float";
	addAttr -ci true -sn "bw" -ln "bandwidth" -dv 14400 -at "float";
	addAttr -ci true -sn "oswg" -ln "onlySWG" -min 0 -max 1 -at "bool";
	addAttr -ci true -sn "fa" -ln "defaultFoldAngle" -dv 45 -at "float";
	addAttr -ci true -sn "df" -ln "defaultDisplayFolds" -at "short";
createNode renderGlobals -s -n "inkPaintRenderGlobals";
	rename -uid "8414D715-4400-8278-DF1C-6A9C2C1D2BCB";
	addAttr -ci true -sn "regMode" -ln "regionMode" -at "short";
	addAttr -ci true -sn "dpi" -ln "dpiValue" -dv 100 -at "short";
createNode renderGlobals -s -n "inkworksRenderGlobals";
	rename -uid "889D6D20-4038-35B7-CEEC-F7903C3F6052";
	addAttr -ci true -sn "bb" -ln "blendBackgr" -dv 1 -min 0 -max 1 -at "bool";
	addAttr -ci true -sn "rm" -ln "renderMode" -at "short";
	addAttr -ci true -sn "as" -ln "adaptiveSubdv" -dv 1 -min 0 -max 1 -at "bool";
	addAttr -ci true -sn "twos" -ln "twoSided" -dv 1 -min 0 -max 1 -at "bool";
	addAttr -ci true -sn "oiw" -ln "onlyIW" -min 0 -max 1 -at "bool";
createNode animLayer -s -n "BaseAnimation";
	rename -uid "BC0DD98C-4144-343B-78C8-1EA952AF8FE4";
	setAttr ".ovrd" yes;
createNode nodeGraphEditorInfo -n "hyperShadePrimaryNodeEditorSavedTabsInfo";
	rename -uid "9B5AF79D-48B7-8A45-6A29-66B51EF960C0";
	setAttr ".tgi[0].tn" -type "string" "Untitled_1";
	setAttr ".tgi[0].vl" -type "double2" -224.99999105930365 -130.95237574880107 ;
	setAttr ".tgi[0].vh" -type "double2" 226.19046720247457 129.76189960563016 ;
select -ne :time1;
	setAttr -av -k on ".cch";
	setAttr -av -cb on ".ihi";
	setAttr -av -k on ".nds";
	setAttr -cb on ".bnm";
	setAttr -k on ".o" 1;
	setAttr -av -k on ".unw" 1;
	setAttr -av -k on ".etw";
	setAttr -av -k on ".tps";
	setAttr -av -k on ".tms";
select -ne :hardwareRenderingGlobals;
	setAttr -k on ".ihi";
	setAttr ".otfna" -type "stringArray" 22 "NURBS Curves" "NURBS Surfaces" "Polygons" "Subdiv Surface" "Particles" "Particle Instance" "Fluids" "Strokes" "Image Planes" "UI" "Lights" "Cameras" "Locators" "Joints" "IK Handles" "Deformers" "Motion Trails" "Components" "Hair Systems" "Follicles" "Misc. UI" "Ornaments"  ;
	setAttr ".otfva" -type "Int32Array" 22 0 1 1 1 1 1
		 1 1 1 0 0 0 0 0 0 0 0 0
		 0 0 0 0 ;
	setAttr ".etmr" no;
	setAttr ".tmr" 4096;
	setAttr -av ".aoam";
	setAttr -av ".aora";
	setAttr -av ".mbe";
	setAttr -av -k on ".mbsof";
	setAttr ".fprt" yes;
select -ne :renderPartition;
	setAttr -av -k on ".cch";
	setAttr -cb on ".ihi";
	setAttr -av -k on ".nds";
	setAttr -cb on ".bnm";
	setAttr -s 2 ".st";
	setAttr -cb on ".an";
	setAttr -cb on ".pt";
select -ne :renderGlobalsList1;
	setAttr -k on ".cch";
	setAttr -cb on ".ihi";
	setAttr -k on ".nds";
	setAttr -cb on ".bnm";
select -ne :defaultShaderList1;
	setAttr -k on ".cch";
	setAttr -cb on ".ihi";
	setAttr -k on ".nds";
	setAttr -cb on ".bnm";
	setAttr -s 4 ".s";
select -ne :postProcessList1;
	setAttr -k on ".cch";
	setAttr -cb on ".ihi";
	setAttr -k on ".nds";
	setAttr -cb on ".bnm";
	setAttr -s 2 ".p";
select -ne :defaultRenderingList1;
	setAttr -k on ".ihi";
select -ne :initialShadingGroup;
	setAttr -av -k on ".cch";
	setAttr -cb on ".ihi";
	setAttr -av -k on ".nds";
	setAttr -cb on ".bnm";
	setAttr -k on ".mwc";
	setAttr -cb on ".an";
	setAttr -cb on ".il";
	setAttr -cb on ".vo";
	setAttr -cb on ".eo";
	setAttr -cb on ".fo";
	setAttr -cb on ".epo";
	setAttr -k on ".ro" yes;
select -ne :initialParticleSE;
	setAttr -av -k on ".cch";
	setAttr -cb on ".ihi";
	setAttr -av -k on ".nds";
	setAttr -cb on ".bnm";
	setAttr -k on ".mwc";
	setAttr -cb on ".an";
	setAttr -cb on ".il";
	setAttr -cb on ".vo";
	setAttr -cb on ".eo";
	setAttr -cb on ".fo";
	setAttr -cb on ".epo";
	setAttr -k on ".ro" yes;
select -ne :defaultRenderGlobals;
	setAttr -k on ".cch";
	setAttr -cb on ".ihi";
	setAttr -k on ".nds";
	setAttr -cb on ".bnm";
	setAttr -k on ".macc";
	setAttr -k on ".macd";
	setAttr -k on ".macq";
	setAttr -k on ".mcfr";
	setAttr -cb on ".ifg";
	setAttr -k on ".clip";
	setAttr -k on ".edm";
	setAttr -av -k on ".edl";
	setAttr -cb on ".ren";
	setAttr -av -k on ".esr";
	setAttr -k on ".ors";
	setAttr -cb on ".sdf";
	setAttr -av -k on ".outf";
	setAttr -av -cb on ".imfkey";
	setAttr -av -k on ".gama";
	setAttr -av -k on ".an";
	setAttr -cb on ".ar";
	setAttr -k on ".fs";
	setAttr -k on ".ef";
	setAttr -av -k on ".bfs";
	setAttr -cb on ".me";
	setAttr -cb on ".se";
	setAttr -av -k on ".be";
	setAttr -av -cb on ".ep";
	setAttr -k on ".fec";
	setAttr -av -k on ".ofc";
	setAttr -cb on ".ofe";
	setAttr -cb on ".efe";
	setAttr -cb on ".oft";
	setAttr -cb on ".umfn";
	setAttr -cb on ".ufe";
	setAttr -av -k on ".pff";
	setAttr -av -cb on ".peie";
	setAttr -av -cb on ".ifp";
	setAttr -k on ".rv";
	setAttr -k on ".comp";
	setAttr -k on ".cth";
	setAttr -k on ".soll";
	setAttr -cb on ".sosl";
	setAttr -k on ".rd";
	setAttr -k on ".lp";
	setAttr -av -k on ".sp";
	setAttr -k on ".shs";
	setAttr -av -k on ".lpr";
	setAttr -cb on ".gv";
	setAttr -cb on ".sv";
	setAttr -k on ".mm";
	setAttr -k on ".npu";
	setAttr -k on ".itf";
	setAttr -k on ".shp";
	setAttr -cb on ".isp";
	setAttr -k on ".uf";
	setAttr -k on ".oi";
	setAttr -k on ".rut";
	setAttr -k on ".mot";
	setAttr -av -cb on ".mb";
	setAttr -av -k on ".mbf";
	setAttr -k on ".mbso";
	setAttr -k on ".mbsc";
	setAttr -av -k on ".afp";
	setAttr -k on ".pfb";
	setAttr -k on ".pram" -type "string" "pgYetiVRayPreRender";
	setAttr -k on ".poam" -type "string" "pgYetiVRayPostRender";
	setAttr -k on ".prlm";
	setAttr -k on ".polm";
	setAttr -cb on ".prm";
	setAttr -cb on ".pom";
	setAttr -cb on ".pfrm";
	setAttr -cb on ".pfom";
	setAttr -av -k on ".bll";
	setAttr -av -k on ".bls";
	setAttr -av -k on ".smv";
	setAttr -k on ".ubc";
	setAttr -k on ".mbc";
	setAttr -cb on ".mbt";
	setAttr -k on ".udbx";
	setAttr -k on ".smc";
	setAttr -k on ".kmv";
	setAttr -cb on ".isl";
	setAttr -cb on ".ism";
	setAttr -cb on ".imb";
	setAttr -av -k on ".rlen";
	setAttr -av -k on ".frts";
	setAttr -k on ".tlwd";
	setAttr -k on ".tlht";
	setAttr -k on ".jfc";
	setAttr -cb on ".rsb";
	setAttr -k on ".ope";
	setAttr -k on ".oppf";
	setAttr -av -k on ".rcp";
	setAttr -av -k on ".icp";
	setAttr -av -k on ".ocp";
	setAttr -cb on ".hbl";
select -ne :defaultResolution;
	setAttr -av -k on ".cch";
	setAttr -av -k on ".ihi";
	setAttr -av -k on ".nds";
	setAttr -k on ".bnm";
	setAttr -av -k on ".w";
	setAttr -av -k on ".h";
	setAttr -av -k on ".pa" 1;
	setAttr -av -k on ".al";
	setAttr -av -k on ".dar";
	setAttr -av -k on ".ldar";
	setAttr -av -k on ".dpi";
	setAttr -av -k on ".off";
	setAttr -av -k on ".fld";
	setAttr -av -k on ".zsl";
	setAttr -av -k on ".isu";
	setAttr -av -k on ".pdu";
select -ne :hardwareRenderGlobals;
	setAttr -k on ".cch";
	setAttr -cb on ".ihi";
	setAttr -k on ".nds";
	setAttr -cb on ".bnm";
	setAttr -k off -cb on ".ctrs" 256;
	setAttr -av -k off -cb on ".btrs" 512;
	setAttr -k off -cb on ".fbfm";
	setAttr -k off -cb on ".ehql";
	setAttr -k off -cb on ".eams";
	setAttr -k off -cb on ".eeaa";
	setAttr -k off -cb on ".engm";
	setAttr -k off -cb on ".mes";
	setAttr -k off -cb on ".emb";
	setAttr -av -k off -cb on ".mbbf";
	setAttr -k off -cb on ".mbs";
	setAttr -k off -cb on ".trm";
	setAttr -k off -cb on ".tshc";
	setAttr -k off -cb on ".enpt";
	setAttr -k off -cb on ".clmt";
	setAttr -k off -cb on ".tcov";
	setAttr -k off -cb on ".lith";
	setAttr -k off -cb on ".sobc";
	setAttr -k off -cb on ".cuth";
	setAttr -k off -cb on ".hgcd";
	setAttr -k off -cb on ".hgci";
	setAttr -k off -cb on ".mgcs";
	setAttr -k off -cb on ".twa";
	setAttr -k off -cb on ".twz";
	setAttr -cb on ".hwcc";
	setAttr -cb on ".hwdp";
	setAttr -cb on ".hwql";
	setAttr -k on ".hwfr";
	setAttr -k on ".soll";
	setAttr -k on ".sosl";
	setAttr -k on ".bswa";
	setAttr -k on ".shml";
	setAttr -k on ".hwel";
connectAttr "Root_TmpJnt.s" "Spine1_TmpJnt.is";
connectAttr "Spine1_TmpJnt.s" "Spine2_TmpJnt.is";
connectAttr "Spine2_TmpJnt.s" "Spine3_TmpJnt.is";
connectAttr "Spine3_TmpJnt.s" "Spine4_TmpJnt.is";
connectAttr "Spine4_TmpJnt.s" "Spine5_TmpJnt.is";
connectAttr "Spine5_TmpJnt.s" "Clav_L_TmpJnt.is";
connectAttr "Clav_L_TmpJnt.s" "UpArm_L_TmpJnt.is";
connectAttr "UpArm_L_TmpJnt.s" "Forearm_L_TmpJnt.is";
connectAttr "Forearm_L_TmpJnt.s" "Wrist_L_TmpJnt.is";
connectAttr "Wrist_L_TmpJnt.s" "Hand_L_TmpJnt.is";
connectAttr "Hand_L_TmpJnt.s" "Index1_L_TmpJnt.is";
connectAttr "Index1_L_TmpJnt.s" "Index2_L_TmpJnt.is";
connectAttr "Index2_L_TmpJnt.s" "Index3_L_TmpJnt.is";
connectAttr "Index3_L_TmpJnt.s" "Index4_L_TmpJnt.is";
connectAttr "Index4_L_TmpJnt.s" "Index5_L_TmpJnt.is";
connectAttr "Hand_L_TmpJnt.s" "Thumb1_L_TmpJnt.is";
connectAttr "Thumb1_L_TmpJnt.s" "Thumb2_L_TmpJnt.is";
connectAttr "Thumb2_L_TmpJnt.s" "Thumb3_L_TmpJnt.is";
connectAttr "Thumb3_L_TmpJnt.s" "Thumb4_L_TmpJnt.is";
connectAttr "Hand_L_TmpJnt.s" "HandCup_L_TmpJnt.is";
connectAttr "HandCup_L_TmpJnt.s" "Pinky1_L_TmpJnt.is";
connectAttr "Pinky1_L_TmpJnt.s" "Pinky2_L_TmpJnt.is";
connectAttr "Pinky2_L_TmpJnt.s" "Pinky3_L_TmpJnt.is";
connectAttr "Pinky3_L_TmpJnt.s" "Pinky4_L_TmpJnt.is";
connectAttr "Pinky4_L_TmpJnt.s" "Pinky5_L_TmpJnt.is";
connectAttr "HandCup_L_TmpJnt.s" "Middle1_L_TmpJnt.is";
connectAttr "Middle1_L_TmpJnt.s" "Middle2_L_TmpJnt.is";
connectAttr "Middle2_L_TmpJnt.s" "Middle3_L_TmpJnt.is";
connectAttr "Middle3_L_TmpJnt.s" "Middle4_L_TmpJnt.is";
connectAttr "Middle4_L_TmpJnt.s" "Middle5_L_TmpJnt.is";
connectAttr "Clav_L_TmpJnt.s" "ShoulderArmor_L_TmpJnt.is";
connectAttr "Spine5_TmpJnt.s" "Neck_TmpJnt.is";
connectAttr "Neck_TmpJnt.s" "Head_TmpJnt.is";
connectAttr "Head_TmpJnt.s" "HeadEnd_TmpJnt.is";
connectAttr "Head_TmpJnt.s" "Eye_L_TmpJnt.is";
connectAttr "Eye_L_TmpJnt.s" "EyeDot_L_TmpJnt.is";
connectAttr "Eye_L_TmpJnt.s" "Pupil_L_TmpJnt.is";
connectAttr "Pupil_L_TmpJnt.s" "Iris_L_TmpJnt.is";
connectAttr "Head_TmpJnt.s" "Eye_R_TmpJnt.is";
connectAttr "Eye_R_TmpJnt.s" "EyeDot_R_TmpJnt.is";
connectAttr "Eye_R_TmpJnt.s" "Pupil_R_TmpJnt.is";
connectAttr "Pupil_R_TmpJnt.s" "Iris_R_TmpJnt.is";
connectAttr "Head_TmpJnt.s" "JawUprRoot_TmpJnt.is";
connectAttr "JawUprRoot_TmpJnt.s" "JawUpr1_TmpJnt.is";
connectAttr "JawUpr1_TmpJnt.s" "TeethUpr_TmpJnt.is";
connectAttr "JawUpr1_TmpJnt.s" "JawUprEnd_TmpJnt.is";
connectAttr "Head_TmpJnt.s" "JawLwr1_TmpJnt.is";
connectAttr "JawLwr1_TmpJnt.s" "JawLwr2_TmpJnt.is";
connectAttr "JawLwr2_TmpJnt.s" "JawLwrEnd_TmpJnt.is";
connectAttr "JawLwr2_TmpJnt.s" "TeethLwr_TmpJnt.is";
connectAttr "Head_TmpJnt.s" "EyeTrgt_TmpJnt.is";
connectAttr "EyeTrgt_TmpJnt.s" "EyeTrgt_L_TmpJnt.is";
connectAttr "EyeTrgt_TmpJnt.s" "EyeTrgt_R_TmpJnt.is";
connectAttr "Head_TmpJnt.s" "Tongue1_TmpJnt.is";
connectAttr "Tongue1_TmpJnt.s" "Tongue2_TmpJnt.is";
connectAttr "Tongue2_TmpJnt.s" "Tongue3_TmpJnt.is";
connectAttr "Tongue3_TmpJnt.s" "Tongue4_TmpJnt.is";
connectAttr "Tongue4_TmpJnt.s" "Tongue5_TmpJnt.is";
connectAttr "Spine5_TmpJnt.s" "Clav_R_TmpJnt.is";
connectAttr "Clav_R_TmpJnt.s" "UpArm_R_TmpJnt.is";
connectAttr "UpArm_R_TmpJnt.s" "Forearm_R_TmpJnt.is";
connectAttr "Forearm_R_TmpJnt.s" "Wrist_R_TmpJnt.is";
connectAttr "Wrist_R_TmpJnt.s" "Hand_R_TmpJnt.is";
connectAttr "Hand_R_TmpJnt.s" "Index1_R_TmpJnt.is";
connectAttr "Index1_R_TmpJnt.s" "Index2_R_TmpJnt.is";
connectAttr "Index2_R_TmpJnt.s" "Index3_R_TmpJnt.is";
connectAttr "Index3_R_TmpJnt.s" "Index4_R_TmpJnt.is";
connectAttr "Index4_R_TmpJnt.s" "Index5_R_TmpJnt.is";
connectAttr "Hand_R_TmpJnt.s" "Thumb1_R_TmpJnt.is";
connectAttr "Thumb1_R_TmpJnt.s" "Thumb2_R_TmpJnt.is";
connectAttr "Thumb2_R_TmpJnt.s" "Thumb3_R_TmpJnt.is";
connectAttr "Thumb3_R_TmpJnt.s" "Thumb4_R_TmpJnt.is";
connectAttr "Hand_R_TmpJnt.s" "HandCup_R_TmpJnt.is";
connectAttr "HandCup_R_TmpJnt.s" "Pinky1_R_TmpJnt.is";
connectAttr "Pinky1_R_TmpJnt.s" "Pinky2_R_TmpJnt.is";
connectAttr "Pinky2_R_TmpJnt.s" "Pinky3_R_TmpJnt.is";
connectAttr "Pinky3_R_TmpJnt.s" "Pinky4_R_TmpJnt.is";
connectAttr "Pinky4_R_TmpJnt.s" "Pinky5_R_TmpJnt.is";
connectAttr "HandCup_R_TmpJnt.s" "Middle1_R_TmpJnt.is";
connectAttr "Middle1_R_TmpJnt.s" "Middle2_R_TmpJnt.is";
connectAttr "Middle2_R_TmpJnt.s" "Middle3_R_TmpJnt.is";
connectAttr "Middle3_R_TmpJnt.s" "Middle4_R_TmpJnt.is";
connectAttr "Middle4_R_TmpJnt.s" "Middle5_R_TmpJnt.is";
connectAttr "Clav_R_TmpJnt.s" "ShoulderArmor_R_TmpJnt.is";
connectAttr "Root_TmpJnt.s" "Pelvis_TmpJnt.is";
connectAttr "Pelvis_TmpJnt.s" "UpLeg_L_TmpJnt.is";
connectAttr "UpLeg_L_TmpJnt.s" "LowLeg_L_TmpJnt.is";
connectAttr "LowLeg_L_TmpJnt.s" "Knee_L_TmpJnt.is";
connectAttr "LowLeg_L_TmpJnt.s" "Ankle_L_TmpJnt.is";
connectAttr "Ball_L_TmpJnt.s" "Toe_L_TmpJnt.is";
connectAttr "Ankle_L_TmpJnt.s" "FootIn_L_TmpJnt.is";
connectAttr "Ankle_L_TmpJnt.s" "FootOut_L_TmpJnt.is";
connectAttr "Ankle_L_TmpJnt.s" "Heel_L_TmpJnt.is";
connectAttr "Pelvis_TmpJnt.s" "UpLeg_R_TmpJnt.is";
connectAttr "UpLeg_R_TmpJnt.s" "LowLeg_R_TmpJnt.is";
connectAttr "LowLeg_R_TmpJnt.s" "Knee_R_TmpJnt.is";
connectAttr "LowLeg_R_TmpJnt.s" "Ankle_R_TmpJnt.is";
connectAttr "Ball_R_TmpJnt.s" "Toe_R_TmpJnt.is";
connectAttr "Ankle_R_TmpJnt.s" "FootIn_R_TmpJnt.is";
connectAttr "Ankle_R_TmpJnt.s" "FootOut_R_TmpJnt.is";
connectAttr "Ankle_R_TmpJnt.s" "Heel_R_TmpJnt.is";
relationship "link" ":lightLinker1" ":initialShadingGroup.message" ":defaultLightSet.message";
relationship "link" ":lightLinker1" ":initialParticleSE.message" ":defaultLightSet.message";
relationship "shadowLink" ":lightLinker1" ":initialShadingGroup.message" ":defaultLightSet.message";
relationship "shadowLink" ":lightLinker1" ":initialParticleSE.message" ":defaultLightSet.message";
connectAttr "layerManager.dli[0]" "defaultLayer.id";
connectAttr "renderLayerManager.rlmi[0]" "defaultRenderLayer.rlid";
connectAttr "defaultRenderLayer.msg" ":defaultRenderingList1.r" -na;
// End of previsCharTmp.ma
