//Maya ASCII 2017 scene
//Name: carSkel.ma
//Last modified: Tue, Jan 17, 2017 01:58:17 PM
//Codeset: 1252
requires maya "2017";
requires "stereoCamera" "10.0";
requires -nodeType "ilrOptionsNode" -nodeType "ilrUIOptionsNode" -nodeType "ilrBakeLayerManager"
		 -nodeType "ilrBakeLayer" "Turtle" "2017.0.0";
currentUnit -l centimeter -a degree -t film;
fileInfo "application" "maya";
fileInfo "product" "Maya 2017";
fileInfo "version" "2017";
fileInfo "cutIdentifier" "201611102145-1007295";
fileInfo "osv" "Microsoft Windows 7 Business Edition, 64-bit Windows 7 Service Pack 1 (Build 7601)\n";
createNode transform -s -n "persp";
	rename -uid "24B147E1-4EA2-8371-35EB-FB87ABDD1879";
	setAttr ".v" no;
	setAttr ".t" -type "double3" 405.23558610713411 260.5356252338828 326.33510541396453 ;
	setAttr ".r" -type "double3" -21.938352729345102 773.79999999983397 0 ;
createNode camera -s -n "perspShape" -p "persp";
	rename -uid "41E88DC9-4694-7DCA-92A1-31A165148966";
	setAttr -k off ".v" no;
	setAttr ".fl" 34.999999999999993;
	setAttr ".ncp" 1;
	setAttr ".fcp" 100000;
	setAttr ".coi" 541.37852757358587;
	setAttr ".imn" -type "string" "persp";
	setAttr ".den" -type "string" "persp_depth";
	setAttr ".man" -type "string" "persp_mask";
	setAttr ".tp" -type "double3" 1.2249755862114853e-005 58.271856572672171 29.747500000000009 ;
	setAttr ".hc" -type "string" "viewSet -p %camera";
createNode transform -s -n "top";
	rename -uid "FD422050-4508-A171-8E4B-20AE23A61FD4";
	setAttr ".v" no;
	setAttr ".t" -type "double3" 0 100.1 0 ;
	setAttr ".r" -type "double3" -89.999999999999986 0 0 ;
createNode camera -s -n "topShape" -p "top";
	rename -uid "B75E381D-48DC-B336-0E9E-909E5B7D453B";
	setAttr -k off ".v" no;
	setAttr ".rnd" no;
	setAttr ".coi" 100.1;
	setAttr ".ow" 30;
	setAttr ".imn" -type "string" "top";
	setAttr ".den" -type "string" "top_depth";
	setAttr ".man" -type "string" "top_mask";
	setAttr ".hc" -type "string" "viewSet -t %camera";
	setAttr ".o" yes;
createNode transform -s -n "front";
	rename -uid "A1844DB0-49D5-0B31-B137-40B8CD507BAE";
	setAttr ".v" no;
	setAttr ".t" -type "double3" 63.90757248801124 31.092490758464795 258.24116264954728 ;
createNode camera -s -n "frontShape" -p "front";
	rename -uid "342F3A85-4D7E-A712-DD57-E2A9261E7BB9";
	setAttr -k off ".v" no;
	setAttr ".rnd" no;
	setAttr ".coi" 100.1;
	setAttr ".ow" 63.686645160060429;
	setAttr ".imn" -type "string" "front";
	setAttr ".den" -type "string" "front_depth";
	setAttr ".man" -type "string" "front_mask";
	setAttr ".hc" -type "string" "viewSet -f %camera";
	setAttr ".o" yes;
createNode transform -s -n "side";
	rename -uid "02D8E498-44EE-BA93-A43B-02AEA1B13FCB";
	setAttr ".v" no;
	setAttr ".t" -type "double3" 100.10000000000005 25.979157751935734 -54.952737140153253 ;
	setAttr ".r" -type "double3" 0 89.999999999999986 0 ;
createNode camera -s -n "sideShape" -p "side";
	rename -uid "3A20C797-4571-A136-2270-33AEE2CF5EEA";
	setAttr -k off ".v" no;
	setAttr ".rnd" no;
	setAttr ".coi" 100.1;
	setAttr ".ow" 175.84531500885549;
	setAttr ".imn" -type "string" "side";
	setAttr ".den" -type "string" "side_depth";
	setAttr ".man" -type "string" "side_mask";
	setAttr ".hc" -type "string" "viewSet -s %camera";
	setAttr ".o" yes;
createNode transform -n "TmpJnt_Grp";
	rename -uid "7677ADBA-439B-5618-2BF8-3EAFA21FF568";
createNode joint -n "Root_Jnt" -p "TmpJnt_Grp";
	rename -uid "17F57B13-4CAB-2497-017B-3D894E229CB8";
	setAttr ".t" -type "double3" 0 58.121162566058857 0 ;
createNode joint -n "Chassis_Jnt" -p "Root_Jnt";
	rename -uid "8E090EB9-417A-21EB-9BA8-99924000896D";
createNode joint -n "WheelFr_L_Jnt" -p "Chassis_Jnt";
	rename -uid "0752ADE1-493B-7A64-7E0E-C0ABDA04A4EB";
	setAttr ".t" -type "double3" 80.524774650291164 -27.156299213194981 155.63761251944084 ;
createNode joint -n "WheelFrTip_L_Jnt" -p "WheelFr_L_Jnt";
	rename -uid "9B768E35-43DB-B4B9-B9D4-FDA7EE75437B";
	setAttr ".t" -type "double3" 0 0 30 ;
createNode joint -n "WheelBk_L_Jnt" -p "Chassis_Jnt";
	rename -uid "80FFBD66-4BEE-EE30-2175-F4B2A8BA85FA";
	setAttr ".t" -type "double3" 80.788499931052883 -27.156299213194981 -127.00878061365198 ;
createNode joint -n "WheelBkTip_L_Jnt" -p "WheelBk_L_Jnt";
	rename -uid "0744044B-4B53-C868-BE8C-EFB14D587A1A";
	setAttr ".t" -type "double3" 0 0 30 ;
createNode joint -n "WheelFr_R_Jnt" -p "Chassis_Jnt";
	rename -uid "A3FC205F-4EFD-7640-60FD-60A02D4976E3";
	setAttr ".t" -type "double3" -80.5248 -27.156262566058857 155.638 ;
createNode joint -n "WheelFrTip_R_Jnt" -p "WheelFr_R_Jnt";
	rename -uid "010224EB-41F2-F277-40E8-3E98423BC876";
	setAttr ".t" -type "double3" 0 0 30 ;
createNode joint -n "WheelBk_R_Jnt" -p "Chassis_Jnt";
	rename -uid "7DFD09CA-47B7-7BAD-BC7D-DB96DA20AF2D";
	setAttr ".t" -type "double3" -80.7885 -27.156262566058857 -127.009 ;
createNode joint -n "WheelBkTip_R_Jnt" -p "WheelBk_R_Jnt";
	rename -uid "C4835615-48D4-438D-A7C5-D4A85C52C904";
	setAttr ".t" -type "double3" 0 0 30.000200000000007 ;
createNode joint -n "DoorFr_L_Jnt" -p "Chassis_Jnt";
	rename -uid "DA51BB1A-45B4-EBB2-039C-6B82684A8CF6";
	setAttr ".t" -type "double3" 94.192924499511719 22.810973969585675 94.16949462890625 ;
createNode joint -n "DoorBk_L_Jnt" -p "Chassis_Jnt";
	rename -uid "6CFC24FE-46D5-DD9C-1C3A-A7BD86559735";
	setAttr ".t" -type "double3" 93.07891845703125 27.457687226421612 -11.236068725585939 ;
createNode joint -n "DoorFr_R_Jnt" -p "Chassis_Jnt";
	rename -uid "7411F707-40CC-68C3-E87C-6BAC04687405";
	setAttr ".t" -type "double3" -94.1929 22.810937433941149 94.1695 ;
createNode joint -n "DoorBk_R_Jnt" -p "Chassis_Jnt";
	rename -uid "F67CB7CB-407D-60A9-E2FA-9E9E8A308E5D";
	setAttr ".t" -type "double3" -93.0789 27.457637433941144 -11.2361 ;
createNode lightLinker -s -n "lightLinker1";
	rename -uid "13654BB4-43BB-C69D-BF60-388BFB88B269";
	setAttr -s 2 ".lnk";
	setAttr -s 2 ".slnk";
createNode displayLayerManager -n "layerManager";
	rename -uid "97A63806-444D-948C-40D5-968302359D3B";
createNode displayLayer -n "defaultLayer";
	rename -uid "117F87CD-41A8-DD24-1E9B-A49E4458F3F7";
createNode renderLayerManager -n "renderLayerManager";
	rename -uid "2FABFBAD-4EB6-5912-DAC4-8AAB1A63F51B";
createNode renderLayer -n "defaultRenderLayer";
	rename -uid "1FBE100E-4252-F1FA-2AFB-6D991C8EB918";
	setAttr ".g" yes;
createNode ilrOptionsNode -s -n "TurtleRenderOptions";
	rename -uid "EACEF577-4DB8-7AC5-7EDA-CCB45C3CDA51";
lockNode -l 1 ;
createNode ilrUIOptionsNode -s -n "TurtleUIOptions";
	rename -uid "C91DCC81-40DA-312A-BE04-4A9CE1842167";
lockNode -l 1 ;
createNode ilrBakeLayerManager -s -n "TurtleBakeLayerManager";
	rename -uid "C9E104A6-42EC-16C8-B74E-33BD9BCFB3A7";
lockNode -l 1 ;
createNode ilrBakeLayer -s -n "TurtleDefaultBakeLayer";
	rename -uid "5B57822F-4E32-2662-6398-E4B5F1DF10D8";
lockNode -l 1 ;
createNode shapeEditorManager -n "shapeEditorManager";
	rename -uid "F98063D7-46C6-C027-A6B4-50A4168776FC";
createNode poseInterpolatorManager -n "poseInterpolatorManager";
	rename -uid "8E0A740D-40A9-03A3-C924-B89207153CA0";
createNode script -n "sceneConfigurationScriptNode";
	rename -uid "7183D1BF-4301-7160-4543-919D18B808B8";
	setAttr ".b" -type "string" "playbackOptions -min 1 -max 120 -ast 1 -aet 200 ";
	setAttr ".st" 6;
select -ne :time1;
	setAttr -av -k on ".cch";
	setAttr -av -cb on ".ihi";
	setAttr -av -k on ".nds";
	setAttr -cb on ".bnm";
	setAttr -k on ".o" 1;
	setAttr -av -k on ".unw" 1;
	setAttr -k on ".etw";
	setAttr -k on ".tps";
	setAttr -av -k on ".tms";
select -ne :hardwareRenderingGlobals;
	setAttr ".otfna" -type "stringArray" 22 "NURBS Curves" "NURBS Surfaces" "Polygons" "Subdiv Surface" "Particles" "Particle Instance" "Fluids" "Strokes" "Image Planes" "UI" "Lights" "Cameras" "Locators" "Joints" "IK Handles" "Deformers" "Motion Trails" "Components" "Hair Systems" "Follicles" "Misc. UI" "Ornaments"  ;
	setAttr ".otfva" -type "Int32Array" 22 0 1 1 1 1 1
		 1 1 1 0 0 0 0 0 0 0 0 0
		 0 0 0 0 ;
	setAttr -k on ".mbsof";
	setAttr ".msaa" yes;
	setAttr ".fprt" yes;
select -ne :renderPartition;
	setAttr -k on ".cch";
	setAttr -cb on ".ihi";
	setAttr -k on ".nds";
	setAttr -cb on ".bnm";
	setAttr -s 2 ".st";
	setAttr -cb on ".an";
	setAttr -cb on ".pt";
select -ne :renderGlobalsList1;
	setAttr -k on ".cch";
	setAttr -cb on ".ihi";
	setAttr -k on ".nds";
	setAttr -cb on ".bnm";
select -ne :defaultShaderList1;
	setAttr -k on ".cch";
	setAttr -cb on ".ihi";
	setAttr -k on ".nds";
	setAttr -cb on ".bnm";
	setAttr -s 4 ".s";
select -ne :postProcessList1;
	setAttr -k on ".cch";
	setAttr -cb on ".ihi";
	setAttr -k on ".nds";
	setAttr -cb on ".bnm";
	setAttr -s 2 ".p";
select -ne :defaultRenderingList1;
	setAttr -k on ".ihi";
select -ne :initialShadingGroup;
	setAttr -av -k on ".cch";
	setAttr -cb on ".ihi";
	setAttr -av -k on ".nds";
	setAttr -cb on ".bnm";
	setAttr -k on ".mwc";
	setAttr -cb on ".an";
	setAttr -cb on ".il";
	setAttr -cb on ".vo";
	setAttr -cb on ".eo";
	setAttr -cb on ".fo";
	setAttr -cb on ".epo";
	setAttr -k on ".ro" yes;
select -ne :initialParticleSE;
	setAttr -av -k on ".cch";
	setAttr -cb on ".ihi";
	setAttr -av -k on ".nds";
	setAttr -cb on ".bnm";
	setAttr -k on ".mwc";
	setAttr -cb on ".an";
	setAttr -cb on ".il";
	setAttr -cb on ".vo";
	setAttr -cb on ".eo";
	setAttr -cb on ".fo";
	setAttr -cb on ".epo";
	setAttr -k on ".ro" yes;
select -ne :defaultResolution;
	setAttr -av -k on ".cch";
	setAttr -k on ".ihi";
	setAttr -av -k on ".nds";
	setAttr -k on ".bnm";
	setAttr -av -k on ".w";
	setAttr -av -k on ".h";
	setAttr -av -k on ".pa" 1;
	setAttr -av -k on ".al";
	setAttr -av -k on ".dar";
	setAttr -av -k on ".ldar";
	setAttr -k on ".dpi";
	setAttr -av -k on ".off";
	setAttr -av -k on ".fld";
	setAttr -av -k on ".zsl";
	setAttr -k on ".isu";
	setAttr -k on ".pdu";
select -ne :defaultColorMgtGlobals;
	setAttr ".ovt" no;
	setAttr ".povt" no;
select -ne :hardwareRenderGlobals;
	setAttr -k on ".cch";
	setAttr -cb on ".ihi";
	setAttr -k on ".nds";
	setAttr -cb on ".bnm";
	setAttr -k off -cb on ".ctrs" 256;
	setAttr -av -k off -cb on ".btrs" 512;
	setAttr -k off -cb on ".fbfm";
	setAttr -k off -cb on ".ehql";
	setAttr -k off -cb on ".eams";
	setAttr -k off -cb on ".eeaa";
	setAttr -k off -cb on ".engm";
	setAttr -k off -cb on ".mes";
	setAttr -k off -cb on ".emb";
	setAttr -av -k off -cb on ".mbbf";
	setAttr -k off -cb on ".mbs";
	setAttr -k off -cb on ".trm";
	setAttr -k off -cb on ".tshc";
	setAttr -k off -cb on ".enpt";
	setAttr -k off -cb on ".clmt";
	setAttr -k off -cb on ".tcov";
	setAttr -k off -cb on ".lith";
	setAttr -k off -cb on ".sobc";
	setAttr -k off -cb on ".cuth";
	setAttr -k off -cb on ".hgcd";
	setAttr -k off -cb on ".hgci";
	setAttr -k off -cb on ".mgcs";
	setAttr -k off -cb on ".twa";
	setAttr -k off -cb on ".twz";
	setAttr -cb on ".hwcc";
	setAttr -cb on ".hwdp";
	setAttr -cb on ".hwql";
	setAttr -k on ".hwfr";
	setAttr -k on ".soll";
	setAttr -k on ".sosl";
	setAttr -k on ".bswa";
	setAttr -k on ".shml";
	setAttr -k on ".hwel";
connectAttr "Root_Jnt.s" "Chassis_Jnt.is";
connectAttr "Chassis_Jnt.s" "WheelFr_L_Jnt.is";
connectAttr "WheelFr_L_Jnt.s" "WheelFrTip_L_Jnt.is";
connectAttr "Chassis_Jnt.s" "WheelBk_L_Jnt.is";
connectAttr "WheelBk_L_Jnt.s" "WheelBkTip_L_Jnt.is";
connectAttr "Chassis_Jnt.s" "WheelFr_R_Jnt.is";
connectAttr "WheelFr_R_Jnt.s" "WheelFrTip_R_Jnt.is";
connectAttr "Chassis_Jnt.s" "WheelBk_R_Jnt.is";
connectAttr "WheelBk_R_Jnt.s" "WheelBkTip_R_Jnt.is";
connectAttr "Chassis_Jnt.s" "DoorFr_L_Jnt.is";
connectAttr "Chassis_Jnt.s" "DoorBk_L_Jnt.is";
connectAttr "Chassis_Jnt.s" "DoorFr_R_Jnt.is";
connectAttr "Chassis_Jnt.s" "DoorBk_R_Jnt.is";
relationship "link" ":lightLinker1" ":initialShadingGroup.message" ":defaultLightSet.message";
relationship "link" ":lightLinker1" ":initialParticleSE.message" ":defaultLightSet.message";
relationship "shadowLink" ":lightLinker1" ":initialShadingGroup.message" ":defaultLightSet.message";
relationship "shadowLink" ":lightLinker1" ":initialParticleSE.message" ":defaultLightSet.message";
connectAttr "layerManager.dli[0]" "defaultLayer.id";
connectAttr "renderLayerManager.rlmi[0]" "defaultRenderLayer.rlid";
connectAttr ":TurtleDefaultBakeLayer.idx" ":TurtleBakeLayerManager.bli[0]";
connectAttr ":TurtleRenderOptions.msg" ":TurtleDefaultBakeLayer.rset";
connectAttr "defaultRenderLayer.msg" ":defaultRenderingList1.r" -na;
// End of carSkel.ma
