//Maya ASCII 2017 scene
//Name: chickenSkel.ma
//Last modified: Mon, Jan 16, 2017 03:55:51 PM
//Codeset: 1252
requires maya "2017";
requires "stereoCamera" "10.0";
requires -nodeType "ilrOptionsNode" -nodeType "ilrUIOptionsNode" -nodeType "ilrBakeLayerManager"
		 -nodeType "ilrBakeLayer" "Turtle" "2017.0.0";
requires "stereoCamera" "10.0";
currentUnit -l centimeter -a degree -t film;
fileInfo "application" "maya";
fileInfo "product" "Maya 2017";
fileInfo "version" "2017";
fileInfo "cutIdentifier" "201611102145-1007295";
fileInfo "osv" "Microsoft Windows 7 Business Edition, 64-bit Windows 7 Service Pack 1 (Build 7601)\n";
createNode transform -s -n "persp";
	rename -uid "88A0FFBB-4233-E442-D3AB-61AC0D790C01";
	setAttr ".v" no;
	setAttr ".t" -type "double3" 108.52899474630486 54.491782957796801 94.946893514159996 ;
	setAttr ".r" -type "double3" -11.138352714222743 48.199999999995043 -1.1929481395980875e-015 ;
	setAttr ".rp" -type "double3" -1.5987211554602254e-014 1.4210854715202004e-014 0 ;
	setAttr ".rpt" -type "double3" -5.4713647275786247e-014 -3.3860228243639858e-014 
		4.0615260480717311e-014 ;
createNode camera -s -n "perspShape" -p "persp";
	rename -uid "0286BB2B-4980-13E3-404A-4BB7278C43B9";
	setAttr -k off ".v";
	setAttr ".fl" 34.999999999999979;
	setAttr ".coi" 148.37837551196458;
	setAttr ".imn" -type "string" "persp";
	setAttr ".den" -type "string" "persp_depth";
	setAttr ".man" -type "string" "persp_mask";
	setAttr ".tp" -type "double3" 2.1482747925460899e-005 25.828229079379408 -2.0892078140932568 ;
	setAttr ".hc" -type "string" "viewSet -p %camera";
	setAttr ".ai_translator" -type "string" "perspective";
createNode transform -s -n "top";
	rename -uid "2326EDB2-41E4-EA39-7C16-7BA03F0D94B8";
	setAttr ".v" no;
	setAttr ".t" -type "double3" 4.4333559933145041 101.97673918243515 2.2281424562998282 ;
	setAttr ".r" -type "double3" -89.999999999999986 0 0 ;
createNode camera -s -n "topShape" -p "top";
	rename -uid "DF24823E-4CD1-06F4-287B-0AB06320DBD6";
	setAttr -k off ".v";
	setAttr ".rnd" no;
	setAttr ".coi" 100.1;
	setAttr ".ow" 10.705725797354228;
	setAttr ".imn" -type "string" "top";
	setAttr ".den" -type "string" "top_depth";
	setAttr ".man" -type "string" "top_mask";
	setAttr ".hc" -type "string" "viewSet -t %camera";
	setAttr ".o" yes;
	setAttr ".ai_translator" -type "string" "orthographic";
createNode transform -s -n "front";
	rename -uid "3D0F5D41-4845-11DE-0831-DE80832DBE55";
	setAttr ".v" no;
	setAttr ".t" -type "double3" 4.3076571268873884 0.85538333719935711 100.1 ;
createNode camera -s -n "frontShape" -p "front";
	rename -uid "A62D8A4A-4158-EA3F-1E6A-94AE4E4CA5C3";
	setAttr -k off ".v";
	setAttr ".rnd" no;
	setAttr ".coi" 100.1;
	setAttr ".ow" 7.2356255728845733;
	setAttr ".imn" -type "string" "front";
	setAttr ".den" -type "string" "front_depth";
	setAttr ".man" -type "string" "front_mask";
	setAttr ".hc" -type "string" "viewSet -f %camera";
	setAttr ".o" yes;
	setAttr ".ai_translator" -type "string" "orthographic";
createNode transform -s -n "side";
	rename -uid "9C47C5B5-459C-1113-A078-3EA3E182A533";
	setAttr ".v" no;
	setAttr ".t" -type "double3" 103.12144995322279 32.513064888098398 4.9944038753524591 ;
	setAttr ".r" -type "double3" 0 89.999999999999986 0 ;
createNode camera -s -n "sideShape" -p "side";
	rename -uid "3ACD48BB-4F8F-0BE5-A903-0E9E6110DA87";
	setAttr -k off ".v";
	setAttr ".rnd" no;
	setAttr ".coi" 103.12144995322276;
	setAttr ".ow" 31.178654336843213;
	setAttr ".imn" -type "string" "side";
	setAttr ".den" -type "string" "side_depth";
	setAttr ".man" -type "string" "side_mask";
	setAttr ".tp" -type "double3" 0 24.580673643409678 3.1327182591502223 ;
	setAttr ".hc" -type "string" "viewSet -s %camera";
	setAttr ".o" yes;
	setAttr ".ai_translator" -type "string" "orthographic";
createNode transform -n "PivJnt_Grp";
	rename -uid "01E3F05E-48E8-0F50-DB9A-6AA80379E147";
createNode joint -n "ChestPiv_Jnt" -p "PivJnt_Grp";
	rename -uid "F6D5B426-4855-D9AB-8EC2-47A866ED9F05";
	setAttr ".t" -type "double3" 0 25.896621676764916 6.8925895434223232 ;
	setAttr ".r" -type "double3" -70.360652717607636 0 0 ;
	setAttr ".jo" -type "double3" 9.5416640443905503e-015 0 0 ;
	setAttr ".radi" 0.5;
createNode joint -n "Heel_L_Jnt" -p "PivJnt_Grp";
	rename -uid "D5D2FF01-4395-8368-61F2-A0B7D5DEB445";
	setAttr ".t" -type "double3" 4.1863498687744141 4.3704447915506229e-015 -3.4962440853931676 ;
	setAttr ".jo" -type "double3" 89.999999999999972 0 180 ;
	setAttr ".radi" 0.25;
createNode joint -n "FootIn_L_Jnt" -p "Heel_L_Jnt";
	rename -uid "5844B16E-4E99-6E55-1D17-0FB0C0824A2C";
	setAttr ".t" -type "double3" 1.2 5.1352672521513583 1.0061425958746684e-016 ;
	setAttr ".radi" 0.25;
createNode joint -n "FootOut_L_Jnt" -p "Heel_L_Jnt";
	rename -uid "143155CB-470B-7065-2298-989E95BB92E6";
	setAttr ".t" -type "double3" -1.2 5.13526725215136 1.2143094129918931e-016 ;
	setAttr ".radi" 0.25;
createNode joint -n "KneeIk_L_Jnt" -p "Heel_L_Jnt";
	rename -uid "CB7FD64C-4C08-B31F-5423-7190E9B6E284";
	setAttr ".t" -type "double3" 6.4392935428259079e-015 12.558810970958698 14.814832201299962 ;
	setAttr ".radi" 0.25;
createNode joint -n "UpKneeIk_L_Jnt" -p "Heel_L_Jnt";
	rename -uid "CE29BBF1-4A71-8FBF-C669-539C49E8A0AB";
	setAttr ".t" -type "double3" 6.6613381477509385e-015 9.3924573819712265 18.754913490188109 ;
	setAttr ".r" -type "double3" 0 -1.1944384944273463e-014 4.7366195133391095e-015 ;
	setAttr ".ro" 1;
	setAttr ".radi" 0.25;
createNode joint -n "LowKneeIk_L_Jnt" -p "Heel_L_Jnt";
	rename -uid "54145D08-4D99-36A3-78D9-C7A7F8617F05";
	setAttr ".t" -type "double3" -3.5198683210678578e-018 -1.9878505193756153 4.7262954699736994 ;
	setAttr ".r" -type "double3" 0 3.3794225746908737e-015 -8.1126756283697471e-015 ;
	setAttr ".radi" 0.25;
createNode joint -n "ElbowIk_L_Jnt" -p "Heel_L_Jnt";
	rename -uid "BD6C1013-42FB-0488-1CB2-2692A120A85F";
	setAttr ".t" -type "double3" -6.6557552654449239 -16.533880607422873 24.580673643409671 ;
	setAttr ".jo" -type "double3" -71.031572729412048 89.999999999999957 0 ;
	setAttr ".radi" 0.5;
createNode joint -n "Heel_R_Jnt" -p "PivJnt_Grp";
	rename -uid "C66A504C-4C89-98E2-38B4-BEBA2F35E80B";
	setAttr ".t" -type "double3" -4.18635 4.3704400000000001e-015 -3.49624 ;
	setAttr ".jo" -type "double3" 89.999999999999972 180 0 ;
	setAttr ".radi" 0.25;
createNode joint -n "FootIn_R_Jnt" -p "Heel_R_Jnt";
	rename -uid "25A77FE9-4C89-869C-0FB4-DA8EA5AA3F38";
	setAttr ".t" -type "double3" -1.2000000000000002 -5.13526 -2.4757355577463217e-016 ;
	setAttr ".radi" 0.25;
createNode joint -n "FootOut_R_Jnt" -p "Heel_R_Jnt";
	rename -uid "EC018DF0-4A9F-3F52-D16F-B48250A74895";
	setAttr ".t" -type "double3" 1.2000000000000002 -5.13526 2.5526444225367475e-017 ;
	setAttr ".radi" 0.25;
createNode joint -n "KneeIk_R_Jnt" -p "Heel_R_Jnt";
	rename -uid "D364B517-41D0-E693-55F4-CBBB7E56F9F7";
	setAttr ".t" -type "double3" -8.8817841970012523e-016 -12.558809999999994 -14.8148 ;
	setAttr ".radi" 0.25;
createNode joint -n "UpKneeIk_R_Jnt" -p "Heel_R_Jnt";
	rename -uid "F69B0C18-462E-8AE4-CE17-F58E301AD58F";
	setAttr ".t" -type "double3" -8.8817841970012523e-016 -9.3924499999999913 -18.7549 ;
	setAttr ".r" -type "double3" 0 -1.1944384944273463e-014 4.7366195133391095e-015 ;
	setAttr ".ro" 1;
	setAttr ".radi" 0.25;
createNode joint -n "LowKneeIk_R_Jnt" -p "Heel_R_Jnt";
	rename -uid "0F4917E3-4A2F-4ACB-7643-21B21F75669A";
	setAttr ".t" -type "double3" 8.8817841970012523e-016 1.9878500000000026 -4.7262999999999948 ;
	setAttr ".r" -type "double3" 0 3.3794225746908737e-015 -8.1126756283697471e-015 ;
	setAttr ".radi" 0.25;
createNode joint -n "ElbowIk_R_Jnt" -p "Heel_R_Jnt";
	rename -uid "216DE373-4990-B212-106C-D38C6284A761";
	setAttr ".t" -type "double3" 6.6557500000000021 16.533860000000011 -24.580699999999986 ;
	setAttr ".jo" -type "double3" -71.031572729412019 89.999999999999957 0 ;
	setAttr ".radi" 0.5;
createNode joint -n "EyeTar_Jnt" -p "PivJnt_Grp";
	rename -uid "ED6A8574-4BEB-A24E-02BA-A6AAFD043C20";
	setAttr ".t" -type "double3" -3.238433599461743e-005 36.781276702880852 20.785445750074352 ;
	setAttr ".jo" -type "double3" 9.5416640443905503e-015 0 0 ;
	setAttr ".radi" 0.5;
createNode joint -n "EyeTar_L_Jnt" -p "EyeTar_Jnt";
	rename -uid "97D137F9-41F5-3D07-5AD5-05A1FAC06F0A";
	setAttr ".t" -type "double3" 2.3929676156640052 0 0 ;
	setAttr ".radi" 0.5;
createNode joint -n "EyeTar_R_Jnt" -p "EyeTar_Jnt";
	rename -uid "2AA56A2D-4FA5-A155-792F-C9A34BB74740";
	setAttr ".t" -type "double3" -2.3929676156640052 0 0 ;
	setAttr ".radi" 0.5;
createNode transform -n "TmpJnt_Grp";
	rename -uid "C3A6AE80-4CA6-741B-4C70-028C4B110C07";
createNode joint -n "Root_Jnt" -p "TmpJnt_Grp";
	rename -uid "132B56E5-462F-3B43-676F-7EBCA057D8B0";
	setAttr ".t" -type "double3" 0 20.665170669555664 0.42923693007237163 ;
	setAttr ".bps" -type "matrix" 1 0 0 0 0 1 0 0 0 0 1 0 0 24.580673643409678 3.1327182591502223 1;
createNode joint -n "Pelvis_Jnt" -p "Root_Jnt";
	rename -uid "691C8BC7-4334-F4C9-56A1-468C92D1E914";
	setAttr ".t" -type "double3" 0 0 -1 ;
	setAttr ".bps" -type "matrix" 1 0 0 0 0 1 0 0 0 0 1 0 0 4.1388519137915445 -2.6983913799152717 1;
	setAttr ".radi" 0.5;
createNode joint -n "UpperLeg_L_Jnt" -p "Pelvis_Jnt";
	rename -uid "13129126-4A5F-7EEA-FBEE-9D91B6F567FA";
	setAttr ".t" -type "double3" 4.1945747557637549 3.4552291238364852 -3.143525125389766 ;
	setAttr ".jo" -type "double3" 32.801786057068441 0 180 ;
	setAttr ".radi" 0.25;
createNode joint -n "MiddleLeg_L_Jnt" -p "UpperLeg_L_Jnt";
	rename -uid "C6DE74A1-4182-EAF2-7C64-889972FE3034";
	setAttr ".t" -type "double3" 8.8817841970012523e-016 6.0522243197955063 1.7763568394002505e-015 ;
	setAttr ".jo" -type "double3" -35.2201430114986 0 0 ;
	setAttr ".radi" 0.25;
createNode joint -n "LowerLeg_L_Jnt" -p "MiddleLeg_L_Jnt";
	rename -uid "5503EC80-453A-E064-1CF2-BC94CD698926";
	setAttr ".t" -type "double3" 0 14.027870460990012 1.9984014443252818e-015 ;
	setAttr ".jo" -type "double3" 16.152986361189274 0 0 ;
	setAttr ".radi" 0.25;
createNode joint -n "Ankle_L_Jnt" -p "LowerLeg_L_Jnt";
	rename -uid "7EA7B4B4-4015-B03B-8942-BBBCD3CFAF55";
	setAttr ".t" -type "double3" 0 4.1825676807856107 1.3877787807814457e-016 ;
	setAttr ".jo" -type "double3" -13.734629406759113 -7.0622500768802538e-031 -2.8249000307521015e-030 ;
	setAttr ".radi" 0.25;
createNode joint -n "Ball_L_Jnt" -p "Ankle_L_Jnt";
	rename -uid "102F1A14-4299-73D1-D9FE-359B317E4D07";
	setAttr ".t" -type "double3" -2.6645352591003757e-015 0.93469940946924479 0.78499883370907619 ;
	setAttr ".jo" -type "double3" 90 1.9475280550837124e-031 0 ;
	setAttr ".radi" 0.25;
createNode joint -n "Toe_L_Jnt" -p "Ball_L_Jnt";
	rename -uid "7BE84C64-4F9C-567D-F674-29920B424DD1";
	setAttr ".t" -type "double3" 0 5.7105633260658184 1.7034984534092246e-015 ;
	setAttr ".radi" 0.25;
createNode joint -n "IndexToe_1_L_Jnt" -p "Toe_L_Jnt";
	rename -uid "F38902EA-4B2C-4AF3-E3C4-E1B76423DFC1";
	setAttr ".t" -type "double3" 0.60923402611177657 -4.9808281319320136 0.45321336924794936 ;
	setAttr ".jo" -type "double3" 1.3870519322751312e-014 -3.7709949073439846e-014 -29.999999999999993 ;
	setAttr ".radi" 0.25;
createNode joint -n "IndexToe_2_L_Jnt" -p "IndexToe_1_L_Jnt";
	rename -uid "10A31871-429D-1EF5-55C4-B78E4F7CB9C3";
	setAttr ".t" -type "double3" 1.3322676295501875e-015 1.3102253994671234 -1.1102230246251556e-016 ;
	setAttr ".radi" 0.25;
createNode joint -n "IndexToe_3_L_Jnt" -p "IndexToe_2_L_Jnt";
	rename -uid "197D36F2-4820-4028-B4E7-C9A00E781EBC";
	setAttr ".t" -type "double3" 8.8817841970012563e-016 1.3525512797418575 -3.3306690738754706e-016 ;
	setAttr ".radi" 0.25;
createNode joint -n "IndexToe_4_L_Jnt" -p "IndexToe_3_L_Jnt";
	rename -uid "728CC4FE-48A4-9B28-7366-5DA4C533B370";
	setAttr ".t" -type "double3" -4.4408920985006262e-016 0.9 2.2204460492503131e-016 ;
	setAttr ".radi" 0.25;
createNode joint -n "IndexToe_5_L_Jnt" -p "IndexToe_4_L_Jnt";
	rename -uid "661ADBC6-41F7-46D7-AC6A-02B83D790571";
	setAttr ".t" -type "double3" 8.8817841970012523e-016 1.9052610945977304 0 ;
	setAttr ".jo" -type "double3" 2.8249000307521015e-030 7.0622500768802538e-031 3.1805546814635168e-015 ;
	setAttr ".radi" 0.25;
createNode joint -n "MiddleToe_1_L_Jnt" -p "Toe_L_Jnt";
	rename -uid "61DD66EF-4076-64E8-4DBD-548409873815";
	setAttr ".t" -type "double3" 0.0043659986209956259 -4.9808281319320136 0.45321336924794953 ;
	setAttr ".jo" -type "double3" -1.2722218725854067e-014 -2.544443745170814e-014 -8.1215875884122971e-030 ;
	setAttr ".radi" 0.25;
createNode joint -n "MiddleToe_2_L_Jnt" -p "MiddleToe_1_L_Jnt";
	rename -uid "36363CDB-43D4-0D53-9551-889675E74B9E";
	setAttr ".t" -type "double3" 1.3322676295501875e-015 1.3102253994671234 -1.1102230246251556e-016 ;
	setAttr ".radi" 0.25;
createNode joint -n "MiddleToe_3_L_Jnt" -p "MiddleToe_2_L_Jnt";
	rename -uid "33B2CDCF-4027-84FA-10F6-2B9B15915213";
	setAttr ".t" -type "double3" 8.8817841970012563e-016 1.3525512797418575 -3.3306690738754706e-016 ;
	setAttr ".radi" 0.25;
createNode joint -n "MiddleToe_4_L_Jnt" -p "MiddleToe_3_L_Jnt";
	rename -uid "EC061CFD-4CDC-F42A-07F8-0D804DCE75D4";
	setAttr ".t" -type "double3" -4.4408920985006262e-016 0.9 2.2204460492503131e-016 ;
	setAttr ".radi" 0.25;
createNode joint -n "MiddleToe_5_L_Jnt" -p "MiddleToe_4_L_Jnt";
	rename -uid "337B3F8F-461A-3F33-768F-9783CCB3A088";
	setAttr ".t" -type "double3" 0 1.9052610945977309 0 ;
	setAttr ".jo" -type "double3" 0 -7.8406726410132416e-047 7.8406726410132397e-047 ;
	setAttr ".radi" 0.25;
createNode joint -n "PinkyToe_1_L_Jnt" -p "Toe_L_Jnt";
	rename -uid "AD9497DF-44A3-DD94-75EE-19BFD8EE731D";
	setAttr ".t" -type "double3" -0.6006340013790048 -4.9808281319320136 0.45321336924794886 ;
	setAttr ".jo" -type "double3" -4.5572088304219467e-015 -6.3611093629270351e-015 
		30.000000000000004 ;
	setAttr ".radi" 0.25;
createNode joint -n "PinkyToe_2_L_Jnt" -p "PinkyToe_1_L_Jnt";
	rename -uid "8B28D882-40F7-012C-862D-53921FF515B7";
	setAttr ".t" -type "double3" 1.3322676295501875e-015 1.3102253994671234 -1.1102230246251556e-016 ;
	setAttr ".radi" 0.25;
createNode joint -n "PinkyToe_3_L_Jnt" -p "PinkyToe_2_L_Jnt";
	rename -uid "A46D3690-4ED2-43FA-7F43-C7ADE3FD9623";
	setAttr ".t" -type "double3" 8.8817841970012563e-016 1.3525512797418575 -3.3306690738754706e-016 ;
	setAttr ".radi" 0.25;
createNode joint -n "PinkyToe_4_L_Jnt" -p "PinkyToe_3_L_Jnt";
	rename -uid "06CA1285-4746-AB5A-5EC8-7AB33BE880CE";
	setAttr ".t" -type "double3" -4.4408920985006262e-016 0.9 2.2204460492503131e-016 ;
	setAttr ".radi" 0.25;
createNode joint -n "PinkyToe_5_L_Jnt" -p "PinkyToe_4_L_Jnt";
	rename -uid "9177A9B0-4845-FEE8-1C61-B18AD0ADEFB7";
	setAttr ".t" -type "double3" 0 1.9052610945977326 -5.5511151231257827e-017 ;
	setAttr ".jo" -type "double3" 1.4124500153760508e-030 0 -3.1805546814635168e-015 ;
	setAttr ".radi" 0.25;
createNode joint -n "ThumbToe_1_L_Jnt" -p "Ankle_L_Jnt";
	rename -uid "1FFB60C9-45A5-E0C2-F067-4B8398B10AF9";
	setAttr ".t" -type "double3" 0.0043659986209929613 0.48148604022129404 -0.48202568956825043 ;
	setAttr ".jo" -type "double3" 89.999999999999972 180 0 ;
	setAttr ".radi" 0.25;
createNode joint -n "ThumbToe_2_L_Jnt" -p "ThumbToe_1_L_Jnt";
	rename -uid "558823D2-4969-C079-C73C-A89547E1C255";
	setAttr ".t" -type "double3" 8.8817841970012523e-016 1.1566284981278054 -2.2204460492503131e-016 ;
	setAttr ".radi" 0.25;
createNode joint -n "ThumbToe_3_L_Jnt" -p "ThumbToe_2_L_Jnt";
	rename -uid "DFD95F7B-4A99-C3FE-8AE4-92BE256F92C9";
	setAttr ".t" -type "double3" 8.8817841970012523e-016 1.1454232793381758 -1.1102230246251565e-016 ;
	setAttr ".radi" 0.25;
createNode joint -n "ThumbToe_4_L_Jnt" -p "ThumbToe_3_L_Jnt";
	rename -uid "ECC3A072-4D54-D92F-A431-909BDA9B8110";
	setAttr ".t" -type "double3" 0 0.72277474061424796 -5.5511151231257827e-017 ;
	setAttr ".jo" -type "double3" 0 -1.5681345282026483e-046 -7.8406726410132397e-047 ;
	setAttr ".radi" 0.25;
createNode joint -n "UpperLeg_R_Jnt" -p "Pelvis_Jnt";
	rename -uid "360461DE-4FDD-0D5A-6DEE-E08A712B9063";
	setAttr ".t" -type "double3" -4.19457 3.455229330444336 -3.1435269300723716 ;
	setAttr ".jo" -type "double3" 32.801786057068448 180 0 ;
	setAttr ".radi" 0.25;
createNode joint -n "MiddleLeg_R_Jnt" -p "UpperLeg_R_Jnt";
	rename -uid "297D74BD-4582-5C6F-9C09-5AA92F49CE90";
	setAttr ".t" -type "double3" 0 -6.0522291372682737 9.4804463657283122e-007 ;
	setAttr ".jo" -type "double3" -35.220143011498614 5.977469850117525e-015 -5.6628539743565017e-016 ;
	setAttr ".radi" 0.25;
createNode joint -n "LowerLeg_R_Jnt" -p "MiddleLeg_R_Jnt";
	rename -uid "B82E7F1B-475A-9E3A-D576-FDB0EDB6C2CC";
	setAttr ".t" -type "double3" 0 -14.027863897375354 3.6272319028363142e-006 ;
	setAttr ".jo" -type "double3" 16.152986361189303 -1.5795169594282987e-015 -2.2977689660665148e-015 ;
	setAttr ".radi" 0.25;
createNode joint -n "Ankle_R_Jnt" -p "LowerLeg_R_Jnt";
	rename -uid "3C7E037A-481A-633A-3550-2E9A77C9DF32";
	setAttr ".t" -type "double3" 0 -4.1825708949750853 -2.607022418055216e-006 ;
	setAttr ".jo" -type "double3" -13.734629406759206 2.1611091259605576e-015 9.8023416061578403e-016 ;
	setAttr ".radi" 0.25;
createNode joint -n "Ball_R_Jnt" -p "Ankle_R_Jnt";
	rename -uid "77702AAF-420E-DC9C-1839-AE9911398982";
	setAttr ".t" -type "double3" 0 -0.93469929999999957 -0.78499930000000118 ;
	setAttr ".jo" -type "double3" 90.000000000000057 2.2599200246016812e-029 -1.4033418597069758e-014 ;
	setAttr ".radi" 0.25;
createNode joint -n "Toe_R_Jnt" -p "Ball_R_Jnt";
	rename -uid "13D94ECA-41E5-B6AE-062F-7FB47499F70B";
	setAttr ".t" -type "double3" -8.8817841970012523e-016 -5.71056 -4.2257863874795021e-015 ;
	setAttr ".radi" 0.25;
createNode joint -n "IndexToe_1_R_Jnt" -p "Toe_R_Jnt";
	rename -uid "1FE3B447-4E77-5BE7-6745-95A8CE339038";
	setAttr ".t" -type "double3" -0.60922999999999883 4.980830000000001 -0.45321329999999627 ;
	setAttr ".jo" -type "double3" -1.5676184097283422e-015 5.8504315519865005e-015 -29.999999999999993 ;
	setAttr ".radi" 0.25;
createNode joint -n "IndexToe_2_R_Jnt" -p "IndexToe_1_R_Jnt";
	rename -uid "AF4ED701-4B97-2470-2A83-CDAA8D9F5551";
	setAttr ".t" -type "double3" 3.0977267764242811e-006 -1.3102253654201657 -8.3266726846886741e-016 ;
	setAttr ".radi" 0.25;
createNode joint -n "IndexToe_3_R_Jnt" -p "IndexToe_2_R_Jnt";
	rename -uid "95980D70-4874-8CA5-0C50-CFA7DD7CDD79";
	setAttr ".t" -type "double3" -6.6007134069678841e-007 -1.3525588567229025 -7.7715611723760958e-016 ;
	setAttr ".radi" 0.25;
createNode joint -n "IndexToe_4_R_Jnt" -p "IndexToe_3_R_Jnt";
	rename -uid "6BF0B3FB-47A7-55B1-3CAF-969FD1E9431B";
	setAttr ".t" -type "double3" -1.4317029979338258e-006 -0.89999752021766799 -7.2164496600635175e-016 ;
	setAttr ".radi" 0.25;
createNode joint -n "IndexToe_5_R_Jnt" -p "IndexToe_4_R_Jnt";
	rename -uid "12A6894C-47B7-A65A-7622-E2BCFF44F732";
	setAttr ".t" -type "double3" -4.8356363357981991e-008 -1.9052559162443226 -1.2212453270876722e-015 ;
	setAttr ".radi" 0.25;
createNode joint -n "MiddleToe_1_R_Jnt" -p "Toe_R_Jnt";
	rename -uid "E38912B6-4552-E7A9-4F53-EE85D60D29EC";
	setAttr ".t" -type "double3" -0.0043599999999983652 4.980830000000001 -0.45321329999999627 ;
	setAttr ".radi" 0.25;
createNode joint -n "MiddleToe_2_R_Jnt" -p "MiddleToe_1_R_Jnt";
	rename -uid "0C90BDD1-4934-E0A8-5402-409F8755C1F4";
	setAttr ".t" -type "double3" 0 -1.3102300000000011 -9.9920072216264089e-016 ;
	setAttr ".radi" 0.25;
createNode joint -n "MiddleToe_3_R_Jnt" -p "MiddleToe_2_R_Jnt";
	rename -uid "15AE4E61-4B2A-DD0C-BA06-59937C1E8835";
	setAttr ".t" -type "double3" -8.8817841970012523e-016 -1.3525499999999995 -9.9920072216264089e-016 ;
	setAttr ".radi" 0.25;
createNode joint -n "MiddleToe_4_R_Jnt" -p "MiddleToe_3_R_Jnt";
	rename -uid "C862C30B-4793-C6F0-EFEF-F38A623716A1";
	setAttr ".t" -type "double3" 8.8817841970012523e-016 -0.89999999999999947 -6.6613381477509392e-016 ;
	setAttr ".radi" 0.25;
createNode joint -n "MiddleToe_5_R_Jnt" -p "MiddleToe_4_R_Jnt";
	rename -uid "4CC980FD-4183-D72A-C590-FBAB29E36F51";
	setAttr ".t" -type "double3" 0 -1.9052600000000002 -1.4432899320127035e-015 ;
	setAttr ".radi" 0.25;
createNode joint -n "PinkyToe_1_R_Jnt" -p "Toe_R_Jnt";
	rename -uid "B29B3F78-4A41-B848-DAA1-0AA5B055E246";
	setAttr ".t" -type "double3" 0.60064000000000117 4.980830000000001 -0.45321329999999627 ;
	setAttr ".jo" -type "double3" -4.8240845281304794e-015 -1.8003728558989882e-014 
		30.000000000000011 ;
	setAttr ".radi" 0.25;
createNode joint -n "PinkyToe_2_R_Jnt" -p "PinkyToe_1_R_Jnt";
	rename -uid "B1C6CAF7-4272-28B2-6ED2-69970BE45861";
	setAttr ".t" -type "double3" -3.0977267782006379e-006 -1.3102253654201652 -7.7715611723760958e-016 ;
	setAttr ".radi" 0.25;
createNode joint -n "PinkyToe_3_R_Jnt" -p "PinkyToe_2_R_Jnt";
	rename -uid "85FD67C5-44B9-2F67-DDBF-E5B1C9B50B87";
	setAttr ".t" -type "double3" 6.6007134114087762e-007 -1.3525588567229025 -8.3266726846886741e-016 ;
	setAttr ".radi" 0.25;
createNode joint -n "PinkyToe_4_R_Jnt" -p "PinkyToe_3_R_Jnt";
	rename -uid "F7E4C886-4929-29DB-F8C9-5CAD34DAA5DA";
	setAttr ".t" -type "double3" 1.4317029966015582e-006 -0.89999752021766799 -6.6613381477509392e-016 ;
	setAttr ".radi" 0.25;
createNode joint -n "PinkyToe_5_R_Jnt" -p "PinkyToe_4_R_Jnt";
	rename -uid "24D11A1C-4142-BD59-5235-54A9860A7A66";
	setAttr ".t" -type "double3" 1.7804071701377211e-006 -1.9052569162443227 -1.2212453270876722e-015 ;
	setAttr ".radi" 0.25;
createNode joint -n "ThumbToe_1_R_Jnt" -p "Ankle_R_Jnt";
	rename -uid "AA988868-4B49-35F1-5BD9-EFA3EEC24363";
	setAttr ".t" -type "double3" -0.0043599999999992534 -0.48148600000000114 0.48202569999999928 ;
	setAttr ".jo" -type "double3" 89.999999999999915 180 0 ;
	setAttr ".radi" 0.25;
createNode joint -n "ThumbToe_2_R_Jnt" -p "ThumbToe_1_R_Jnt";
	rename -uid "C118F4DB-4011-11E2-CB66-C8B2B2AEBD36";
	setAttr ".t" -type "double3" 0 -1.1566250000000005 -6.106226635438361e-016 ;
	setAttr ".radi" 0.25;
createNode joint -n "ThumbToe_3_R_Jnt" -p "ThumbToe_2_R_Jnt";
	rename -uid "48D06ED4-4512-2727-5267-1D90FC67D5CA";
	setAttr ".t" -type "double3" -8.8817841970012523e-016 -1.1454299999999997 -5.5511151231257827e-016 ;
	setAttr ".radi" 0.25;
createNode joint -n "ThumbToe_4_R_Jnt" -p "ThumbToe_3_R_Jnt";
	rename -uid "6E2D5F22-4031-6295-3AE2-F9AEC939290C";
	setAttr ".t" -type "double3" 8.8817841970012523e-016 -0.72276999999999969 -3.3306690738754696e-016 ;
	setAttr ".radi" 0.25;
createNode joint -n "Spine_1_Jnt" -p "Root_Jnt";
	rename -uid "9398192C-411E-5F95-EFA3-4AA9D01C07AE";
	setAttr ".t" -type "double3" 0 0 0.99999999999999989 ;
	setAttr ".jo" -type "double3" -14.472636712261965 0 0 ;
	setAttr ".radi" 0.5;
createNode joint -n "Spine_2_Jnt" -p "Spine_1_Jnt";
	rename -uid "9DB45DA8-4796-9C1E-E4D9-709FFD184BE3";
	setAttr ".t" -type "double3" 0 -3.5527136788005009e-015 4.0911626989560075 ;
	setAttr ".jo" -type "double3" -55.888016005345676 0 0 ;
	setAttr ".radi" 0.5;
createNode joint -n "Spine_3_Jnt" -p "Spine_2_Jnt";
	rename -uid "6178DF74-447D-2804-73BB-9B942AAE48C5";
	setAttr ".t" -type "double3" 0 0 5.0332676416295321 ;
createNode joint -n "Neck_Jnt" -p "Spine_3_Jnt";
	rename -uid "753D8ED8-4E15-494F-FCB5-BE86D2AB1190";
	setAttr ".t" -type "double3" 0 -1.7763568394002505e-015 -3.5527136788005009e-015 ;
	setAttr ".jo" -type "double3" 54.153386667397264 0 0 ;
	setAttr ".radi" 0.5;
createNode joint -n "NeckTip_Jnt" -p "Neck_Jnt";
	rename -uid "2C3DFDB2-4224-9E01-AD3F-EDB4C82EEFF7";
	setAttr ".t" -type "double3" 0 5.8221664424761421 3.5527136788005009e-015 ;
createNode joint -n "Head_Jnt" -p "NeckTip_Jnt";
	rename -uid "A268FD8F-403A-5DD6-C65E-BC94C7A71252";
	setAttr ".jo" -type "double3" 16.207266050210364 0 0 ;
	setAttr ".bps" -type "matrix" 1 0 0 0 0 1 0 0 0 0 1 0 0 1.7488802985395615 1.9253798598362764 1;
	setAttr ".radi" 0.5;
createNode joint -n "HeadTip_Jnt" -p "Head_Jnt";
	rename -uid "C7DEF05E-4FF8-B3AF-E899-29BDABE174F8";
	setAttr ".t" -type "double3" 0 11.672066174209348 8.8817841970012523e-016 ;
	setAttr ".radi" 0.5;
createNode joint -n "Eye_L_Jnt" -p "Head_Jnt";
	rename -uid "28A88F79-47E3-0A81-D293-CBADB024E428";
	setAttr ".t" -type "double3" 2.3929352313280106 4.7624021303516528 0.19533054272145201 ;
	setAttr ".radi" 0.5;
createNode joint -n "Eye_R_Jnt" -p "Head_Jnt";
	rename -uid "57AA426D-45EE-5D7C-6BBC-DA83A084E935";
	setAttr ".t" -type "double3" -2.393 4.7624021303516528 0.19533054272145201 ;
	setAttr ".jo" -type "double3" -180 0 0 ;
	setAttr ".radi" 0.5;
createNode joint -n "UpArm_L_Jnt" -p "Spine_2_Jnt";
	rename -uid "8B26D469-48B5-CA82-5C06-B586668E2B6B";
	setAttr ".t" -type "double3" 5.8738467359066693 3.0988596965767199 1.9658894272263652 ;
	setAttr ".jo" -type "double3" -5.403769697797153 70.360652717607636 -89.999999999999929 ;
	setAttr ".bps" -type "matrix" 4.4408920985006262e-016 -1 0 0 0.99555577071995494 4.4408920985006262e-016 -0.094173814758649638 0
		 0.094173814758649638 4.1633363423443383e-017 0.99555577071995494 0 5.8738467359066693 24.580673643409678 3.1327182591502223 1;
	setAttr ".radi" 0.5;
createNode joint -n "Forearm_L_Jnt" -p "UpArm_L_Jnt";
	rename -uid "C379226E-4F74-F718-9FDF-2D830CDC1683";
	setAttr ".t" -type "double3" -3.5527136788005009e-015 4.9904370447471589 4.4408920985006262e-016 ;
	setAttr ".jo" -type "double3" 24.372196968385204 0 0 ;
	setAttr ".bps" -type "matrix" 4.4408920985006262e-016 -1 0 0 0.94569783574209776 4.21694288690368e-016 0.32504707885583622 0
		 -0.32504707885583622 -1.4533578410400526e-016 0.94569783574209776 0 10.842105134219342 24.580673643409686 2.6627497653335008 1;
	setAttr ".radi" 0.5;
createNode joint -n "Wrist_L_Jnt" -p "Forearm_L_Jnt";
	rename -uid "2AB903A2-40E5-1C5D-82E4-19A33ACB27C4";
	setAttr ".t" -type "double3" 7.1054273576010019e-015 8.5661380255023865 4.8849813083506888e-015 ;
	setAttr ".jo" -type "double3" -24.166069309528293 0 0 ;
	setAttr ".bps" -type "matrix" 4.4408920985006262e-016 -1 0 0 0.99588812768251422 4.4423611610917611e-016 -0.090591595311132755 0
		 0.090591595311132755 4.0035439293657114e-017 0.99588812768251422 0 18.943083325605031 24.580673643409682 5.4471479075989571 1;
	setAttr ".radi" 0.5;
createNode joint -n "Hand_L_Jnt" -p "Wrist_L_Jnt";
	rename -uid "D072343B-46BC-7AB0-57C1-2A84A40D44DE";
	setAttr ".t" -type "double3" 0 4.6504893178323599 -4.4408920985006262e-015 ;
	setAttr ".jo" -type "double3" 0 -2.6483437788300952e-031 9.4898985408078434e-031 ;
	setAttr ".bps" -type "matrix" 4.4408920985006262e-016 -1 0 0 0.99588812768251422 4.4423611610917611e-016 -0.090591595311132755 0
		 0.090591595311132755 4.0035439293657114e-017 0.99588812768251422 0 23.574450425148633 24.580673643409686 5.0258526613191377 1;
	setAttr ".radi" 0.5;
createNode joint -n "HandWing_L_Jnt" -p "Hand_L_Jnt";
	rename -uid "B101376C-4DB5-A075-B0F2-F88D6E245FA3";
	setAttr ".t" -type "double3" 3.5527136788005009e-015 0 -8.8817841970012523e-016 ;
	setAttr ".jo" -type "double3" -19.706612248874013 0 0 ;
	setAttr ".bps" -type "matrix" 4.4408920985006262e-016 -1 0 0 0.90701274932212028 4.0471782695951411e-016 -0.42110316143093529 0
		 0.42110316143093529 1.8748878312147178e-016 0.90701274932212028 0 23.574450425148633 24.580673643409682 5.0258526613191368 1;
createNode joint -n "HandWingTip_L_Jnt" -p "HandWing_L_Jnt";
	rename -uid "07A7848F-4321-F0D0-86FC-1DAC6F20DE2C";
	addAttr -ci true -sn "liw" -ln "lockInfluenceWeights" -min 0 -max 1 -at "bool";
	setAttr ".t" -type "double3" 0 17.800955090245981 -3.5527136788005009e-015 ;
	setAttr ".bps" -type "matrix" 4.4408920985006262e-016 -1 0 0 0.90701274932212028 4.0471782695951411e-016 -0.42110316143093529 0
		 0.42110316143093529 1.8748878312147178e-016 0.90701274932212028 0 39.720143642112234 24.580673643409689 -2.4701858036735498 1;
	setAttr ".radi" 0.5;
createNode joint -n "WristWing_L_Jnt" -p "Wrist_L_Jnt";
	rename -uid "C112F9EC-4B02-98A3-6FC8-799C0EF50410";
	setAttr ".t" -type "double3" 3.5527136788005009e-015 0 0 ;
	setAttr ".jo" -type "double3" -79.52945755328065 0 0 ;
createNode joint -n "WristWingTip_L_Jnt" -p "WristWing_L_Jnt";
	rename -uid "9AC56748-4FBC-CC45-FB44-DDADE40266D0";
	setAttr ".t" -type "double3" 0 15.081241861982511 -3.5527136788005009e-015 ;
	setAttr ".radi" 0.5;
createNode joint -n "ForearmWing_L_Jnt" -p "Forearm_L_Jnt";
	rename -uid "6BC77F7E-47DA-F7BD-93A7-D88227697639";
	setAttr ".t" -type "double3" 1.4210854715202004e-014 1.7763568394002505e-015 8.8817841970012523e-016 ;
	setAttr ".jo" -type "double3" -107.29537829038283 0 0 ;
createNode joint -n "ForearmWingTip_L_Jnt" -p "ForearmWing_L_Jnt";
	rename -uid "E6694885-4A9E-CA3F-1543-FB8522B96FA5";
	setAttr ".t" -type "double3" 0 14.962291257852959 8.8817841970012523e-015 ;
	setAttr ".radi" 0.5;
createNode joint -n "UpArmWing_L_Jnt" -p "UpArm_L_Jnt";
	rename -uid "96292B70-47B0-7854-34CC-1FAA12DDE3B3";
	setAttr ".jo" -type "double3" -83.240555319733758 0 0 ;
	setAttr ".bps" -type "matrix" 4.4408920985006262e-016 -1 0 0 0.023658784354470941 1.0925813078326325e-017 -0.9997200917871305 0
		 0.9997200917871305 4.4590266859907772e-016 0.023658784354470941 0 5.8738467359066693 24.580673643409678 3.1327182591502223 1;
createNode joint -n "UpArmWingTip_L_Jnt" -p "UpArmWing_L_Jnt";
	rename -uid "F628A974-452B-CE57-82C4-B39168FDB55B";
	addAttr -ci true -sn "liw" -ln "lockInfluenceWeights" -min 0 -max 1 -at "bool";
	setAttr ".t" -type "double3" -3.5527136788005009e-015 10.315738037855144 8.8817841970012523e-015 ;
	setAttr ".bps" -type "matrix" 4.4408920985006262e-016 -1 0 0 0.023658784354470941 1.0925813078326325e-017 -0.9997200917871305 0
		 0.9997200917871305 4.4590266859907772e-016 0.023658784354470941 0 6.1179045576015065 24.580673643409682 -7.1801323189063169 1;
	setAttr ".radi" 0.5;
createNode joint -n "UpArm_R_Jnt" -p "Spine_2_Jnt";
	rename -uid "F369963F-4969-A9F0-B16D-EEA1F4673BBE";
	setAttr ".t" -type "double3" -5.87385 3.0988669154064956 1.965914835668034 ;
	setAttr ".jo" -type "double3" 174.59623030220277 -70.360652717607636 89.999999999999943 ;
	setAttr ".bps" -type "matrix" 4.4408920985006262e-016 -1 0 0 0.99555577071995494 4.4408920985006262e-016 -0.094173814758649638 0
		 0.094173814758649638 4.1633363423443383e-017 0.99555577071995494 0 5.8738467359066693 24.580673643409678 3.1327182591502223 1;
	setAttr ".radi" 0.5;
createNode joint -n "Forearm_R_Jnt" -p "UpArm_R_Jnt";
	rename -uid "8AFB8522-421D-4F5A-1610-7BA3DCD3FF63";
	setAttr ".t" -type "double3" 3.5527136788005009e-015 -4.9904288256015388 2.290390588743918e-006 ;
	setAttr ".jo" -type "double3" 24.372196968385285 2.559940100704642e-015 8.1156262600049171e-016 ;
	setAttr ".bps" -type "matrix" 4.4408920985006262e-016 -1 0 0 0.94569783574209776 4.21694288690368e-016 0.32504707885583622 0
		 -0.32504707885583622 -1.4533578410400526e-016 0.94569783574209776 0 10.842105134219342 24.580673643409686 2.6627497653335008 1;
	setAttr ".radi" 0.5;
createNode joint -n "Wrist_R_Jnt" -p "Forearm_R_Jnt";
	rename -uid "02C7BA6F-4C47-29DD-2285-078003682B16";
	setAttr ".t" -type "double3" -7.1054273576010019e-015 -8.5661592537129199 5.3319708326338144e-006 ;
	setAttr ".jo" -type "double3" -24.166069309528357 -2.2815148355737107e-015 1.3736629680748033e-015 ;
	setAttr ".bps" -type "matrix" 4.4408920985006262e-016 -1 0 0 0.99588812768251422 4.4423611610917611e-016 -0.090591595311132755 0
		 0.090591595311132755 4.0035439293657114e-017 0.99588812768251422 0 18.943083325605031 24.580673643409682 5.4471479075989571 1;
	setAttr ".radi" 0.5;
createNode joint -n "Hand_R_Jnt" -p "Wrist_R_Jnt";
	rename -uid "F3E1FD37-4B5A-0DB3-A177-FB9DA983B54E";
	setAttr ".t" -type "double3" -7.1054273576010019e-015 -4.6505225136533781 1.7536686547359182e-006 ;
	setAttr ".jo" -type "double3" 1.2074182697257333e-006 1.3349915826291692e-022 1.2143837039532119e-023 ;
	setAttr ".bps" -type "matrix" 4.4408920985006262e-016 -1 0 0 0.99588812768251422 4.4423611610917611e-016 -0.090591595311132755 0
		 0.090591595311132755 4.0035439293657114e-017 0.99588812768251422 0 23.574450425148633 24.580673643409686 5.0258526613191377 1;
	setAttr ".radi" 0.5;
createNode joint -n "HandWing_R_Jnt" -p "Hand_R_Jnt";
	rename -uid "4DEE43CD-47CE-A966-86DB-AF87266B9B65";
	setAttr ".t" -type "double3" 0 3.5527136788005009e-015 0 ;
	setAttr ".jo" -type "double3" -19.706613456292253 -2.1699219115517482e-015 1.7670978009357104e-016 ;
	setAttr ".bps" -type "matrix" 4.4408920985006262e-016 -1 0 0 0.90701274932212028 4.0471782695951411e-016 -0.42110316143093529 0
		 0.42110316143093529 1.8748878312147178e-016 0.90701274932212028 0 23.574450425148633 24.580673643409682 5.0258526613191368 1;
createNode joint -n "HandWingTip_R_Jnt" -p "HandWing_R_Jnt";
	rename -uid "BDB12A2F-4DAD-00F9-2C55-8591CC96003B";
	addAttr -ci true -sn "liw" -ln "lockInfluenceWeights" -min 0 -max 1 -at "bool";
	setAttr ".t" -type "double3" -7.1054273576010019e-015 -17.800871187667973 4.0646229264140743e-005 ;
	setAttr ".jo" -type "double3" 1.7075472925031877e-006 1.7194769537721973e-022 7.9830984738777535e-023 ;
	setAttr ".bps" -type "matrix" 4.4408920985006262e-016 -1 0 0 0.90701274932212028 4.0471782695951411e-016 -0.42110316143093529 0
		 0.42110316143093529 1.8748878312147178e-016 0.90701274932212028 0 39.720143642112234 24.580673643409689 -2.4701858036735498 1;
	setAttr ".radi" 0.5;
createNode joint -n "WristWing_R_Jnt" -p "Wrist_R_Jnt";
	rename -uid "3A8E8238-453B-EFEA-918D-E5BF5FB5F956";
	setAttr ".t" -type "double3" -3.5527136788005009e-015 -3.5527136788005009e-015 
		-1.7763568394002505e-015 ;
	setAttr ".jo" -type "double3" -79.529457553280579 -6.7010054062442045e-015 4.6170349783842739e-015 ;
createNode joint -n "WristWingTip_R_Jnt" -p "WristWing_R_Jnt";
	rename -uid "9071E223-456A-0DF0-7A0F-D2AEDEB39D67";
	setAttr ".t" -type "double3" -3.5527136788005009e-015 -15.081234109409067 5.9969863023923153e-005 ;
	setAttr ".jo" -type "double3" 1.7075472925031877e-006 1.7421944512993845e-023 1.8877359963534699e-022 ;
	setAttr ".radi" 0.5;
createNode joint -n "ForearmWing_R_Jnt" -p "Forearm_R_Jnt";
	rename -uid "15E9047B-4A2F-861E-EF6E-95A520CB8612";
	setAttr ".t" -type "double3" -3.5527136788005009e-015 0 2.2204460492503131e-016 ;
	setAttr ".jo" -type "double3" -107.29537829038284 -3.0613158421002666e-015 9.7783086467719042e-015 ;
createNode joint -n "ForearmWingTip_R_Jnt" -p "ForearmWing_R_Jnt";
	rename -uid "930BA5CB-4E59-23E4-94C4-ABA5B4E4D94D";
	setAttr ".t" -type "double3" -3.5527136788005009e-015 -14.962327179981482 4.1076798776629175e-005 ;
	setAttr ".jo" -type "double3" 1.2074182697257333e-006 3.9137413473631522e-024 1.3399321125943661e-022 ;
	setAttr ".radi" 0.5;
createNode joint -n "UpArmWing_R_Jnt" -p "UpArm_R_Jnt";
	rename -uid "8D5C72A7-4F23-9CF4-17B7-E989B5DAACE2";
	setAttr ".t" -type "double3" 3.5527136788005009e-015 0 0 ;
	setAttr ".jo" -type "double3" -83.240555319733687 -6.8173611055710428e-015 4.9925710602764622e-015 ;
	setAttr ".bps" -type "matrix" 4.4408920985006262e-016 -1 0 0 0.023658784354470941 1.0925813078326325e-017 -0.9997200917871305 0
		 0.9997200917871305 4.4590266859907772e-016 0.023658784354470941 0 5.8738467359066693 24.580673643409678 3.1327182591502223 1;
createNode joint -n "UpArmWingTip_R_Jnt" -p "UpArmWing_R_Jnt";
	rename -uid "7E12A354-49D5-1848-3A13-5D8F85BDEECB";
	addAttr -ci true -sn "liw" -ln "lockInfluenceWeights" -min 0 -max 1 -at "bool";
	setAttr ".t" -type "double3" -3.5527136788005009e-015 -10.315737274908614 7.8058293553340263e-006 ;
	setAttr ".jo" -type "double3" 1.2074182697257333e-006 3.1714670612394516e-024 1.3401283457799675e-022 ;
	setAttr ".bps" -type "matrix" 4.4408920985006262e-016 -1 0 0 0.023658784354470941 1.0925813078326325e-017 -0.9997200917871305 0
		 0.9997200917871305 4.4590266859907772e-016 0.023658784354470941 0 6.1179045576015065 24.580673643409682 -7.1801323189063169 1;
	setAttr ".radi" 0.5;
createNode lightLinker -s -n "lightLinker1";
	rename -uid "CEA58809-4B4B-F79B-F22E-D99F2A626F2A";
	setAttr -s 2 ".lnk";
	setAttr -s 2 ".slnk";
createNode displayLayerManager -n "layerManager";
	rename -uid "E8692F97-4185-82B7-DADF-DEAAF98E605E";
createNode displayLayer -n "defaultLayer";
	rename -uid "5F2CC341-4534-6D25-AFAC-8681947A12F3";
createNode renderLayerManager -n "renderLayerManager";
	rename -uid "8C5EED2B-4214-AFDE-9CE8-D6BE2B9B4FC1";
createNode renderLayer -n "defaultRenderLayer";
	rename -uid "F556A89E-420D-E053-F43F-22A475741566";
	setAttr ".g" yes;
createNode ilrOptionsNode -s -n "TurtleRenderOptions";
	rename -uid "A42A9661-4E48-BB49-6518-FB99160F4099";
lockNode -l 1 ;
createNode ilrUIOptionsNode -s -n "TurtleUIOptions";
	rename -uid "83FE07F7-4DD9-2AA1-2A73-65A3C6FA6F73";
lockNode -l 1 ;
createNode ilrBakeLayerManager -s -n "TurtleBakeLayerManager";
	rename -uid "3906F3FC-4E79-F2BF-1DA6-8888ECEA78DC";
lockNode -l 1 ;
createNode ilrBakeLayer -s -n "TurtleDefaultBakeLayer";
	rename -uid "AB1E885C-4F7C-4AF7-2BD1-5E8C71029BD3";
lockNode -l 1 ;
createNode script -n "sceneConfigurationScriptNode";
	rename -uid "B277981C-44A5-67B0-FF35-2CBCCB82018E";
	setAttr ".b" -type "string" "playbackOptions -min 0 -max 200 -ast 0 -aet 200 ";
	setAttr ".st" 6;
createNode blindDataTemplate -n "blindDataTemplate2";
	rename -uid "C9A15CAD-47E8-17D7-0490-EE87636F0CC7";
	addAttr -ci true -sn "MaxVisibility" -ln "MaxVisibility" -min 0 -max 1 -at "bool";
	setAttr ".tid" 16180;
createNode groupId -n "groupId6";
	rename -uid "B2BA7366-4795-EC79-9A9D-8E9C55873F82";
	setAttr ".ihi" 0;
createNode groupId -n "groupId9";
	rename -uid "50BB51F5-4667-E922-437C-548301C60C3A";
	setAttr ".ihi" 0;
createNode groupId -n "groupId12";
	rename -uid "25C1576F-48C2-A627-EC90-A8A1FAED17F7";
	setAttr ".ihi" 0;
createNode groupId -n "groupId15";
	rename -uid "28035F3E-461E-3A0E-D44B-B3B8F0C1313B";
	setAttr ".ihi" 0;
createNode groupId -n "groupId18";
	rename -uid "C796DFAB-4A6A-8AF0-C9D4-B7AF32B74D2D";
	setAttr ".ihi" 0;
createNode groupId -n "groupId21";
	rename -uid "5C84C2E2-4709-3686-8183-54A9ED1640DC";
	setAttr ".ihi" 0;
createNode groupId -n "groupId24";
	rename -uid "0961A322-4457-CC33-CB82-82AC8B41BB89";
	setAttr ".ihi" 0;
createNode groupId -n "groupId27";
	rename -uid "F224EA79-4272-A85A-F666-2FBEFBC97A55";
	setAttr ".ihi" 0;
createNode groupId -n "groupId30";
	rename -uid "412F3E71-4CDE-0C91-A9E5-F7856809225A";
	setAttr ".ihi" 0;
createNode groupId -n "groupId33";
	rename -uid "F530DF18-4429-4466-24ED-1E9393941979";
	setAttr ".ihi" 0;
createNode groupId -n "groupId36";
	rename -uid "DBCCA6B1-4F7F-A049-BFD5-998EA86BF8F0";
	setAttr ".ihi" 0;
createNode groupId -n "groupId39";
	rename -uid "6C713495-4CE1-D4AA-2E3E-9C999C866648";
	setAttr ".ihi" 0;
createNode groupId -n "groupId57";
	rename -uid "D8E60FF8-4333-B752-30B8-4C8463FEAC5F";
	setAttr ".ihi" 0;
createNode groupId -n "groupId63";
	rename -uid "2DF14169-4D6B-89F3-5D1A-2ABFDD80C4EE";
	setAttr ".ihi" 0;
createNode groupId -n "groupId66";
	rename -uid "D4F70122-473F-6035-72BD-838B0DCE27D4";
	setAttr ".ihi" 0;
createNode groupId -n "groupId76";
	rename -uid "C4F472E4-4E08-BA01-989F-B19A8239FA90";
	setAttr ".ihi" 0;
createNode groupId -n "groupId79";
	rename -uid "0F09404B-47B8-B49E-BE4C-ECAD6497A496";
	setAttr ".ihi" 0;
createNode groupId -n "groupId82";
	rename -uid "744AAB44-4A87-25D2-BCF2-86AFE655DF2C";
	setAttr ".ihi" 0;
createNode groupId -n "groupId85";
	rename -uid "A3989475-4241-39CD-633D-9081C347A3C7";
	setAttr ".ihi" 0;
createNode groupId -n "groupId88";
	rename -uid "F5C2DD33-4CC0-2D15-A6F8-8EBDF047B8CF";
	setAttr ".ihi" 0;
createNode groupId -n "groupId91";
	rename -uid "BAA0BF3F-44AF-9F4E-D9C8-D0A480E0E121";
	setAttr ".ihi" 0;
createNode groupId -n "groupId94";
	rename -uid "28250420-4181-0418-249C-62B5141D35FD";
	setAttr ".ihi" 0;
createNode groupId -n "groupId97";
	rename -uid "66CE4305-4BFE-63A7-FF26-CD814FF636CF";
	setAttr ".ihi" 0;
createNode groupId -n "groupId108";
	rename -uid "A84B5E91-45EE-141A-30B0-02945C58B7B5";
	setAttr ".ihi" 0;
createNode groupId -n "groupId112";
	rename -uid "86875028-41BF-D951-410F-F48FFEB2B4AF";
	setAttr ".ihi" 0;
createNode groupId -n "groupId115";
	rename -uid "279E9232-4993-2A95-DB2F-6F9B1CEE6AEC";
	setAttr ".ihi" 0;
createNode groupId -n "groupId122";
	rename -uid "7FB45351-41DA-6A19-6930-058722B04703";
	setAttr ".ihi" 0;
createNode groupId -n "groupId127";
	rename -uid "CB68FC4C-4915-AA29-24D9-BD92CB628D24";
	setAttr ".ihi" 0;
createNode groupId -n "groupId132";
	rename -uid "1BAA835C-438A-A9FF-AF1F-ACA9EBAE190E";
	setAttr ".ihi" 0;
createNode groupId -n "groupId135";
	rename -uid "52C24672-44CD-9394-90A4-6C8C3BAAFDE6";
	setAttr ".ihi" 0;
createNode groupId -n "groupId138";
	rename -uid "AE66A95D-43A9-D8F7-9681-1ABFCA8A2743";
	setAttr ".ihi" 0;
createNode groupId -n "groupId144";
	rename -uid "DE49FE0C-4D5D-A003-F5F0-1395852120AC";
	setAttr ".ihi" 0;
createNode groupId -n "groupId148";
	rename -uid "987E257B-4B27-6BF2-7B87-61AA6DB89CD5";
	setAttr ".ihi" 0;
createNode groupId -n "groupId151";
	rename -uid "010618B3-413C-3486-B5AD-E28440B18BDC";
	setAttr ".ihi" 0;
createNode groupId -n "groupId154";
	rename -uid "D70202A6-4348-B2E0-AA56-F896E788FF32";
	setAttr ".ihi" 0;
createNode groupId -n "groupId157";
	rename -uid "BFA3B0A0-48C8-3D1E-C9D7-44BC8AEDBEA0";
	setAttr ".ihi" 0;
createNode groupId -n "groupId160";
	rename -uid "D65198F6-463D-706E-BCCE-A7ABCD74404C";
	setAttr ".ihi" 0;
createNode groupId -n "groupId163";
	rename -uid "0A70E22C-4E21-07CC-D446-2FB530BF0B3C";
	setAttr ".ihi" 0;
createNode groupId -n "groupId172";
	rename -uid "E0AC408E-4596-DFAC-E5EA-AA81A19E593B";
	setAttr ".ihi" 0;
createNode groupId -n "groupId175";
	rename -uid "B588F1F3-4177-4E67-C08C-F9A36EB597A2";
	setAttr ".ihi" 0;
createNode groupId -n "groupId178";
	rename -uid "12C1AC67-4AAF-9F8F-F02F-4DBBEB60CCF8";
	setAttr ".ihi" 0;
createNode groupId -n "groupId181";
	rename -uid "897C03BC-41AD-A2CD-A5AB-00B3B282D342";
	setAttr ".ihi" 0;
createNode groupId -n "groupId188";
	rename -uid "1C42A198-4AA0-E3CF-B78A-07A731D39CFA";
	setAttr ".ihi" 0;
createNode groupId -n "groupId191";
	rename -uid "FAF4F091-4288-D4D5-3222-9FB1208E922B";
	setAttr ".ihi" 0;
createNode nodeGraphEditorInfo -n "hyperShadePrimaryNodeEditorSavedTabsInfo8";
	rename -uid "11966B54-4CA7-56E9-C8EF-D080D2B2B81E";
	setAttr ".tgi[0].tn" -type "string" "Untitled_1";
	setAttr ".tgi[0].vl" -type "double2" -175.28157482488865 -469.29196944915714 ;
	setAttr ".tgi[0].vh" -type "double2" 633.12176384454631 133.22902205394561 ;
	setAttr -s 3 ".tgi[0].ni";
	setAttr ".tgi[0].ni[0].x" 262.85714721679687;
	setAttr ".tgi[0].ni[0].y" -220;
	setAttr ".tgi[0].ni[0].nvs" 1923;
	setAttr ".tgi[0].ni[1].x" 1.4285714626312256;
	setAttr ".tgi[0].ni[1].y" -37.142856597900391;
	setAttr ".tgi[0].ni[1].nvs" 1923;
	setAttr ".tgi[0].ni[2].x" 262.85714721679687;
	setAttr ".tgi[0].ni[2].y" -1.4285714626312256;
	setAttr ".tgi[0].ni[2].nvs" 1923;
createNode groupId -n "groupId206";
	rename -uid "C21CF2E8-48FD-3AF8-DA03-5CA8036D597C";
	setAttr ".ihi" 0;
createNode groupId -n "groupId209";
	rename -uid "941607B1-4CA9-11B0-7308-8482E3753FAB";
	setAttr ".ihi" 0;
createNode groupId -n "groupId215";
	rename -uid "7D92686B-4EAB-C606-AC82-D99CD9D1F2ED";
	setAttr ".ihi" 0;
createNode groupId -n "groupId218";
	rename -uid "F4E17563-4085-4939-F9F0-CC85424E1926";
	setAttr ".ihi" 0;
createNode groupId -n "groupId221";
	rename -uid "4712405C-4F90-2E8D-68EF-D29225B5F91E";
	setAttr ".ihi" 0;
createNode groupId -n "groupId224";
	rename -uid "7901AF97-4DF2-83D8-070E-E183D0F7CA79";
	setAttr ".ihi" 0;
createNode groupId -n "groupId227";
	rename -uid "B2EE3EBE-4970-C7DC-1191-549CD498D5D5";
	setAttr ".ihi" 0;
createNode groupId -n "groupId230";
	rename -uid "7EE470C3-4172-97A4-13FE-09821DB13461";
	setAttr ".ihi" 0;
createNode groupId -n "groupId233";
	rename -uid "87469EFD-44F5-8310-A01F-3FBBB53ACB09";
	setAttr ".ihi" 0;
createNode groupId -n "groupId236";
	rename -uid "F91F0BB6-4D78-36FE-CF01-FE88B22CC03C";
	setAttr ".ihi" 0;
createNode groupId -n "groupId239";
	rename -uid "4EE034EC-4A03-E279-0656-0DA937723093";
	setAttr ".ihi" 0;
createNode groupId -n "groupId242";
	rename -uid "AB021899-4EAC-1D96-BE2B-E3A0A5C692A7";
	setAttr ".ihi" 0;
createNode groupId -n "groupId245";
	rename -uid "07013E03-4C05-6AE3-D1BC-8588CA50C6F7";
	setAttr ".ihi" 0;
createNode groupId -n "groupId248";
	rename -uid "3E85D15D-4E1F-2E7C-E466-C0AB41C829E6";
	setAttr ".ihi" 0;
createNode groupId -n "groupId251";
	rename -uid "D1788C76-4B7A-1583-59FD-2B9EDCCA284C";
	setAttr ".ihi" 0;
createNode groupId -n "groupId254";
	rename -uid "52A4610D-4569-8D18-24ED-878425AF9A6D";
	setAttr ".ihi" 0;
createNode groupId -n "groupId257";
	rename -uid "7E043AF7-43E4-E51C-E842-C7B7ABE68B72";
	setAttr ".ihi" 0;
createNode groupId -n "groupId272";
	rename -uid "CE7D248C-406C-02DE-29D2-22B6735A66EA";
	setAttr ".ihi" 0;
createNode groupId -n "groupId275";
	rename -uid "82463C8A-4A3B-1046-89CF-EA97D155DE54";
	setAttr ".ihi" 0;
createNode groupId -n "groupId278";
	rename -uid "C1418285-47B0-D5ED-290F-999E1DA26035";
	setAttr ".ihi" 0;
createNode groupId -n "groupId281";
	rename -uid "1D855A7C-467D-2EFE-DC9C-7CA6DD762D45";
	setAttr ".ihi" 0;
createNode groupId -n "groupId284";
	rename -uid "65134A5D-454E-F8E4-34F7-8AB760F0969B";
	setAttr ".ihi" 0;
createNode groupId -n "groupId287";
	rename -uid "14FD7F31-4955-23AE-001C-0BA97D83DBA4";
	setAttr ".ihi" 0;
createNode groupId -n "groupId325";
	rename -uid "5E27AC36-4E8B-C805-0F42-B8AF5A9CEAA9";
	setAttr ".ihi" 0;
createNode blindDataTemplate -n "blindDataTemplate1";
	rename -uid "4C2F3B77-49DA-FC1C-5279-578D41086FFF";
	addAttr -ci true -sn "MaxVisibility" -ln "MaxVisibility" -min 0 -max 1 -at "bool";
	setAttr ".tid" 16180;
createNode groupId -n "groupId2";
	rename -uid "E8E8998F-49B1-55F6-7F4A-A8986758F0DF";
	setAttr ".ihi" 0;
createNode groupId -n "groupId4";
	rename -uid "069BFA55-4417-1FBC-5C77-08BB2DDB07E3";
	setAttr ".ihi" 0;
createNode nodeGraphEditorInfo -n "hyperShadePrimaryNodeEditorSavedTabsInfo7";
	rename -uid "7DC56336-4E58-7052-115E-9F9AC3765C27";
	setAttr ".tgi[0].tn" -type "string" "Untitled_1";
	setAttr ".tgi[0].vl" -type "double2" 1193.5168418121386 -1373.1961195483382 ;
	setAttr ".tgi[0].vh" -type "double2" 2851.1177470631696 117.84198287480496 ;
	setAttr -s 17 ".tgi[0].ni";
	setAttr ".tgi[0].ni[0].x" 524.28570556640625;
	setAttr ".tgi[0].ni[0].y" -40;
	setAttr ".tgi[0].ni[0].nvs" 1923;
	setAttr ".tgi[0].ni[1].x" 1047.142822265625;
	setAttr ".tgi[0].ni[1].y" -132.85714721679687;
	setAttr ".tgi[0].ni[1].nvs" 1923;
	setAttr ".tgi[0].ni[2].x" 262.85714721679687;
	setAttr ".tgi[0].ni[2].y" -261.42855834960937;
	setAttr ".tgi[0].ni[2].nvs" 1923;
	setAttr ".tgi[0].ni[3].x" 1422.857177734375;
	setAttr ".tgi[0].ni[3].y" -90;
	setAttr ".tgi[0].ni[3].nvs" 1923;
	setAttr ".tgi[0].ni[4].x" 1684.2857666015625;
	setAttr ".tgi[0].ni[4].y" -272.85714721679687;
	setAttr ".tgi[0].ni[4].nvs" 1923;
	setAttr ".tgi[0].ni[5].x" 1684.2857666015625;
	setAttr ".tgi[0].ni[5].y" -54.285713195800781;
	setAttr ".tgi[0].ni[5].nvs" 1923;
	setAttr ".tgi[0].ni[6].x" 524.28570556640625;
	setAttr ".tgi[0].ni[6].y" -242.85714721679687;
	setAttr ".tgi[0].ni[6].nvs" 1923;
	setAttr ".tgi[0].ni[7].x" 783.2149658203125;
	setAttr ".tgi[0].ni[7].y" -1.4285714626312256;
	setAttr ".tgi[0].ni[7].nvs" 1923;
	setAttr ".tgi[0].ni[8].x" 262.85714721679687;
	setAttr ".tgi[0].ni[8].y" -32.857143402099609;
	setAttr ".tgi[0].ni[8].nvs" 1923;
	setAttr ".tgi[0].ni[9].x" 6.0575017929077148;
	setAttr ".tgi[0].ni[9].y" -54.171310424804688;
	setAttr ".tgi[0].ni[9].nvs" 1923;
	setAttr ".tgi[0].ni[10].x" 2244.28564453125;
	setAttr ".tgi[0].ni[10].y" -474.28570556640625;
	setAttr ".tgi[0].ni[10].nvs" 1923;
	setAttr ".tgi[0].ni[11].x" 1982.857177734375;
	setAttr ".tgi[0].ni[11].y" -512.85711669921875;
	setAttr ".tgi[0].ni[11].nvs" 1923;
	setAttr ".tgi[0].ni[12].x" 1721.4285888671875;
	setAttr ".tgi[0].ni[12].y" -512.85711669921875;
	setAttr ".tgi[0].ni[12].nvs" 1923;
	setAttr ".tgi[0].ni[13].x" 1457.5006103515625;
	setAttr ".tgi[0].ni[13].y" -517.50067138671875;
	setAttr ".tgi[0].ni[13].nvs" 1923;
	setAttr ".tgi[0].ni[14].x" 1982.857177734375;
	setAttr ".tgi[0].ni[14].y" -728.92919921875;
	setAttr ".tgi[0].ni[14].nvs" 1923;
	setAttr ".tgi[0].ni[15].x" 1721.4285888671875;
	setAttr ".tgi[0].ni[15].y" -742.85711669921875;
	setAttr ".tgi[0].ni[15].nvs" 1923;
	setAttr ".tgi[0].ni[16].x" 2525.71435546875;
	setAttr ".tgi[0].ni[16].y" -552.85711669921875;
	setAttr ".tgi[0].ni[16].nvs" 1923;
createNode groupId -n "groupId50";
	rename -uid "5BE2A3BF-449C-FC10-DE28-6F886932C235";
	setAttr ".ihi" 0;
createNode objectSet -n "textureEditorIsolateSelectSet";
	rename -uid "CD4C6A1D-4937-1B6E-A2EB-1989B6E73ACF";
	setAttr ".ihi" 0;
	setAttr ".fo" yes;
createNode nodeGraphEditorInfo -n "Grandpa_Model_003_hyperShadePrimaryNodeEditorSavedTabsInfo";
	rename -uid "7A418CA1-467D-596E-FD1C-BD99C18D23E8";
	setAttr ".tgi[0].tn" -type "string" "Untitled_1";
	setAttr ".tgi[0].vl" -type "double2" -862.77082337843376 -298.80951193590062 ;
	setAttr ".tgi[0].vh" -type "double2" 868.72320409428835 302.38094036541344 ;
createNode groupId -n "groupId387";
	rename -uid "5CAEED26-4789-7929-A477-2EBF2F2972F1";
	setAttr ".ihi" 0;
createNode groupId -n "groupId391";
	rename -uid "B8C57428-4EE2-6E54-392A-4CB27B9F3396";
	setAttr ".ihi" 0;
createNode groupId -n "groupId395";
	rename -uid "0E215ABB-403D-0357-9845-238A0FD8A6C2";
	setAttr ".ihi" 0;
createNode groupId -n "groupId399";
	rename -uid "1055A316-4C54-6417-4569-00AC11D4F18F";
	setAttr ".ihi" 0;
createNode groupId -n "groupId403";
	rename -uid "ACDEEAE3-4F18-86CA-B2A8-37AABA5FEFA0";
	setAttr ".ihi" 0;
createNode groupId -n "groupId407";
	rename -uid "0B385130-43D7-509A-9980-418E63690DB7";
	setAttr ".ihi" 0;
createNode groupId -n "groupId415";
	rename -uid "09ED070F-4EDA-C76C-1EC2-9AA0E4237491";
	setAttr ".ihi" 0;
createNode groupId -n "groupId419";
	rename -uid "620DD8F4-43D5-6091-CDB5-989323083503";
	setAttr ".ihi" 0;
createNode groupId -n "groupId422";
	rename -uid "5D055C1E-4BC3-5449-F68A-938EBD86FC2C";
	setAttr ".ihi" 0;
createNode groupId -n "groupId425";
	rename -uid "35BD8045-4871-D276-61E0-5BB8AA2A8228";
	setAttr ".ihi" 0;
createNode groupId -n "groupId428";
	rename -uid "19D61F3B-4161-0CD5-DE72-D6BFEDA5029C";
	setAttr ".ihi" 0;
createNode groupId -n "groupId435";
	rename -uid "AB56C5A2-4750-7234-FFE9-4285F76C54FC";
	setAttr ".ihi" 0;
createNode groupId -n "groupId439";
	rename -uid "610860BD-4294-D2F0-F740-5A9B53783C1B";
	setAttr ".ihi" 0;
createNode groupId -n "groupId443";
	rename -uid "B288B908-4DFD-F620-66BB-FABE123B7DA7";
	setAttr ".ihi" 0;
createNode groupId -n "groupId447";
	rename -uid "A24E923C-4EF9-6218-B5E1-3EAEAAE4C881";
	setAttr ".ihi" 0;
createNode groupId -n "groupId470";
	rename -uid "36FAF340-4888-40A2-A5DE-108577CDF0FE";
	setAttr ".ihi" 0;
createNode groupId -n "groupId473";
	rename -uid "A365EACF-4A0C-8BAC-E8CC-788432B041FC";
	setAttr ".ihi" 0;
createNode nodeGraphEditorInfo -n "hyperShadePrimaryNodeEditorSavedTabsInfo";
	rename -uid "5C553E34-4DF0-28DD-DAAA-B9A89EC77C1E";
	setAttr ".tgi[0].tn" -type "string" "Untitled_1";
	setAttr ".tgi[0].vl" -type "double2" -112.54197705611108 -735.71425647962769 ;
	setAttr ".tgi[0].vh" -type "double2" 1375.6371649604562 110.7142813148954 ;
createNode shapeEditorManager -n "shapeEditorManager";
	rename -uid "0B47ADF9-40D0-84EA-6E07-63ACA27E9306";
createNode poseInterpolatorManager -n "poseInterpolatorManager";
	rename -uid "761EE5CF-4B72-4FA7-937E-3287C7FB9398";
createNode nodeGraphEditorInfo -n "MayaNodeEditorSavedTabsInfo";
	rename -uid "5E79DFC1-453B-DF16-164A-85A28BC5364C";
	setAttr ".tgi[0].tn" -type "string" "Untitled_1";
	setAttr ".tgi[0].vl" -type "double2" -333.30162090308141 -578.25327828395871 ;
	setAttr ".tgi[0].vh" -type "double2" 958.93418721514377 69.126574806519287 ;
	setAttr -s 14 ".tgi[0].ni";
	setAttr ".tgi[0].ni[0].x" 892.85711669921875;
	setAttr ".tgi[0].ni[0].y" 13920;
	setAttr ".tgi[0].ni[0].nvs" 18304;
	setAttr ".tgi[0].ni[1].x" 892.85711669921875;
	setAttr ".tgi[0].ni[1].y" 13431.4287109375;
	setAttr ".tgi[0].ni[1].nvs" 18304;
	setAttr ".tgi[0].ni[2].x" 351.42855834960937;
	setAttr ".tgi[0].ni[2].y" 3024.28564453125;
	setAttr ".tgi[0].ni[2].nvs" 18304;
	setAttr ".tgi[0].ni[3].x" 658.5714111328125;
	setAttr ".tgi[0].ni[3].y" -3162.857177734375;
	setAttr ".tgi[0].ni[3].nvs" 18304;
	setAttr ".tgi[0].ni[4].x" -220;
	setAttr ".tgi[0].ni[4].y" -3162.857177734375;
	setAttr ".tgi[0].ni[4].nvs" 18304;
	setAttr ".tgi[0].ni[5].x" 658.5714111328125;
	setAttr ".tgi[0].ni[5].y" -3162.857177734375;
	setAttr ".tgi[0].ni[5].nvs" 18304;
	setAttr ".tgi[0].ni[6].x" 351.42855834960937;
	setAttr ".tgi[0].ni[6].y" 1665.7142333984375;
	setAttr ".tgi[0].ni[6].nvs" 18304;
	setAttr ".tgi[0].ni[7].x" 351.42855834960937;
	setAttr ".tgi[0].ni[7].y" 2522.857177734375;
	setAttr ".tgi[0].ni[7].nvs" 18304;
	setAttr ".tgi[0].ni[8].x" 658.5714111328125;
	setAttr ".tgi[0].ni[8].y" -3467.142822265625;
	setAttr ".tgi[0].ni[8].nvs" 18304;
	setAttr ".tgi[0].ni[9].x" 658.5714111328125;
	setAttr ".tgi[0].ni[9].y" -3264.28564453125;
	setAttr ".tgi[0].ni[9].nvs" 18304;
	setAttr ".tgi[0].ni[10].x" 658.5714111328125;
	setAttr ".tgi[0].ni[10].y" -3365.71435546875;
	setAttr ".tgi[0].ni[10].nvs" 18304;
	setAttr ".tgi[0].ni[11].x" 351.42855834960937;
	setAttr ".tgi[0].ni[11].y" -3162.857177734375;
	setAttr ".tgi[0].ni[11].nvs" 18304;
	setAttr ".tgi[0].ni[12].x" 892.85711669921875;
	setAttr ".tgi[0].ni[12].y" 14395.7138671875;
	setAttr ".tgi[0].ni[12].nvs" 18304;
	setAttr ".tgi[0].ni[13].x" 892.85711669921875;
	setAttr ".tgi[0].ni[13].y" 15417.142578125;
	setAttr ".tgi[0].ni[13].nvs" 18304;
createNode dagPose -n "bindPose1";
	rename -uid "7DC6D8A9-4B65-BD80-B0BF-D599AA31C708";
	setAttr -s 9 ".wm";
	setAttr -s 9 ".xm";
	setAttr ".xm[0]" -type "matrix" "xform" 1 1 1 0 0 0 0 0 24.580673643409678 3.1327182591502223 0
		 0 0 0 0 0 0 0 0 0 0 0 0 0 0 0 0 0 1 0 0 0 1 1 1 1 yes;
	setAttr ".xm[1]" -type "matrix" "xform" 1 1 1 0 0 0 0 5.8738467359066693 0 0 0
		 0 0 0 0 0 0 0 0 0 0 0 0 0 0 0 0 0 1 -0.0333325264570698 0.033332526457069786 -0.70632070809228609 0.70632070809228642 1
		 1 1 yes;
	setAttr ".xm[2]" -type "matrix" "xform" 1 1 1 0 0 0 0 -3.5527136788005009e-015
		 4.9904370447471589 4.4408920985006262e-016 0 0 0 0 0 0 0 0 0 0 0 0 0 0 0 0 0 0 1 
		0.211087642534555 0 0 0.97746713866462231 1 1 1 yes;
	setAttr ".xm[3]" -type "matrix" "xform" 1 1 1 0 0 0 0 7.1054273576010019e-015
		 8.5661380255023865 4.8849813083506888e-015 0 0 0 0 0 0 0 0 0 0 0 0 0 0 0 0 0 0 1 
		-0.20932903099447295 0 0 0.97784526218769141 1 1 1 yes;
	setAttr ".xm[4]" -type "matrix" "xform" 1 1 1 0 0 0 0 0 4.6504893178323599 -4.4408920985006262e-015 0
		 0 0 0 0 0 0 0 0 0 0 0 0 0 0 0 0 0 1 0 0 0 1 1 1 1 yes;
	setAttr ".xm[5]" -type "matrix" "xform" 1 1 1 0 0 0 0 3.5527136788005009e-015
		 0 -8.8817841970012523e-016 0 0 0 0 0 0 0 0 0 0 0 0 0 0 0 0 0 0 1 -0.17112621673611833 0 0 0.98524911466368903 1
		 1 1 yes;
	setAttr ".xm[6]" -type "matrix" "xform" 1 1 1 0 0 0 0 0 17.800955090245981 -3.5527136788005009e-015 0
		 0 0 0 0 0 0 0 0 0 0 0 0 0 0 0 0 0 1 0 0 0 1 1 1 1 yes;
	setAttr ".xm[7]" -type "matrix" "xform" 1 1 1 0 0 0 0 0 0 0 0 0 0 0 0 0 0 0
		 0 0 0 0 0 0 0 0 0 0 1 -0.66419082573204291 0 0 0.747563072264399 1 1 1 yes;
	setAttr ".xm[8]" -type "matrix" "xform" 1 1 1 0 0 0 0 -3.5527136788005009e-015
		 10.315738037855144 8.8817841970012523e-015 0 0 0 0 0 0 0 0 0 0 0 0 0 0 0 0 0 0 1 
		0 0 0 1 1 1 1 yes;
	setAttr -s 9 ".m";
	setAttr -s 9 ".p";
	setAttr -s 9 ".g[0:8]" yes yes yes yes yes yes no yes no;
	setAttr ".bp" yes;
select -ne :time1;
	setAttr -av -k on ".cch";
	setAttr -av -cb on ".ihi";
	setAttr -av -k on ".nds";
	setAttr -cb on ".bnm";
	setAttr -k on ".o" 0;
	setAttr -av -k on ".unw";
	setAttr -k on ".etw";
	setAttr -k on ".tps";
	setAttr -av -k on ".tms";
select -ne :hardwareRenderingGlobals;
	setAttr ".otfna" -type "stringArray" 22 "NURBS Curves" "NURBS Surfaces" "Polygons" "Subdiv Surface" "Particles" "Particle Instance" "Fluids" "Strokes" "Image Planes" "UI" "Lights" "Cameras" "Locators" "Joints" "IK Handles" "Deformers" "Motion Trails" "Components" "Hair Systems" "Follicles" "Misc. UI" "Ornaments"  ;
	setAttr ".otfva" -type "Int32Array" 22 0 1 1 1 1 1
		 1 1 1 0 0 0 0 0 0 0 0 0
		 0 0 0 0 ;
	setAttr -k on ".mbsof";
	setAttr ".msaa" yes;
	setAttr ".fprt" yes;
select -ne :renderPartition;
	setAttr -k on ".cch";
	setAttr -cb on ".ihi";
	setAttr -k on ".nds";
	setAttr -cb on ".bnm";
	setAttr -s 2 ".st";
	setAttr -cb on ".an";
	setAttr -cb on ".pt";
select -ne :renderGlobalsList1;
	setAttr -k on ".cch";
	setAttr -cb on ".ihi";
	setAttr -k on ".nds";
	setAttr -cb on ".bnm";
select -ne :defaultShaderList1;
	setAttr -k on ".cch";
	setAttr -cb on ".ihi";
	setAttr -k on ".nds";
	setAttr -cb on ".bnm";
	setAttr -s 4 ".s";
select -ne :postProcessList1;
	setAttr -k on ".cch";
	setAttr -cb on ".ihi";
	setAttr -k on ".nds";
	setAttr -cb on ".bnm";
	setAttr -s 2 ".p";
select -ne :defaultRenderingList1;
	setAttr -k on ".ihi";
select -ne :initialShadingGroup;
	setAttr -av -k on ".cch";
	setAttr -cb on ".ihi";
	setAttr -av -k on ".nds";
	setAttr -cb on ".bnm";
	setAttr -k on ".mwc";
	setAttr -cb on ".an";
	setAttr -cb on ".il";
	setAttr -cb on ".vo";
	setAttr -cb on ".eo";
	setAttr -cb on ".fo";
	setAttr -cb on ".epo";
	setAttr -k on ".ro" yes;
select -ne :initialParticleSE;
	setAttr -av -k on ".cch";
	setAttr -cb on ".ihi";
	setAttr -av -k on ".nds";
	setAttr -cb on ".bnm";
	setAttr -k on ".mwc";
	setAttr -cb on ".an";
	setAttr -cb on ".il";
	setAttr -cb on ".vo";
	setAttr -cb on ".eo";
	setAttr -cb on ".fo";
	setAttr -cb on ".epo";
	setAttr -k on ".ro" yes;
select -ne :defaultRenderGlobals;
	setAttr -k on ".cch";
	setAttr -cb on ".ihi";
	setAttr -k on ".nds";
	setAttr -cb on ".bnm";
	setAttr -k on ".macc";
	setAttr -k on ".macd";
	setAttr -k on ".macq";
	setAttr -k on ".mcfr";
	setAttr -cb on ".ifg";
	setAttr -k on ".clip";
	setAttr -k on ".edm";
	setAttr -k on ".edl";
	setAttr ".ren" -type "string" "arnold";
	setAttr -av -k on ".esr";
	setAttr -k on ".ors";
	setAttr -cb on ".sdf";
	setAttr ".outf" 51;
	setAttr ".imfkey" -type "string" "exr";
	setAttr -k on ".gama";
	setAttr ".an" yes;
	setAttr -k on ".ar";
	setAttr ".fs" 0;
	setAttr ".ef" 200;
	setAttr -av -k on ".bfs";
	setAttr -k on ".me";
	setAttr -k on ".se";
	setAttr -k on ".be";
	setAttr -cb on ".ep";
	setAttr -k on ".fec";
	setAttr -k on ".ofc";
	setAttr -cb on ".ofe";
	setAttr -cb on ".efe";
	setAttr -cb on ".oft";
	setAttr -cb on ".umfn";
	setAttr -cb on ".ufe";
	setAttr ".pff" yes;
	setAttr -cb on ".peie";
	setAttr -cb on ".ifp" -type "string" "<Scene>";
	setAttr -k on ".comp";
	setAttr -k on ".cth";
	setAttr -k on ".soll";
	setAttr -k on ".rd";
	setAttr -k on ".lp";
	setAttr -av -k on ".sp";
	setAttr -k on ".shs";
	setAttr -k on ".lpr";
	setAttr -cb on ".gv";
	setAttr -cb on ".sv";
	setAttr -k on ".mm";
	setAttr -k on ".npu";
	setAttr -k on ".itf";
	setAttr -k on ".shp";
	setAttr -cb on ".isp";
	setAttr -k on ".uf";
	setAttr -k on ".oi";
	setAttr -k on ".rut";
	setAttr -cb on ".mb";
	setAttr -av -k on ".mbf";
	setAttr -k on ".afp";
	setAttr -k on ".pfb";
	setAttr -k on ".pram" -type "string" "";
	setAttr -k on ".poam" -type "string" "";
	setAttr -k on ".prlm" -type "string" "";
	setAttr -k on ".polm" -type "string" "";
	setAttr -cb on ".prm" -type "string" "";
	setAttr -cb on ".pom" -type "string" "";
	setAttr -cb on ".pfrm";
	setAttr -cb on ".pfom";
	setAttr -av -k on ".bll";
	setAttr -k on ".bls";
	setAttr -k on ".smv";
	setAttr -k on ".ubc";
	setAttr -k on ".mbc";
	setAttr -cb on ".mbt";
	setAttr -k on ".udbx";
	setAttr -k on ".smc";
	setAttr -k on ".kmv";
	setAttr -cb on ".isl";
	setAttr -cb on ".ism";
	setAttr -cb on ".imb";
	setAttr -k on ".rlen";
	setAttr -av -k on ".frts";
	setAttr -k on ".tlwd";
	setAttr -k on ".tlht";
	setAttr -k on ".jfc";
	setAttr -cb on ".rsb";
	setAttr -k on ".ope";
	setAttr -k on ".oppf";
	setAttr -cb on ".hbl";
select -ne :defaultResolution;
	setAttr -av -k on ".cch";
	setAttr -k on ".ihi";
	setAttr -av -k on ".nds";
	setAttr -k on ".bnm";
	setAttr -av -k on ".w" 1920;
	setAttr -av -k on ".h" 1080;
	setAttr -av -k on ".pa" 1;
	setAttr -av -k on ".al" yes;
	setAttr -av -k on ".dar" 1.7777777910232544;
	setAttr -av -k on ".ldar";
	setAttr -k on ".dpi";
	setAttr -av -k on ".off";
	setAttr -av -k on ".fld";
	setAttr -av -k on ".zsl";
	setAttr -k on ".isu";
	setAttr -k on ".pdu";
select -ne :hardwareRenderGlobals;
	setAttr -k on ".cch";
	setAttr -cb on ".ihi";
	setAttr -k on ".nds";
	setAttr -cb on ".bnm";
	setAttr -k off -cb on ".ctrs" 256;
	setAttr -av -k off -cb on ".btrs" 512;
	setAttr -k off -cb on ".fbfm";
	setAttr -k off -cb on ".ehql";
	setAttr -k off -cb on ".eams";
	setAttr -k off -cb on ".eeaa";
	setAttr -k off -cb on ".engm";
	setAttr -k off -cb on ".mes";
	setAttr -k off -cb on ".emb";
	setAttr -av -k off -cb on ".mbbf";
	setAttr -k off -cb on ".mbs";
	setAttr -k off -cb on ".trm";
	setAttr -k off -cb on ".tshc";
	setAttr -k off -cb on ".enpt";
	setAttr -k off -cb on ".clmt";
	setAttr -k off -cb on ".tcov";
	setAttr -k off -cb on ".lith";
	setAttr -k off -cb on ".sobc";
	setAttr -k off -cb on ".cuth";
	setAttr -k off -cb on ".hgcd";
	setAttr -k off -cb on ".hgci";
	setAttr -k off -cb on ".mgcs";
	setAttr -k off -cb on ".twa";
	setAttr -k off -cb on ".twz";
	setAttr -cb on ".hwcc";
	setAttr -cb on ".hwdp";
	setAttr -cb on ".hwql";
	setAttr -k on ".hwfr";
	setAttr -k on ".soll";
	setAttr -k on ".sosl";
	setAttr -k on ".bswa";
	setAttr -k on ".shml";
	setAttr -k on ".hwel";
connectAttr "Spine_2_Jnt.s" "ChestPiv_Jnt.is";
connectAttr "Heel_L_Jnt.s" "FootIn_L_Jnt.is";
connectAttr "Heel_L_Jnt.s" "FootOut_L_Jnt.is";
connectAttr "Heel_L_Jnt.s" "KneeIk_L_Jnt.is";
connectAttr "Heel_L_Jnt.s" "UpKneeIk_L_Jnt.is";
connectAttr "Heel_L_Jnt.s" "LowKneeIk_L_Jnt.is";
connectAttr "Heel_L_Jnt.s" "ElbowIk_L_Jnt.is";
connectAttr "Heel_R_Jnt.s" "FootIn_R_Jnt.is";
connectAttr "Heel_R_Jnt.s" "FootOut_R_Jnt.is";
connectAttr "Heel_R_Jnt.s" "KneeIk_R_Jnt.is";
connectAttr "Heel_R_Jnt.s" "UpKneeIk_R_Jnt.is";
connectAttr "Heel_R_Jnt.s" "LowKneeIk_R_Jnt.is";
connectAttr "Heel_R_Jnt.s" "ElbowIk_R_Jnt.is";
connectAttr "EyeTar_Jnt.s" "EyeTar_L_Jnt.is";
connectAttr "EyeTar_Jnt.s" "EyeTar_R_Jnt.is";
connectAttr "Root_Jnt.s" "Pelvis_Jnt.is";
connectAttr "Pelvis_Jnt.s" "UpperLeg_L_Jnt.is";
connectAttr "UpperLeg_L_Jnt.s" "MiddleLeg_L_Jnt.is";
connectAttr "MiddleLeg_L_Jnt.s" "LowerLeg_L_Jnt.is";
connectAttr "LowerLeg_L_Jnt.s" "Ankle_L_Jnt.is";
connectAttr "Ankle_L_Jnt.s" "Ball_L_Jnt.is";
connectAttr "Ball_L_Jnt.s" "Toe_L_Jnt.is";
connectAttr "Toe_L_Jnt.s" "IndexToe_1_L_Jnt.is";
connectAttr "IndexToe_1_L_Jnt.s" "IndexToe_2_L_Jnt.is";
connectAttr "IndexToe_2_L_Jnt.s" "IndexToe_3_L_Jnt.is";
connectAttr "IndexToe_3_L_Jnt.s" "IndexToe_4_L_Jnt.is";
connectAttr "IndexToe_4_L_Jnt.s" "IndexToe_5_L_Jnt.is";
connectAttr "Toe_L_Jnt.s" "MiddleToe_1_L_Jnt.is";
connectAttr "MiddleToe_1_L_Jnt.s" "MiddleToe_2_L_Jnt.is";
connectAttr "MiddleToe_2_L_Jnt.s" "MiddleToe_3_L_Jnt.is";
connectAttr "MiddleToe_3_L_Jnt.s" "MiddleToe_4_L_Jnt.is";
connectAttr "MiddleToe_4_L_Jnt.s" "MiddleToe_5_L_Jnt.is";
connectAttr "Toe_L_Jnt.s" "PinkyToe_1_L_Jnt.is";
connectAttr "PinkyToe_1_L_Jnt.s" "PinkyToe_2_L_Jnt.is";
connectAttr "PinkyToe_2_L_Jnt.s" "PinkyToe_3_L_Jnt.is";
connectAttr "PinkyToe_3_L_Jnt.s" "PinkyToe_4_L_Jnt.is";
connectAttr "PinkyToe_4_L_Jnt.s" "PinkyToe_5_L_Jnt.is";
connectAttr "Ankle_L_Jnt.s" "ThumbToe_1_L_Jnt.is";
connectAttr "ThumbToe_1_L_Jnt.s" "ThumbToe_2_L_Jnt.is";
connectAttr "ThumbToe_2_L_Jnt.s" "ThumbToe_3_L_Jnt.is";
connectAttr "ThumbToe_3_L_Jnt.s" "ThumbToe_4_L_Jnt.is";
connectAttr "Pelvis_Jnt.s" "UpperLeg_R_Jnt.is";
connectAttr "UpperLeg_R_Jnt.s" "MiddleLeg_R_Jnt.is";
connectAttr "MiddleLeg_R_Jnt.s" "LowerLeg_R_Jnt.is";
connectAttr "LowerLeg_R_Jnt.s" "Ankle_R_Jnt.is";
connectAttr "Ankle_R_Jnt.s" "Ball_R_Jnt.is";
connectAttr "Ball_R_Jnt.s" "Toe_R_Jnt.is";
connectAttr "Toe_R_Jnt.s" "IndexToe_1_R_Jnt.is";
connectAttr "IndexToe_1_R_Jnt.s" "IndexToe_2_R_Jnt.is";
connectAttr "IndexToe_2_R_Jnt.s" "IndexToe_3_R_Jnt.is";
connectAttr "IndexToe_3_R_Jnt.s" "IndexToe_4_R_Jnt.is";
connectAttr "IndexToe_4_R_Jnt.s" "IndexToe_5_R_Jnt.is";
connectAttr "Toe_R_Jnt.s" "MiddleToe_1_R_Jnt.is";
connectAttr "MiddleToe_1_R_Jnt.s" "MiddleToe_2_R_Jnt.is";
connectAttr "MiddleToe_2_R_Jnt.s" "MiddleToe_3_R_Jnt.is";
connectAttr "MiddleToe_3_R_Jnt.s" "MiddleToe_4_R_Jnt.is";
connectAttr "MiddleToe_4_R_Jnt.s" "MiddleToe_5_R_Jnt.is";
connectAttr "Toe_R_Jnt.s" "PinkyToe_1_R_Jnt.is";
connectAttr "PinkyToe_1_R_Jnt.s" "PinkyToe_2_R_Jnt.is";
connectAttr "PinkyToe_2_R_Jnt.s" "PinkyToe_3_R_Jnt.is";
connectAttr "PinkyToe_3_R_Jnt.s" "PinkyToe_4_R_Jnt.is";
connectAttr "PinkyToe_4_R_Jnt.s" "PinkyToe_5_R_Jnt.is";
connectAttr "Ankle_R_Jnt.s" "ThumbToe_1_R_Jnt.is";
connectAttr "ThumbToe_1_R_Jnt.s" "ThumbToe_2_R_Jnt.is";
connectAttr "ThumbToe_2_R_Jnt.s" "ThumbToe_3_R_Jnt.is";
connectAttr "ThumbToe_3_R_Jnt.s" "ThumbToe_4_R_Jnt.is";
connectAttr "Root_Jnt.s" "Spine_1_Jnt.is";
connectAttr "Spine_1_Jnt.s" "Spine_2_Jnt.is";
connectAttr "Spine_2_Jnt.s" "Spine_3_Jnt.is";
connectAttr "Spine_3_Jnt.s" "Neck_Jnt.is";
connectAttr "Neck_Jnt.s" "NeckTip_Jnt.is";
connectAttr "NeckTip_Jnt.s" "Head_Jnt.is";
connectAttr "Head_Jnt.s" "HeadTip_Jnt.is";
connectAttr "Head_Jnt.s" "Eye_L_Jnt.is";
connectAttr "Head_Jnt.s" "Eye_R_Jnt.is";
connectAttr "Spine_2_Jnt.s" "UpArm_L_Jnt.is";
connectAttr "UpArm_L_Jnt.s" "Forearm_L_Jnt.is";
connectAttr "Forearm_L_Jnt.s" "Wrist_L_Jnt.is";
connectAttr "Wrist_L_Jnt.s" "Hand_L_Jnt.is";
connectAttr "Hand_L_Jnt.s" "HandWing_L_Jnt.is";
connectAttr "HandWing_L_Jnt.s" "HandWingTip_L_Jnt.is";
connectAttr "Wrist_L_Jnt.s" "WristWing_L_Jnt.is";
connectAttr "WristWing_L_Jnt.s" "WristWingTip_L_Jnt.is";
connectAttr "Forearm_L_Jnt.s" "ForearmWing_L_Jnt.is";
connectAttr "ForearmWing_L_Jnt.s" "ForearmWingTip_L_Jnt.is";
connectAttr "UpArm_L_Jnt.s" "UpArmWing_L_Jnt.is";
connectAttr "UpArmWing_L_Jnt.s" "UpArmWingTip_L_Jnt.is";
connectAttr "Spine_2_Jnt.s" "UpArm_R_Jnt.is";
connectAttr "UpArm_R_Jnt.s" "Forearm_R_Jnt.is";
connectAttr "Forearm_R_Jnt.s" "Wrist_R_Jnt.is";
connectAttr "Wrist_R_Jnt.s" "Hand_R_Jnt.is";
connectAttr "Hand_R_Jnt.s" "HandWing_R_Jnt.is";
connectAttr "HandWing_R_Jnt.s" "HandWingTip_R_Jnt.is";
connectAttr "Wrist_R_Jnt.s" "WristWing_R_Jnt.is";
connectAttr "WristWing_R_Jnt.s" "WristWingTip_R_Jnt.is";
connectAttr "Forearm_R_Jnt.s" "ForearmWing_R_Jnt.is";
connectAttr "ForearmWing_R_Jnt.s" "ForearmWingTip_R_Jnt.is";
connectAttr "UpArm_R_Jnt.s" "UpArmWing_R_Jnt.is";
connectAttr "UpArmWing_R_Jnt.s" "UpArmWingTip_R_Jnt.is";
relationship "link" ":lightLinker1" ":initialShadingGroup.message" ":defaultLightSet.message";
relationship "link" ":lightLinker1" ":initialParticleSE.message" ":defaultLightSet.message";
relationship "shadowLink" ":lightLinker1" ":initialShadingGroup.message" ":defaultLightSet.message";
relationship "shadowLink" ":lightLinker1" ":initialParticleSE.message" ":defaultLightSet.message";
connectAttr "layerManager.dli[0]" "defaultLayer.id";
connectAttr "renderLayerManager.rlmi[0]" "defaultRenderLayer.rlid";
connectAttr ":TurtleDefaultBakeLayer.idx" ":TurtleBakeLayerManager.bli[0]";
connectAttr ":TurtleRenderOptions.msg" ":TurtleDefaultBakeLayer.rset";
connectAttr ":initialParticleSE.msg" "hyperShadePrimaryNodeEditorSavedTabsInfo8.tgi[0].ni[0].dn"
		;
connectAttr ":lambert1.msg" "hyperShadePrimaryNodeEditorSavedTabsInfo8.tgi[0].ni[1].dn"
		;
connectAttr ":initialShadingGroup.msg" "hyperShadePrimaryNodeEditorSavedTabsInfo8.tgi[0].ni[2].dn"
		;
connectAttr ":lambert1.msg" "hyperShadePrimaryNodeEditorSavedTabsInfo7.tgi[0].ni[3].dn"
		;
connectAttr ":initialShadingGroup.msg" "hyperShadePrimaryNodeEditorSavedTabsInfo7.tgi[0].ni[4].dn"
		;
connectAttr ":initialParticleSE.msg" "hyperShadePrimaryNodeEditorSavedTabsInfo7.tgi[0].ni[5].dn"
		;
connectAttr "ForearmWing_L_Jnt.msg" "MayaNodeEditorSavedTabsInfo.tgi[0].ni[0].dn"
		;
connectAttr "WristWing_L_Jnt.msg" "MayaNodeEditorSavedTabsInfo.tgi[0].ni[1].dn";
connectAttr "Hand_L_Jnt.msg" "MayaNodeEditorSavedTabsInfo.tgi[0].ni[2].dn";
connectAttr "HandWingTip_L_Jnt.msg" "MayaNodeEditorSavedTabsInfo.tgi[0].ni[3].dn"
		;
connectAttr "bindPose1.msg" "MayaNodeEditorSavedTabsInfo.tgi[0].ni[4].dn";
connectAttr "Root_Jnt.msg" "MayaNodeEditorSavedTabsInfo.tgi[0].ni[5].dn";
connectAttr "Forearm_L_Jnt.msg" "MayaNodeEditorSavedTabsInfo.tgi[0].ni[6].dn";
connectAttr "Wrist_L_Jnt.msg" "MayaNodeEditorSavedTabsInfo.tgi[0].ni[7].dn";
connectAttr "HandWing_L_Jnt.msg" "MayaNodeEditorSavedTabsInfo.tgi[0].ni[8].dn";
connectAttr "UpArmWingTip_L_Jnt.msg" "MayaNodeEditorSavedTabsInfo.tgi[0].ni[9].dn"
		;
connectAttr "UpArmWing_L_Jnt.msg" "MayaNodeEditorSavedTabsInfo.tgi[0].ni[10].dn"
		;
connectAttr "UpArm_L_Jnt.msg" "MayaNodeEditorSavedTabsInfo.tgi[0].ni[11].dn";
connectAttr "WristWingTip_L_Jnt.msg" "MayaNodeEditorSavedTabsInfo.tgi[0].ni[12].dn"
		;
connectAttr "ForearmWingTip_L_Jnt.msg" "MayaNodeEditorSavedTabsInfo.tgi[0].ni[13].dn"
		;
connectAttr "Root_Jnt.msg" "bindPose1.m[0]";
connectAttr "UpArm_L_Jnt.msg" "bindPose1.m[1]";
connectAttr "Forearm_L_Jnt.msg" "bindPose1.m[2]";
connectAttr "Wrist_L_Jnt.msg" "bindPose1.m[3]";
connectAttr "Hand_L_Jnt.msg" "bindPose1.m[4]";
connectAttr "HandWing_L_Jnt.msg" "bindPose1.m[5]";
connectAttr "HandWingTip_L_Jnt.msg" "bindPose1.m[6]";
connectAttr "UpArmWing_L_Jnt.msg" "bindPose1.m[7]";
connectAttr "UpArmWingTip_L_Jnt.msg" "bindPose1.m[8]";
connectAttr "bindPose1.w" "bindPose1.p[0]";
connectAttr "bindPose1.m[0]" "bindPose1.p[1]";
connectAttr "bindPose1.m[1]" "bindPose1.p[2]";
connectAttr "bindPose1.m[2]" "bindPose1.p[3]";
connectAttr "bindPose1.m[3]" "bindPose1.p[4]";
connectAttr "bindPose1.m[4]" "bindPose1.p[5]";
connectAttr "bindPose1.m[5]" "bindPose1.p[6]";
connectAttr "bindPose1.m[1]" "bindPose1.p[7]";
connectAttr "bindPose1.m[7]" "bindPose1.p[8]";
connectAttr "Root_Jnt.bps" "bindPose1.wm[0]";
connectAttr "UpArm_L_Jnt.bps" "bindPose1.wm[1]";
connectAttr "Forearm_L_Jnt.bps" "bindPose1.wm[2]";
connectAttr "Wrist_L_Jnt.bps" "bindPose1.wm[3]";
connectAttr "Hand_L_Jnt.bps" "bindPose1.wm[4]";
connectAttr "HandWing_L_Jnt.bps" "bindPose1.wm[5]";
connectAttr "HandWingTip_L_Jnt.bps" "bindPose1.wm[6]";
connectAttr "UpArmWing_L_Jnt.bps" "bindPose1.wm[7]";
connectAttr "UpArmWingTip_L_Jnt.bps" "bindPose1.wm[8]";
connectAttr "defaultRenderLayer.msg" ":defaultRenderingList1.r" -na;
connectAttr ":perspShape.msg" ":defaultRenderGlobals.sc";
// End of chickenSkel.ma
