//Maya ASCII 2017 scene
//Name: ebRigSkinJnt.ma
//Last modified: Thu, Feb 23, 2017 03:25:17 PM
//Codeset: 1252
requires maya "2017";
requires "stereoCamera" "10.0";
currentUnit -l centimeter -a degree -t film;
fileInfo "application" "maya";
fileInfo "product" "Maya 2017";
fileInfo "version" "2017";
fileInfo "cutIdentifier" "201611102145-1007295";
fileInfo "osv" "Microsoft Windows 7 Business Edition, 64-bit Windows 7 Service Pack 1 (Build 7601)\n";
createNode transform -n "hdjntZr_Grp";
	rename -uid "5F7C60DC-44CB-35FD-F235-C8B67A5F74E8";
	setAttr ".t" -type "double3" 0 156.26658251383364 1.086538579894782 ;
createNode joint -n "hd_jnt" -p "hdjntZr_Grp";
	rename -uid "9E1B375F-475F-06EE-7811-6E9B55AC18FD";
	addAttr -ci true -sn "liw" -ln "lockInfluenceWeights" -min 0 -max 1 -at "bool";
	setAttr ".bps" -type "matrix" 1 0 0 0 0 1 0 0 0 0 1 0 0 156.26658251383364 1.086538579894782 1;
	setAttr ".radi" 0.25;
createNode transform -n "ebjntZr_Grp" -p "hd_jnt";
	rename -uid "0668BF80-446A-3DBE-95F1-C594A7B008B1";
	setAttr ".t" -type "double3" -3.9509686388554329e-017 6.1635780086272973 8.7688004703981868 ;
createNode joint -n "eb_jnt" -p "ebjntZr_Grp";
	rename -uid "15117AE3-44C7-5D2E-D38E-5FA512BEC2D2";
	addAttr -ci true -sn "liw" -ln "lockInfluenceWeights" -min 0 -max 1 -at "bool";
	setAttr ".oc" 2;
	setAttr ".bps" -type "matrix" 1 0 0 0 0 1 0 0 0 0 1 0 -3.9509686388554329e-017 162.43016052246094 9.8553390502929687 1;
	setAttr ".radi" 0.25;
createNode transform -n "ebjntZr_L_Grp" -p "eb_jnt";
	rename -uid "7EEFBA2E-4EF3-D27E-9B3D-6E98ED0A5B59";
	setAttr ".t" -type "double3" 4.9529252052307129 0.045745849609375 -2.9271897002698335 ;
createNode joint -n "eb_L_jnt" -p "ebjntZr_L_Grp";
	rename -uid "5C221108-42CB-DB6A-12B0-4D9996916ECD";
	addAttr -ci true -sn "liw" -ln "lockInfluenceWeights" -min 0 -max 1 -at "bool";
	setAttr ".oc" 4;
	setAttr ".bps" -type "matrix" 1 0 0 0 0 1 0 0 0 0 1 0 4.9529252052307129 162.47590637207031 6.9281493500231353 1;
	setAttr ".radi" 0.25;
createNode transform -n "ebInjntZr_L_Grp" -p "eb_L_jnt";
	rename -uid "1676758A-4146-C658-9544-E3A11F021F22";
	setAttr ".t" -type "double3" -3.0373342037200928 0.04541015625 2.9937933608533296 ;
createNode joint -n "ebIn_L_jnt" -p "ebInjntZr_L_Grp";
	rename -uid "91953B61-4688-BA43-531C-C1B15D6B0A2D";
	addAttr -ci true -sn "liw" -ln "lockInfluenceWeights" -min 0 -max 1 -at "bool";
	setAttr ".oc" 6;
	setAttr ".bps" -type "matrix" 1 0 0 0 0 1 0 0 0 0 1 0 1.9155910015106201 162.52131652832031 9.9219427108764648 1;
	setAttr ".radi" 0.25;
	setAttr ".liw" yes;
createNode transform -n "ebMidjntZr_L_Grp" -p "eb_L_jnt";
	rename -uid "7CB23E46-4466-AE81-4CF6-84BD28E5A693";
	setAttr ".t" -type "double3" 0.43932676315307617 0.1243438720703125 2.3203476592542085 ;
	setAttr ".r" -type "double3" 0 24.011722885140667 0 ;
createNode joint -n "ebMid_L_jnt" -p "ebMidjntZr_L_Grp";
	rename -uid "F0398765-4AB3-368F-4A4C-4AB579D44926";
	addAttr -ci true -sn "liw" -ln "lockInfluenceWeights" -min 0 -max 1 -at "bool";
	setAttr ".oc" 6;
	setAttr ".bps" -type "matrix" 0.91346221900717717 0 -0.40692354865070657 0 0 1 0 0
		 0.40692354865070657 0 0.91346221900717717 0 5.3922519683837891 162.60025024414062 9.2484970092773437 1;
	setAttr ".radi" 0.25;
	setAttr ".liw" yes;
createNode transform -n "ebOutjntZr_L_Grp" -p "eb_L_jnt";
	rename -uid "A4358938-47DE-61A8-3CAB-95AE65389F51";
	setAttr ".t" -type "double3" 2.8895025253295898 -0.2729949951171875 0.4571746512891206 ;
	setAttr ".r" -type "double3" -36.240996601181081 41.767507295766478 -44.236539844675896 ;
createNode joint -n "ebOut_L_jnt" -p "ebOutjntZr_L_Grp";
	rename -uid "5B74F5BE-40A7-8AB6-5B54-E6A35072C9D4";
	addAttr -ci true -sn "liw" -ln "lockInfluenceWeights" -min 0 -max 1 -at "bool";
	setAttr ".oc" 6;
	setAttr ".bps" -type "matrix" 0.53437883047408863 -0.52032419327166068 -0.66610960016902687 0
		 0.28051948223974232 0.85257504267016737 -0.44093606872188318 0 0.79733812502920764 0.048770180563105087 0.60155912748685803 0
		 7.8424277305603027 162.20291137695312 7.3853240013122559 1;
	setAttr ".radi" 0.25;
	setAttr ".liw" yes;
createNode transform -n "ebjntZr_R_Grp" -p "eb_jnt";
	rename -uid "D9FC387E-48F3-F9FD-08F9-60B66378971E";
	setAttr ".t" -type "double3" -4.9529252052307129 0.045745849609375 -2.9271897002698335 ;
createNode joint -n "eb_R_jnt" -p "ebjntZr_R_Grp";
	rename -uid "C4F8DE90-4735-9B4F-0322-319144D00F80";
	addAttr -ci true -sn "liw" -ln "lockInfluenceWeights" -min 0 -max 1 -at "bool";
	setAttr ".oc" 4;
	setAttr ".bps" -type "matrix" 1 0 0 0 0 1 0 0 0 0 1 0 -4.9529252052307129 162.47590637207031 6.9281493500231353 1;
	setAttr ".radi" 0.25;
createNode transform -n "ebInjntZr_R_Grp" -p "eb_R_jnt";
	rename -uid "8F9C908A-4F82-2697-A0C9-2DA3BDCE89A4";
	setAttr ".t" -type "double3" 3.0373342037200928 0.04541015625 2.9937933608533296 ;
createNode joint -n "ebIn_R_jnt" -p "ebInjntZr_R_Grp";
	rename -uid "CF97D2B7-4A47-6146-4714-DF83B1C2BE72";
	addAttr -ci true -sn "liw" -ln "lockInfluenceWeights" -min 0 -max 1 -at "bool";
	setAttr ".oc" 6;
	setAttr ".bps" -type "matrix" 1 0 0 0 0 1 0 0 0 0 1 0 -1.9155910015106201 162.52131652832031 9.9219427108764648 1;
	setAttr ".radi" 0.25;
createNode transform -n "ebMidjntZr_R_Grp" -p "eb_R_jnt";
	rename -uid "F05C3A57-4626-3B43-B38E-57AFFB429EC4";
	setAttr ".t" -type "double3" -0.43932676315307617 0.1243438720703125 2.3203476592542085 ;
	setAttr ".r" -type "double3" 0 -24.011722885140621 0 ;
createNode joint -n "ebMid_R_jnt" -p "ebMidjntZr_R_Grp";
	rename -uid "66D84E0C-4F77-7859-D68A-15940E5B71D2";
	addAttr -ci true -sn "liw" -ln "lockInfluenceWeights" -min 0 -max 1 -at "bool";
	setAttr ".oc" 6;
	setAttr ".bps" -type "matrix" 0.9134622190071775 0 0.4069235486507059 0 0 1 0 0 -0.4069235486507059 0 0.9134622190071775 0
		 -5.3922519683837891 162.60025024414062 9.2484970092773437 1;
	setAttr ".radi" 0.25;
	setAttr ".liw" yes;
createNode transform -n "ebOutjntZr_R_Grp" -p "eb_R_jnt";
	rename -uid "9A987737-4AEC-7355-3248-18A9E0F7FB1D";
	setAttr ".t" -type "double3" -2.8895025253295898 -0.2729949951171875 0.4571746512891206 ;
	setAttr ".r" -type "double3" -36.240996601181287 -41.76750729576635 44.236539844675804 ;
createNode joint -n "ebOut_R_jnt" -p "ebOutjntZr_R_Grp";
	rename -uid "DA00DE19-4A95-4BD1-2985-41955992EF87";
	addAttr -ci true -sn "liw" -ln "lockInfluenceWeights" -min 0 -max 1 -at "bool";
	setAttr ".oc" 6;
	setAttr ".bps" -type "matrix" 0.53437883047409063 0.52032419327166068 0.6661096001690251 0
		 -0.28051948223973872 0.85257504267016704 -0.44093606872188607 0 -0.79733812502920742 0.048770180563110471 0.60155912748685769 0
		 -7.8424277305603027 162.20291137695312 7.3853240013122559 1;
	setAttr ".radi" 0.25;
	setAttr ".liw" yes;
createNode transform -s -n "persp";
	rename -uid "98ADA5FA-41C7-21FD-49C0-F5B546B37DDC";
	setAttr ".v" no;
	setAttr ".t" -type "double3" -2.7391719887862447 172.34181020529493 34.589903483633691 ;
	setAttr ".r" -type "double3" -23.738352729602415 -5.3999999999999062 3.9934162746107538e-016 ;
createNode camera -s -n "perspShape" -p "persp";
	rename -uid "B8DA78DE-4566-D4FE-4132-B79F9D062009";
	setAttr -k off ".v" no;
	setAttr ".fl" 34.999999999999993;
	setAttr ".coi" 31.796811160186849;
	setAttr ".imn" -type "string" "persp";
	setAttr ".den" -type "string" "persp_depth";
	setAttr ".man" -type "string" "persp_mask";
	setAttr ".tp" -type "double3" 0 159.54166637898714 5.6124906453856234 ;
	setAttr ".hc" -type "string" "viewSet -p %camera";
	setAttr ".ai_translator" -type "string" "perspective";
createNode transform -s -n "top";
	rename -uid "26952796-47FD-B5E6-3971-B5963E883049";
	setAttr ".v" no;
	setAttr ".t" -type "double3" 0 1000.1 0 ;
	setAttr ".r" -type "double3" -89.999999999999986 0 0 ;
createNode camera -s -n "topShape" -p "top";
	rename -uid "E67DC759-49FC-F94E-883F-EA8B8BACA450";
	setAttr -k off ".v" no;
	setAttr ".rnd" no;
	setAttr ".coi" 1000.1;
	setAttr ".ow" 30;
	setAttr ".imn" -type "string" "top";
	setAttr ".den" -type "string" "top_depth";
	setAttr ".man" -type "string" "top_mask";
	setAttr ".hc" -type "string" "viewSet -t %camera";
	setAttr ".o" yes;
	setAttr ".ai_translator" -type "string" "orthographic";
createNode transform -s -n "front";
	rename -uid "5FC8DA28-47DD-3994-19AD-BB9EB67CF16C";
	setAttr ".v" no;
	setAttr ".t" -type "double3" 0 0 1000.1 ;
createNode camera -s -n "frontShape" -p "front";
	rename -uid "3D1E73B3-44C8-1B09-0578-CCBB9EDCBC83";
	setAttr -k off ".v" no;
	setAttr ".rnd" no;
	setAttr ".coi" 1000.1;
	setAttr ".ow" 30;
	setAttr ".imn" -type "string" "front";
	setAttr ".den" -type "string" "front_depth";
	setAttr ".man" -type "string" "front_mask";
	setAttr ".hc" -type "string" "viewSet -f %camera";
	setAttr ".o" yes;
	setAttr ".ai_translator" -type "string" "orthographic";
createNode transform -s -n "side";
	rename -uid "E9F95BA7-4E30-33D7-98A0-F484E6C432AF";
	setAttr ".v" no;
	setAttr ".t" -type "double3" 1000.1 0 0 ;
	setAttr ".r" -type "double3" 0 89.999999999999986 0 ;
createNode camera -s -n "sideShape" -p "side";
	rename -uid "9C94EC02-4433-3877-464C-EFB58B8750FC";
	setAttr -k off ".v" no;
	setAttr ".rnd" no;
	setAttr ".coi" 1000.1;
	setAttr ".ow" 30;
	setAttr ".imn" -type "string" "side";
	setAttr ".den" -type "string" "side_depth";
	setAttr ".man" -type "string" "side_mask";
	setAttr ".hc" -type "string" "viewSet -s %camera";
	setAttr ".o" yes;
	setAttr ".ai_translator" -type "string" "orthographic";
createNode lightLinker -s -n "lightLinker1";
	rename -uid "C61C8D32-4452-8E86-11CB-9F8604B69D2E";
	setAttr -s 2 ".lnk";
	setAttr -s 2 ".slnk";
createNode shapeEditorManager -n "shapeEditorManager";
	rename -uid "1F657CDC-496D-BD6E-A6EF-29B262BA7D8D";
createNode poseInterpolatorManager -n "poseInterpolatorManager";
	rename -uid "1861AF54-407A-648C-B0CD-369886C7D7C1";
createNode displayLayerManager -n "layerManager";
	rename -uid "25DE38DD-4EC2-1DD6-465F-5F918FC43C6E";
createNode displayLayer -n "defaultLayer";
	rename -uid "20FCB771-4818-459D-A400-EB92D3616B09";
createNode renderLayerManager -n "renderLayerManager";
	rename -uid "E1D590CE-4A4F-31AA-0B04-60884AF31234";
createNode renderLayer -n "defaultRenderLayer";
	rename -uid "840E0061-4E1A-99FA-4B4A-B49E356E2535";
	setAttr ".g" yes;
createNode script -n "sceneConfigurationScriptNode";
	rename -uid "2C2A1F3C-48B8-305E-7603-309DC1776AA3";
	setAttr ".b" -type "string" "playbackOptions -min 0 -max 100 -ast 0 -aet 200 ";
	setAttr ".st" 6;
select -ne :time1;
	setAttr -av -k on ".cch";
	setAttr -av -cb on ".ihi";
	setAttr -av -k on ".nds";
	setAttr -cb on ".bnm";
	setAttr -k on ".o" 0;
	setAttr -av -k on ".unw";
	setAttr -k on ".etw";
	setAttr -k on ".tps";
	setAttr -av -k on ".tms";
select -ne :hardwareRenderingGlobals;
	setAttr ".otfna" -type "stringArray" 22 "NURBS Curves" "NURBS Surfaces" "Polygons" "Subdiv Surface" "Particles" "Particle Instance" "Fluids" "Strokes" "Image Planes" "UI" "Lights" "Cameras" "Locators" "Joints" "IK Handles" "Deformers" "Motion Trails" "Components" "Hair Systems" "Follicles" "Misc. UI" "Ornaments"  ;
	setAttr ".otfva" -type "Int32Array" 22 0 1 1 1 1 1
		 1 1 1 0 0 0 0 0 0 0 0 0
		 0 0 0 0 ;
	setAttr -k on ".mbsof";
	setAttr ".msaa" yes;
	setAttr ".fprt" yes;
select -ne :renderPartition;
	setAttr -k on ".cch";
	setAttr -cb on ".ihi";
	setAttr -k on ".nds";
	setAttr -cb on ".bnm";
	setAttr -s 2 ".st";
	setAttr -cb on ".an";
	setAttr -cb on ".pt";
select -ne :renderGlobalsList1;
	setAttr -k on ".cch";
	setAttr -cb on ".ihi";
	setAttr -k on ".nds";
	setAttr -cb on ".bnm";
select -ne :defaultShaderList1;
	setAttr -k on ".cch";
	setAttr -cb on ".ihi";
	setAttr -k on ".nds";
	setAttr -cb on ".bnm";
	setAttr -s 4 ".s";
select -ne :postProcessList1;
	setAttr -k on ".cch";
	setAttr -cb on ".ihi";
	setAttr -k on ".nds";
	setAttr -cb on ".bnm";
	setAttr -s 2 ".p";
select -ne :defaultRenderingList1;
	setAttr -k on ".ihi";
select -ne :initialShadingGroup;
	setAttr -av -k on ".cch";
	setAttr -cb on ".ihi";
	setAttr -av -k on ".nds";
	setAttr -cb on ".bnm";
	setAttr -k on ".mwc";
	setAttr -cb on ".an";
	setAttr -cb on ".il";
	setAttr -cb on ".vo";
	setAttr -cb on ".eo";
	setAttr -cb on ".fo";
	setAttr -cb on ".epo";
	setAttr -k on ".ro" yes;
select -ne :initialParticleSE;
	setAttr -av -k on ".cch";
	setAttr -cb on ".ihi";
	setAttr -av -k on ".nds";
	setAttr -cb on ".bnm";
	setAttr -k on ".mwc";
	setAttr -cb on ".an";
	setAttr -cb on ".il";
	setAttr -cb on ".vo";
	setAttr -cb on ".eo";
	setAttr -cb on ".fo";
	setAttr -cb on ".epo";
	setAttr -k on ".ro" yes;
select -ne :defaultRenderGlobals;
	setAttr -k on ".cch";
	setAttr -cb on ".ihi";
	setAttr -k on ".nds";
	setAttr -cb on ".bnm";
	setAttr -k on ".macc";
	setAttr -k on ".macd";
	setAttr -k on ".macq";
	setAttr -k on ".mcfr";
	setAttr -cb on ".ifg";
	setAttr -k on ".clip";
	setAttr -k on ".edm";
	setAttr -k on ".edl";
	setAttr -cb on ".ren" -type "string" "arnold";
	setAttr -av -k on ".esr";
	setAttr -k on ".ors";
	setAttr -cb on ".sdf";
	setAttr -av -k on ".outf" 51;
	setAttr -cb on ".imfkey" -type "string" "exr";
	setAttr -k on ".gama";
	setAttr -k on ".an" yes;
	setAttr -k on ".ar";
	setAttr -k on ".fs" 0;
	setAttr -k on ".ef" 200;
	setAttr -av -k on ".bfs";
	setAttr -k on ".me";
	setAttr -k on ".se";
	setAttr -k on ".be";
	setAttr -cb on ".ep";
	setAttr -k on ".fec";
	setAttr -av -k on ".ofc";
	setAttr -cb on ".ofe";
	setAttr -cb on ".efe";
	setAttr -cb on ".oft";
	setAttr -cb on ".umfn";
	setAttr -cb on ".ufe";
	setAttr -cb on ".pff" yes;
	setAttr -cb on ".peie";
	setAttr -cb on ".ifp" -type "string" "<Scene>";
	setAttr -k on ".rv";
	setAttr -k on ".comp";
	setAttr -k on ".cth";
	setAttr -k on ".soll";
	setAttr -k on ".sosl";
	setAttr -k on ".rd";
	setAttr -k on ".lp";
	setAttr -av -k on ".sp";
	setAttr -k on ".shs";
	setAttr -av -k on ".lpr";
	setAttr -cb on ".gv";
	setAttr -cb on ".sv";
	setAttr -k on ".mm";
	setAttr -k on ".npu";
	setAttr -k on ".itf";
	setAttr -k on ".shp";
	setAttr -cb on ".isp";
	setAttr -k on ".uf";
	setAttr -k on ".oi";
	setAttr -k on ".rut";
	setAttr -k on ".mot";
	setAttr -av -cb on ".mb";
	setAttr -av -k on ".mbf";
	setAttr -k on ".afp";
	setAttr -k on ".pfb";
	setAttr -k on ".pram" -type "string" "";
	setAttr -k on ".poam" -type "string" "";
	setAttr -k on ".prlm" -type "string" "";
	setAttr -k on ".polm" -type "string" "";
	setAttr -cb on ".prm" -type "string" "";
	setAttr -cb on ".pom" -type "string" "";
	setAttr -cb on ".pfrm";
	setAttr -cb on ".pfom";
	setAttr -av -k on ".bll";
	setAttr -av -k on ".bls";
	setAttr -av -k on ".smv";
	setAttr -k on ".ubc";
	setAttr -k on ".mbc";
	setAttr -cb on ".mbt";
	setAttr -k on ".udbx";
	setAttr -k on ".smc";
	setAttr -k on ".kmv";
	setAttr -cb on ".isl";
	setAttr -cb on ".ism";
	setAttr -cb on ".imb";
	setAttr -k on ".rlen";
	setAttr -av -k on ".frts";
	setAttr -k on ".tlwd";
	setAttr -k on ".tlht";
	setAttr -k on ".jfc";
	setAttr -cb on ".rsb";
	setAttr -k on ".ope";
	setAttr -k on ".oppf";
	setAttr -cb on ".hbl";
select -ne :defaultResolution;
	setAttr -av -k on ".cch";
	setAttr -k on ".ihi";
	setAttr -av -k on ".nds";
	setAttr -k on ".bnm";
	setAttr -av -k on ".w" 3840;
	setAttr -av -k on ".h" 2160;
	setAttr -av -k on ".pa" 1;
	setAttr -av -k on ".al" yes;
	setAttr -av -k on ".dar" 1.7777777910232544;
	setAttr -av -k on ".ldar";
	setAttr -k on ".dpi";
	setAttr -av -k on ".off";
	setAttr -av -k on ".fld";
	setAttr -av -k on ".zsl";
	setAttr -k on ".isu";
	setAttr -k on ".pdu";
select -ne :hardwareRenderGlobals;
	setAttr -k on ".cch";
	setAttr -cb on ".ihi";
	setAttr -k on ".nds";
	setAttr -cb on ".bnm";
	setAttr -k off -cb on ".ctrs" 256;
	setAttr -av -k off -cb on ".btrs" 512;
	setAttr -k off -cb on ".fbfm";
	setAttr -k off -cb on ".ehql";
	setAttr -k off -cb on ".eams";
	setAttr -k off -cb on ".eeaa";
	setAttr -k off -cb on ".engm";
	setAttr -k off -cb on ".mes";
	setAttr -k off -cb on ".emb";
	setAttr -av -k off -cb on ".mbbf";
	setAttr -k off -cb on ".mbs";
	setAttr -k off -cb on ".trm";
	setAttr -k off -cb on ".tshc";
	setAttr -k off -cb on ".enpt";
	setAttr -k off -cb on ".clmt";
	setAttr -k off -cb on ".tcov";
	setAttr -k off -cb on ".lith";
	setAttr -k off -cb on ".sobc";
	setAttr -k off -cb on ".cuth";
	setAttr -k off -cb on ".hgcd";
	setAttr -k off -cb on ".hgci";
	setAttr -k off -cb on ".mgcs";
	setAttr -k off -cb on ".twa";
	setAttr -k off -cb on ".twz";
	setAttr -cb on ".hwcc";
	setAttr -cb on ".hwdp";
	setAttr -cb on ".hwql";
	setAttr -k on ".hwfr";
	setAttr -k on ".soll";
	setAttr -k on ".sosl";
	setAttr -k on ".bswa";
	setAttr -k on ".shml";
	setAttr -k on ".hwel";
relationship "link" ":lightLinker1" ":initialShadingGroup.message" ":defaultLightSet.message";
relationship "link" ":lightLinker1" ":initialParticleSE.message" ":defaultLightSet.message";
relationship "shadowLink" ":lightLinker1" ":initialShadingGroup.message" ":defaultLightSet.message";
relationship "shadowLink" ":lightLinker1" ":initialParticleSE.message" ":defaultLightSet.message";
connectAttr "layerManager.dli[0]" "defaultLayer.id";
connectAttr "renderLayerManager.rlmi[0]" "defaultRenderLayer.rlid";
connectAttr "defaultRenderLayer.msg" ":defaultRenderingList1.r" -na;
// End of ebRigSkinJnt.ma
