//Maya ASCII 2017 scene
//Name: Patrick_Skel_003.ma
//Last modified: Thu, Dec 22, 2016 01:18:15 PM
//Codeset: 1252
requires maya "2017";
requires "stereoCamera" "10.0";
requires -nodeType "ilrOptionsNode" -nodeType "ilrUIOptionsNode" -nodeType "ilrBakeLayerManager"
		 -nodeType "ilrBakeLayer" "Turtle" "2017.0.0";
currentUnit -l centimeter -a degree -t film;
fileInfo "application" "maya";
fileInfo "product" "Maya 2017";
fileInfo "version" "2017";
fileInfo "cutIdentifier" "201606150345-997974";
fileInfo "osv" "Microsoft Windows 7 Business Edition, 64-bit Windows 7 Service Pack 1 (Build 7601)\n";
createNode transform -s -n "persp";
	rename -uid "7F9C24AF-4193-2A24-28FE-FA9A13C7E779";
	setAttr ".v" no;
	setAttr ".t" -type "double3" 139.94494096023246 168.92749732956398 467.79195513194946 ;
	setAttr ".r" -type "double3" 348.26164727022274 16.599999999323757 2.0742980796598446e-016 ;
createNode camera -s -n "perspShape" -p "persp";
	rename -uid "695A56EE-4F2A-13B3-0325-9AA3C0D15CD3";
	setAttr -k off ".v" no;
	setAttr ".pze" yes;
	setAttr ".fl" 65;
	setAttr ".ncp" 1;
	setAttr ".fcp" 100000;
	setAttr ".coi" 500.31495146262495;
	setAttr ".imn" -type "string" "persp";
	setAttr ".den" -type "string" "persp_depth";
	setAttr ".man" -type "string" "persp_mask";
	setAttr ".tp" -type "double3" -1.7029080538577546e-005 67.142061034588082 -1.644072829965161 ;
	setAttr ".hc" -type "string" "viewSet -p %camera";
createNode transform -s -n "top";
	rename -uid "B0BA765B-42C8-61DF-36A3-D5A6B2A75E21";
	setAttr ".v" no;
	setAttr ".t" -type "double3" 21.06863819697065 200 -9.172430057058218 ;
	setAttr ".r" -type "double3" -89.999999999999986 0 0 ;
createNode camera -s -n "topShape" -p "top";
	rename -uid "2AF7E2BF-4F4D-13A6-5BBA-DAA1E8C5231A";
	setAttr -k off ".v" no;
	setAttr ".rnd" no;
	setAttr ".coi" 100.1;
	setAttr ".ow" 58.694751902104272;
	setAttr ".imn" -type "string" "top";
	setAttr ".den" -type "string" "top_depth";
	setAttr ".man" -type "string" "top_mask";
	setAttr ".hc" -type "string" "viewSet -t %camera";
	setAttr ".o" yes;
createNode transform -s -n "front";
	rename -uid "50180B22-49D9-4A92-00D6-D396E14AC36C";
	setAttr ".v" no;
	setAttr ".t" -type "double3" -2.3772473452601774 115.90475143840074 289.26576970195504 ;
createNode camera -s -n "frontShape" -p "front";
	rename -uid "DE280801-41F6-696A-5E37-CBAC9282B322";
	setAttr -k off ".v" no;
	setAttr ".rnd" no;
	setAttr ".coi" 292.52107890520256;
	setAttr ".ow" 15.41515218621752;
	setAttr ".imn" -type "string" "front";
	setAttr ".den" -type "string" "front_depth";
	setAttr ".man" -type "string" "front_mask";
	setAttr ".tp" -type "double3" -1.2433877438766672e-007 120.27302141254448 -3.2553092032475206 ;
	setAttr ".hc" -type "string" "viewSet -f %camera";
	setAttr ".o" yes;
createNode transform -s -n "side";
	rename -uid "D9459D24-488B-122D-DB97-50A0AF3E234A";
	setAttr ".v" no;
	setAttr ".t" -type "double3" 292.73425130985038 100.6152422321146 -12.248897606162007 ;
	setAttr ".r" -type "double3" 0 89.999999999999986 0 ;
createNode camera -s -n "sideShape" -p "side";
	rename -uid "B13D6F1C-4098-261A-B7C9-D9BBC5314691";
	setAttr -k off ".v" no;
	setAttr ".rnd" no;
	setAttr ".coi" 292.7342514341891;
	setAttr ".ow" 31.554323559633552;
	setAttr ".imn" -type "string" "side";
	setAttr ".den" -type "string" "side_depth";
	setAttr ".man" -type "string" "side_mask";
	setAttr ".tp" -type "double3" -1.2433877438766672e-007 120.27302141254448 -3.2553092032475206 ;
	setAttr ".hc" -type "string" "viewSet -s %camera";
	setAttr ".o" yes;
createNode transform -n "PivJnt_Grp";
	rename -uid "EC8F547C-46D4-91B6-969B-0CBA2ABE1155";
createNode joint -n "EyeTar_Jnt" -p "PivJnt_Grp";
	rename -uid "CD8B573C-443A-E7F5-DF86-01B3AB077FD2";
	setAttr ".t" -type "double3" 0 116.50970411300659 28.098315459614348 ;
	setAttr ".mnrl" -type "double3" -360 -360 -360 ;
	setAttr ".mxrl" -type "double3" 360 360 360 ;
	setAttr ".radi" 0.5;
createNode joint -n "EyeTar_L_Jnt" -p "EyeTar_Jnt";
	rename -uid "62077A5C-47BF-C964-047A-2AABAAAA3B6B";
	setAttr ".t" -type "double3" 4.688 0 0 ;
	setAttr ".mnrl" -type "double3" -360 -360 -360 ;
	setAttr ".mxrl" -type "double3" 360 360 360 ;
	setAttr ".radi" 0.5;
createNode joint -n "EyeTar_R_Jnt" -p "EyeTar_Jnt";
	rename -uid "13129FD7-48EF-DF52-F33B-E3AB8FE5B1C2";
	setAttr ".t" -type "double3" -4.688 0 0 ;
	setAttr ".mnrl" -type "double3" -360 -360 -360 ;
	setAttr ".mxrl" -type "double3" 360 360 360 ;
	setAttr ".radi" 0.5;
createNode joint -n "HeelPiv_L_Jnt" -p "PivJnt_Grp";
	rename -uid "2DD0B264-4DF9-A5D1-FBEF-DAAF2417BDED";
	setAttr ".t" -type "double3" 6.6353378295898437 -8.9003694114870722e-016 -10.622577027128346 ;
	setAttr ".mnrl" -type "double3" -360 -360 -360 ;
	setAttr ".mxrl" -type "double3" 360 360 360 ;
	setAttr ".jo" -type "double3" 89.999999999999986 -7.0622500768802538e-031 -180 ;
	setAttr ".radi" 0.5;
createNode joint -n "FootOutPiv_L_Jnt" -p "HeelPiv_L_Jnt";
	rename -uid "8C3D2912-4CA0-B523-66EB-688FC163C694";
	setAttr ".t" -type "double3" -5.2317765395013724 14.50663504299416 1.7235064238089389e-015 ;
	setAttr ".mnrl" -type "double3" -360 -360 -360 ;
	setAttr ".mxrl" -type "double3" 360 360 360 ;
	setAttr ".radi" 0.5;
createNode joint -n "FootInPiv_L_Jnt" -p "HeelPiv_L_Jnt";
	rename -uid "594A1243-4004-3B0A-41A2-D8A90DBE454A";
	setAttr ".t" -type "double3" 4.0132983254147874 14.705081126344439 -9.0261973758160619e-016 ;
	setAttr ".mnrl" -type "double3" -360 -360 -360 ;
	setAttr ".mxrl" -type "double3" 360 360 360 ;
	setAttr ".radi" 0.5;
createNode joint -n "KneeIk_L_Jnt" -p "HeelPiv_L_Jnt";
	rename -uid "76A0421B-45EA-88EE-49D0-2E9EC4C45E29";
	setAttr ".t" -type "double3" 5.2022948575402163e-014 42.499440098003724 36.009262084960952 ;
	setAttr ".mnrl" -type "double3" -360 -360 -360 ;
	setAttr ".mxrl" -type "double3" 360 360 360 ;
	setAttr ".jo" -type "double3" 89.999999999999972 0 180 ;
	setAttr ".radi" 0.5;
createNode joint -n "ElbowIk_L_Jnt" -p "HeelPiv_L_Jnt";
	rename -uid "B344021D-4E2C-FE56-AF83-E6B8824806AF";
	setAttr ".t" -type "double3" -21.421459069575334 -24.542468632801999 97.585723876953082 ;
	setAttr ".mnrl" -type "double3" -360 -360 -360 ;
	setAttr ".mxrl" -type "double3" 360 360 360 ;
	setAttr ".jo" -type "double3" 89.999999999999972 0 180 ;
	setAttr ".radi" 0.5;
createNode joint -n "HeelPiv_R_Jnt" -p "PivJnt_Grp";
	rename -uid "23A1B22D-4F3F-6F36-12DD-2BA7D7D4254F";
	setAttr ".t" -type "double3" -6.63534 -8.9003700000000011e-016 -10.6226 ;
	setAttr ".mnrl" -type "double3" -360 -360 -360 ;
	setAttr ".mxrl" -type "double3" 360 360 360 ;
	setAttr ".jo" -type "double3" 89.999999999999972 180 0 ;
	setAttr ".radi" 0.5;
createNode joint -n "FootOutPiv_R_Jnt" -p "HeelPiv_R_Jnt";
	rename -uid "EBC7FD50-47A8-EF55-D59D-359C0421322E";
	setAttr ".t" -type "double3" 5.2317599999999995 -14.506660000000002 -2.36422817696351e-015 ;
	setAttr ".mnrl" -type "double3" -360 -360 -360 ;
	setAttr ".mxrl" -type "double3" 360 360 360 ;
	setAttr ".radi" 0.5;
createNode joint -n "FootInPiv_R_Jnt" -p "HeelPiv_R_Jnt";
	rename -uid "F6ADB915-4A0B-C05A-46BA-E0A004B10C70";
	setAttr ".t" -type "double3" -4.013300000000001 -14.7051 1.3940967602338437e-015 ;
	setAttr ".mnrl" -type "double3" -360 -360 -360 ;
	setAttr ".mxrl" -type "double3" 360 360 360 ;
	setAttr ".radi" 0.5;
createNode joint -n "KneeIk_R_Jnt" -p "HeelPiv_R_Jnt";
	rename -uid "4DB69174-4860-D07B-C703-8F861C008997";
	setAttr ".t" -type "double3" -4.4408920985006262e-015 -42.499499999999983 -36.009300000000025 ;
	setAttr ".mnrl" -type "double3" -360 -360 -360 ;
	setAttr ".mxrl" -type "double3" 360 360 360 ;
	setAttr ".jo" -type "double3" 89.999999999999972 7.0167092985348594e-015 179.99999999999997 ;
	setAttr ".radi" 0.5;
createNode joint -n "ElbowIk_R_Jnt" -p "HeelPiv_R_Jnt";
	rename -uid "21D644C4-4144-0AC6-ED28-D4ACC95F599A";
	setAttr ".t" -type "double3" 21.421460000000003 24.542400000000043 -97.585699999999989 ;
	setAttr ".mnrl" -type "double3" -360 -360 -360 ;
	setAttr ".mxrl" -type "double3" 360 360 360 ;
	setAttr ".jo" -type "double3" 89.999999999999972 7.0167092985348594e-015 179.99999999999997 ;
	setAttr ".radi" 0.5;
createNode transform -n "TmpJnt_Grp";
	rename -uid "3E36D3F0-44FC-F081-A30D-9DA4868A8660";
createNode joint -n "Root_Jnt" -p "TmpJnt_Grp";
	rename -uid "DB2146E4-47C0-BB98-00BA-ADBB764FC7DE";
	setAttr ".t" -type "double3" 0 70.849291530551255 -3.450924925557707 ;
	setAttr ".mnrl" -type "double3" -360 -360 -360 ;
	setAttr ".mxrl" -type "double3" 360 360 360 ;
	setAttr ".radi" 0.5;
createNode joint -n "Spine_Jnt" -p "Root_Jnt";
	rename -uid "A10A2D45-46B8-1904-BD75-7DA4F2966FB0";
	setAttr ".t" -type "double3" 0 0.5 0 ;
	setAttr ".mnrl" -type "double3" -360 -360 -360 ;
	setAttr ".mxrl" -type "double3" 360 360 360 ;
	setAttr ".radi" 0.5;
createNode joint -n "SpineMid_Jnt" -p "Spine_Jnt";
	rename -uid "4EC119F4-4ADA-C7E3-1C1C-D2A615576E53";
	setAttr ".t" -type "double3" 0 6.7024788462759517 -0.16482985059238908 ;
	setAttr ".mnrl" -type "double3" -360 -360 -360 ;
	setAttr ".mxrl" -type "double3" 360 360 360 ;
	setAttr ".radi" 0.5;
createNode joint -n "Chest_Jnt" -p "SpineMid_Jnt";
	rename -uid "72164E47-4653-B56C-CD9D-C3B6DA3DDF45";
	setAttr ".t" -type "double3" 0 6.7024788462759517 -0.16482985059238953 ;
	setAttr ".mnrl" -type "double3" -360 -360 -360 ;
	setAttr ".mxrl" -type "double3" 360 360 360 ;
	setAttr ".radi" 0.5;
createNode joint -n "ChestTip_Jnt" -p "Chest_Jnt";
	rename -uid "9C8815EC-4F7B-FD9A-BAE5-2ABABDB70748";
	setAttr ".t" -type "double3" 0 15.262555919737764 -2.9811261703246315 ;
	setAttr ".mnrl" -type "double3" -360 -360 -360 ;
	setAttr ".mxrl" -type "double3" 360 360 360 ;
createNode joint -n "Neck_Jnt" -p "ChestTip_Jnt";
	rename -uid "03A17F31-4E0D-77FD-F210-7FA9E68EA41A";
	setAttr ".mnrl" -type "double3" -360 -360 -360 ;
	setAttr ".mxrl" -type "double3" 360 360 360 ;
	setAttr ".radi" 0.5;
createNode joint -n "NeckTip_Jnt" -p "Neck_Jnt";
	rename -uid "C4399C8C-4752-DF7F-7965-C3884D89C7DA";
	setAttr ".t" -type "double3" 0 12.92011511013132 -0.2943331033395733 ;
	setAttr ".mnrl" -type "double3" -360 -360 -360 ;
	setAttr ".mxrl" -type "double3" 360 360 360 ;
createNode joint -n "Head_Jnt" -p "NeckTip_Jnt";
	rename -uid "77A7DDAA-4E64-5D97-BF30-76AF3BC762CD";
	setAttr ".mnrl" -type "double3" -360 -360 -360 ;
	setAttr ".mxrl" -type "double3" 360 360 360 ;
	setAttr ".radi" 0.5;
createNode joint -n "HeadTip_Jnt" -p "Head_Jnt";
	rename -uid "56A8CCD0-4665-C328-942B-C2A8244B5A3A";
	setAttr ".t" -type "double3" 0 22.406960998990741 -1.7763568394002505e-015 ;
	setAttr ".mnrl" -type "double3" -360 -360 -360 ;
	setAttr ".mxrl" -type "double3" 360 360 360 ;
	setAttr ".radi" 0.5;
createNode joint -n "Eye_L_Jnt" -p "Head_Jnt";
	rename -uid "191ED0DD-423C-A37D-7194-82BCAF349780";
	setAttr ".t" -type "double3" 4.688 3.5727838600343489 7.1761343218470346 ;
	setAttr ".mnrl" -type "double3" -360 -360 -360 ;
	setAttr ".mxrl" -type "double3" 360 360 360 ;
	setAttr ".radi" 0.5;
createNode joint -n "Eye_R_Jnt" -p "Head_Jnt";
	rename -uid "FC98F80A-4770-6779-3449-79AD8FCD3C74";
	setAttr ".t" -type "double3" -4.688 3.5727838600343489 7.1761343218470346 ;
	setAttr ".mnrl" -type "double3" -360 -360 -360 ;
	setAttr ".mxrl" -type "double3" 360 360 360 ;
	setAttr ".radi" 0.5;
createNode joint -n "Hood_Jnt" -p "Chest_Jnt";
	rename -uid "D0200CA2-4F93-CE4A-28C4-CD8819C5622C";
	setAttr ".t" -type "double3" 0 17.108738009675164 -6.366771832793015 ;
	setAttr ".mnrl" -type "double3" -360 -360 -360 ;
	setAttr ".mxrl" -type "double3" 360 360 360 ;
	setAttr ".jo" -type "double3" -121.41156841537349 0 0 ;
	setAttr ".radi" 0.5;
createNode joint -n "HoodTip_Jnt" -p "Hood_Jnt";
	rename -uid "C16178F4-46DC-346E-3342-75A6230F4655";
	setAttr ".t" -type "double3" 0 13.785289446705043 0 ;
	setAttr ".mnrl" -type "double3" -360 -360 -360 ;
	setAttr ".mxrl" -type "double3" 360 360 360 ;
	setAttr ".radi" 0.5;
createNode joint -n "Clav_L_Jnt" -p "Chest_Jnt";
	rename -uid "8CC3311A-4E22-1FC9-359C-9A97B9EB80D1";
	setAttr ".t" -type "double3" 0.65717935562133789 13.334015242228872 2.6448804670058523 ;
	setAttr ".mnrl" -type "double3" -360 -360 -360 ;
	setAttr ".mxrl" -type "double3" 360 360 360 ;
	setAttr ".jo" -type "double3" 0 0 -89.999999999999986 ;
	setAttr ".radi" 0.5;
createNode joint -n "ClavTip_L_Jnt" -p "Clav_L_Jnt";
	rename -uid "1AC182E4-4B00-A290-BD23-48A7E32938A1";
	setAttr ".t" -type "double3" 0.50253923671719747 8.8201343268868744 -5.5800390801212236 ;
	setAttr ".mnrl" -type "double3" -360 -360 -360 ;
	setAttr ".mxrl" -type "double3" 360 360 360 ;
	setAttr ".jo" -type "double3" 0 0 6.3611093629270304e-015 ;
createNode joint -n "UpArm_L_Jnt" -p "ClavTip_L_Jnt";
	rename -uid "B91BCE14-4605-1DE8-8843-BEBE34ABC71A";
	setAttr ".t" -type "double3" 0 1.7763568394002505e-015 -8.8817841970012523e-016 ;
	setAttr ".mnrl" -type "double3" -360 -360 -360 ;
	setAttr ".mxrl" -type "double3" 360 360 360 ;
	setAttr ".jo" -type "double3" 0 0 6.3611093629270304e-015 ;
	setAttr ".radi" 0.5;
createNode joint -n "Forearm_L_Jnt" -p "UpArm_L_Jnt";
	rename -uid "30CC1231-45B1-4D73-D765-D9B87169FAE8";
	setAttr ".t" -type "double3" 1.5631940186722204e-013 18.573918161451342 -0.86736308005180707 ;
	setAttr ".mnrl" -type "double3" -360 -360 -360 ;
	setAttr ".mxrl" -type "double3" 360 360 360 ;
	setAttr ".jo" -type "double3" 0 0 6.3611093629270304e-015 ;
	setAttr ".radi" 0.5;
createNode joint -n "Wrist_L_Jnt" -p "Forearm_L_Jnt";
	rename -uid "BF91B3B4-4C87-6645-844D-C1A75FBE6686";
	setAttr ".t" -type "double3" 1.1361460387538591e-013 18.293156261890424 0.64546097438133199 ;
	setAttr ".mnrl" -type "double3" -360 -360 -360 ;
	setAttr ".mxrl" -type "double3" 360 360 360 ;
	setAttr ".jo" -type "double3" 0 0 6.3611093629270304e-015 ;
	setAttr ".radi" 0.5;
createNode joint -n "Hand_L_Jnt" -p "Wrist_L_Jnt";
	rename -uid "7793FEC4-4F9A-1A6F-111F-5B9D8262602C";
	setAttr ".t" -type "double3" -7.1054273576009955e-014 2.7057602924033333 8.8817841970012898e-016 ;
	setAttr ".mnrl" -type "double3" -360 -360 -360 ;
	setAttr ".mxrl" -type "double3" 360 360 360 ;
	setAttr ".radi" 0.25;
createNode joint -n "Thumb_1_L_Jnt" -p "Hand_L_Jnt";
	rename -uid "EFA326B8-4D16-D572-AE36-D39CE78E89F3";
	setAttr ".t" -type "double3" 2.5797149266504391 1.3146320277720633 0.93242221711174267 ;
	setAttr ".mnrl" -type "double3" -360 -360 -360 ;
	setAttr ".mxrl" -type "double3" 360 360 360 ;
	setAttr ".jo" -type "double3" 27.751385482963578 -18.259932402846498 -29.227201479663393 ;
	setAttr ".radi" 0.25;
createNode joint -n "Thumb_2_L_Jnt" -p "Thumb_1_L_Jnt";
	rename -uid "F9444AE4-4245-5693-AE15-F1BAEDBAA3BE";
	setAttr ".t" -type "double3" 0.50701870271673499 3.0943652611155006 3.1352984345055432 ;
	setAttr ".mnrl" -type "double3" -360 -360 -360 ;
	setAttr ".mxrl" -type "double3" 360 360 360 ;
	setAttr ".jo" -type "double3" 1.590277340731759e-014 9.541664044390555e-015 2.5444437451708147e-014 ;
	setAttr ".radi" 0.25;
createNode joint -n "Thumb_3_L_Jnt" -p "Thumb_2_L_Jnt";
	rename -uid "7D86E233-4AEF-DCAA-D4D6-88AE2380DDCB";
	setAttr ".t" -type "double3" -5.6843418860807447e-014 2.1323088142459277 7.105427357600993e-014 ;
	setAttr ".mnrl" -type "double3" -360 -360 -360 ;
	setAttr ".mxrl" -type "double3" 360 360 360 ;
	setAttr ".radi" 0.25;
createNode joint -n "Thumb_4_L_Jnt" -p "Thumb_3_L_Jnt";
	rename -uid "7C719B98-42D6-7710-BDD2-1FB31BA93C97";
	setAttr ".t" -type "double3" 4.263256414560538e-014 3.4880649143065461 -1.1368683772161556e-013 ;
	setAttr ".mnrl" -type "double3" -360 -360 -360 ;
	setAttr ".mxrl" -type "double3" 360 360 360 ;
	setAttr ".radi" 0.25;
createNode joint -n "Index_1_L_Jnt" -p "Hand_L_Jnt";
	rename -uid "4C3FD14D-4324-8113-CFDD-84A33C20B80A";
	setAttr ".t" -type "double3" -0.37021909598570346 0.37025073735586034 2.4264729967047947 ;
	setAttr ".mnrl" -type "double3" -360 -360 -360 ;
	setAttr ".mxrl" -type "double3" 360 360 360 ;
	setAttr ".jo" -type "double3" 6.3611093629270304e-015 -89.999999999999972 0 ;
	setAttr ".radi" 0.25;
createNode joint -n "Index_2_L_Jnt" -p "Index_1_L_Jnt";
	rename -uid "69D43505-4D68-9CA2-1C57-99A4882D499C";
	setAttr ".t" -type "double3" -9.8607613152626476e-032 5.7841287376820958 0.21295058965677066 ;
	setAttr ".mnrl" -type "double3" -360 -360 -360 ;
	setAttr ".mxrl" -type "double3" 360 360 360 ;
	setAttr ".radi" 0.25;
createNode joint -n "Index_3_L_Jnt" -p "Index_2_L_Jnt";
	rename -uid "15B3DACF-4EC1-3753-C4C3-27B1E7A5F628";
	setAttr ".t" -type "double3" 0 3.4550900258619492 -0.23438385847558152 ;
	setAttr ".mnrl" -type "double3" -360 -360 -360 ;
	setAttr ".mxrl" -type "double3" 360 360 360 ;
	setAttr ".jo" -type "double3" -3.0837399050627758 0 0 ;
	setAttr ".radi" 0.25;
createNode joint -n "Index_4_L_Jnt" -p "Index_3_L_Jnt";
	rename -uid "0F31C43D-41A0-3AA4-C1AE-1681CFAB2DB0";
	setAttr ".t" -type "double3" 8.8817841970012523e-016 2.683740528328137 2.8421709430404007e-014 ;
	setAttr ".mnrl" -type "double3" -360 -360 -360 ;
	setAttr ".mxrl" -type "double3" 360 360 360 ;
	setAttr ".radi" 0.25;
createNode joint -n "Index_5_L_Jnt" -p "Index_4_L_Jnt";
	rename -uid "9B9014B4-4B44-C2C4-B849-10AEE6573B55";
	setAttr ".t" -type "double3" -8.8817841970012523e-016 2.5870415894228032 -1.4210854715202004e-014 ;
	setAttr ".mnrl" -type "double3" -360 -360 -360 ;
	setAttr ".mxrl" -type "double3" 360 360 360 ;
	setAttr ".radi" 0.25;
createNode joint -n "Middle_1_L_Jnt" -p "Hand_L_Jnt";
	rename -uid "3F61E83F-4133-60C0-D754-0CA6F7051007";
	setAttr ".t" -type "double3" -0.61165372383798911 0.44482349250583297 0.7621195785249153 ;
	setAttr ".mnrl" -type "double3" -360 -360 -360 ;
	setAttr ".mxrl" -type "double3" 360 360 360 ;
	setAttr ".jo" -type "double3" 6.3611093629270304e-015 -89.999999999999972 0 ;
	setAttr ".radi" 0.25;
createNode joint -n "Middle_2_L_Jnt" -p "Middle_1_L_Jnt";
	rename -uid "BD37BD42-4CA4-E5F8-6979-579127FD4389";
	setAttr ".t" -type "double3" -8.8817841970012523e-016 5.722039864139667 0.35480894299799104 ;
	setAttr ".mnrl" -type "double3" -360 -360 -360 ;
	setAttr ".mxrl" -type "double3" 360 360 360 ;
	setAttr ".radi" 0.25;
createNode joint -n "Middle_3_L_Jnt" -p "Middle_2_L_Jnt";
	rename -uid "F35D7E5A-4744-E2ED-94C0-B68A9E3FA544";
	setAttr ".t" -type "double3" 1.7763568394002505e-015 3.8211697495209265 -0.36153601693142434 ;
	setAttr ".mnrl" -type "double3" -360 -360 -360 ;
	setAttr ".mxrl" -type "double3" 360 360 360 ;
	setAttr ".radi" 0.25;
createNode joint -n "Middle_4_L_Jnt" -p "Middle_3_L_Jnt";
	rename -uid "F5B0358C-4350-FCA3-1C42-F38588423ECA";
	setAttr ".t" -type "double3" -8.8817841970012523e-016 2.9670536247384689 -0.21002215243943567 ;
	setAttr ".mnrl" -type "double3" -360 -360 -360 ;
	setAttr ".mxrl" -type "double3" 360 360 360 ;
	setAttr ".radi" 0.25;
createNode joint -n "Middle_5_L_Jnt" -p "Middle_4_L_Jnt";
	rename -uid "ABF685E8-41C3-C7F1-7AC9-5F9C33B9253C";
	setAttr ".t" -type "double3" -8.8817841970012523e-016 2.808330812680687 2.8421709430404007e-014 ;
	setAttr ".mnrl" -type "double3" -360 -360 -360 ;
	setAttr ".mxrl" -type "double3" 360 360 360 ;
	setAttr ".radi" 0.25;
createNode joint -n "Ring_1_L_Jnt" -p "Hand_L_Jnt";
	rename -uid "DC24068F-4EB9-4022-6B8C-88906224666F";
	setAttr ".t" -type "double3" -0.90068524042327169 0.40007983941583802 -0.97963025382673941 ;
	setAttr ".mnrl" -type "double3" -360 -360 -360 ;
	setAttr ".mxrl" -type "double3" 360 360 360 ;
	setAttr ".jo" -type "double3" 1.272221872585407e-014 -89.999999999999972 0 ;
	setAttr ".radi" 0.25;
createNode joint -n "Ring_2_L_Jnt" -p "Ring_1_L_Jnt";
	rename -uid "6D72FC10-4DCC-B824-F6FB-D9A3D38B05E0";
	setAttr ".t" -type "double3" 8.8817841970012513e-016 5.3515666505300103 0.26579700010123014 ;
	setAttr ".mnrl" -type "double3" -360 -360 -360 ;
	setAttr ".mxrl" -type "double3" 360 360 360 ;
	setAttr ".radi" 0.25;
createNode joint -n "Ring_3_L_Jnt" -p "Ring_2_L_Jnt";
	rename -uid "E998643B-4B7E-7754-84B1-D8B38C1826F3";
	setAttr ".t" -type "double3" -8.8817841970012523e-016 3.5245165035845645 -0.47006663535029247 ;
	setAttr ".mnrl" -type "double3" -360 -360 -360 ;
	setAttr ".mxrl" -type "double3" 360 360 360 ;
	setAttr ".jo" -type "double3" -2.6802426687744942 0 0 ;
	setAttr ".radi" 0.25;
createNode joint -n "Ring_4_L_Jnt" -p "Ring_3_L_Jnt";
	rename -uid "922C8203-42EF-7341-ABF1-DA92030CB776";
	setAttr ".t" -type "double3" -8.8817841970012523e-016 2.6956826630644954 2.8421709430404007e-014 ;
	setAttr ".mnrl" -type "double3" -360 -360 -360 ;
	setAttr ".mxrl" -type "double3" 360 360 360 ;
	setAttr ".radi" 0.25;
createNode joint -n "Ring_5_L_Jnt" -p "Ring_4_L_Jnt";
	rename -uid "7438C504-4844-202E-84E1-2D82411B38E6";
	setAttr ".t" -type "double3" 0 2.5722344254198077 0 ;
	setAttr ".mnrl" -type "double3" -360 -360 -360 ;
	setAttr ".mxrl" -type "double3" 360 360 360 ;
	setAttr ".radi" 0.25;
createNode joint -n "Pinky_1_L_Jnt" -p "Hand_L_Jnt";
	rename -uid "6F16E0FB-4874-78A9-FCA5-CE86AF902971";
	setAttr ".t" -type "double3" -0.77787057211480715 0.23091183070160781 -2.6684823817490813 ;
	setAttr ".mnrl" -type "double3" -360 -360 -360 ;
	setAttr ".mxrl" -type "double3" 360 360 360 ;
	setAttr ".jo" -type "double3" 1.272221872585407e-014 -89.999999999999972 0 ;
	setAttr ".radi" 0.25;
createNode joint -n "Pinky_2_L_Jnt" -p "Pinky_1_L_Jnt";
	rename -uid "1E1C304C-4E47-6E90-4100-2DA15C109F6D";
	setAttr ".t" -type "double3" 0 5.0973917343443915 0 ;
	setAttr ".mnrl" -type "double3" -360 -360 -360 ;
	setAttr ".mxrl" -type "double3" 360 360 360 ;
	setAttr ".radi" 0.25;
createNode joint -n "Pinky_3_L_Jnt" -p "Pinky_2_L_Jnt";
	rename -uid "38335152-4390-0E7A-765F-7BA5E3A8481E";
	setAttr ".t" -type "double3" -5.3290705182007514e-015 2.8805981076800502 -0.28281801878255441 ;
	setAttr ".mnrl" -type "double3" -360 -360 -360 ;
	setAttr ".mxrl" -type "double3" 360 360 360 ;
	setAttr ".jo" -type "double3" -2.2990150056175773 0 0 ;
	setAttr ".radi" 0.25;
createNode joint -n "Pinky_4_L_Jnt" -p "Pinky_3_L_Jnt";
	rename -uid "BDC4AE10-475D-CC80-0F8A-09BFDC0764A2";
	setAttr ".t" -type "double3" 0 2.2035739503392335 0 ;
	setAttr ".mnrl" -type "double3" -360 -360 -360 ;
	setAttr ".mxrl" -type "double3" 360 360 360 ;
	setAttr ".radi" 0.25;
createNode joint -n "Pinky_5_L_Jnt" -p "Pinky_4_L_Jnt";
	rename -uid "699D888D-424E-9FD2-E5A0-8286F718A251";
	setAttr ".t" -type "double3" -7.1054273576010019e-015 2.1186082536506632 -2.8421709430404007e-014 ;
	setAttr ".mnrl" -type "double3" -360 -360 -360 ;
	setAttr ".mxrl" -type "double3" 360 360 360 ;
	setAttr ".radi" 0.25;
createNode joint -n "Clav_R_Jnt" -p "Chest_Jnt";
	rename -uid "4B30A2E1-4BEB-B114-6E1D-3281241864B5";
	setAttr ".t" -type "double3" -0.657179 13.334050776896845 2.6448846267424857 ;
	setAttr ".mnrl" -type "double3" -360 -360 -360 ;
	setAttr ".mxrl" -type "double3" 360 360 360 ;
	setAttr ".jo" -type "double3" -180 7.0622500768802503e-031 89.999999999999972 ;
	setAttr ".radi" 0.5;
createNode joint -n "ClavTip_R_Jnt" -p "Clav_R_Jnt";
	rename -uid "87699B28-4331-A8A4-1708-8D964453F8BC";
	setAttr ".t" -type "double3" -0.50260000000000105 -8.8201309999999982 5.5800400000000012 ;
	setAttr ".mnrl" -type "double3" -360 -360 -360 ;
	setAttr ".mxrl" -type "double3" 360 360 360 ;
createNode joint -n "UpArm_R_Jnt" -p "ClavTip_R_Jnt";
	rename -uid "7B042A38-40BD-FE46-26EA-3C940240071A";
	setAttr ".t" -type "double3" 0 -1.7763568394002505e-015 0 ;
	setAttr ".mnrl" -type "double3" -360 -360 -360 ;
	setAttr ".mxrl" -type "double3" 360 360 360 ;
	setAttr ".radi" 0.5;
createNode joint -n "Forearm_R_Jnt" -p "UpArm_R_Jnt";
	rename -uid "7112D82A-4DCF-27F5-FECC-54A6A44FFCAF";
	setAttr ".t" -type "double3" -1.4210854715202004e-014 -18.573890000000002 0.86737000000000197 ;
	setAttr ".mnrl" -type "double3" -360 -360 -360 ;
	setAttr ".mxrl" -type "double3" 360 360 360 ;
	setAttr ".radi" 0.5;
createNode joint -n "Wrist_R_Jnt" -p "Forearm_R_Jnt";
	rename -uid "7C8E6859-4AA4-C92F-DD22-41B982BA141E";
	setAttr ".t" -type "double3" 0 -18.2932 -0.64545999999999815 ;
	setAttr ".mnrl" -type "double3" -360 -360 -360 ;
	setAttr ".mxrl" -type "double3" 360 360 360 ;
	setAttr ".radi" 0.5;
createNode joint -n "Hand_R_Jnt" -p "Wrist_R_Jnt";
	rename -uid "0CC00CE7-4171-3554-393F-70B90E0155FA";
	setAttr ".t" -type "double3" -2.8421709430404007e-014 -2.7057 8.8817841970012523e-016 ;
	setAttr ".mnrl" -type "double3" -360 -360 -360 ;
	setAttr ".mxrl" -type "double3" 360 360 360 ;
	setAttr ".radi" 0.25;
createNode joint -n "Thumb_1_R_Jnt" -p "Hand_R_Jnt";
	rename -uid "4EEE590B-40DB-6F33-1A14-3F9026C8E362";
	setAttr ".t" -type "double3" -2.5796999999999883 -1.314700000000002 -0.93243000000000098 ;
	setAttr ".mnrl" -type "double3" -360 -360 -360 ;
	setAttr ".mxrl" -type "double3" 360 360 360 ;
	setAttr ".jo" -type "double3" 27.75138548296357 -18.259932402846502 -29.227201479663417 ;
	setAttr ".radi" 0.25;
createNode joint -n "Thumb_2_R_Jnt" -p "Thumb_1_R_Jnt";
	rename -uid "45E38FA0-419A-7808-4D60-2D842AEF00E3";
	setAttr ".t" -type "double3" -0.50703323395977407 -3.0943726120195727 -3.135285385358614 ;
	setAttr ".mnrl" -type "double3" -360 -360 -360 ;
	setAttr ".mxrl" -type "double3" 360 360 360 ;
	setAttr ".radi" 0.25;
createNode joint -n "Thumb_3_R_Jnt" -p "Thumb_2_R_Jnt";
	rename -uid "72202585-4A2E-599E-0EFC-B2BB315BD84C";
	setAttr ".t" -type "double3" -3.733327673671738e-007 -2.1323039304195657 -2.4885185787582031e-006 ;
	setAttr ".mnrl" -type "double3" -360 -360 -360 ;
	setAttr ".mxrl" -type "double3" 360 360 360 ;
	setAttr ".radi" 0.25;
createNode joint -n "Thumb_4_R_Jnt" -p "Thumb_3_R_Jnt";
	rename -uid "35ABDDBE-4BAE-200C-B38B-22A3D8666655";
	setAttr ".t" -type "double3" -6.2277294716750475e-006 -3.4880160862739764 -2.3327695970465356e-005 ;
	setAttr ".mnrl" -type "double3" -360 -360 -360 ;
	setAttr ".mxrl" -type "double3" 360 360 360 ;
	setAttr ".radi" 0.25;
createNode joint -n "Index_1_R_Jnt" -p "Hand_R_Jnt";
	rename -uid "4CB68D2A-48CF-5C49-FB16-558D824F9483";
	setAttr ".t" -type "double3" 0.37020000000001119 -0.3703000000000003 -2.4264800000000006 ;
	setAttr ".mnrl" -type "double3" -360 -360 -360 ;
	setAttr ".mxrl" -type "double3" 360 360 360 ;
	setAttr ".jo" -type "double3" 7.0167092985348681e-015 -89.999999999999972 0 ;
	setAttr ".radi" 0.25;
createNode joint -n "Index_2_R_Jnt" -p "Index_1_R_Jnt";
	rename -uid "DD544902-462B-8B61-442C-3ABCA0D0B6FD";
	setAttr ".t" -type "double3" 8.8817841970012523e-016 -5.7841000000000022 -0.21299999999999386 ;
	setAttr ".mnrl" -type "double3" -360 -360 -360 ;
	setAttr ".mxrl" -type "double3" 360 360 360 ;
	setAttr ".radi" 0.25;
createNode joint -n "Index_3_R_Jnt" -p "Index_2_R_Jnt";
	rename -uid "91E2D276-4A56-0C89-FB68-9C955E131C4A";
	setAttr ".t" -type "double3" 0 -3.4550999999999945 0.23439999999999372 ;
	setAttr ".mnrl" -type "double3" -360 -360 -360 ;
	setAttr ".mxrl" -type "double3" 360 360 360 ;
	setAttr ".jo" -type "double3" -3.0837399050623864 -3.7746692125831268e-016 1.016035461808081e-017 ;
	setAttr ".radi" 0.25;
createNode joint -n "Index_4_R_Jnt" -p "Index_3_R_Jnt";
	rename -uid "8CE7E9A4-45ED-1413-6964-679E1316A2A9";
	setAttr ".t" -type "double3" -1.7763568394002505e-015 -2.6837875045164523 2.4522210381405785e-005 ;
	setAttr ".mnrl" -type "double3" -360 -360 -360 ;
	setAttr ".mxrl" -type "double3" 360 360 360 ;
	setAttr ".radi" 0.25;
createNode joint -n "Index_5_R_Jnt" -p "Index_4_R_Jnt";
	rename -uid "ED50C3D2-41A6-304A-E56E-80A39811A5BE";
	setAttr ".t" -type "double3" 8.8817841970012523e-016 -2.5870422677133931 -7.116435449461278e-005 ;
	setAttr ".mnrl" -type "double3" -360 -360 -360 ;
	setAttr ".mxrl" -type "double3" 360 360 360 ;
	setAttr ".radi" 0.25;
createNode joint -n "Middle_1_R_Jnt" -p "Hand_R_Jnt";
	rename -uid "F9EE56E8-4C1B-0043-A38A-8FBC9BFFC31D";
	setAttr ".t" -type "double3" 0.61170000000001323 -0.44489999999999696 -0.76212000000000035 ;
	setAttr ".mnrl" -type "double3" -360 -360 -360 ;
	setAttr ".mxrl" -type "double3" 360 360 360 ;
	setAttr ".jo" -type "double3" 7.0167092985348681e-015 -89.999999999999972 0 ;
	setAttr ".radi" 0.25;
createNode joint -n "Middle_2_R_Jnt" -p "Middle_1_R_Jnt";
	rename -uid "4B5CD6EE-4B2C-DC23-3528-BD937662161B";
	setAttr ".t" -type "double3" 8.8817841970012523e-016 -5.7220000000000013 -0.35479999999999734 ;
	setAttr ".mnrl" -type "double3" -360 -360 -360 ;
	setAttr ".mxrl" -type "double3" 360 360 360 ;
	setAttr ".radi" 0.25;
createNode joint -n "Middle_3_R_Jnt" -p "Middle_2_R_Jnt";
	rename -uid "2E88E19C-48B9-9D94-61DC-8CA9D8CDF1C6";
	setAttr ".t" -type "double3" 0 -3.8212000000000046 0.36149999999999238 ;
	setAttr ".mnrl" -type "double3" -360 -360 -360 ;
	setAttr ".mxrl" -type "double3" 360 360 360 ;
	setAttr ".radi" 0.25;
createNode joint -n "Middle_4_R_Jnt" -p "Middle_3_R_Jnt";
	rename -uid "EE422056-4C71-7966-D904-FFA6D582CBC7";
	setAttr ".t" -type "double3" 8.8817841970012523e-016 -2.9669999999999987 0.21010000000001128 ;
	setAttr ".mnrl" -type "double3" -360 -360 -360 ;
	setAttr ".mxrl" -type "double3" 360 360 360 ;
	setAttr ".radi" 0.25;
createNode joint -n "Middle_5_R_Jnt" -p "Middle_4_R_Jnt";
	rename -uid "B64CEB9D-43F2-6C25-7EF0-B5B2316F27B0";
	setAttr ".t" -type "double3" -8.8817841970012523e-016 -2.8083999999999918 0 ;
	setAttr ".mnrl" -type "double3" -360 -360 -360 ;
	setAttr ".mxrl" -type "double3" 360 360 360 ;
	setAttr ".radi" 0.25;
createNode joint -n "Ring_1_R_Jnt" -p "Hand_R_Jnt";
	rename -uid "80CE3BED-47DE-3105-5A1A-3D9CD9D701F1";
	setAttr ".t" -type "double3" 0.90070000000001471 -0.4001000000000019 0.97962999999999933 ;
	setAttr ".mnrl" -type "double3" -360 -360 -360 ;
	setAttr ".mxrl" -type "double3" 360 360 360 ;
	setAttr ".jo" -type "double3" 7.0167092985348681e-015 -89.999999999999972 0 ;
	setAttr ".radi" 0.25;
createNode joint -n "Ring_2_R_Jnt" -p "Ring_1_R_Jnt";
	rename -uid "C494499E-41EC-10A5-D7B4-D48BE2D52153";
	setAttr ".t" -type "double3" 8.8817841970012523e-016 -5.3515999999999977 -0.2657999999999987 ;
	setAttr ".mnrl" -type "double3" -360 -360 -360 ;
	setAttr ".mxrl" -type "double3" 360 360 360 ;
	setAttr ".radi" 0.25;
createNode joint -n "Ring_3_R_Jnt" -p "Ring_2_R_Jnt";
	rename -uid "63C90C5A-4175-564D-4FCD-C194B7B9F5DB";
	setAttr ".t" -type "double3" 0 -3.5245000000000033 0.47010000000000218 ;
	setAttr ".mnrl" -type "double3" -360 -360 -360 ;
	setAttr ".mxrl" -type "double3" 360 360 360 ;
	setAttr ".jo" -type "double3" -2.6802426687742207 -3.2811536189827252e-016 7.6758637856770415e-018 ;
	setAttr ".radi" 0.25;
createNode joint -n "Ring_4_R_Jnt" -p "Ring_3_R_Jnt";
	rename -uid "67E61AD4-499A-CFD7-53C6-4DA98718186F";
	setAttr ".t" -type "double3" -8.8817841970012523e-016 -2.6956463579441348 -5.3874571236178781e-005 ;
	setAttr ".mnrl" -type "double3" -360 -360 -360 ;
	setAttr ".mxrl" -type "double3" 360 360 360 ;
	setAttr ".radi" 0.25;
createNode joint -n "Ring_5_R_Jnt" -p "Ring_4_R_Jnt";
	rename -uid "B8DA085A-41DB-A6A9-13DC-E5A9707CAE93";
	setAttr ".t" -type "double3" 8.8817841970012523e-016 -2.5723145880353471 1.3439320142083488e-005 ;
	setAttr ".mnrl" -type "double3" -360 -360 -360 ;
	setAttr ".mxrl" -type "double3" 360 360 360 ;
	setAttr ".radi" 0.25;
createNode joint -n "Pinky_1_R_Jnt" -p "Hand_R_Jnt";
	rename -uid "B99FF789-4568-8094-2256-9588A19F7C92";
	setAttr ".t" -type "double3" 0.77790000000001669 -0.23100000000000165 2.6684799999999989 ;
	setAttr ".mnrl" -type "double3" -360 -360 -360 ;
	setAttr ".mxrl" -type "double3" 360 360 360 ;
	setAttr ".jo" -type "double3" 7.0167092985348681e-015 -89.999999999999972 0 ;
	setAttr ".radi" 0.25;
createNode joint -n "Pinky_2_R_Jnt" -p "Pinky_1_R_Jnt";
	rename -uid "7A521CE4-490D-8FD2-E858-B0A358200275";
	setAttr ".t" -type "double3" 0 -5.0974 0 ;
	setAttr ".mnrl" -type "double3" -360 -360 -360 ;
	setAttr ".mxrl" -type "double3" 360 360 360 ;
	setAttr ".radi" 0.25;
createNode joint -n "Pinky_3_R_Jnt" -p "Pinky_2_R_Jnt";
	rename -uid "92AC11A3-4406-9D56-B8F8-D8BFA3D2B2AD";
	setAttr ".t" -type "double3" -1.7763568394002505e-015 -2.8805999999999941 0.28280000000000882 ;
	setAttr ".mnrl" -type "double3" -360 -360 -360 ;
	setAttr ".mxrl" -type "double3" 360 360 360 ;
	setAttr ".jo" -type "double3" -2.2990150056171532 -2.8147259194438347e-016 5.647855348837357e-018 ;
	setAttr ".radi" 0.25;
createNode joint -n "Pinky_4_R_Jnt" -p "Pinky_3_R_Jnt";
	rename -uid "8AED4322-4396-3E7E-2DC8-3B92FD116FD7";
	setAttr ".t" -type "double3" 3.5527136788005009e-015 -2.2035738698713772 4.4862389358968358e-006 ;
	setAttr ".mnrl" -type "double3" -360 -360 -360 ;
	setAttr ".mxrl" -type "double3" 360 360 360 ;
	setAttr ".radi" 0.25;
createNode joint -n "Pinky_5_R_Jnt" -p "Pinky_4_R_Jnt";
	rename -uid "357CA22A-4799-1654-DDFE-B6AC480B0F1E";
	setAttr ".t" -type "double3" 0 -2.1186058174734015 1.2953762208667285e-005 ;
	setAttr ".mnrl" -type "double3" -360 -360 -360 ;
	setAttr ".mxrl" -type "double3" 360 360 360 ;
	setAttr ".radi" 0.25;
createNode joint -n "Pelvis_Jnt" -p "Root_Jnt";
	rename -uid "B685C2BA-4957-6257-C95A-53BA2ED2ACCE";
	setAttr ".t" -type "double3" 0 -0.5 0 ;
	setAttr ".mnrl" -type "double3" -360 -360 -360 ;
	setAttr ".mxrl" -type "double3" 360 360 360 ;
	setAttr ".radi" 0.5;
createNode joint -n "UpLeg_L_Jnt" -p "Pelvis_Jnt";
	rename -uid "C22EE07F-47D8-CA68-3C1B-B687FA6F1F2B";
	setAttr ".t" -type "double3" 6.6353379580126486 -7.8820998347460929 -1.0522669701716905 ;
	setAttr ".r" -type "double3" 2.4744843196797062 -6.8831829074247859e-015 -7.318502907664412e-015 ;
	setAttr ".mnrl" -type "double3" -360 -360 -360 ;
	setAttr ".mxrl" -type "double3" 360 360 360 ;
	setAttr ".jo" -type "double3" -1.0369567504984212 0 -180 ;
	setAttr ".radi" 0.5;
createNode joint -n "LowLeg_L_Jnt" -p "UpLeg_L_Jnt";
	rename -uid "7213269B-423C-C6B8-696B-D9B5C9B1E95A";
	setAttr ".t" -type "double3" 5.3290705182007514e-015 26.440420342393338 -1.1102230246251565e-014 ;
	setAttr ".r" -type "double3" 1.7257232469998263 0 0 ;
	setAttr ".mnrl" -type "double3" -360 -360 -360 ;
	setAttr ".mxrl" -type "double3" 360 360 360 ;
	setAttr ".jo" -type "double3" -7.9657988499854193 -6.6208594470752379e-032 -1.4124500153760508e-030 ;
	setAttr ".radi" 0.5;
createNode joint -n "Ankle_L_Jnt" -p "LowLeg_L_Jnt";
	rename -uid "9A5EA9BD-4695-46BE-4932-AD9826ABFF02";
	setAttr ".t" -type "double3" 0 29.342849349237245 -5.3290705182007514e-015 ;
	setAttr ".mnrl" -type "double3" -360 -360 -360 ;
	setAttr ".mxrl" -type "double3" 360 360 360 ;
	setAttr ".jo" -type "double3" 4.8023218334837292 0 0 ;
	setAttr ".radi" 0.5;
createNode joint -n "Ball_L_Jnt" -p "Ankle_L_Jnt";
	rename -uid "D624FBFA-4312-B393-B07D-699A5E632616";
	setAttr ".t" -type "double3" 8.6153306710912148e-014 6.7952168995411428 11.486933708218114 ;
	setAttr ".mnrl" -type "double3" -360 -360 -360 ;
	setAttr ".mxrl" -type "double3" 360 360 360 ;
	setAttr ".jo" -type "double3" 90.000226200320554 5.3880692114870114e-036 -1.4124500153760508e-030 ;
	setAttr ".radi" 0.5;
createNode joint -n "Toe_L_Jnt" -p "Ball_L_Jnt";
	rename -uid "E5113F77-44CA-F043-DF16-A5AE74AF192B";
	setAttr ".t" -type "double3" -1.7763568394002505e-015 6.5788166292371422 5.3368112734206238e-015 ;
	setAttr ".mnrl" -type "double3" -360 -360 -360 ;
	setAttr ".mxrl" -type "double3" 360 360 360 ;
	setAttr ".radi" 0.5;
createNode joint -n "UpLeg_R_Jnt" -p "Pelvis_Jnt";
	rename -uid "D0240E06-4F24-9144-7942-47A05D462BA2";
	setAttr ".t" -type "double3" -6.63534 -7.8820915305512571 -1.052265074442293 ;
	setAttr ".r" -type "double3" 2.4744843196797062 -6.8831829074247859e-015 -7.318502907664412e-015 ;
	setAttr ".mnrl" -type "double3" -360 -360 -360 ;
	setAttr ".mxrl" -type "double3" 360 360 360 ;
	setAttr ".jo" -type "double3" 178.96304324950131 7.1425438165697752e-015 180 ;
	setAttr ".radi" 0.5;
createNode joint -n "LowLeg_R_Jnt" -p "UpLeg_R_Jnt";
	rename -uid "0BBECE6C-4A55-28D1-FACF-DFACEB3FD5EA";
	setAttr ".t" -type "double3" -3.5527136788005009e-015 -26.440421527768798 -2.8243705640917938e-007 ;
	setAttr ".r" -type "double3" 1.7257232469998263 0 0 ;
	setAttr ".mnrl" -type "double3" -360 -360 -360 ;
	setAttr ".mxrl" -type "double3" 360 360 360 ;
	setAttr ".jo" -type "double3" -7.9657988499852292 1.9545900092219809e-031 -1.821958645120762e-032 ;
	setAttr ".radi" 0.5;
createNode joint -n "Ankle_R_Jnt" -p "LowLeg_R_Jnt";
	rename -uid "0F27523B-42FF-3335-7321-36876EA26D56";
	setAttr ".t" -type "double3" -3.5527136788005009e-015 -29.34285896854794 2.5088131110351242e-006 ;
	setAttr ".mnrl" -type "double3" -360 -360 -360 ;
	setAttr ".mxrl" -type "double3" 360 360 360 ;
	setAttr ".jo" -type "double3" 4.8023218334836972 -1.1782195929673402e-031 -1.326626407941383e-032 ;
	setAttr ".radi" 0.5;
createNode joint -n "Ball_R_Jnt" -p "Ankle_R_Jnt";
	rename -uid "39860A30-4E08-AE3B-E0E9-B4888B0E6621";
	setAttr ".t" -type "double3" -1.7763568394002505e-015 -6.7952146503113688 -11.486936827191725 ;
	setAttr ".mnrl" -type "double3" -360 -360 -360 ;
	setAttr ".mxrl" -type "double3" 360 360 360 ;
	setAttr ".jo" -type "double3" 90.00022620032064 -1.4124445837100494e-030 -1.4124609361488356e-030 ;
	setAttr ".radi" 0.5;
createNode joint -n "Toe_R_Jnt" -p "Ball_R_Jnt";
	rename -uid "DFD2F2E6-459E-28BC-564D-03AC7E2630DA";
	setAttr ".t" -type "double3" 8.8817841970012523e-016 -6.5788199999999959 -7.6193031019394753e-015 ;
	setAttr ".mnrl" -type "double3" -360 -360 -360 ;
	setAttr ".mxrl" -type "double3" 360 360 360 ;
	setAttr ".jo" -type "double3" 1.2074182697257333e-006 -3.1362693202566674e-046 2.9765158413632181e-038 ;
	setAttr ".radi" 0.5;
createNode transform -n "Delete_Grp";
	rename -uid "0BC8C76A-4F4C-E45C-D882-8B90A27EB799";
createNode lightLinker -s -n "lightLinker1";
	rename -uid "8ACD40B8-4D0C-D5AF-65CD-20A6EC5C1584";
	setAttr -s 16 ".lnk";
	setAttr -s 16 ".slnk";
createNode displayLayerManager -n "layerManager";
	rename -uid "1A3A1A11-4AB5-8FB1-1E2B-D6BA7ECB6B4A";
	setAttr ".cdl" 2;
	setAttr -s 4 ".dli[1:3]"  1 2 3;
	setAttr -s 2 ".dli";
createNode displayLayer -n "defaultLayer";
	rename -uid "8B5D0C27-4401-9B9A-4DF3-068F7BC3CD93";
createNode renderLayerManager -n "renderLayerManager";
	rename -uid "017614B9-4283-DC57-91EF-61A024D80084";
createNode renderLayer -n "defaultRenderLayer";
	rename -uid "C8425A4E-4ADB-E7C1-FB0E-DEA41E4CC921";
	setAttr ".g" yes;
createNode ilrOptionsNode -s -n "TurtleRenderOptions";
	rename -uid "81FD5324-4072-E2EE-24BF-79888488A659";
lockNode -l 1 ;
createNode ilrUIOptionsNode -s -n "TurtleUIOptions";
	rename -uid "0CBF56F0-47FC-1559-BBAA-B7AC4951C7C5";
lockNode -l 1 ;
createNode ilrBakeLayerManager -s -n "TurtleBakeLayerManager";
	rename -uid "E9B8D657-4F1D-59D8-441A-A2A512160549";
lockNode -l 1 ;
createNode ilrBakeLayer -s -n "TurtleDefaultBakeLayer";
	rename -uid "6E903761-45C1-CB46-D51A-05957FF47F9D";
lockNode -l 1 ;
createNode script -n "sceneConfigurationScriptNode";
	rename -uid "DA1839FA-4C16-C1FC-231F-D99B2BC528B7";
	setAttr ".b" -type "string" "playbackOptions -min 1 -max 120 -ast 1 -aet 200 ";
	setAttr ".st" 6;
createNode lambert -n "redTmp_Mat";
	rename -uid "EE227ACE-4BD4-F5C9-CF86-C3A7111B708A";
	setAttr ".c" -type "float3" 0.5 0 0 ;
createNode shadingEngine -n "redTmp_MatSG";
	rename -uid "2E9B4693-4056-0937-A571-ABBEBF60BDEE";
	setAttr ".ihi" 0;
	setAttr ".ro" yes;
createNode materialInfo -n "materialInfo1";
	rename -uid "B008F743-465B-8CEE-C2E9-1DA72116D910";
createNode groupId -n "groupId2";
	rename -uid "82B5E693-4D9F-78EB-71C6-84A08149378B";
	setAttr ".ihi" 0;
createNode groupId -n "groupId3";
	rename -uid "30A8CD61-4361-C8B3-A251-46A170C04DA0";
	setAttr ".ihi" 0;
createNode groupId -n "groupId1";
	rename -uid "C1347169-471D-45F4-C8AB-05ABF1C1DD6D";
	setAttr ".ihi" 0;
createNode lambert -n "RedTmp_Mat";
	rename -uid "0BCBF1CA-4634-207E-44A0-ADB45AA7B313";
	setAttr ".dc" 1;
	setAttr ".c" -type "float3" 0.5 0 0 ;
createNode shadingEngine -n "RedTmp_MatSG";
	rename -uid "B1157DB7-48C2-6CB5-F2C5-929476F1933C";
	setAttr ".ihi" 0;
	setAttr ".ro" yes;
createNode materialInfo -n "materialInfo2";
	rename -uid "CF4E5BE9-4E50-0D56-ABA4-B4B3B469608D";
createNode groupId -n "groupId5";
	rename -uid "01944F8A-4DCD-4873-3840-758012B01FA8";
	setAttr ".ihi" 0;
createNode nodeGraphEditorInfo -n "hyperShadePrimaryNodeEditorSavedTabsInfo";
	rename -uid "8B834B36-4A09-44EC-7265-4681DC3787BE";
	setAttr ".tgi[0].tn" -type "string" "Untitled_1";
	setAttr ".tgi[0].vl" -type "double2" -724.99997119108946 -56.243260716079575 ;
	setAttr ".tgi[0].vh" -type "double2" 691.6666391823037 368.19081030124863 ;
createNode shapeEditorManager -n "shapeEditorManager";
	rename -uid "1D435DF5-433E-F503-9877-77A410183E2D";
createNode poseInterpolatorManager -n "poseInterpolatorManager";
	rename -uid "B22B7051-49B9-6533-FD34-3AA84183525F";
createNode displayLayer -n "layer1";
	rename -uid "5EA7C9A5-459C-AA0A-394B-8994521D66C1";
	setAttr ".do" 1;
select -ne :time1;
	setAttr -av -k on ".cch";
	setAttr -av -cb on ".ihi";
	setAttr -av -k on ".nds";
	setAttr -cb on ".bnm";
	setAttr -k on ".o" 1;
	setAttr -av -k on ".unw" 1;
	setAttr -k on ".etw";
	setAttr -k on ".tps";
	setAttr -av -k on ".tms";
select -ne :hardwareRenderingGlobals;
	setAttr ".otfna" -type "stringArray" 22 "NURBS Curves" "NURBS Surfaces" "Polygons" "Subdiv Surface" "Particles" "Particle Instance" "Fluids" "Strokes" "Image Planes" "UI" "Lights" "Cameras" "Locators" "Joints" "IK Handles" "Deformers" "Motion Trails" "Components" "Hair Systems" "Follicles" "Misc. UI" "Ornaments"  ;
	setAttr ".otfva" -type "Int32Array" 22 0 1 1 1 1 1
		 1 1 1 0 0 0 0 0 0 0 0 0
		 0 0 0 0 ;
	setAttr -k on ".mbsof";
	setAttr ".msaa" yes;
	setAttr ".fprt" yes;
select -ne :renderPartition;
	setAttr -k on ".cch";
	setAttr -cb on ".ihi";
	setAttr -k on ".nds";
	setAttr -cb on ".bnm";
	setAttr -s 4 ".st";
	setAttr -cb on ".an";
	setAttr -cb on ".pt";
select -ne :renderGlobalsList1;
	setAttr -k on ".cch";
	setAttr -cb on ".ihi";
	setAttr -k on ".nds";
	setAttr -cb on ".bnm";
select -ne :defaultShaderList1;
	setAttr -k on ".cch";
	setAttr -cb on ".ihi";
	setAttr -k on ".nds";
	setAttr -cb on ".bnm";
	setAttr -s 6 ".s";
select -ne :postProcessList1;
	setAttr -k on ".cch";
	setAttr -cb on ".ihi";
	setAttr -k on ".nds";
	setAttr -cb on ".bnm";
	setAttr -s 2 ".p";
select -ne :defaultRenderingList1;
	setAttr -k on ".ihi";
select -ne :initialShadingGroup;
	setAttr -av -k on ".cch";
	setAttr -cb on ".ihi";
	setAttr -av -k on ".nds";
	setAttr -cb on ".bnm";
	setAttr -k on ".mwc";
	setAttr -cb on ".an";
	setAttr -cb on ".il";
	setAttr -cb on ".vo";
	setAttr -cb on ".eo";
	setAttr -cb on ".fo";
	setAttr -cb on ".epo";
	setAttr -k on ".ro" yes;
select -ne :initialParticleSE;
	setAttr -av -k on ".cch";
	setAttr -cb on ".ihi";
	setAttr -av -k on ".nds";
	setAttr -cb on ".bnm";
	setAttr -k on ".mwc";
	setAttr -cb on ".an";
	setAttr -cb on ".il";
	setAttr -cb on ".vo";
	setAttr -cb on ".eo";
	setAttr -cb on ".fo";
	setAttr -cb on ".epo";
	setAttr -k on ".ro" yes;
select -ne :defaultResolution;
	setAttr -av -k on ".cch";
	setAttr -k on ".ihi";
	setAttr -av -k on ".nds";
	setAttr -k on ".bnm";
	setAttr -av -k on ".w";
	setAttr -av -k on ".h";
	setAttr -av -k on ".pa" 1;
	setAttr -av -k on ".al";
	setAttr -av -k on ".dar";
	setAttr -av -k on ".ldar";
	setAttr -k on ".dpi";
	setAttr -av -k on ".off";
	setAttr -av -k on ".fld";
	setAttr -av -k on ".zsl";
	setAttr -k on ".isu";
	setAttr -k on ".pdu";
select -ne :hardwareRenderGlobals;
	setAttr -k on ".cch";
	setAttr -cb on ".ihi";
	setAttr -k on ".nds";
	setAttr -cb on ".bnm";
	setAttr -k off -cb on ".ctrs" 256;
	setAttr -av -k off -cb on ".btrs" 512;
	setAttr -k off -cb on ".fbfm";
	setAttr -k off -cb on ".ehql";
	setAttr -k off -cb on ".eams";
	setAttr -k off -cb on ".eeaa";
	setAttr -k off -cb on ".engm";
	setAttr -k off -cb on ".mes";
	setAttr -k off -cb on ".emb";
	setAttr -av -k off -cb on ".mbbf";
	setAttr -k off -cb on ".mbs";
	setAttr -k off -cb on ".trm";
	setAttr -k off -cb on ".tshc";
	setAttr -k off -cb on ".enpt";
	setAttr -k off -cb on ".clmt";
	setAttr -k off -cb on ".tcov";
	setAttr -k off -cb on ".lith";
	setAttr -k off -cb on ".sobc";
	setAttr -k off -cb on ".cuth";
	setAttr -k off -cb on ".hgcd";
	setAttr -k off -cb on ".hgci";
	setAttr -k off -cb on ".mgcs";
	setAttr -k off -cb on ".twa";
	setAttr -k off -cb on ".twz";
	setAttr -cb on ".hwcc";
	setAttr -cb on ".hwdp";
	setAttr -cb on ".hwql";
	setAttr -k on ".hwfr";
	setAttr -k on ".soll";
	setAttr -k on ".sosl";
	setAttr -k on ".bswa";
	setAttr -k on ".shml";
	setAttr -k on ".hwel";
connectAttr "EyeTar_Jnt.s" "EyeTar_L_Jnt.is";
connectAttr "EyeTar_Jnt.s" "EyeTar_R_Jnt.is";
connectAttr "HeelPiv_L_Jnt.s" "FootOutPiv_L_Jnt.is";
connectAttr "HeelPiv_L_Jnt.s" "FootInPiv_L_Jnt.is";
connectAttr "HeelPiv_L_Jnt.s" "KneeIk_L_Jnt.is";
connectAttr "HeelPiv_L_Jnt.s" "ElbowIk_L_Jnt.is";
connectAttr "HeelPiv_R_Jnt.s" "FootOutPiv_R_Jnt.is";
connectAttr "HeelPiv_R_Jnt.s" "FootInPiv_R_Jnt.is";
connectAttr "HeelPiv_R_Jnt.s" "KneeIk_R_Jnt.is";
connectAttr "HeelPiv_R_Jnt.s" "ElbowIk_R_Jnt.is";
connectAttr "Root_Jnt.s" "Spine_Jnt.is";
connectAttr "Spine_Jnt.s" "SpineMid_Jnt.is";
connectAttr "SpineMid_Jnt.s" "Chest_Jnt.is";
connectAttr "Chest_Jnt.s" "ChestTip_Jnt.is";
connectAttr "ChestTip_Jnt.s" "Neck_Jnt.is";
connectAttr "Neck_Jnt.s" "NeckTip_Jnt.is";
connectAttr "NeckTip_Jnt.s" "Head_Jnt.is";
connectAttr "Head_Jnt.s" "HeadTip_Jnt.is";
connectAttr "Head_Jnt.s" "Eye_L_Jnt.is";
connectAttr "Head_Jnt.s" "Eye_R_Jnt.is";
connectAttr "Chest_Jnt.s" "Hood_Jnt.is";
connectAttr "Hood_Jnt.s" "HoodTip_Jnt.is";
connectAttr "Chest_Jnt.s" "Clav_L_Jnt.is";
connectAttr "Clav_L_Jnt.s" "ClavTip_L_Jnt.is";
connectAttr "ClavTip_L_Jnt.s" "UpArm_L_Jnt.is";
connectAttr "UpArm_L_Jnt.s" "Forearm_L_Jnt.is";
connectAttr "Forearm_L_Jnt.s" "Wrist_L_Jnt.is";
connectAttr "Wrist_L_Jnt.s" "Hand_L_Jnt.is";
connectAttr "Hand_L_Jnt.s" "Thumb_1_L_Jnt.is";
connectAttr "Thumb_1_L_Jnt.s" "Thumb_2_L_Jnt.is";
connectAttr "Thumb_2_L_Jnt.s" "Thumb_3_L_Jnt.is";
connectAttr "Thumb_3_L_Jnt.s" "Thumb_4_L_Jnt.is";
connectAttr "Hand_L_Jnt.s" "Index_1_L_Jnt.is";
connectAttr "Index_1_L_Jnt.s" "Index_2_L_Jnt.is";
connectAttr "Index_2_L_Jnt.s" "Index_3_L_Jnt.is";
connectAttr "Index_3_L_Jnt.s" "Index_4_L_Jnt.is";
connectAttr "Index_4_L_Jnt.s" "Index_5_L_Jnt.is";
connectAttr "Hand_L_Jnt.s" "Middle_1_L_Jnt.is";
connectAttr "Middle_1_L_Jnt.s" "Middle_2_L_Jnt.is";
connectAttr "Middle_2_L_Jnt.s" "Middle_3_L_Jnt.is";
connectAttr "Middle_3_L_Jnt.s" "Middle_4_L_Jnt.is";
connectAttr "Middle_4_L_Jnt.s" "Middle_5_L_Jnt.is";
connectAttr "Hand_L_Jnt.s" "Ring_1_L_Jnt.is";
connectAttr "Ring_1_L_Jnt.s" "Ring_2_L_Jnt.is";
connectAttr "Ring_2_L_Jnt.s" "Ring_3_L_Jnt.is";
connectAttr "Ring_3_L_Jnt.s" "Ring_4_L_Jnt.is";
connectAttr "Ring_4_L_Jnt.s" "Ring_5_L_Jnt.is";
connectAttr "Hand_L_Jnt.s" "Pinky_1_L_Jnt.is";
connectAttr "Pinky_1_L_Jnt.s" "Pinky_2_L_Jnt.is";
connectAttr "Pinky_2_L_Jnt.s" "Pinky_3_L_Jnt.is";
connectAttr "Pinky_3_L_Jnt.s" "Pinky_4_L_Jnt.is";
connectAttr "Pinky_4_L_Jnt.s" "Pinky_5_L_Jnt.is";
connectAttr "Chest_Jnt.s" "Clav_R_Jnt.is";
connectAttr "Clav_R_Jnt.s" "ClavTip_R_Jnt.is";
connectAttr "ClavTip_R_Jnt.s" "UpArm_R_Jnt.is";
connectAttr "UpArm_R_Jnt.s" "Forearm_R_Jnt.is";
connectAttr "Forearm_R_Jnt.s" "Wrist_R_Jnt.is";
connectAttr "Wrist_R_Jnt.s" "Hand_R_Jnt.is";
connectAttr "Hand_R_Jnt.s" "Thumb_1_R_Jnt.is";
connectAttr "Thumb_1_R_Jnt.s" "Thumb_2_R_Jnt.is";
connectAttr "Thumb_2_R_Jnt.s" "Thumb_3_R_Jnt.is";
connectAttr "Thumb_3_R_Jnt.s" "Thumb_4_R_Jnt.is";
connectAttr "Hand_R_Jnt.s" "Index_1_R_Jnt.is";
connectAttr "Index_1_R_Jnt.s" "Index_2_R_Jnt.is";
connectAttr "Index_2_R_Jnt.s" "Index_3_R_Jnt.is";
connectAttr "Index_3_R_Jnt.s" "Index_4_R_Jnt.is";
connectAttr "Index_4_R_Jnt.s" "Index_5_R_Jnt.is";
connectAttr "Hand_R_Jnt.s" "Middle_1_R_Jnt.is";
connectAttr "Middle_1_R_Jnt.s" "Middle_2_R_Jnt.is";
connectAttr "Middle_2_R_Jnt.s" "Middle_3_R_Jnt.is";
connectAttr "Middle_3_R_Jnt.s" "Middle_4_R_Jnt.is";
connectAttr "Middle_4_R_Jnt.s" "Middle_5_R_Jnt.is";
connectAttr "Hand_R_Jnt.s" "Ring_1_R_Jnt.is";
connectAttr "Ring_1_R_Jnt.s" "Ring_2_R_Jnt.is";
connectAttr "Ring_2_R_Jnt.s" "Ring_3_R_Jnt.is";
connectAttr "Ring_3_R_Jnt.s" "Ring_4_R_Jnt.is";
connectAttr "Ring_4_R_Jnt.s" "Ring_5_R_Jnt.is";
connectAttr "Hand_R_Jnt.s" "Pinky_1_R_Jnt.is";
connectAttr "Pinky_1_R_Jnt.s" "Pinky_2_R_Jnt.is";
connectAttr "Pinky_2_R_Jnt.s" "Pinky_3_R_Jnt.is";
connectAttr "Pinky_3_R_Jnt.s" "Pinky_4_R_Jnt.is";
connectAttr "Pinky_4_R_Jnt.s" "Pinky_5_R_Jnt.is";
connectAttr "Root_Jnt.s" "Pelvis_Jnt.is";
connectAttr "Pelvis_Jnt.s" "UpLeg_L_Jnt.is";
connectAttr "UpLeg_L_Jnt.s" "LowLeg_L_Jnt.is";
connectAttr "LowLeg_L_Jnt.s" "Ankle_L_Jnt.is";
connectAttr "Ankle_L_Jnt.s" "Ball_L_Jnt.is";
connectAttr "Ball_L_Jnt.s" "Toe_L_Jnt.is";
connectAttr "Pelvis_Jnt.s" "UpLeg_R_Jnt.is";
connectAttr "UpLeg_R_Jnt.s" "LowLeg_R_Jnt.is";
connectAttr "LowLeg_R_Jnt.s" "Ankle_R_Jnt.is";
connectAttr "Ankle_R_Jnt.s" "Ball_R_Jnt.is";
connectAttr "Ball_R_Jnt.s" "Toe_R_Jnt.is";
relationship "link" ":lightLinker1" ":initialShadingGroup.message" ":defaultLightSet.message";
relationship "link" ":lightLinker1" ":initialParticleSE.message" ":defaultLightSet.message";
relationship "link" ":lightLinker1" "redTmp_MatSG.message" ":defaultLightSet.message";
relationship "link" ":lightLinker1" "RedTmp_MatSG.message" ":defaultLightSet.message";
relationship "shadowLink" ":lightLinker1" ":initialShadingGroup.message" ":defaultLightSet.message";
relationship "shadowLink" ":lightLinker1" ":initialParticleSE.message" ":defaultLightSet.message";
relationship "shadowLink" ":lightLinker1" "redTmp_MatSG.message" ":defaultLightSet.message";
relationship "shadowLink" ":lightLinker1" "RedTmp_MatSG.message" ":defaultLightSet.message";
connectAttr "layerManager.dli[0]" "defaultLayer.id";
connectAttr "renderLayerManager.rlmi[0]" "defaultRenderLayer.rlid";
connectAttr ":TurtleDefaultBakeLayer.idx" ":TurtleBakeLayerManager.bli[0]";
connectAttr ":TurtleRenderOptions.msg" ":TurtleDefaultBakeLayer.rset";
connectAttr "redTmp_Mat.oc" "redTmp_MatSG.ss";
connectAttr "groupId3.msg" "redTmp_MatSG.gn" -na;
connectAttr "redTmp_MatSG.msg" "materialInfo1.sg";
connectAttr "redTmp_Mat.msg" "materialInfo1.m";
connectAttr "RedTmp_Mat.oc" "RedTmp_MatSG.ss";
connectAttr "RedTmp_MatSG.msg" "materialInfo2.sg";
connectAttr "RedTmp_Mat.msg" "materialInfo2.m";
connectAttr "layerManager.dli[3]" "layer1.id";
connectAttr "redTmp_MatSG.pa" ":renderPartition.st" -na;
connectAttr "RedTmp_MatSG.pa" ":renderPartition.st" -na;
connectAttr "redTmp_Mat.msg" ":defaultShaderList1.s" -na;
connectAttr "RedTmp_Mat.msg" ":defaultShaderList1.s" -na;
connectAttr "defaultRenderLayer.msg" ":defaultRenderingList1.r" -na;
connectAttr "groupId5.msg" ":initialShadingGroup.gn" -na;
// End of Patrick_Skel_003.ma
