+ pgYetiMaya 4.1.7 %RFSCRIPT%/plugins/Maya2020/yeti_4.1.8
PATH +:= bin
MTOA_EXTENSIONS_PATH +:= plug-ins
ARNOLD_PLUGIN_PATH +:= bin
VRAY_FOR_MAYA2020_PLUGINS_x64 +:= bin
REDSHIFT_MAYAEXTENSIONSPATH +:= plug-ins