//Maya ASCII 2018ff09 scene
//Name: characterTmp.ma
//Last modified: Mon, Sep 14, 2020 12:20:41 PM
//Codeset: 1252
requires maya "2018ff09";
requires "stereoCamera" "10.0";
requires "mtoa" "3.3.0.2";
currentUnit -l centimeter -a degree -t film;
fileInfo "application" "maya";
fileInfo "product" "Maya 2018";
fileInfo "version" "2018";
fileInfo "cutIdentifier" "201903222215-65bada0e52";
fileInfo "osv" "Microsoft Windows 8 Business Edition, 64-bit  (Build 9200)\n";
fileInfo "vrayBuild" "4.30.02 7224ea2";
createNode transform -s -n "persp";
	rename -uid "E87C94D9-4122-52D6-0A83-74907D4FC210";
	setAttr ".v" no;
	setAttr ".t" -type "double3" 3.5363491589418818 4.1708197053611435 3.4371009165704081 ;
	setAttr ".r" -type "double3" -31.538352729609031 45.400000000003992 -2.2648585432310679e-15 ;
createNode camera -s -n "perspShape" -p "persp";
	rename -uid "4F9199E4-430A-1E01-0AAC-B2816FAC7A03";
	setAttr -k off ".v" no;
	setAttr ".fl" 34.999999999999993;
	setAttr ".coi" 7.1118811092958838;
	setAttr ".imn" -type "string" "persp";
	setAttr ".den" -type "string" "persp_depth";
	setAttr ".man" -type "string" "persp_mask";
	setAttr ".hc" -type "string" "viewSet -p %camera";
	setAttr ".ai_translator" -type "string" "perspective";
createNode transform -s -n "top";
	rename -uid "F79F66F7-41B6-D1B9-3282-9DBFB4A8D23C";
	setAttr ".v" no;
	setAttr ".t" -type "double3" 0 1000.1 0 ;
	setAttr ".r" -type "double3" -89.999999999999986 0 0 ;
createNode camera -s -n "topShape" -p "top";
	rename -uid "7A579370-4378-27E9-F443-C5970784BBA6";
	setAttr -k off ".v" no;
	setAttr ".rnd" no;
	setAttr ".coi" 1000.1;
	setAttr ".ow" 30;
	setAttr ".imn" -type "string" "top";
	setAttr ".den" -type "string" "top_depth";
	setAttr ".man" -type "string" "top_mask";
	setAttr ".hc" -type "string" "viewSet -t %camera";
	setAttr ".o" yes;
	setAttr ".ai_translator" -type "string" "orthographic";
createNode transform -s -n "front";
	rename -uid "5B02E6B1-4C23-7080-F3A5-50A5B7B6DD30";
	setAttr ".v" no;
	setAttr ".t" -type "double3" 0 0 1000.1 ;
createNode camera -s -n "frontShape" -p "front";
	rename -uid "7F8B74C4-4CC0-1D64-ED0E-689D06816C4D";
	setAttr -k off ".v" no;
	setAttr ".rnd" no;
	setAttr ".coi" 1000.1;
	setAttr ".ow" 30;
	setAttr ".imn" -type "string" "front";
	setAttr ".den" -type "string" "front_depth";
	setAttr ".man" -type "string" "front_mask";
	setAttr ".hc" -type "string" "viewSet -f %camera";
	setAttr ".o" yes;
	setAttr ".ai_translator" -type "string" "orthographic";
createNode transform -s -n "side";
	rename -uid "56F7E37D-45A2-20F7-9455-67BB2E8AE4E1";
	setAttr ".v" no;
	setAttr ".t" -type "double3" 1000.1 0 0 ;
	setAttr ".r" -type "double3" 0 89.999999999999986 0 ;
createNode camera -s -n "sideShape" -p "side";
	rename -uid "A38878D1-457D-68C3-D4CB-4B9A80A13E5B";
	setAttr -k off ".v" no;
	setAttr ".rnd" no;
	setAttr ".coi" 1000.1;
	setAttr ".ow" 30;
	setAttr ".imn" -type "string" "side";
	setAttr ".den" -type "string" "side_depth";
	setAttr ".man" -type "string" "side_mask";
	setAttr ".hc" -type "string" "viewSet -s %camera";
	setAttr ".o" yes;
	setAttr ".ai_translator" -type "string" "orthographic";
createNode transform -n "TmpJnt_Grp";
	rename -uid "4066D9BB-4FFD-87AF-85B7-5A89884E75C9";
createNode joint -n "Root_TmpJnt" -p "TmpJnt_Grp";
	rename -uid "5A4F9FBA-4FE0-B7C6-B61F-BF8402E341E1";
	setAttr ".t" -type "double3" 0 5.5198332709569193 0.27449132780221741 ;
	setAttr ".ro" 2;
	setAttr ".bps" -type "matrix" 1 0 0 0 0 1 0 0 0 0 1 0 0 55.198331887049953 2.7449132371197802 1;
	setAttr ".radi" 0.025;
createNode joint -n "Pelvis_TmpJnt" -p "Root_TmpJnt";
	rename -uid "9D38D5FF-4428-44F7-4AF5-BC828E5BF99D";
	setAttr ".t" -type "double3" 0 -0.05974684837537847 -1.1102230246251565e-16 ;
	setAttr ".ro" 3;
	setAttr ".radi" 0.025;
createNode joint -n "UpLeg_L_TmpJnt" -p "Pelvis_TmpJnt";
	rename -uid "B6DFD5D1-4B3B-4CC0-3D40-5891A0E4F572";
	setAttr ".t" -type "double3" 0.42193264804128983 -0.2710798061613291 -0.070855587981438928 ;
	setAttr ".ro" 1;
	setAttr ".jo" -type "double3" 0 0 180 ;
	setAttr ".radi" 0.025;
createNode joint -n "LowLeg_L_TmpJnt" -p "UpLeg_L_TmpJnt";
	rename -uid "FAE99450-4592-2DC8-E936-2B8A48958220";
	setAttr ".t" -type "double3" 1.609823385706477e-15 2.2993472631107723 0.10819695270224683 ;
	setAttr ".ro" 1;
	setAttr ".jo" -type "double3" -2.4278505038386962e-06 0 0 ;
	setAttr ".radi" 0.025;
createNode joint -n "Ankle_L_TmpJnt" -p "LowLeg_L_TmpJnt";
	rename -uid "0FF03FC2-4913-E2C5-DCE6-FB83B209326E";
	setAttr ".t" -type "double3" -1.1102230246251565e-15 2.3714166952953928 -0.18906640674703612 ;
	setAttr ".ro" 1;
	setAttr ".radi" 0.025;
createNode joint -n "Ball_L_TmpJnt" -p "Ankle_L_TmpJnt";
	rename -uid "BD437E3D-427E-5A62-CD0F-588EB2266415";
	setAttr ".t" -type "double3" 3.3306690738754696e-16 0.51916896034486215 0.37743959391850729 ;
	setAttr ".ro" 1;
	setAttr ".jo" -type "double3" 89.999999999999986 0 0 ;
	setAttr ".radi" 0.025;
createNode joint -n "Toe_L_TmpJnt" -p "Ball_L_TmpJnt";
	rename -uid "22C9C5C2-4BF7-637C-3473-DF943B27D275";
	setAttr ".t" -type "double3" -6.106226635438361e-16 0.41579111407335423 -1.1023872278327922e-08 ;
	setAttr ".ro" 1;
	setAttr ".radi" 0.025;
createNode joint -n "HeelIkTwistPiv_L_TmpJnt" -p "Ball_L_TmpJnt";
	rename -uid "EC6EC31E-41CC-8D52-36A2-DF892F579603";
	setAttr ".t" -type "double3" 0 -0.30595494762462105 -8.3483567281383841e-17 ;
	setAttr ".r" -type "double3" 89.999997572149496 0 180 ;
	setAttr ".jo" -type "double3" 89.999997572149482 -7.0167092985348704e-15 -180 ;
	setAttr ".radi" 0.025;
createNode joint -n "Heel_L_TmpJnt" -p "HeelIkTwistPiv_L_TmpJnt";
	rename -uid "0D930A89-43C9-16B8-9F33-E0B2649F0973";
	setAttr ".t" -type "double3" 0 -0.18584704263522481 1.0842021724855044e-19 ;
	setAttr ".r" -type "double3" 89.999997572149496 0 180 ;
	setAttr ".jo" -type "double3" 89.999997572149496 -7.0167092985348704e-15 -180 ;
	setAttr ".radi" 0.025;
createNode joint -n "FootOut_L_TmpJnt" -p "Ankle_L_TmpJnt";
	rename -uid "E0D9B9AC-4912-F788-DE41-F3B3AACB921F";
	setAttr ".t" -type "double3" -0.21416966902523205 0.5191689603216405 0.37798751358252708 ;
	setAttr ".jo" -type "double3" -2.4278505276912694e-06 -2.1047145357371133e-38 180 ;
	setAttr ".radi" 0.025;
createNode joint -n "FootIn_L_TmpJnt" -p "Ankle_L_TmpJnt";
	rename -uid "F833901D-41B8-EE65-0BB8-3383DAB15CE8";
	setAttr ".t" -type "double3" 0.18320883908818214 0.51916896034485682 0.37743971636489554 ;
	setAttr ".jo" -type "double3" -2.4278505276912694e-06 -2.1047145357371133e-38 180 ;
	setAttr ".radi" 0.025;
createNode joint -n "Knee_L_TmpJnt" -p "LowLeg_L_TmpJnt";
	rename -uid "C8DC20B3-4EEF-8F22-BF4B-8E93EB4FB7F4";
	addAttr -ci true -sn "liw" -ln "lockInfluenceWeights" -min 0 -max 1 -at "bool";
	setAttr ".uoc" 1;
	setAttr ".oc" 2;
	setAttr ".t" -type "double3" -1.1657341758564144e-15 -2.0873780426082916e-07 2.7920954656405752 ;
	setAttr ".mnrl" -type "double3" -360 -360 -360 ;
	setAttr ".mxrl" -type "double3" 360 360 360 ;
	setAttr ".jot" -type "string" "yxz";
	setAttr ".jo" -type "double3" -2.4278505038386971e-06 0 180 ;
	setAttr ".bps" -type "matrix" -1 -1.2246467991473532e-16 0 0 1.2246467991473532e-16 -1 0 0
		 0 0 1 0 1.3486489690923307 14.656585133659888 1.5144370407379352e-17 1;
	setAttr -k on -cb off ".radi" 0.025;
createNode joint -n "KneePos_L_TmpJnt" -p "LowLeg_L_TmpJnt";
	rename -uid "BFCCD072-472E-1F08-B976-BA9DDD97A3D1";
	setAttr ".t" -type "double3" 7.7854511935658617e-18 0.13789653441751204 -0.28377546814883176 ;
	setAttr ".r" -type "double3" -2.4278505038386967e-06 0 180 ;
	setAttr ".jo" -type "double3" -2.4278505038386967e-06 2.9732593483343481e-22 -180 ;
	setAttr ".radi" 0.025;
createNode joint -n "UpLeg_R_TmpJnt" -p "Pelvis_TmpJnt";
	rename -uid "CA559A20-438A-3D9F-17B8-0CA7884DE84A";
	setAttr ".t" -type "double3" -0.421933 -0.27107642258154119 -0.070855327802217288 ;
	setAttr ".ro" 1;
	setAttr ".jo" -type "double3" 0 180 0 ;
	setAttr ".radi" 0.025;
createNode joint -n "LowLeg_R_TmpJnt" -p "UpLeg_R_TmpJnt";
	rename -uid "DA37AE91-4E6A-5984-33E2-5FA7C552B36D";
	setAttr ".t" -type "double3" -5.5511151231257827e-17 -2.2993499999999996 -0.10819700000000002 ;
	setAttr ".ro" 1;
	setAttr ".jo" -type "double3" 2.4148365394514671e-06 -2.957321776182411e-22 -2.9573219008242072e-22 ;
	setAttr ".radi" 0.025;
createNode joint -n "Ankle_R_TmpJnt" -p "LowLeg_R_TmpJnt";
	rename -uid "1E2D7D38-4621-2390-39FA-55B812AAFEF6";
	setAttr ".t" -type "double3" 1.1102230246251565e-16 -2.3714169920314196 0.18906709994775289 ;
	setAttr ".ro" 1;
	setAttr ".jo" -type "double3" 4.8296730789029342e-06 -5.9146436770066192e-22 -5.9146436770066201e-22 ;
	setAttr ".radi" 0.025;
createNode joint -n "Ball_R_TmpJnt" -p "Ankle_R_TmpJnt";
	rename -uid "71691ABD-4698-18DA-E2FE-6589E5EC5563";
	setAttr ".t" -type "double3" -1.1102230246251565e-16 -0.51916935772371586 -0.37743993435594625 ;
	setAttr ".ro" 1;
	setAttr ".jo" -type "double3" 89.999990327639864 -2.9589153405008536e-21 -1.40334174125469e-14 ;
	setAttr ".radi" 0.025;
createNode joint -n "Toe_R_TmpJnt" -p "Ball_R_TmpJnt";
	rename -uid "E97256BD-4B1E-28A7-7B21-96B5B64A05B3";
	setAttr ".t" -type "double3" -5.5511151231257827e-17 -0.4157910000000008 1.1381278195495698e-08 ;
	setAttr ".ro" 1;
	setAttr ".radi" 0.025;
createNode joint -n "HeelIkTwistPiv_R_TmpJnt" -p "Ball_R_TmpJnt";
	rename -uid "2BEE8151-495C-F831-9B4D-2B952A5D2814";
	setAttr ".t" -type "double3" 5.5511151231257827e-17 0.30595500000000031 -3.5467434761696226e-11 ;
	setAttr ".r" -type "double3" 89.999997572149496 0 180 ;
	setAttr ".jo" -type "double3" 89.999997572149482 7.0167092985348523e-15 180 ;
	setAttr ".radi" 0.025;
createNode joint -n "Heel_R_TmpJnt" -p "HeelIkTwistPiv_R_TmpJnt";
	rename -uid "481E7084-4C76-F0B5-D09B-2CA9E8A5F093";
	setAttr ".t" -type "double3" 0 0.1858472300000002 -1.2491227616064776e-10 ;
	setAttr ".r" -type "double3" 89.999997572149496 0 180 ;
	setAttr ".jo" -type "double3" 89.999997572149496 -7.0167092985348917e-15 -180 ;
	setAttr ".radi" 0.025;
createNode joint -n "FootOut_R_TmpJnt" -p "Ankle_R_TmpJnt";
	rename -uid "BAF14886-4103-BFC5-F59F-9C86A2AFD6D9";
	setAttr ".t" -type "double3" 0.21416899999999978 -0.51916935779300533 -0.37798793435594624 ;
	setAttr ".jo" -type "double3" 7.2445096286087952e-06 -2.1050121977773111e-14 179.99999999999997 ;
	setAttr ".radi" 0.025;
createNode joint -n "FootIn_R_TmpJnt" -p "Ankle_R_TmpJnt";
	rename -uid "7691F372-497D-0CC7-F4B6-85956647C5F8";
	setAttr ".t" -type "double3" -0.18320900000000012 -0.51916935772371586 -0.37743993435594625 ;
	setAttr ".jo" -type "double3" 7.2445096286087952e-06 -2.1050121977773111e-14 179.99999999999997 ;
	setAttr ".radi" 0.025;
createNode joint -n "Knee_R_TmpJnt" -p "LowLeg_R_TmpJnt";
	rename -uid "03C31FE9-4B66-4D6C-0D57-30B3FCA42A2C";
	addAttr -ci true -sn "liw" -ln "lockInfluenceWeights" -min 0 -max 1 -at "bool";
	setAttr ".uoc" 1;
	setAttr ".oc" 2;
	setAttr ".t" -type "double3" -2.7755575615628914e-16 -1.1767808905105426e-07 -2.7920969999999978 ;
	setAttr ".mnrl" -type "double3" -360 -360 -360 ;
	setAttr ".mxrl" -type "double3" 360 360 360 ;
	setAttr ".jot" -type "string" "yxz";
	setAttr ".jo" -type "double3" 2.4148365305844463e-06 -2.105012552655962e-14 179.99999999999997 ;
	setAttr ".bps" -type "matrix" -1 -1.2246467991473532e-16 0 0 1.2246467991473532e-16 -1 0 0
		 0 0 1 0 1.3486489690923307 14.656585133659888 1.5144370407379352e-17 1;
	setAttr -k on -cb off ".radi" 0.025;
createNode joint -n "KneePos_R_TmpJnt" -p "LowLeg_R_TmpJnt";
	rename -uid "D018FE99-40BB-0E28-A8FE-F68690C9E867";
	setAttr ".t" -type "double3" 1.1102230246251565e-16 -0.13789998803974424 0.2837758058120502 ;
	setAttr ".r" -type "double3" -2.4278505038386967e-06 0 180 ;
	setAttr ".jo" -type "double3" 2.4148365305844463e-06 -2.1050128490256459e-14 180 ;
	setAttr ".radi" 0.025;
createNode joint -n "Spine1_TmpJnt" -p "Root_TmpJnt";
	rename -uid "0A939DF8-49A2-F2B0-39B7-B6865FA17E54";
	setAttr ".t" -type "double3" 8.2167887179627009e-33 0.060070384016911227 0.022247830693427617 ;
	setAttr ".ro" 1;
	setAttr ".radi" 0.025;
createNode joint -n "Spine2_TmpJnt" -p "Spine1_TmpJnt";
	rename -uid "2EA9AFEF-4879-3B11-42E1-FBB01BD07F1C";
	setAttr ".t" -type "double3" 0 0.25675000000000026 0.064786546547482948 ;
	setAttr ".ro" 1;
	setAttr ".radi" 0.025;
createNode joint -n "Spine3_TmpJnt" -p "Spine2_TmpJnt";
	rename -uid "DC78EF7F-4D79-3C4B-2751-84B7C0B674A8";
	setAttr ".t" -type "double3" 2.1557466303501574e-16 0.25675000000000026 -0.0080546323785488649 ;
	setAttr ".ro" 1;
	setAttr ".radi" 0.025;
createNode joint -n "Spine4_TmpJnt" -p "Spine3_TmpJnt";
	rename -uid "E0672D07-4EC3-F18C-C4A8-AAB390BB6506";
	setAttr ".t" -type "double3" -1.9299276119708587e-12 0.25675000000000026 -0.050674382773074567 ;
	setAttr ".ro" 1;
	setAttr ".radi" 0.025;
createNode joint -n "Spine5_TmpJnt" -p "Spine4_TmpJnt";
	rename -uid "A2BE2773-4EC1-77F8-FE76-129A5E6E1E38";
	setAttr ".t" -type "double3" 0 0.25690942190825261 -0.094291143352776802 ;
	setAttr ".ro" 1;
	setAttr ".radi" 0.025;
createNode joint -n "Boob_L_TmpJnt" -p "Spine5_TmpJnt";
	rename -uid "5FA2D345-4487-E8B8-2E17-C2A5A16631C9";
	setAttr ".t" -type "double3" 0.25116996676686326 0.076771757613516733 0.052435833038351448 ;
	setAttr ".jo" -type "double3" 0 9.7791106647097372 0 ;
	setAttr ".radi" 0.025;
createNode joint -n "BoobTip_L_TmpJnt" -p "Boob_L_TmpJnt";
	rename -uid "9FAE40A4-49E3-091B-B0C8-7288311C082A";
	setAttr ".t" -type "double3" 1.3877787807814457e-16 3.5527136788005009e-15 0.53498955570145768 ;
	setAttr ".radi" 0.025;
createNode joint -n "Boob_R_TmpJnt" -p "Spine5_TmpJnt";
	rename -uid "294D4572-4491-7BB0-1342-D69BC3212943";
	setAttr ".t" -type "double3" -0.25117000374079479 0.076767022714730793 0.052435457349595566 ;
	setAttr ".jo" -type "double3" 180 -9.7791106647097372 0 ;
	setAttr ".radi" 0.025;
createNode joint -n "BoobTip_R_TmpJnt" -p "Boob_R_TmpJnt";
	rename -uid "F9FE3FB1-4075-2133-4C88-7CB98B9541C1";
	setAttr ".t" -type "double3" 7.583775263331205e-08 7.1054273576010019e-15 -0.53498946033402461 ;
	setAttr ".jo" -type "double3" 0 1.590277340731758e-15 3.5311250384401265e-31 ;
	setAttr ".radi" 0.025;
createNode joint -n "Clav_L_TmpJnt" -p "Spine5_TmpJnt";
	rename -uid "447E6B38-46AA-FBB0-A10E-6BA136E9E078";
	setAttr ".t" -type "double3" 0.19622976912545304 0.57499299021379713 -0.042559005662884231 ;
	setAttr ".jo" -type "double3" 0 0 -89.999999999999986 ;
	setAttr ".radi" 0.025;
createNode joint -n "UpArm_L_TmpJnt" -p "Clav_L_TmpJnt";
	rename -uid "D2A03C8B-4B91-0C47-984B-A881D230C127";
	setAttr ".t" -type "double3" 0.072339642424890549 0.34603379684637986 -0.2148681744449136 ;
	setAttr ".ro" 4;
	setAttr ".jo" -type "double3" 1.6385384515289625 0 -45.000000000000057 ;
	setAttr ".radi" 0.025;
createNode joint -n "Forearm_L_TmpJnt" -p "UpArm_L_TmpJnt";
	rename -uid "DA84ABD0-4351-5775-064C-A49EF1958AE0";
	setAttr ".t" -type "double3" 0.00047072359073396797 1.1442231685662172 -0.09641761321182668 ;
	setAttr ".ro" 4;
	setAttr ".jo" -type "double3" -5.9496752757945022e-05 0 0 ;
	setAttr ".radi" 0.025;
createNode joint -n "Wrist_L_TmpJnt" -p "Forearm_L_TmpJnt";
	rename -uid "DAFE6B66-4707-0D33-DDDF-AD855DC5315E";
	setAttr ".t" -type "double3" -0.00047072360375199906 1.4956009972174815 0.059191162758809646 ;
	setAttr ".ro" 4;
	setAttr ".radi" 0.025;
createNode joint -n "Hand_L_TmpJnt" -p "Wrist_L_TmpJnt";
	rename -uid "38685C6B-4825-2CB1-C7E4-E69AC84E0FCD";
	setAttr ".t" -type "double3" -1.8038903704109543e-12 0.067856001531633847 -2.7037487382308711e-07 ;
	setAttr ".ro" 4;
	setAttr ".radi" 0.025;
createNode joint -n "Thumb1_L_TmpJnt" -p "Hand_L_TmpJnt";
	rename -uid "B1E551F9-4772-B2CC-7C1F-428FCF252922";
	setAttr ".t" -type "double3" 0.062986025458796391 0.0052540057321828204 0.086967700038838788 ;
	setAttr ".r" -type "double3" 5.5659706925611543e-15 -3.4759512097144999e-31 7.1562480332929135e-15 ;
	setAttr ".jo" -type "double3" 36.30263651360589 -4.3195217919246831 -44.740545993042261 ;
	setAttr ".radi" 0.025;
createNode joint -n "Thumb2_L_TmpJnt" -p "Thumb1_L_TmpJnt";
	rename -uid "1344BEB2-4CB6-FBCA-6AE2-D999C71AE124";
	setAttr ".t" -type "double3" 6.6613381477509392e-15 0.10766908410721276 0.036189484615164691 ;
	setAttr ".r" -type "double3" 8.3489560388417319e-15 0 0 ;
	setAttr ".jo" -type "double3" 2.0308349342067205 0 0 ;
	setAttr ".radi" 0.025;
createNode joint -n "Thumb3_L_TmpJnt" -p "Thumb2_L_TmpJnt";
	rename -uid "A0F6DFEB-4B3D-E726-B4CB-D797DC81B5D1";
	setAttr ".t" -type "double3" -8.8817841970012523e-16 0.14515057040630186 2.6645352591003757e-15 ;
	setAttr ".radi" 0.025;
createNode joint -n "Thumb4_L_TmpJnt" -p "Thumb3_L_TmpJnt";
	rename -uid "A4590EB3-48DD-22BA-1291-279C0B3A0E73";
	setAttr ".t" -type "double3" -9.3258734068513149e-15 0.12038496912099106 4.8849813083506888e-15 ;
	setAttr ".radi" 0.025;
createNode joint -n "HandCupOuter_L_TmpJnt" -p "Hand_L_TmpJnt";
	rename -uid "039F691C-4108-E269-EEA6-B4AED3A7A62E";
	addAttr -ci true -sn "liw" -ln "lockInfluenceWeights" -min 0 -max 1 -at "bool";
	setAttr ".uoc" 1;
	setAttr ".oc" 6;
	setAttr ".t" -type "double3" 0.027161659842374064 -0.007380771975802336 -0.028783206155737949 ;
	setAttr ".mnrl" -type "double3" -360 -360 -360 ;
	setAttr ".mxrl" -type "double3" 360 360 360 ;
	setAttr ".jot" -type "string" "yxz";
	setAttr ".bps" -type "matrix" 2.2204460492503131e-16 -1 0 0 1 2.2204460492503131e-16 8.3960588285190204e-14 0
		 -8.3960588285190204e-14 -1.8642995655058271e-29 1 0 11.145136555499452 21.950819439088733 -0.34347297829513029 1;
	setAttr -k on -cb off ".radi" 0.025;
createNode joint -n "Ring1_L_TmpJnt" -p "HandCupOuter_L_TmpJnt";
	rename -uid "D0AB8DB2-48F4-10C6-DE25-D3B8E300604C";
	setAttr ".t" -type "double3" -0.02533871817481792 0.11280503914759832 -0.030274819690601844 ;
	setAttr ".r" -type "double3" 2.3734889310421495e-13 -3.0190421390454488e-14 5.168401357378152e-15 ;
	setAttr ".jo" -type "double3" -89.999999999948344 -84.659592810026368 89.999999999948614 ;
	setAttr ".radi" 0.025;
createNode joint -n "Ring2_L_TmpJnt" -p "Ring1_L_TmpJnt";
	rename -uid "476E62CF-469C-010A-B04B-6C96A841296E";
	setAttr ".t" -type "double3" 0.0057250098874718491 0.15563572652472635 0.0019534426777569891 ;
	setAttr ".radi" 0.025;
createNode joint -n "Ring3_L_TmpJnt" -p "Ring2_L_TmpJnt";
	rename -uid "21563870-463B-D285-7094-F3BD26FC867C";
	setAttr ".t" -type "double3" 3.6082248300317588e-16 0.18666107739428273 0.00019772278849838898 ;
	setAttr ".r" -type "double3" 1.239422402432814e-13 0 0 ;
	setAttr ".jo" -type "double3" 0.32663852910164964 0 0 ;
	setAttr ".radi" 0.025;
createNode joint -n "Ring4_L_TmpJnt" -p "Ring3_L_TmpJnt";
	rename -uid "A5BDCF4D-4848-69E5-6992-25AF0E2E06D9";
	setAttr ".t" -type "double3" 3.0531133177191805e-16 0.12226190876785514 3.5527136788005009e-15 ;
	setAttr ".radi" 0.025;
createNode joint -n "Ring5_L_TmpJnt" -p "Ring4_L_TmpJnt";
	rename -uid "BF333051-4F19-BEFF-66A2-72BB6A9669A3";
	setAttr ".t" -type "double3" -2.7755575615628914e-16 0.08837669623459421 -7.1054273576010019e-15 ;
	setAttr ".radi" 0.025;
createNode joint -n "Pinky1_L_TmpJnt" -p "HandCupOuter_L_TmpJnt";
	rename -uid "D884D7D7-4ABB-5300-FE45-B9BDBCC93610";
	setAttr ".t" -type "double3" -0.007134984488907925 0.088307001319685385 -0.10750962613698578 ;
	setAttr ".r" -type "double3" -4.0552072188659847e-14 3.1805546814635187e-15 5.5659706925611528e-15 ;
	setAttr ".jo" -type "double3" -89.47562404067331 -80.961428166628821 89.999999999969333 ;
	setAttr ".radi" 0.025;
createNode joint -n "Pinky2_L_TmpJnt" -p "Pinky1_L_TmpJnt";
	rename -uid "DD3E30CF-4B74-DFFD-5B4A-8280D6C54CB6";
	setAttr ".t" -type "double3" 0.0093124964411218092 0.15838910046942956 0.0013477061456841355 ;
	setAttr ".r" -type "double3" 2.2562059771631816e-14 0 0 ;
	setAttr ".jo" -type "double3" -0.7849976207657442 0 0 ;
	setAttr ".radi" 0.025;
createNode joint -n "Pinky3_L_TmpJnt" -p "Pinky2_L_TmpJnt";
	rename -uid "4ADB41CD-4901-8A5C-D46F-43BBBC4C58F6";
	setAttr ".t" -type "double3" -1.7763568394002505e-15 0.14744519403192191 -8.8817841970012523e-16 ;
	setAttr ".radi" 0.025;
createNode joint -n "Pinky4_L_TmpJnt" -p "Pinky3_L_TmpJnt";
	rename -uid "62AAE56F-4F32-D908-F63A-22BAF32E474D";
	setAttr ".t" -type "double3" 5.5511151231257827e-17 0.10541421432167541 -1.7763568394002505e-15 ;
	setAttr ".radi" 0.025;
createNode joint -n "Pinky5_L_TmpJnt" -p "Pinky4_L_TmpJnt";
	rename -uid "E322014A-4E65-4994-0016-EB8DC143CE3B";
	setAttr ".t" -type "double3" 2.7755575615628914e-16 0.081644393230146051 -1.3322676295501878e-14 ;
	setAttr ".radi" 0.025;
createNode joint -n "HandCupInner_L_TmpJnt" -p "Hand_L_TmpJnt";
	rename -uid "985CF68A-4853-F886-949A-C8913BEB9FD4";
	addAttr -ci true -sn "liw" -ln "lockInfluenceWeights" -min 0 -max 1 -at "bool";
	setAttr ".uoc" 1;
	setAttr ".oc" 6;
	setAttr ".t" -type "double3" 0.027161659842373176 -0.0073807719758038903 0.034294476454197184 ;
	setAttr ".mnrl" -type "double3" -360 -360 -360 ;
	setAttr ".mxrl" -type "double3" 360 360 360 ;
	setAttr ".jot" -type "string" "yxz";
	setAttr ".bps" -type "matrix" 2.2204460492503131e-16 -1 0 0 1 2.2204460492503131e-16 8.3960588285190204e-14 0
		 -8.3960588285190204e-14 -1.8642995655058271e-29 1 0 11.145136555499452 21.950819439088733 -0.34347297829513029 1;
	setAttr -k on -cb off ".radi" 0.025;
createNode joint -n "Middle1_L_TmpJnt" -p "HandCupInner_L_TmpJnt";
	rename -uid "A146B1B7-4EA5-AD0C-E6E4-5993EC83220C";
	setAttr ".t" -type "double3" -0.034200676766976024 0.12337140287442927 -0.014573436398158585 ;
	setAttr ".jo" -type "double3" -90.420694975593236 -87.465129828948946 90.197025323187674 ;
	setAttr ".radi" 0.025;
createNode joint -n "Middle2_L_TmpJnt" -p "Middle1_L_TmpJnt";
	rename -uid "4F500D5E-479F-845F-397D-129FFE9A0348";
	setAttr ".t" -type "double3" 0.0029870080941610203 0.16069883056100398 0.00075303750331645603 ;
	setAttr ".r" -type "double3" -1.6790346948113497e-12 0 0 ;
	setAttr ".jo" -type "double3" 0.87380832394483454 0 0 ;
	setAttr ".radi" 0.025;
createNode joint -n "Middle3_L_TmpJnt" -p "Middle2_L_TmpJnt";
	rename -uid "E3499E40-4F79-BC8E-2A7C-108086F44670";
	setAttr ".t" -type "double3" 5.2041704279304213e-18 0.22659047994541637 -1.865174681370263e-14 ;
	setAttr ".radi" 0.025;
createNode joint -n "Middle4_L_TmpJnt" -p "Middle3_L_TmpJnt";
	rename -uid "99030794-4AF9-1B1D-DBE3-E8B0E6A6F251";
	setAttr ".t" -type "double3" 1.6306400674181987e-16 0.12070480244846449 -3.1086244689504383e-14 ;
	setAttr ".radi" 0.025;
createNode joint -n "Middle5_L_TmpJnt" -p "Middle4_L_TmpJnt";
	rename -uid "5AB8E191-44F0-2D98-A018-5D955576105B";
	setAttr ".t" -type "double3" -3.0704605524789486e-16 0.097947074442312099 1.3322676295501878e-14 ;
	setAttr ".radi" 0.025;
createNode joint -n "Index1_L_TmpJnt" -p "HandCupInner_L_TmpJnt";
	rename -uid "08C75C7A-4B3F-6CB1-FB82-46B14EB72617";
	setAttr ".t" -type "double3" -0.021208381505227969 0.12698595078338726 0.068199097514521759 ;
	setAttr ".r" -type "double3" 4.0651464522455582e-14 -1.2616614371196097e-14 -4.3732626870123399e-15 ;
	setAttr ".jo" -type "double3" 91.994368124046574 -89.482896154910918 -89.999999999462815 ;
	setAttr ".radi" 0.025;
createNode joint -n "Index2_L_TmpJnt" -p "Index1_L_TmpJnt";
	rename -uid "832A7071-4028-9C06-4B91-23BD5A9109AC";
	setAttr ".t" -type "double3" 2.5396351688300456e-14 0.1625618309382193 0.00087763213385283478 ;
	setAttr ".r" -type "double3" 1.2418078184439118e-12 0 0 ;
	setAttr ".jo" -type "double3" -1.4492525844148112 0 0 ;
	setAttr ".radi" 0.025;
createNode joint -n "Index3_L_TmpJnt" -p "Index2_L_TmpJnt";
	rename -uid "22D9926E-4BFD-30E3-B07A-9893295BB803";
	setAttr ".t" -type "double3" 2.2204460492503131e-16 0.19163551221015851 1.0658141036401503e-14 ;
	setAttr ".radi" 0.025;
createNode joint -n "Index4_L_TmpJnt" -p "Index3_L_TmpJnt";
	rename -uid "0740BE8B-455A-022A-947A-A4A7F77F430D";
	setAttr ".t" -type "double3" -5.5511151231257827e-17 0.12295579081854813 8.8817841970012523e-16 ;
	setAttr ".radi" 0.025;
createNode joint -n "Index5_L_TmpJnt" -p "Index4_L_TmpJnt";
	rename -uid "69BDCD0B-4F14-6FA4-E76B-F4995E9B510A";
	setAttr ".t" -type "double3" -2.7755575615628914e-17 0.092484225220744953 -1.9539925233402755e-14 ;
	setAttr ".radi" 0.025;
createNode joint -n "Elbow_L_TmpJnt" -p "Forearm_L_TmpJnt";
	rename -uid "CEB295E9-45D2-E570-AE3D-C0A0FF8AF033";
	addAttr -ci true -sn "liw" -ln "lockInfluenceWeights" -min 0 -max 1 -at "bool";
	setAttr ".uoc" 1;
	setAttr ".oc" 2;
	setAttr ".t" -type "double3" -0.00047072359074018527 -0.010978152622902125 -2.0719731338419907 ;
	setAttr ".mnrl" -type "double3" -360 -360 -360 ;
	setAttr ".mxrl" -type "double3" 360 360 360 ;
	setAttr ".jot" -type "string" "yxz";
	setAttr ".jo" -type "double3" 1.1587375031949416 1.1585006131888267 135.01171543182093 ;
	setAttr ".bps" -type "matrix" -1 -1.2246467991473532e-16 0 0 1.2246467991473532e-16 -1 0 0
		 0 0 1 0 1.3486489690923307 14.656585133659888 1.5144370407379352e-17 1;
	setAttr -k on -cb off ".radi" 0.025;
createNode joint -n "ShoulderArmor_L_TmpJnt" -p "UpArm_L_TmpJnt";
	rename -uid "CE7D78A5-44D9-0C77-1E73-C6B387B6B4A2";
	setAttr ".t" -type "double3" -0.13109281454323796 -0.1892075352168634 -0.0027499184042284325 ;
	setAttr ".radi" 0.025;
createNode joint -n "Neck_TmpJnt" -p "Spine5_TmpJnt";
	rename -uid "C8EE79B9-4E1B-FD5C-0637-33841FE9568B";
	setAttr ".t" -type "double3" 5.2506581851510546e-27 0.73420492725930853 -0.21564394723714769 ;
	setAttr ".ro" 3;
	setAttr ".bps" -type "matrix" 1 0 0 0 0 1 0 0 0 0 1 0 -1.9297120085528687e-11 73.41267894747979 -0.071384005920493099 1;
	setAttr ".radi" 0.025;
createNode joint -n "NeckEnd_TmpJnt" -p "Neck_TmpJnt";
	rename -uid "4B7B01CC-4C21-B93C-634E-379392208E56";
	setAttr ".t" -type "double3" -8.0779356694631609e-28 0.41951161056029207 0.050475744188543357 ;
	setAttr ".ro" 3;
	setAttr ".bps" -type "matrix" 1 0 0 0 0 1 0 0 0 0 1 0 -1.9297120085528694e-11 77.607794990570611 0.4333734284434686 1;
	setAttr ".radi" 0.025;
createNode joint -n "Head_TmpJnt" -p "NeckEnd_TmpJnt";
	rename -uid "20966918-4F42-42E0-A7B2-81A921924E92";
	addAttr -ci true -sn "liw" -ln "lockInfluenceWeights" -min 0 -max 1 -at "bool";
	setAttr ".t" -type "double3" 4.0389678347315804e-28 -9.0230471982977178e-09 -6.9388939039072284e-18 ;
	setAttr ".ro" 3;
	setAttr ".bps" -type "matrix" 1 0 0 0 0 1 0 0 0 0 1 0 -1.9297120085528694e-11 77.607794900340153 0.4333734284434686 1;
	setAttr ".radi" 0.025;
createNode joint -n "HeadEnd_TmpJnt" -p "Head_TmpJnt";
	rename -uid "1B13EBB8-44D3-2C29-4A56-2F84349ECC38";
	setAttr ".t" -type "double3" 4.0389678347315804e-28 1.0527556682843144 -8.3266726846886741e-17 ;
	setAttr ".radi" 0.025;
createNode joint -n "Eye_L_TmpJnt" -p "Head_TmpJnt";
	rename -uid "0502D72A-4E49-C68E-3B1A-D6B150C11E48";
	setAttr ".t" -type "double3" 0.14076926769165288 0.30678261780888505 0.26285632872274017 ;
	setAttr ".jo" -type "double3" 0 0.0019897685269022647 0 ;
	setAttr ".radi" 0.025;
createNode joint -n "EyeLid_L_TmpJnt" -p "Eye_L_TmpJnt";
	rename -uid "B0B788ED-4CC5-CBB9-FF72-9F8B83080C60";
	setAttr ".t" -type "double3" 0 -3.5527136788005009e-15 0 ;
	setAttr ".jo" -type "double3" 0 -0.0005969304664955803 0 ;
	setAttr ".radi" 0.025;
createNode joint -n "EyeDot_L_TmpJnt" -p "Eye_L_TmpJnt";
	rename -uid "06268189-4757-7219-7F07-CF9E7D2ECFD0";
	setAttr ".t" -type "double3" 0.074410746004381356 -0.0042327881490127339 0.15976591683570518 ;
	setAttr ".r" -type "double3" 0 3.1805546814635168e-15 0 ;
	setAttr ".s" -type "double3" 0.99999999999999978 1 0.99999999999999978 ;
	setAttr ".jo" -type "double3" 0 17.393003299703452 0 ;
	setAttr ".bps" -type "matrix" 0.95426645728245563 0 -0.29895740249338415 0 0 1 0 0
		 0.29895740249338415 0 0.95426645728245563 0 2.1518555879592891 80.633293151855469 4.6595699787139866 1;
	setAttr ".radi" 0.025;
createNode joint -n "Iris_L_TmpJnt" -p "Eye_L_TmpJnt";
	rename -uid "EBCF085E-417E-51A1-8E21-C39CB36897B3";
	setAttr ".t" -type "double3" 0.046832006525840297 -0.020680237124567569 0.15060427339954269 ;
	setAttr ".r" -type "double3" 0 3.1805546814635168e-15 0 ;
	setAttr ".s" -type "double3" 0.99999999999999978 1 0.99999999999999978 ;
	setAttr ".jo" -type "double3" 0 17.393003299703452 0 ;
	setAttr ".bps" -type "matrix" 0.95426645728245563 0 -0.29895740249338415 0 0 1 0 0
		 0.29895740249338415 0 0.95426645728245563 0 1.8760650157928465 80.468818664550781 4.5679631233215323 1;
	setAttr ".radi" 0.025;
createNode joint -n "Pupil_L_TmpJnt" -p "Iris_L_TmpJnt";
	rename -uid "8636D809-4E2F-E3D0-09E8-6D8F9A57D20E";
	setAttr ".t" -type "double3" 0 -1.7763568394002505e-15 0 ;
	setAttr ".r" -type "double3" 0 3.1805546814635168e-15 0 ;
	setAttr ".s" -type "double3" 0.99999999999999978 1 0.99999999999999978 ;
	setAttr ".jo" -type "double3" 0 -3.1805546814635152e-15 0 ;
	setAttr ".bps" -type "matrix" 0.95426645728245563 0 -0.29895740249338415 0 0 1 0 0
		 0.29895740249338415 0 0.95426645728245563 0 1.8760650157928465 80.468818664550781 4.5679631233215323 1;
	setAttr ".radi" 0.025;
createNode joint -n "Eye_R_TmpJnt" -p "Head_TmpJnt";
	rename -uid "64430226-4314-244D-3A57-54989357AFF2";
	setAttr ".t" -type "double3" -0.14082455187170401 0.30681420117847047 0.26281694473571271 ;
	setAttr ".jo" -type "double3" 0.0011367094360026319 0 0 ;
	setAttr ".radi" 0.025;
createNode joint -n "EyeLid_R_TmpJnt" -p "Eye_R_TmpJnt";
	rename -uid "4A6C7310-4823-126C-1592-22B4F6F8ABBE";
	setAttr ".t" -type "double3" -5.5511151231257827e-17 0 0 ;
	setAttr ".jo" -type "double3" -0.00034101283080257948 0 0 ;
	setAttr ".radi" 0.025;
createNode joint -n "EyeDot_R_TmpJnt" -p "Eye_R_TmpJnt";
	rename -uid "525FD805-4424-6473-762F-E2A96622226D";
	setAttr ".t" -type "double3" -0.019769967511980013 -0.0050302935626955758 0.17653863267249614 ;
	setAttr ".r" -type "double3" -9.6456183310069878e-19 9.5416640462418775e-15 1.9412565194479465e-19 ;
	setAttr ".s" -type "double3" 0.99999999999999978 1.0000000000000002 1 ;
	setAttr ".jo" -type "double3" -0.0011911866201659185 -17.394993064881021 0.00035611405782631599 ;
	setAttr ".bps" -type "matrix" 0.95426645728245563 0 0.29895740249338415 0 0 1 0 0
		 -0.29895740249338415 0 0.95426645728245563 0 -1.6059451699256897 80.625598907470689 4.8269281387329102 1;
	setAttr ".radi" 0.025;
createNode joint -n "Iris_R_TmpJnt" -p "Eye_R_TmpJnt";
	rename -uid "3A3C6616-4CCC-3283-05D6-2098093F7ECB";
	setAttr ".t" -type "double3" -0.046782450921928537 -0.020710698315570042 0.15064212949681993 ;
	setAttr ".r" -type "double3" -9.6456183310069878e-19 9.5416640462418775e-15 1.9412565194479465e-19 ;
	setAttr ".s" -type "double3" 0.99999999999999978 1.0000000000000002 1 ;
	setAttr ".jo" -type "double3" -0.0011911866201659185 -17.394993064881021 0.00035611405782631599 ;
	setAttr ".bps" -type "matrix" 0.95426645728245563 0 0.29895740249338415 0 0 1 0 0
		 -0.29895740249338415 0 0.95426645728245563 0 -1.876070000000001 80.468800000000002 4.5679600000000029 1;
	setAttr ".radi" 0.025;
createNode joint -n "Pupil_R_TmpJnt" -p "Iris_R_TmpJnt";
	rename -uid "1990F58E-4689-B0B4-E46D-AD9CDF8752B3";
	setAttr ".t" -type "double3" -2.0816681711721685e-17 -1.7763568394002505e-15 0 ;
	setAttr ".r" -type "double3" -9.6456183310069878e-19 9.5416640462418775e-15 1.9412565194479465e-19 ;
	setAttr ".s" -type "double3" 0.99999999999999978 1.0000000000000002 1 ;
	setAttr ".jo" -type "double3" 2.7787139722350938e-19 -6.361109362927032e-15 -2.4265706493098817e-20 ;
	setAttr ".bps" -type "matrix" 0.95426645728245563 0 0.29895740249338415 0 0 1 0 0
		 -0.29895740249338415 0 0.95426645728245563 0 -1.876070000000001 80.468800000000002 4.5679600000000029 1;
	setAttr ".radi" 0.025;
createNode joint -n "EyeTrgt_TmpJnt" -p "Head_TmpJnt";
	rename -uid "A63CDA0E-436D-ABB9-FA6E-49B6CCBC476B";
	addAttr -ci true -sn "liw" -ln "lockInfluenceWeights" -min 0 -max 1 -at "bool";
	setAttr ".uoc" 1;
	setAttr ".oc" 6;
	setAttr ".t" -type "double3" 0 0.30678261780888505 1.8547751102565639 ;
	setAttr ".mnrl" -type "double3" -360 -360 -360 ;
	setAttr ".mxrl" -type "double3" 360 360 360 ;
	setAttr ".bps" -type "matrix" 1 0 0 0 0 1 0 0 0 0 1 0 -0.53833200000000003 25.828300000000006 1.4860499999999996 1;
	setAttr -k on -cb off ".radi" 0.025;
createNode joint -n "EyeTrgt_L_TmpJnt" -p "EyeTrgt_TmpJnt";
	rename -uid "42898AB3-4812-0E7D-CF3B-FAB5C402CA4F";
	addAttr -ci true -sn "liw" -ln "lockInfluenceWeights" -min 0 -max 1 -at "bool";
	setAttr ".uoc" 1;
	setAttr ".oc" 6;
	setAttr ".t" -type "double3" 0.14082455187170345 -3.730349362740526e-14 -4.4408920985006262e-16 ;
	setAttr ".mnrl" -type "double3" -360 -360 -360 ;
	setAttr ".mxrl" -type "double3" 360 360 360 ;
	setAttr ".bps" -type "matrix" 1 0 0 0 0 1 0 0 0 0 1 0 0.53833165295886931 25.828273426804412 1.4860476249829009 1;
	setAttr -k on -cb off ".radi" 0.025;
createNode joint -n "EyeTrgt_R_TmpJnt" -p "EyeTrgt_TmpJnt";
	rename -uid "228B8925-4613-3332-533A-7C8A2880CE50";
	addAttr -ci true -sn "liw" -ln "lockInfluenceWeights" -min 0 -max 1 -at "bool";
	setAttr ".uoc" 1;
	setAttr ".oc" 6;
	setAttr ".t" -type "double3" -0.14082455187170403 -3.730349362740526e-14 -4.4408920985006262e-16 ;
	setAttr ".mnrl" -type "double3" -360 -360 -360 ;
	setAttr ".mxrl" -type "double3" 360 360 360 ;
	setAttr ".bps" -type "matrix" 1 0 0 0 0 1 0 0 0 0 1 0 -0.53833200000000003 25.828300000000006 1.4860499999999996 1;
	setAttr -k on -cb off ".radi" 0.025;
createNode joint -n "JawUprRoot_TmpJnt" -p "Head_TmpJnt";
	rename -uid "F8AA16A6-42E9-F91F-F0C1-519E118EEA5C";
	setAttr ".t" -type "double3" 2.1088741245957624e-17 0.025354394549525594 0.43160120095897442 ;
	setAttr ".ro" 5;
	setAttr ".jo" -type "double3" 9.1460275282845185 0 0 ;
	setAttr ".radi" 0.025;
createNode joint -n "JawUpr1_TmpJnt" -p "JawUprRoot_TmpJnt";
	rename -uid "0D740F5E-4F5C-7065-A31F-BEA41778EE0F";
	setAttr ".t" -type "double3" 8.0779356694631609e-28 0 0 ;
	setAttr ".ro" 5;
	setAttr ".radi" 0.025;
createNode joint -n "JawUprEnd_TmpJnt" -p "JawUpr1_TmpJnt";
	rename -uid "EBCCE5CF-48BB-A08B-9558-C194CFD09065";
	setAttr ".t" -type "double3" -2.651276222065371e-18 0.0010292427618274758 0.062932470848235167 ;
	setAttr ".ro" 5;
	setAttr ".radi" 0.025;
createNode joint -n "TeethUpr_TmpJnt" -p "JawUpr1_TmpJnt";
	rename -uid "582EFBAB-41B0-E1C5-63B6-46B97ECBD87F";
	setAttr ".t" -type "double3" 1.9296874000873501e-12 -0.047931682956743771 -0.067961290944417385 ;
	setAttr ".ro" 5;
	setAttr ".jo" -type "double3" 9.1460275282845185 1.1153146237978974e-15 180 ;
	setAttr ".radi" 0.025;
createNode joint -n "JawLwr1_TmpJnt" -p "Head_TmpJnt";
	rename -uid "FE916165-4FC1-8A2B-4014-1F8E5FA06137";
	setAttr ".t" -type "double3" 0 0.15033762382807492 0.082426120407640094 ;
	setAttr ".ro" 5;
	setAttr ".jo" -type "double3" 37.799446144037262 0 0 ;
	setAttr ".radi" 0.025;
createNode joint -n "JawLwr2_TmpJnt" -p "JawLwr1_TmpJnt";
	rename -uid "EBF87EB9-4752-564A-E10F-6DB6EF069573";
	setAttr ".t" -type "double3" 4.0389678347315804e-28 -0.079441416739423509 0.1142376933010949 ;
	setAttr ".ro" 5;
	setAttr ".jo" -type "double3" -3.580667149197486 0 0 ;
	setAttr ".radi" 0.025;
createNode joint -n "JawLwrEnd_TmpJnt" -p "JawLwr2_TmpJnt";
	rename -uid "9BBF5805-4588-A154-D0C5-C09D526C5A21";
	setAttr ".t" -type "double3" 0 -8.8817841970012523e-16 0.35362363298868438 ;
	setAttr ".ro" 5;
	setAttr ".radi" 0.025;
createNode joint -n "Tongue1_TmpJnt" -p "JawLwr2_TmpJnt";
	rename -uid "403A81CC-49DD-3E7B-BBC0-5F90448DE48F";
	setAttr ".t" -type "double3" -3.2311742677852644e-27 -0.073855103078473761 0.073047247865458687 ;
	setAttr ".jo" -type "double3" -1.8303441382432819 0 0 ;
	setAttr ".radi" 0.025;
createNode joint -n "Tongue2_TmpJnt" -p "Tongue1_TmpJnt";
	rename -uid "920B0161-4910-86B6-0328-5CB855624C58";
	setAttr ".t" -type "double3" -4.0389678347315804e-28 0.047529726588766863 0.00011067247548579573 ;
	setAttr ".jo" -type "double3" 50.324484846948685 0 0 ;
	setAttr ".radi" 0.025;
createNode joint -n "Tongue3_TmpJnt" -p "Tongue2_TmpJnt";
	rename -uid "0526AEBE-489F-CBF2-239B-1185251A0FF4";
	setAttr ".t" -type "double3" -5.6545549686242126e-27 0.068534227466493292 -0.0084962076000811848 ;
	setAttr ".jo" -type "double3" 12.759504800388939 0 0 ;
	setAttr ".radi" 0.025;
createNode joint -n "Tongue4_TmpJnt" -p "Tongue3_TmpJnt";
	rename -uid "E5751512-475F-76D0-2079-4392A7A56A91";
	setAttr ".t" -type "double3" 3.2311742677852644e-27 0.069477435082658856 -0.00089814639554752773 ;
	setAttr ".jo" -type "double3" 7.1637417519445661 0 0 ;
	setAttr ".radi" 0.025;
createNode joint -n "Tongue5_TmpJnt" -p "Tongue4_TmpJnt";
	rename -uid "DF4783F6-481D-D7D3-F014-A8AEEF6A29E0";
	setAttr ".t" -type "double3" -2.0194839173657902e-27 0.069475015997346956 -0.00099548147378580865 ;
	setAttr ".jo" -type "double3" 5.5208172955481496 0 0 ;
	setAttr ".radi" 0.025;
createNode joint -n "Tongue6_TmpJnt" -p "Tongue5_TmpJnt";
	rename -uid "799F99B7-4D0C-AAA7-F097-109EB86B57F8";
	setAttr ".t" -type "double3" 1.2116903504194741e-27 0.059187699246223913 -1.5099033134902129e-14 ;
	setAttr ".jo" -type "double3" -9.5416640443905503e-15 0 0 ;
	setAttr ".radi" 0.025;
createNode joint -n "TeethLwr_TmpJnt" -p "JawLwr2_TmpJnt";
	rename -uid "65D2EB2A-4C52-E6DF-F271-69B5A77C6F58";
	setAttr ".t" -type "double3" 1.9297120373078177e-12 0.070962116106607631 0.21870201398009215 ;
	setAttr ".ro" 5;
	setAttr ".jo" -type "double3" -34.218778994839774 0 0 ;
	setAttr ".radi" 0.025;
createNode joint -n "Clav_R_TmpJnt" -p "Spine5_TmpJnt";
	rename -uid "F3A322C4-4962-1EE1-B706-A99A4DBB125A";
	setAttr ".t" -type "double3" -0.19622999999807028 0.57499692311791595 -0.042558546538727732 ;
	setAttr ".jo" -type "double3" -180 0 89.999999999999986 ;
	setAttr ".radi" 0.025;
createNode joint -n "UpArm_R_TmpJnt" -p "Clav_R_TmpJnt";
	rename -uid "5DFED25E-4CB3-1A7C-4871-8184A9B1B507";
	setAttr ".t" -type "double3" -0.072339999999999627 -0.34603399999999995 0.21486860000000002 ;
	setAttr ".ro" 4;
	setAttr ".jo" -type "double3" 1.6385384515294523 -4.6714396883995409e-15 -45.000000000000064 ;
	setAttr ".radi" 0.025;
createNode joint -n "Forearm_R_TmpJnt" -p "UpArm_R_TmpJnt";
	rename -uid "53136E56-447F-3A2A-843D-7596F4DD1C4B";
	setAttr ".t" -type "double3" -0.00046951890270818808 -1.1442251434033683 0.096417790161904118 ;
	setAttr ".ro" 4;
	setAttr ".jo" -type "double3" -5.9495221286656017e-05 -9.9049961293525851e-21 -4.9540093977663835e-21 ;
	setAttr ".radi" 0.025;
createNode joint -n "Wrist_R_TmpJnt" -p "Forearm_R_TmpJnt";
	rename -uid "6D444BCF-4F22-138C-94EA-138DCE6A1E72";
	setAttr ".t" -type "double3" 0.00046669047558989263 -1.4956003323716067 -0.059191268042007 ;
	setAttr ".ro" 4;
	setAttr ".jo" -type "double3" 1.2074182697257331e-06 2.0101564447609823e-22 9.8444088932189463e-23 ;
	setAttr ".radi" 0.025;
createNode joint -n "Hand_R_TmpJnt" -p "Wrist_R_TmpJnt";
	rename -uid "CEFC380D-4814-A805-973E-FAA57514D39C";
	setAttr ".t" -type "double3" -8.8817841970012523e-16 -0.067853419430160766 1.9985116249399137e-07 ;
	setAttr ".ro" 4;
	setAttr ".jo" -type "double3" 1.2074182697257331e-06 2.0101564447609823e-22 9.8444088932189463e-23 ;
	setAttr ".radi" 0.025;
createNode joint -n "Thumb1_R_TmpJnt" -p "Hand_R_TmpJnt";
	rename -uid "5314307E-4F31-DB9C-D1C9-8DBACC7758DE";
	setAttr ".t" -type "double3" -0.062989072068099006 -0.0052606675623678711 -0.086967509689625772 ;
	setAttr ".r" -type "double3" 5.5659706925611543e-15 -3.4759512097144999e-31 7.1562480332929135e-15 ;
	setAttr ".jo" -type "double3" 36.302636512514646 -4.3195217930030356 -44.740545992960058 ;
	setAttr ".radi" 0.025;
createNode joint -n "Thumb2_R_TmpJnt" -p "Thumb1_R_TmpJnt";
	rename -uid "33DA9A9D-4483-3C18-4CD2-5CB652C37303";
	setAttr ".t" -type "double3" 4.2792577255035269e-06 -0.10766594953162079 -0.036192398679042004 ;
	setAttr ".r" -type "double3" 8.3489560388417319e-15 0 0 ;
	setAttr ".jo" -type "double3" 2.0308349342071264 -2.3826099485638735e-16 -7.4689111840050712e-17 ;
	setAttr ".radi" 0.025;
createNode joint -n "Thumb3_R_TmpJnt" -p "Thumb2_R_TmpJnt";
	rename -uid "E69B7444-40F9-52A7-4560-1184D7DE3EB5";
	setAttr ".t" -type "double3" -6.4622008881798365e-06 -0.14515285876250861 2.7038117624833546e-06 ;
	setAttr ".radi" 0.025;
createNode joint -n "Thumb4_R_TmpJnt" -p "Thumb3_R_TmpJnt";
	rename -uid "D4DE1686-4164-D7CD-B7A1-64B665F56F9E";
	setAttr ".t" -type "double3" 4.487529558616643e-06 -0.12038577663435968 6.5479411670565923e-08 ;
	setAttr ".radi" 0.025;
createNode joint -n "HandCupOuter_R_TmpJnt" -p "Hand_R_TmpJnt";
	rename -uid "B1083238-400A-917D-907F-31A4A980146F";
	addAttr -ci true -sn "liw" -ln "lockInfluenceWeights" -min 0 -max 1 -at "bool";
	setAttr ".uoc" 1;
	setAttr ".oc" 6;
	setAttr ".t" -type "double3" -0.027159971465376742 0.0073808931367536079 0.028783156797139844 ;
	setAttr ".mnrl" -type "double3" -360 -360 -360 ;
	setAttr ".mxrl" -type "double3" 360 360 360 ;
	setAttr ".jot" -type "string" "yxz";
	setAttr ".jo" -type "double3" 1.2074182697257331e-06 2.0101564447609823e-22 9.8444088932189463e-23 ;
	setAttr ".bps" -type "matrix" 2.2204460492503131e-16 -1 0 0 1 2.2204460492503131e-16 8.3960588285190204e-14 0
		 -8.3960588285190204e-14 -1.8642995655058271e-29 1 0 11.145136555499452 21.950819439088733 -0.34347297829513029 1;
	setAttr -k on -cb off ".radi" 0.025;
createNode joint -n "Ring1_R_TmpJnt" -p "HandCupOuter_R_TmpJnt";
	rename -uid "BBB92872-41E9-F94F-F4A3-2AA0163AFC87";
	setAttr ".t" -type "double3" 0.025335635969913284 -0.11280546113078049 0.030274919743617314 ;
	setAttr ".r" -type "double3" 2.3734889310421495e-13 -3.0190421390454488e-14 5.168401357378152e-15 ;
	setAttr ".jo" -type "double3" -89.999999999948741 -84.659592808494395 89.999999999948884 ;
	setAttr ".radi" 0.025;
createNode joint -n "Ring2_R_TmpJnt" -p "Ring1_R_TmpJnt";
	rename -uid "F259D3B6-4237-3C6A-7CEA-47AC8B62581B";
	setAttr ".t" -type "double3" -0.005725303443974844 -0.15563878943834575 -0.0019586857838858052 ;
	setAttr ".jo" -type "double3" 1.7075472925031875e-06 -7.1090930628653216e-23 -4.2700355290788565e-22 ;
	setAttr ".radi" 0.025;
createNode joint -n "Ring3_R_TmpJnt" -p "Ring2_R_TmpJnt";
	rename -uid "AB2E72A8-4F1C-F5A8-AB2F-9EA64D99B725";
	setAttr ".t" -type "double3" -3.8571169980183839e-08 -0.18666261852905341 -0.0001909132679376313 ;
	setAttr ".r" -type "double3" 1.239422402432814e-13 0 0 ;
	setAttr ".jo" -type "double3" 0.32663682155641005 -1.3366350737326711e-17 -8.1627621145629367e-17 ;
	setAttr ".radi" 0.025;
createNode joint -n "Ring4_R_TmpJnt" -p "Ring3_R_TmpJnt";
	rename -uid "7D48C6D7-42DE-C4A8-74AD-A3B43E4DCA97";
	setAttr ".t" -type "double3" 4.7543380737868901e-07 -0.12225425378586618 -3.0780875155400622e-06 ;
	setAttr ".jo" -type "double3" 1.2074182697257331e-06 -5.0268880575794228e-23 -2.8963516986836028e-22 ;
	setAttr ".radi" 0.025;
createNode joint -n "Ring5_R_TmpJnt" -p "Ring4_R_TmpJnt";
	rename -uid "DD161F47-4D6C-7B1B-2025-D7BAEB77AEC4";
	setAttr ".t" -type "double3" -4.5155191885637436e-07 -0.088383238979427459 1.8170656099769644e-06 ;
	setAttr ".jo" -type "double3" 1.2074182697257331e-06 -5.0268880575794228e-23 -2.8963516986836028e-22 ;
	setAttr ".radi" 0.025;
createNode joint -n "Pinky1_R_TmpJnt" -p "HandCupOuter_R_TmpJnt";
	rename -uid "8CAC8BE4-4E75-34E4-74B0-C1A57C2EFAF8";
	setAttr ".t" -type "double3" 0.0071347074221712603 -0.08831319603568577 0.10751029212778922 ;
	setAttr ".r" -type "double3" -4.0552072188659847e-14 3.1805546814635187e-15 5.5659706925611528e-15 ;
	setAttr ".jo" -type "double3" -89.475624040673381 -80.961428165096862 89.99999999996939 ;
	setAttr ".radi" 0.025;
createNode joint -n "Pinky2_R_TmpJnt" -p "Pinky1_R_TmpJnt";
	rename -uid "25861680-4472-1851-EAA0-44B0EC458AAD";
	setAttr ".t" -type "double3" -0.0093131904601524429 -0.15838905053062824 -0.0013506292827196731 ;
	setAttr ".r" -type "double3" 2.2562059771631816e-14 0 0 ;
	setAttr ".jo" -type "double3" -0.78499762076654056 -4.3551437344747065e-17 3.7027870410787124e-18 ;
	setAttr ".radi" 0.025;
createNode joint -n "Pinky3_R_TmpJnt" -p "Pinky2_R_TmpJnt";
	rename -uid "27B707E9-41A8-EA0A-CA40-87BF6057D442";
	setAttr ".t" -type "double3" 6.7030235384457626e-07 -0.1474452542956024 8.1397801299232242e-06 ;
	setAttr ".radi" 0.025;
createNode joint -n "Pinky4_R_TmpJnt" -p "Pinky3_R_TmpJnt";
	rename -uid "C04E205D-4D50-B487-5AED-07AF10B8AF3F";
	setAttr ".t" -type "double3" -4.5237105017470469e-07 -0.10541056229379331 -5.718529447307219e-06 ;
	setAttr ".radi" 0.025;
createNode joint -n "Pinky5_R_TmpJnt" -p "Pinky4_R_TmpJnt";
	rename -uid "021B0024-471E-09EE-D5BA-40ADD3CA242B";
	setAttr ".t" -type "double3" 5.1014722779463284e-07 -0.0816446351096769 -3.6806805070455084e-06 ;
	setAttr ".radi" 0.025;
createNode joint -n "HandCupInner_R_TmpJnt" -p "Hand_R_TmpJnt";
	rename -uid "792E5AD2-4BBF-E56F-873F-1AAD61AD8318";
	addAttr -ci true -sn "liw" -ln "lockInfluenceWeights" -min 0 -max 1 -at "bool";
	setAttr ".uoc" 1;
	setAttr ".oc" 6;
	setAttr ".t" -type "double3" -0.027159971465376742 0.0073733698832758598 -0.034294318081065721 ;
	setAttr ".mnrl" -type "double3" -360 -360 -360 ;
	setAttr ".mxrl" -type "double3" 360 360 360 ;
	setAttr ".jot" -type "string" "yxz";
	setAttr ".jo" -type "double3" 1.2074182697257331e-06 2.0101564447609823e-22 9.8444088932189463e-23 ;
	setAttr ".bps" -type "matrix" 2.2204460492503131e-16 -1 0 0 1 2.2204460492503131e-16 8.3960588285190204e-14 0
		 -8.3960588285190204e-14 -1.8642995655058271e-29 1 0 11.145136555499452 21.950819439088733 -0.34347297829513029 1;
	setAttr -k on -cb off ".radi" 0.025;
createNode joint -n "Middle1_R_TmpJnt" -p "HandCupInner_R_TmpJnt";
	rename -uid "0994A214-4942-3AF5-FA91-59B6C29DCB68";
	setAttr ".t" -type "double3" 0.034202755005994234 -0.1233703582011676 0.014573481646995221 ;
	setAttr ".jo" -type "double3" -90.420694975474362 -87.465129827416987 90.197025323068672 ;
	setAttr ".radi" 0.025;
createNode joint -n "Middle2_R_TmpJnt" -p "Middle1_R_TmpJnt";
	rename -uid "136EF4F8-4799-A555-BEE7-41AAD9C2CA06";
	setAttr ".t" -type "double3" -0.0029869618447129678 -0.16069658692305344 -0.00075469263954275334 ;
	setAttr ".r" -type "double3" -1.6790346948113497e-12 0 0 ;
	setAttr ".jo" -type "double3" 0.87380832394524133 3.7227358006564933e-17 -1.1108337198070431e-16 ;
	setAttr ".radi" 0.025;
createNode joint -n "Middle3_R_TmpJnt" -p "Middle2_R_TmpJnt";
	rename -uid "5D82F0C0-4290-BE4A-01EB-4B990CA6E5C2";
	setAttr ".t" -type "double3" -8.92991671649912e-08 -0.22659221258345608 3.5405543625799396e-06 ;
	setAttr ".jo" -type "double3" 1.7075472925031871e-06 7.1090940223222777e-23 -2.1687711116400508e-22 ;
	setAttr ".radi" 0.025;
createNode joint -n "Middle4_R_TmpJnt" -p "Middle3_R_TmpJnt";
	rename -uid "9E60FE3D-4D76-C48B-EDA2-79A7654F1727";
	setAttr ".t" -type "double3" 3.3982529405035544e-08 -0.12070440359689449 4.4924238453702969e-06 ;
	setAttr ".jo" -type "double3" 2.2588727439225506e-06 9.4044475554537378e-23 -2.8811833415817848e-22 ;
	setAttr ".radi" 0.025;
createNode joint -n "Middle5_R_TmpJnt" -p "Middle4_R_TmpJnt";
	rename -uid "AD39AF26-4BC6-A8B7-4040-B48D651BBFA1";
	setAttr ".t" -type "double3" 2.2529988642078225e-08 -0.09794549824457599 8.8926333230432419e-07 ;
	setAttr ".jo" -type "double3" 4.2688682312579685e-06 1.777273629674268e-22 -5.4998859405436281e-22 ;
	setAttr ".radi" 0.025;
createNode joint -n "Index1_R_TmpJnt" -p "HandCupInner_R_TmpJnt";
	rename -uid "EAD2311A-4F6C-2DEC-363A-87A97F8EFBA3";
	setAttr ".t" -type "double3" 0.021206132367786346 -0.12698305774263408 -0.068199163196775991 ;
	setAttr ".r" -type "double3" 4.0651464522455582e-14 -1.2616614371196097e-14 -4.3732626870123399e-15 ;
	setAttr ".jo" -type "double3" 91.994368124048663 -89.482896156442891 -89.999999999465047 ;
	setAttr ".radi" 0.025;
createNode joint -n "Index2_R_TmpJnt" -p "Index1_R_TmpJnt";
	rename -uid "92E755CD-40B6-6DD8-9F6C-CC9CB9AD5B8A";
	setAttr ".t" -type "double3" -2.4809105489409511e-07 -0.16256054493236172 -0.00088396112600008792 ;
	setAttr ".r" -type "double3" 1.2418078184439118e-12 0 0 ;
	setAttr ".jo" -type "double3" -1.4492525844155868 2.0546645374854755e-16 3.4247340487323316e-16 ;
	setAttr ".radi" 0.025;
createNode joint -n "Index3_R_TmpJnt" -p "Index2_R_TmpJnt";
	rename -uid "FC81E6D2-41C8-7974-EE14-A1B2755DBD31";
	setAttr ".t" -type "double3" 7.002442196091252e-07 -0.19163577774829088 5.9428111036652354e-06 ;
	setAttr ".radi" 0.025;
createNode joint -n "Index4_R_TmpJnt" -p "Index3_R_TmpJnt";
	rename -uid "0F241F76-4D37-6888-160D-12A8E84A5183";
	setAttr ".t" -type "double3" -5.8393128740674705e-07 -0.12295236116261599 3.0325625619553875e-06 ;
	setAttr ".radi" 0.025;
createNode joint -n "Index5_R_TmpJnt" -p "Index4_R_TmpJnt";
	rename -uid "5C7B4B29-4655-319E-1F9D-A5B6D3E4EE50";
	setAttr ".t" -type "double3" 6.2474400108758488e-07 -0.092488433189812369 3.1150506742960715e-06 ;
	setAttr ".radi" 0.025;
createNode joint -n "Elbow_R_TmpJnt" -p "Forearm_R_TmpJnt";
	rename -uid "5DACEA57-4A61-0DC9-93F0-BC9B9D8CFED8";
	addAttr -ci true -sn "liw" -ln "lockInfluenceWeights" -min 0 -max 1 -at "bool";
	setAttr ".uoc" 1;
	setAttr ".oc" 2;
	setAttr ".t" -type "double3" 0.00046669047558808147 0.010981172737324922 2.0719716378491562 ;
	setAttr ".mnrl" -type "double3" -360 -360 -360 ;
	setAttr ".mxrl" -type "double3" 360 360 360 ;
	setAttr ".jot" -type "string" "yxz";
	setAttr ".jo" -type "double3" 1.1587375042793679 1.1585006142718719 135.01171543184284 ;
	setAttr ".bps" -type "matrix" -1 -1.2246467991473532e-16 0 0 1.2246467991473532e-16 -1 0 0
		 0 0 1 0 1.3486489690923307 14.656585133659888 1.5144370407379352e-17 1;
	setAttr -k on -cb off ".radi" 0.025;
createNode joint -n "ShoulderArmor_R_TmpJnt" -p "UpArm_R_TmpJnt";
	rename -uid "9475A1D8-492C-66CE-3F5C-54B4531132F5";
	setAttr ".t" -type "double3" 0.13108840484382878 0.18920311783984722 0.0027500518505775284 ;
	setAttr ".radi" 0.025;
createNode lightLinker -s -n "lightLinker1";
	rename -uid "F18CED40-4184-B957-454B-22BF4EF93FFB";
	setAttr -s 2 ".lnk";
	setAttr -s 2 ".slnk";
createNode shapeEditorManager -n "shapeEditorManager";
	rename -uid "9067C31A-422B-FEB4-D4EB-8DB4FEB472E6";
createNode poseInterpolatorManager -n "poseInterpolatorManager";
	rename -uid "8B9E78EC-4B23-5AB1-3188-F396B954B18D";
createNode displayLayerManager -n "layerManager";
	rename -uid "22963F01-442A-E574-5921-B78E522F649B";
createNode displayLayer -n "defaultLayer";
	rename -uid "187D4770-4004-09F2-6A15-E5AF4207201E";
createNode renderLayerManager -n "renderLayerManager";
	rename -uid "598A8010-4D18-6D6F-8257-20A8CCF5E700";
createNode renderLayer -n "defaultRenderLayer";
	rename -uid "76A5C922-4B5B-0639-6948-0B850B0EF995";
	setAttr ".g" yes;
createNode script -n "sceneConfigurationScriptNode";
	rename -uid "89EE881E-4A8E-E9BC-8609-B0BC99D32A4F";
	setAttr ".b" -type "string" "playbackOptions -min 1 -max 120 -ast 1 -aet 200 ";
	setAttr ".st" 6;
createNode nodeGraphEditorInfo -n "MayaNodeEditorSavedTabsInfo";
	rename -uid "BD014067-4F0B-F68F-A987-2896AC4F797E";
	setAttr ".tgi[0].tn" -type "string" "Untitled_1";
	setAttr ".tgi[0].vl" -type "double2" -777.38092149060992 -461.64470406097877 ;
	setAttr ".tgi[0].vh" -type "double2" 778.57139763378086 460.45422791780777 ;
	setAttr -s 131 ".tgi[0].ni";
	setAttr ".tgi[0].ni[0].x" -1012.8571166992188;
	setAttr ".tgi[0].ni[0].y" 1680;
	setAttr ".tgi[0].ni[0].nvs" 18304;
	setAttr ".tgi[0].ni[1].x" -2241.428466796875;
	setAttr ".tgi[0].ni[1].y" 1680;
	setAttr ".tgi[0].ni[1].nvs" 18304;
	setAttr ".tgi[0].ni[2].x" 2058.571533203125;
	setAttr ".tgi[0].ni[2].y" -1371.4285888671875;
	setAttr ".tgi[0].ni[2].nvs" 18304;
	setAttr ".tgi[0].ni[3].x" 1751.4285888671875;
	setAttr ".tgi[0].ni[3].y" -367.14285278320313;
	setAttr ".tgi[0].ni[3].nvs" 18304;
	setAttr ".tgi[0].ni[4].x" 1444.2857666015625;
	setAttr ".tgi[0].ni[4].y" 128.57142639160156;
	setAttr ".tgi[0].ni[4].nvs" 18304;
	setAttr ".tgi[0].ni[5].x" 2365.71435546875;
	setAttr ".tgi[0].ni[5].y" 2121.428466796875;
	setAttr ".tgi[0].ni[5].nvs" 18304;
	setAttr ".tgi[0].ni[6].x" 830;
	setAttr ".tgi[0].ni[6].y" 1352.857177734375;
	setAttr ".tgi[0].ni[6].nvs" 18304;
	setAttr ".tgi[0].ni[7].x" 2058.571533203125;
	setAttr ".tgi[0].ni[7].y" 900;
	setAttr ".tgi[0].ni[7].nvs" 18304;
	setAttr ".tgi[0].ni[8].x" -91.428573608398438;
	setAttr ".tgi[0].ni[8].y" 1564.2857666015625;
	setAttr ".tgi[0].ni[8].nvs" 18304;
	setAttr ".tgi[0].ni[9].x" 1751.4285888671875;
	setAttr ".tgi[0].ni[9].y" -1045.7142333984375;
	setAttr ".tgi[0].ni[9].nvs" 18304;
	setAttr ".tgi[0].ni[10].x" 2365.71435546875;
	setAttr ".tgi[0].ni[10].y" -30;
	setAttr ".tgi[0].ni[10].nvs" 18304;
	setAttr ".tgi[0].ni[11].x" 2365.71435546875;
	setAttr ".tgi[0].ni[11].y" 1005.7142944335938;
	setAttr ".tgi[0].ni[11].nvs" 18304;
	setAttr ".tgi[0].ni[12].x" 2365.71435546875;
	setAttr ".tgi[0].ni[12].y" 1411.4285888671875;
	setAttr ".tgi[0].ni[12].nvs" 18304;
	setAttr ".tgi[0].ni[13].x" 2365.71435546875;
	setAttr ".tgi[0].ni[13].y" -1247.142822265625;
	setAttr ".tgi[0].ni[13].nvs" 18304;
	setAttr ".tgi[0].ni[14].x" 2365.71435546875;
	setAttr ".tgi[0].ni[14].y" -1957.142822265625;
	setAttr ".tgi[0].ni[14].nvs" 18304;
	setAttr ".tgi[0].ni[15].x" 2365.71435546875;
	setAttr ".tgi[0].ni[15].y" -1551.4285888671875;
	setAttr ".tgi[0].ni[15].nvs" 18304;
	setAttr ".tgi[0].ni[16].x" 830;
	setAttr ".tgi[0].ni[16].y" 1511.4285888671875;
	setAttr ".tgi[0].ni[16].nvs" 18304;
	setAttr ".tgi[0].ni[17].x" 1751.4285888671875;
	setAttr ".tgi[0].ni[17].y" 1470;
	setAttr ".tgi[0].ni[17].nvs" 18304;
	setAttr ".tgi[0].ni[18].x" 2365.71435546875;
	setAttr ".tgi[0].ni[18].y" 477.14285278320313;
	setAttr ".tgi[0].ni[18].nvs" 18304;
	setAttr ".tgi[0].ni[19].x" 2058.571533203125;
	setAttr ".tgi[0].ni[19].y" 798.5714111328125;
	setAttr ".tgi[0].ni[19].nvs" 18304;
	setAttr ".tgi[0].ni[20].x" 1751.4285888671875;
	setAttr ".tgi[0].ni[20].y" 1855.7142333984375;
	setAttr ".tgi[0].ni[20].nvs" 18304;
	setAttr ".tgi[0].ni[21].x" 215.71427917480469;
	setAttr ".tgi[0].ni[21].y" 1702.857177734375;
	setAttr ".tgi[0].ni[21].nvs" 18304;
	setAttr ".tgi[0].ni[22].x" 1137.142822265625;
	setAttr ".tgi[0].ni[22].y" 1195.7142333984375;
	setAttr ".tgi[0].ni[22].nvs" 18304;
	setAttr ".tgi[0].ni[23].x" -705.71429443359375;
	setAttr ".tgi[0].ni[23].y" 1485.7142333984375;
	setAttr ".tgi[0].ni[23].nvs" 18304;
	setAttr ".tgi[0].ni[24].x" 2365.71435546875;
	setAttr ".tgi[0].ni[24].y" -435.71429443359375;
	setAttr ".tgi[0].ni[24].nvs" 18304;
	setAttr ".tgi[0].ni[25].x" 2058.571533203125;
	setAttr ".tgi[0].ni[25].y" 1962.857177734375;
	setAttr ".tgi[0].ni[25].nvs" 18304;
	setAttr ".tgi[0].ni[26].x" 1137.142822265625;
	setAttr ".tgi[0].ni[26].y" 1398.5714111328125;
	setAttr ".tgi[0].ni[26].nvs" 18304;
	setAttr ".tgi[0].ni[27].x" 1444.2857666015625;
	setAttr ".tgi[0].ni[27].y" 1455.7142333984375;
	setAttr ".tgi[0].ni[27].nvs" 18304;
	setAttr ".tgi[0].ni[28].x" 2365.71435546875;
	setAttr ".tgi[0].ni[28].y" 1208.5714111328125;
	setAttr ".tgi[0].ni[28].nvs" 18304;
	setAttr ".tgi[0].ni[29].x" 1444.2857666015625;
	setAttr ".tgi[0].ni[29].y" -718.5714111328125;
	setAttr ".tgi[0].ni[29].nvs" 18304;
	setAttr ".tgi[0].ni[30].x" 2365.71435546875;
	setAttr ".tgi[0].ni[30].y" -1652.857177734375;
	setAttr ".tgi[0].ni[30].nvs" 18304;
	setAttr ".tgi[0].ni[31].x" 1444.2857666015625;
	setAttr ".tgi[0].ni[31].y" 1195.7142333984375;
	setAttr ".tgi[0].ni[31].nvs" 18304;
	setAttr ".tgi[0].ni[32].x" 2365.71435546875;
	setAttr ".tgi[0].ni[32].y" 1512.857177734375;
	setAttr ".tgi[0].ni[32].nvs" 18304;
	setAttr ".tgi[0].ni[33].x" -1627.142822265625;
	setAttr ".tgi[0].ni[33].y" 1680;
	setAttr ".tgi[0].ni[33].nvs" 18304;
	setAttr ".tgi[0].ni[34].x" 2365.71435546875;
	setAttr ".tgi[0].ni[34].y" 701.4285888671875;
	setAttr ".tgi[0].ni[34].nvs" 18304;
	setAttr ".tgi[0].ni[35].x" 522.85711669921875;
	setAttr ".tgi[0].ni[35].y" 831.4285888671875;
	setAttr ".tgi[0].ni[35].nvs" 18304;
	setAttr ".tgi[0].ni[36].x" 2365.71435546875;
	setAttr ".tgi[0].ni[36].y" 1715.7142333984375;
	setAttr ".tgi[0].ni[36].nvs" 18304;
	setAttr ".tgi[0].ni[37].x" 2058.571533203125;
	setAttr ".tgi[0].ni[37].y" -781.4285888671875;
	setAttr ".tgi[0].ni[37].nvs" 18304;
	setAttr ".tgi[0].ni[38].x" 2365.71435546875;
	setAttr ".tgi[0].ni[38].y" 578.5714111328125;
	setAttr ".tgi[0].ni[38].nvs" 18304;
	setAttr ".tgi[0].ni[39].x" 1444.2857666015625;
	setAttr ".tgi[0].ni[39].y" -128.57142639160156;
	setAttr ".tgi[0].ni[39].nvs" 18304;
	setAttr ".tgi[0].ni[40].x" 1444.2857666015625;
	setAttr ".tgi[0].ni[40].y" -2.8571429252624512;
	setAttr ".tgi[0].ni[40].nvs" 18304;
	setAttr ".tgi[0].ni[41].x" 1751.4285888671875;
	setAttr ".tgi[0].ni[41].y" -257.14285278320313;
	setAttr ".tgi[0].ni[41].nvs" 18304;
	setAttr ".tgi[0].ni[42].x" 2058.571533203125;
	setAttr ".tgi[0].ni[42].y" 421.42855834960938;
	setAttr ".tgi[0].ni[42].nvs" 18304;
	setAttr ".tgi[0].ni[43].x" 2058.571533203125;
	setAttr ".tgi[0].ni[43].y" 1001.4285888671875;
	setAttr ".tgi[0].ni[43].nvs" 18304;
	setAttr ".tgi[0].ni[44].x" 830;
	setAttr ".tgi[0].ni[44].y" 360;
	setAttr ".tgi[0].ni[44].nvs" 18304;
	setAttr ".tgi[0].ni[45].x" -2548.571533203125;
	setAttr ".tgi[0].ni[45].y" 1630;
	setAttr ".tgi[0].ni[45].nvs" 18304;
	setAttr ".tgi[0].ni[46].x" 2365.71435546875;
	setAttr ".tgi[0].ni[46].y" 1918.5714111328125;
	setAttr ".tgi[0].ni[46].nvs" 18304;
	setAttr ".tgi[0].ni[47].x" 2365.71435546875;
	setAttr ".tgi[0].ni[47].y" 802.85711669921875;
	setAttr ".tgi[0].ni[47].nvs" 18304;
	setAttr ".tgi[0].ni[48].x" 1751.4285888671875;
	setAttr ".tgi[0].ni[48].y" -785.71429443359375;
	setAttr ".tgi[0].ni[48].nvs" 18304;
	setAttr ".tgi[0].ni[49].x" 830;
	setAttr ".tgi[0].ni[49].y" 734.28570556640625;
	setAttr ".tgi[0].ni[49].nvs" 18304;
	setAttr ".tgi[0].ni[50].x" 522.85711669921875;
	setAttr ".tgi[0].ni[50].y" 1107.142822265625;
	setAttr ".tgi[0].ni[50].nvs" 18304;
	setAttr ".tgi[0].ni[51].x" 1751.4285888671875;
	setAttr ".tgi[0].ni[51].y" 1201.4285888671875;
	setAttr ".tgi[0].ni[51].nvs" 18304;
	setAttr ".tgi[0].ni[52].x" 2365.71435546875;
	setAttr ".tgi[0].ni[52].y" -1450;
	setAttr ".tgi[0].ni[52].nvs" 18304;
	setAttr ".tgi[0].ni[53].x" 1751.4285888671875;
	setAttr ".tgi[0].ni[53].y" 1368.5714111328125;
	setAttr ".tgi[0].ni[53].nvs" 18304;
	setAttr ".tgi[0].ni[54].x" 2058.571533203125;
	setAttr ".tgi[0].ni[54].y" 1822.857177734375;
	setAttr ".tgi[0].ni[54].nvs" 18304;
	setAttr ".tgi[0].ni[55].x" 1137.142822265625;
	setAttr ".tgi[0].ni[55].y" -292.85714721679688;
	setAttr ".tgi[0].ni[55].nvs" 18304;
	setAttr ".tgi[0].ni[56].x" -1320;
	setAttr ".tgi[0].ni[56].y" 1680;
	setAttr ".tgi[0].ni[56].nvs" 18304;
	setAttr ".tgi[0].ni[57].x" 1137.142822265625;
	setAttr ".tgi[0].ni[57].y" -134.28572082519531;
	setAttr ".tgi[0].ni[57].nvs" 18304;
	setAttr ".tgi[0].ni[58].x" 2365.71435546875;
	setAttr ".tgi[0].ni[58].y" 1107.142822265625;
	setAttr ".tgi[0].ni[58].nvs" 18304;
	setAttr ".tgi[0].ni[59].x" 2058.571533203125;
	setAttr ".tgi[0].ni[59].y" -521.4285888671875;
	setAttr ".tgi[0].ni[59].nvs" 18304;
	setAttr ".tgi[0].ni[60].x" 2058.571533203125;
	setAttr ".tgi[0].ni[60].y" 1287.142822265625;
	setAttr ".tgi[0].ni[60].nvs" 18304;
	setAttr ".tgi[0].ni[61].x" 2365.71435546875;
	setAttr ".tgi[0].ni[61].y" -4981.4287109375;
	setAttr ".tgi[0].ni[61].nvs" 18304;
	setAttr ".tgi[0].ni[62].x" 1751.4285888671875;
	setAttr ".tgi[0].ni[62].y" -887.14288330078125;
	setAttr ".tgi[0].ni[62].nvs" 18304;
	setAttr ".tgi[0].ni[63].x" 2058.571533203125;
	setAttr ".tgi[0].ni[63].y" -282.85714721679688;
	setAttr ".tgi[0].ni[63].nvs" 18304;
	setAttr ".tgi[0].ni[64].x" 1444.2857666015625;
	setAttr ".tgi[0].ni[64].y" -560;
	setAttr ".tgi[0].ni[64].nvs" 18304;
	setAttr ".tgi[0].ni[65].x" 1444.2857666015625;
	setAttr ".tgi[0].ni[65].y" 1094.2857666015625;
	setAttr ".tgi[0].ni[65].nvs" 18304;
	setAttr ".tgi[0].ni[66].x" 1444.2857666015625;
	setAttr ".tgi[0].ni[66].y" 1297.142822265625;
	setAttr ".tgi[0].ni[66].nvs" 18304;
	setAttr ".tgi[0].ni[67].x" 1444.2857666015625;
	setAttr ".tgi[0].ni[67].y" 1715.7142333984375;
	setAttr ".tgi[0].ni[67].nvs" 18304;
	setAttr ".tgi[0].ni[68].x" 522.85711669921875;
	setAttr ".tgi[0].ni[68].y" 1517.142822265625;
	setAttr ".tgi[0].ni[68].nvs" 18304;
	setAttr ".tgi[0].ni[69].x" 215.71427917480469;
	setAttr ".tgi[0].ni[69].y" 1544.2857666015625;
	setAttr ".tgi[0].ni[69].nvs" 18304;
	setAttr ".tgi[0].ni[70].x" 1751.4285888671875;
	setAttr ".tgi[0].ni[70].y" -468.57144165039063;
	setAttr ".tgi[0].ni[70].nvs" 18304;
	setAttr ".tgi[0].ni[71].x" 1751.4285888671875;
	setAttr ".tgi[0].ni[71].y" 998.5714111328125;
	setAttr ".tgi[0].ni[71].nvs" 18304;
	setAttr ".tgi[0].ni[72].x" 2365.71435546875;
	setAttr ".tgi[0].ni[72].y" 1310;
	setAttr ".tgi[0].ni[72].nvs" 18304;
	setAttr ".tgi[0].ni[73].x" 1137.142822265625;
	setAttr ".tgi[0].ni[73].y" 455.71429443359375;
	setAttr ".tgi[0].ni[73].nvs" 18304;
	setAttr ".tgi[0].ni[74].x" 2365.71435546875;
	setAttr ".tgi[0].ni[74].y" -1145.7142333984375;
	setAttr ".tgi[0].ni[74].nvs" 18304;
	setAttr ".tgi[0].ni[75].x" 830;
	setAttr ".tgi[0].ni[75].y" 1744.2857666015625;
	setAttr ".tgi[0].ni[75].nvs" 18304;
	setAttr ".tgi[0].ni[76].x" 1137.142822265625;
	setAttr ".tgi[0].ni[76].y" 1614.2857666015625;
	setAttr ".tgi[0].ni[76].nvs" 18304;
	setAttr ".tgi[0].ni[77].x" 522.85711669921875;
	setAttr ".tgi[0].ni[77].y" 1761.4285888671875;
	setAttr ".tgi[0].ni[77].nvs" 18304;
	setAttr ".tgi[0].ni[78].x" 830;
	setAttr ".tgi[0].ni[78].y" 518.5714111328125;
	setAttr ".tgi[0].ni[78].nvs" 18304;
	setAttr ".tgi[0].ni[79].x" 2365.71435546875;
	setAttr ".tgi[0].ni[79].y" -740;
	setAttr ".tgi[0].ni[79].nvs" 18304;
	setAttr ".tgi[0].ni[80].x" -398.57144165039063;
	setAttr ".tgi[0].ni[80].y" 1664.2857666015625;
	setAttr ".tgi[0].ni[80].nvs" 18304;
	setAttr ".tgi[0].ni[81].x" 2365.71435546875;
	setAttr ".tgi[0].ni[81].y" -1348.5714111328125;
	setAttr ".tgi[0].ni[81].nvs" 18304;
	setAttr ".tgi[0].ni[82].x" 1444.2857666015625;
	setAttr ".tgi[0].ni[82].y" -458.57144165039063;
	setAttr ".tgi[0].ni[82].nvs" 18304;
	setAttr ".tgi[0].ni[83].x" 1751.4285888671875;
	setAttr ".tgi[0].ni[83].y" 1647.142822265625;
	setAttr ".tgi[0].ni[83].nvs" 18304;
	setAttr ".tgi[0].ni[84].x" -91.428573608398438;
	setAttr ".tgi[0].ni[84].y" 1228.5714111328125;
	setAttr ".tgi[0].ni[84].nvs" 18304;
	setAttr ".tgi[0].ni[85].x" -398.57144165039063;
	setAttr ".tgi[0].ni[85].y" 1765.7142333984375;
	setAttr ".tgi[0].ni[85].nvs" 18304;
	setAttr ".tgi[0].ni[86].x" 1751.4285888671875;
	setAttr ".tgi[0].ni[86].y" 1100;
	setAttr ".tgi[0].ni[86].nvs" 18304;
	setAttr ".tgi[0].ni[87].x" 2365.71435546875;
	setAttr ".tgi[0].ni[87].y" 2020;
	setAttr ".tgi[0].ni[87].nvs" 18304;
	setAttr ".tgi[0].ni[88].x" 2365.71435546875;
	setAttr ".tgi[0].ni[88].y" 904.28570556640625;
	setAttr ".tgi[0].ni[88].nvs" 18304;
	setAttr ".tgi[0].ni[89].x" 1751.4285888671875;
	setAttr ".tgi[0].ni[89].y" -65.714286804199219;
	setAttr ".tgi[0].ni[89].nvs" 18304;
	setAttr ".tgi[0].ni[90].x" 1444.2857666015625;
	setAttr ".tgi[0].ni[90].y" 1557.142822265625;
	setAttr ".tgi[0].ni[90].nvs" 18304;
	setAttr ".tgi[0].ni[91].x" 2365.71435546875;
	setAttr ".tgi[0].ni[91].y" -1855.7142333984375;
	setAttr ".tgi[0].ni[91].nvs" 18304;
	setAttr ".tgi[0].ni[92].x" 2058.571533203125;
	setAttr ".tgi[0].ni[92].y" -622.85711669921875;
	setAttr ".tgi[0].ni[92].nvs" 18304;
	setAttr ".tgi[0].ni[93].x" 2365.71435546875;
	setAttr ".tgi[0].ni[93].y" -638.5714111328125;
	setAttr ".tgi[0].ni[93].nvs" 18304;
	setAttr ".tgi[0].ni[94].x" 2365.71435546875;
	setAttr ".tgi[0].ni[94].y" -2058.571533203125;
	setAttr ".tgi[0].ni[94].nvs" 18304;
	setAttr ".tgi[0].ni[95].x" 2365.71435546875;
	setAttr ".tgi[0].ni[95].y" -1044.2857666015625;
	setAttr ".tgi[0].ni[95].nvs" 18304;
	setAttr ".tgi[0].ni[96].x" 1137.142822265625;
	setAttr ".tgi[0].ni[96].y" 1772.857177734375;
	setAttr ".tgi[0].ni[96].nvs" 18304;
	setAttr ".tgi[0].ni[97].x" 2058.571533203125;
	setAttr ".tgi[0].ni[97].y" 1102.857177734375;
	setAttr ".tgi[0].ni[97].nvs" 18304;
	setAttr ".tgi[0].ni[98].x" 2365.71435546875;
	setAttr ".tgi[0].ni[98].y" 1614.2857666015625;
	setAttr ".tgi[0].ni[98].nvs" 18304;
	setAttr ".tgi[0].ni[99].x" -705.71429443359375;
	setAttr ".tgi[0].ni[99].y" 1758.5714111328125;
	setAttr ".tgi[0].ni[99].nvs" 18304;
	setAttr ".tgi[0].ni[100].x" 1137.142822265625;
	setAttr ".tgi[0].ni[100].y" 252.85714721679688;
	setAttr ".tgi[0].ni[100].nvs" 18304;
	setAttr ".tgi[0].ni[101].x" -1934.2857666015625;
	setAttr ".tgi[0].ni[101].y" 1680;
	setAttr ".tgi[0].ni[101].nvs" 18304;
	setAttr ".tgi[0].ni[102].x" -398.57144165039063;
	setAttr ".tgi[0].ni[102].y" 1302.857177734375;
	setAttr ".tgi[0].ni[102].nvs" 18304;
	setAttr ".tgi[0].ni[103].x" 2365.71435546875;
	setAttr ".tgi[0].ni[103].y" -942.85711669921875;
	setAttr ".tgi[0].ni[103].nvs" 18304;
	setAttr ".tgi[0].ni[104].x" 2365.71435546875;
	setAttr ".tgi[0].ni[104].y" -841.4285888671875;
	setAttr ".tgi[0].ni[104].nvs" 18304;
	setAttr ".tgi[0].ni[105].x" 2365.71435546875;
	setAttr ".tgi[0].ni[105].y" -334.28570556640625;
	setAttr ".tgi[0].ni[105].nvs" 18304;
	setAttr ".tgi[0].ni[106].x" 215.71427917480469;
	setAttr ".tgi[0].ni[106].y" 1150;
	setAttr ".tgi[0].ni[106].nvs" 18304;
	setAttr ".tgi[0].ni[107].x" 2058.571533203125;
	setAttr ".tgi[0].ni[107].y" -181.42857360839844;
	setAttr ".tgi[0].ni[107].nvs" 18304;
	setAttr ".tgi[0].ni[108].x" 2058.571533203125;
	setAttr ".tgi[0].ni[108].y" -1270;
	setAttr ".tgi[0].ni[108].nvs" 18304;
	setAttr ".tgi[0].ni[109].x" 2365.71435546875;
	setAttr ".tgi[0].ni[109].y" -537.14288330078125;
	setAttr ".tgi[0].ni[109].nvs" 18304;
	setAttr ".tgi[0].ni[110].x" -91.428573608398438;
	setAttr ".tgi[0].ni[110].y" 1722.857177734375;
	setAttr ".tgi[0].ni[110].nvs" 18304;
	setAttr ".tgi[0].ni[111].x" 2365.71435546875;
	setAttr ".tgi[0].ni[111].y" -1754.2857666015625;
	setAttr ".tgi[0].ni[111].nvs" 18304;
	setAttr ".tgi[0].ni[112].x" 2058.571533203125;
	setAttr ".tgi[0].ni[112].y" 1388.5714111328125;
	setAttr ".tgi[0].ni[112].nvs" 18304;
	setAttr ".tgi[0].ni[113].x" 1751.4285888671875;
	setAttr ".tgi[0].ni[113].y" -570;
	setAttr ".tgi[0].ni[113].nvs" 18304;
	setAttr ".tgi[0].ni[114].x" -705.71429443359375;
	setAttr ".tgi[0].ni[114].y" 1860;
	setAttr ".tgi[0].ni[114].nvs" 18304;
	setAttr ".tgi[0].ni[115].x" 2365.71435546875;
	setAttr ".tgi[0].ni[115].y" 1817.142822265625;
	setAttr ".tgi[0].ni[115].nvs" 18304;
	setAttr ".tgi[0].ni[116].x" 2058.571533203125;
	setAttr ".tgi[0].ni[116].y" -1054.2857666015625;
	setAttr ".tgi[0].ni[116].nvs" 18304;
	setAttr ".tgi[0].ni[117].x" 1137.142822265625;
	setAttr ".tgi[0].ni[117].y" 1297.142822265625;
	setAttr ".tgi[0].ni[117].nvs" 18304;
	setAttr ".tgi[0].ni[118].x" 1137.142822265625;
	setAttr ".tgi[0].ni[118].y" 354.28570556640625;
	setAttr ".tgi[0].ni[118].nvs" 18304;
	setAttr ".tgi[0].ni[119].x" 2058.571533203125;
	setAttr ".tgi[0].ni[119].y" 1582.857177734375;
	setAttr ".tgi[0].ni[119].nvs" 18304;
	setAttr ".tgi[0].ni[120].x" 830;
	setAttr ".tgi[0].ni[120].y" 892.85711669921875;
	setAttr ".tgi[0].ni[120].nvs" 18304;
	setAttr ".tgi[0].ni[121].x" 1137.142822265625;
	setAttr ".tgi[0].ni[121].y" 614.28570556640625;
	setAttr ".tgi[0].ni[121].nvs" 18304;
	setAttr ".tgi[0].ni[122].x" 1444.2857666015625;
	setAttr ".tgi[0].ni[122].y" 458.57144165039063;
	setAttr ".tgi[0].ni[122].nvs" 18304;
	setAttr ".tgi[0].ni[123].x" 1751.4285888671875;
	setAttr ".tgi[0].ni[123].y" 321.42855834960938;
	setAttr ".tgi[0].ni[123].nvs" 18304;
	setAttr ".tgi[0].ni[124].x" 2365.71435546875;
	setAttr ".tgi[0].ni[124].y" 375.71429443359375;
	setAttr ".tgi[0].ni[124].nvs" 18304;
	setAttr ".tgi[0].ni[125].x" 2058.571533203125;
	setAttr ".tgi[0].ni[125].y" 91.428573608398438;
	setAttr ".tgi[0].ni[125].nvs" 18304;
	setAttr ".tgi[0].ni[126].x" 2365.71435546875;
	setAttr ".tgi[0].ni[126].y" 71.428573608398438;
	setAttr ".tgi[0].ni[126].nvs" 18304;
	setAttr ".tgi[0].ni[127].x" 2365.71435546875;
	setAttr ".tgi[0].ni[127].y" 274.28570556640625;
	setAttr ".tgi[0].ni[127].nvs" 18304;
	setAttr ".tgi[0].ni[128].x" 2365.71435546875;
	setAttr ".tgi[0].ni[128].y" 172.85714721679688;
	setAttr ".tgi[0].ni[128].nvs" 18304;
	setAttr ".tgi[0].ni[129].x" 2365.71435546875;
	setAttr ".tgi[0].ni[129].y" -131.42857360839844;
	setAttr ".tgi[0].ni[129].nvs" 18304;
	setAttr ".tgi[0].ni[130].x" 2365.71435546875;
	setAttr ".tgi[0].ni[130].y" -232.85714721679688;
	setAttr ".tgi[0].ni[130].nvs" 18304;
createNode nodeGraphEditorInfo -n "hyperShadePrimaryNodeEditorSavedTabsInfo";
	rename -uid "84D50FB6-4719-D599-B63B-4995ED58E6B7";
	setAttr ".tgi[0].tn" -type "string" "Untitled_1";
	setAttr ".tgi[0].vl" -type "double2" -224.99999105930365 -130.95237574880107 ;
	setAttr ".tgi[0].vh" -type "double2" 226.19046720247457 129.76189960563016 ;
select -ne :time1;
	setAttr -av -k on ".cch";
	setAttr -av -cb on ".ihi";
	setAttr -av -k on ".nds";
	setAttr -cb on ".bnm";
	setAttr -k on ".o" 1;
	setAttr -av -k on ".unw" 1;
	setAttr -av -k on ".etw";
	setAttr -av -k on ".tps";
	setAttr -av -k on ".tms";
select -ne :hardwareRenderingGlobals;
	setAttr -av -k on ".ihi";
	setAttr ".otfna" -type "stringArray" 22 "NURBS Curves" "NURBS Surfaces" "Polygons" "Subdiv Surface" "Particles" "Particle Instance" "Fluids" "Strokes" "Image Planes" "UI" "Lights" "Cameras" "Locators" "Joints" "IK Handles" "Deformers" "Motion Trails" "Components" "Hair Systems" "Follicles" "Misc. UI" "Ornaments"  ;
	setAttr ".otfva" -type "Int32Array" 22 0 1 1 1 1 1
		 1 1 1 0 0 0 0 0 0 0 0 0
		 0 0 0 0 ;
	setAttr -av ".ta";
	setAttr -av ".tq";
	setAttr -av ".tmr";
	setAttr -av ".aoam";
	setAttr -av ".aora";
	setAttr -av ".hfd";
	setAttr -av ".hfs";
	setAttr -av ".hfe";
	setAttr -av ".hfcr";
	setAttr -av ".hfcg";
	setAttr -av ".hfcb";
	setAttr -av ".hfa";
	setAttr -av ".mbe";
	setAttr -av -k on ".mbsof";
	setAttr ".fprt" yes;
select -ne :renderPartition;
	setAttr -av -k on ".cch";
	setAttr -cb on ".ihi";
	setAttr -av -k on ".nds";
	setAttr -cb on ".bnm";
	setAttr -s 2 ".st";
	setAttr -cb on ".an";
	setAttr -cb on ".pt";
select -ne :renderGlobalsList1;
	setAttr -k on ".cch";
	setAttr -cb on ".ihi";
	setAttr -k on ".nds";
	setAttr -cb on ".bnm";
select -ne :defaultShaderList1;
	setAttr -k on ".cch";
	setAttr -cb on ".ihi";
	setAttr -k on ".nds";
	setAttr -cb on ".bnm";
	setAttr -s 4 ".s";
select -ne :postProcessList1;
	setAttr -k on ".cch";
	setAttr -cb on ".ihi";
	setAttr -k on ".nds";
	setAttr -cb on ".bnm";
	setAttr -s 2 ".p";
select -ne :defaultRenderingList1;
	setAttr -k on ".ihi";
select -ne :initialShadingGroup;
	setAttr -av -k on ".cch";
	setAttr -k on ".fzn";
	setAttr -cb on ".ihi";
	setAttr -av -k on ".nds";
	setAttr -cb on ".bnm";
	setAttr -k on ".bbx";
	setAttr -k on ".vwm";
	setAttr -k on ".tpv";
	setAttr -k on ".uit";
	setAttr -k on ".mwc";
	setAttr -cb on ".an";
	setAttr -cb on ".il";
	setAttr -cb on ".vo";
	setAttr -cb on ".eo";
	setAttr -cb on ".fo";
	setAttr -cb on ".epo";
	setAttr -k on ".ro" yes;
select -ne :initialParticleSE;
	setAttr -av -k on ".cch";
	setAttr -cb on ".ihi";
	setAttr -av -k on ".nds";
	setAttr -cb on ".bnm";
	setAttr -k on ".mwc";
	setAttr -cb on ".an";
	setAttr -cb on ".il";
	setAttr -cb on ".vo";
	setAttr -cb on ".eo";
	setAttr -cb on ".fo";
	setAttr -cb on ".epo";
	setAttr -k on ".ro" yes;
select -ne :defaultRenderGlobals;
	setAttr -av -k on ".cch";
	setAttr -cb on ".ihi";
	setAttr -av -k on ".nds";
	setAttr -cb on ".bnm";
	setAttr -av -k on ".macc";
	setAttr -av -k on ".macd";
	setAttr -av -k on ".macq";
	setAttr -av -k on ".mcfr";
	setAttr -cb on ".ifg";
	setAttr -av -k on ".clip";
	setAttr -av -k on ".edm";
	setAttr -av -k on ".edl";
	setAttr -cb on ".ren" -type "string" "arnold";
	setAttr -av -k on ".esr";
	setAttr -av -k on ".ors";
	setAttr -cb on ".sdf";
	setAttr -av -k on ".outf";
	setAttr -av -cb on ".imfkey";
	setAttr -av -k on ".gama";
	setAttr -k on ".exrc";
	setAttr -k on ".expt";
	setAttr -av -k on ".an";
	setAttr -cb on ".ar";
	setAttr -k on ".fs";
	setAttr -av -k on ".ef";
	setAttr -av -k on ".bfs";
	setAttr -cb on ".me";
	setAttr -cb on ".se";
	setAttr -av -k on ".be";
	setAttr -av -cb on ".ep";
	setAttr -av -k on ".fec";
	setAttr -av -k on ".ofc";
	setAttr -cb on ".ofe";
	setAttr -cb on ".efe";
	setAttr -cb on ".oft";
	setAttr -cb on ".umfn";
	setAttr -cb on ".ufe";
	setAttr -av -k on ".pff";
	setAttr -av -cb on ".peie";
	setAttr -av -cb on ".ifp";
	setAttr -k on ".rv";
	setAttr -av -k on ".comp";
	setAttr -av -k on ".cth";
	setAttr -av -k on ".soll";
	setAttr -cb on ".sosl";
	setAttr -av -k on ".rd";
	setAttr -av -k on ".lp";
	setAttr -av -k on ".sp";
	setAttr -av -k on ".shs";
	setAttr -av -k on ".lpr";
	setAttr -cb on ".gv";
	setAttr -cb on ".sv";
	setAttr -av -k on ".mm";
	setAttr -av -k on ".npu";
	setAttr -av -k on ".itf";
	setAttr -av -k on ".shp";
	setAttr -cb on ".isp";
	setAttr -av -k on ".uf";
	setAttr -av -k on ".oi";
	setAttr -av -k on ".rut";
	setAttr -av -k on ".mot";
	setAttr -av -cb on ".mb";
	setAttr -av -k on ".mbf";
	setAttr -av -k on ".mbso";
	setAttr -av -k on ".mbsc";
	setAttr -av -k on ".afp";
	setAttr -av -k on ".pfb";
	setAttr -k on ".pram";
	setAttr -k on ".poam";
	setAttr -k on ".prlm";
	setAttr -k on ".polm";
	setAttr -cb on ".prm";
	setAttr -cb on ".pom";
	setAttr -cb on ".pfrm";
	setAttr -cb on ".pfom";
	setAttr -av -k on ".bll";
	setAttr -av -k on ".bls";
	setAttr -av -k on ".smv";
	setAttr -av -k on ".ubc";
	setAttr -av -k on ".mbc";
	setAttr -cb on ".mbt";
	setAttr -av -k on ".udbx";
	setAttr -av -k on ".smc";
	setAttr -av -k on ".kmv";
	setAttr -cb on ".isl";
	setAttr -cb on ".ism";
	setAttr -cb on ".imb";
	setAttr -av -k on ".rlen";
	setAttr -av -k on ".frts";
	setAttr -av -k on ".tlwd";
	setAttr -av -k on ".tlht";
	setAttr -av -k on ".jfc";
	setAttr -cb on ".rsb";
	setAttr -av -k on ".ope";
	setAttr -av -k on ".oppf";
	setAttr -av -k on ".rcp";
	setAttr -av -k on ".icp";
	setAttr -av -k on ".ocp";
	setAttr -cb on ".hbl";
select -ne :defaultResolution;
	setAttr -av -k on ".cch";
	setAttr -av -k on ".ihi";
	setAttr -av -k on ".nds";
	setAttr -k on ".bnm";
	setAttr -av -k on ".w";
	setAttr -av -k on ".h";
	setAttr -av -k on ".pa" 1;
	setAttr -av -k on ".al";
	setAttr -av -k on ".dar";
	setAttr -av -k on ".ldar";
	setAttr -av -k on ".dpi";
	setAttr -av -k on ".off";
	setAttr -av -k on ".fld";
	setAttr -av -k on ".zsl";
	setAttr -av -k on ".isu";
	setAttr -av -k on ".pdu";
select -ne :hardwareRenderGlobals;
	setAttr -av -k on ".cch";
	setAttr -cb on ".ihi";
	setAttr -av -k on ".nds";
	setAttr -cb on ".bnm";
	setAttr -av -k off -cb on ".ctrs" 256;
	setAttr -av -k off -cb on ".btrs" 512;
	setAttr -av -k off -cb on ".fbfm";
	setAttr -av -k off -cb on ".ehql";
	setAttr -av -k off -cb on ".eams";
	setAttr -av -k off -cb on ".eeaa";
	setAttr -av -k off -cb on ".engm";
	setAttr -av -k off -cb on ".mes";
	setAttr -av -k off -cb on ".emb";
	setAttr -av -k off -cb on ".mbbf";
	setAttr -av -k off -cb on ".mbs";
	setAttr -av -k off -cb on ".trm";
	setAttr -av -k off -cb on ".tshc";
	setAttr -av -k off -cb on ".enpt";
	setAttr -av -k off -cb on ".clmt";
	setAttr -av -k off -cb on ".tcov";
	setAttr -av -k off -cb on ".lith";
	setAttr -av -k off -cb on ".sobc";
	setAttr -av -k off -cb on ".cuth";
	setAttr -av -k off -cb on ".hgcd";
	setAttr -av -k off -cb on ".hgci";
	setAttr -av -k off -cb on ".mgcs";
	setAttr -av -k off -cb on ".twa";
	setAttr -av -k off -cb on ".twz";
	setAttr -cb on ".hwcc";
	setAttr -cb on ".hwdp";
	setAttr -cb on ".hwql";
	setAttr -k on ".hwfr";
	setAttr -k on ".soll";
	setAttr -k on ".sosl";
	setAttr -k on ".bswa";
	setAttr -k on ".shml";
	setAttr -k on ".hwel";
select -ne :ikSystem;
	setAttr -k on ".cch";
	setAttr -k on ".ihi";
	setAttr -k on ".nds";
	setAttr -k on ".bnm";
	setAttr -av -k on ".gsn";
	setAttr -k on ".gsv";
	setAttr -s 4 ".sol";
connectAttr "Root_TmpJnt.s" "Pelvis_TmpJnt.is";
connectAttr "Pelvis_TmpJnt.s" "UpLeg_L_TmpJnt.is";
connectAttr "UpLeg_L_TmpJnt.s" "LowLeg_L_TmpJnt.is";
connectAttr "LowLeg_L_TmpJnt.s" "Ankle_L_TmpJnt.is";
connectAttr "Ankle_L_TmpJnt.s" "Ball_L_TmpJnt.is";
connectAttr "Ball_L_TmpJnt.s" "Toe_L_TmpJnt.is";
connectAttr "Ball_L_TmpJnt.s" "HeelIkTwistPiv_L_TmpJnt.is";
connectAttr "HeelIkTwistPiv_L_TmpJnt.s" "Heel_L_TmpJnt.is";
connectAttr "Ankle_L_TmpJnt.s" "FootOut_L_TmpJnt.is";
connectAttr "Ankle_L_TmpJnt.s" "FootIn_L_TmpJnt.is";
connectAttr "LowLeg_L_TmpJnt.s" "Knee_L_TmpJnt.is";
connectAttr "LowLeg_L_TmpJnt.s" "KneePos_L_TmpJnt.is";
connectAttr "Pelvis_TmpJnt.s" "UpLeg_R_TmpJnt.is";
connectAttr "UpLeg_R_TmpJnt.s" "LowLeg_R_TmpJnt.is";
connectAttr "LowLeg_R_TmpJnt.s" "Ankle_R_TmpJnt.is";
connectAttr "Ankle_R_TmpJnt.s" "Ball_R_TmpJnt.is";
connectAttr "Ball_R_TmpJnt.s" "Toe_R_TmpJnt.is";
connectAttr "Ball_R_TmpJnt.s" "HeelIkTwistPiv_R_TmpJnt.is";
connectAttr "HeelIkTwistPiv_R_TmpJnt.s" "Heel_R_TmpJnt.is";
connectAttr "Ankle_R_TmpJnt.s" "FootOut_R_TmpJnt.is";
connectAttr "Ankle_R_TmpJnt.s" "FootIn_R_TmpJnt.is";
connectAttr "LowLeg_R_TmpJnt.s" "Knee_R_TmpJnt.is";
connectAttr "LowLeg_R_TmpJnt.s" "KneePos_R_TmpJnt.is";
connectAttr "Root_TmpJnt.s" "Spine1_TmpJnt.is";
connectAttr "Spine1_TmpJnt.s" "Spine2_TmpJnt.is";
connectAttr "Spine2_TmpJnt.s" "Spine3_TmpJnt.is";
connectAttr "Spine3_TmpJnt.s" "Spine4_TmpJnt.is";
connectAttr "Spine4_TmpJnt.s" "Spine5_TmpJnt.is";
connectAttr "Spine5_TmpJnt.s" "Boob_L_TmpJnt.is";
connectAttr "Boob_L_TmpJnt.s" "BoobTip_L_TmpJnt.is";
connectAttr "Spine5_TmpJnt.s" "Boob_R_TmpJnt.is";
connectAttr "Boob_R_TmpJnt.s" "BoobTip_R_TmpJnt.is";
connectAttr "Spine5_TmpJnt.s" "Clav_L_TmpJnt.is";
connectAttr "Clav_L_TmpJnt.s" "UpArm_L_TmpJnt.is";
connectAttr "UpArm_L_TmpJnt.s" "Forearm_L_TmpJnt.is";
connectAttr "Forearm_L_TmpJnt.s" "Wrist_L_TmpJnt.is";
connectAttr "Wrist_L_TmpJnt.s" "Hand_L_TmpJnt.is";
connectAttr "Hand_L_TmpJnt.s" "Thumb1_L_TmpJnt.is";
connectAttr "Thumb1_L_TmpJnt.s" "Thumb2_L_TmpJnt.is";
connectAttr "Thumb2_L_TmpJnt.s" "Thumb3_L_TmpJnt.is";
connectAttr "Thumb3_L_TmpJnt.s" "Thumb4_L_TmpJnt.is";
connectAttr "Hand_L_TmpJnt.s" "HandCupOuter_L_TmpJnt.is";
connectAttr "HandCupOuter_L_TmpJnt.s" "Ring1_L_TmpJnt.is";
connectAttr "Ring1_L_TmpJnt.s" "Ring2_L_TmpJnt.is";
connectAttr "Ring2_L_TmpJnt.s" "Ring3_L_TmpJnt.is";
connectAttr "Ring3_L_TmpJnt.s" "Ring4_L_TmpJnt.is";
connectAttr "Ring4_L_TmpJnt.s" "Ring5_L_TmpJnt.is";
connectAttr "HandCupOuter_L_TmpJnt.s" "Pinky1_L_TmpJnt.is";
connectAttr "Pinky1_L_TmpJnt.s" "Pinky2_L_TmpJnt.is";
connectAttr "Pinky2_L_TmpJnt.s" "Pinky3_L_TmpJnt.is";
connectAttr "Pinky3_L_TmpJnt.s" "Pinky4_L_TmpJnt.is";
connectAttr "Pinky4_L_TmpJnt.s" "Pinky5_L_TmpJnt.is";
connectAttr "Hand_L_TmpJnt.s" "HandCupInner_L_TmpJnt.is";
connectAttr "HandCupInner_L_TmpJnt.s" "Middle1_L_TmpJnt.is";
connectAttr "Middle1_L_TmpJnt.s" "Middle2_L_TmpJnt.is";
connectAttr "Middle2_L_TmpJnt.s" "Middle3_L_TmpJnt.is";
connectAttr "Middle3_L_TmpJnt.s" "Middle4_L_TmpJnt.is";
connectAttr "Middle4_L_TmpJnt.s" "Middle5_L_TmpJnt.is";
connectAttr "HandCupInner_L_TmpJnt.s" "Index1_L_TmpJnt.is";
connectAttr "Index1_L_TmpJnt.s" "Index2_L_TmpJnt.is";
connectAttr "Index2_L_TmpJnt.s" "Index3_L_TmpJnt.is";
connectAttr "Index3_L_TmpJnt.s" "Index4_L_TmpJnt.is";
connectAttr "Index4_L_TmpJnt.s" "Index5_L_TmpJnt.is";
connectAttr "Forearm_L_TmpJnt.s" "Elbow_L_TmpJnt.is";
connectAttr "UpArm_L_TmpJnt.s" "ShoulderArmor_L_TmpJnt.is";
connectAttr "Spine5_TmpJnt.s" "Neck_TmpJnt.is";
connectAttr "Neck_TmpJnt.s" "NeckEnd_TmpJnt.is";
connectAttr "NeckEnd_TmpJnt.s" "Head_TmpJnt.is";
connectAttr "Head_TmpJnt.s" "HeadEnd_TmpJnt.is";
connectAttr "Head_TmpJnt.s" "Eye_L_TmpJnt.is";
connectAttr "Eye_L_TmpJnt.s" "EyeLid_L_TmpJnt.is";
connectAttr "Eye_L_TmpJnt.s" "EyeDot_L_TmpJnt.is";
connectAttr "Eye_L_TmpJnt.s" "Iris_L_TmpJnt.is";
connectAttr "Iris_L_TmpJnt.s" "Pupil_L_TmpJnt.is";
connectAttr "Head_TmpJnt.s" "Eye_R_TmpJnt.is";
connectAttr "Eye_R_TmpJnt.s" "EyeLid_R_TmpJnt.is";
connectAttr "Eye_R_TmpJnt.s" "EyeDot_R_TmpJnt.is";
connectAttr "Eye_R_TmpJnt.s" "Iris_R_TmpJnt.is";
connectAttr "Iris_R_TmpJnt.s" "Pupil_R_TmpJnt.is";
connectAttr "Head_TmpJnt.s" "EyeTrgt_TmpJnt.is";
connectAttr "EyeTrgt_TmpJnt.s" "EyeTrgt_L_TmpJnt.is";
connectAttr "EyeTrgt_TmpJnt.s" "EyeTrgt_R_TmpJnt.is";
connectAttr "Head_TmpJnt.s" "JawUprRoot_TmpJnt.is";
connectAttr "JawUprRoot_TmpJnt.s" "JawUpr1_TmpJnt.is";
connectAttr "JawUpr1_TmpJnt.s" "JawUprEnd_TmpJnt.is";
connectAttr "JawUpr1_TmpJnt.s" "TeethUpr_TmpJnt.is";
connectAttr "Head_TmpJnt.s" "JawLwr1_TmpJnt.is";
connectAttr "JawLwr1_TmpJnt.s" "JawLwr2_TmpJnt.is";
connectAttr "JawLwr2_TmpJnt.s" "JawLwrEnd_TmpJnt.is";
connectAttr "JawLwr2_TmpJnt.s" "Tongue1_TmpJnt.is";
connectAttr "Tongue1_TmpJnt.s" "Tongue2_TmpJnt.is";
connectAttr "Tongue2_TmpJnt.s" "Tongue3_TmpJnt.is";
connectAttr "Tongue3_TmpJnt.s" "Tongue4_TmpJnt.is";
connectAttr "Tongue4_TmpJnt.s" "Tongue5_TmpJnt.is";
connectAttr "Tongue5_TmpJnt.s" "Tongue6_TmpJnt.is";
connectAttr "JawLwr2_TmpJnt.s" "TeethLwr_TmpJnt.is";
connectAttr "Spine5_TmpJnt.s" "Clav_R_TmpJnt.is";
connectAttr "Clav_R_TmpJnt.s" "UpArm_R_TmpJnt.is";
connectAttr "UpArm_R_TmpJnt.s" "Forearm_R_TmpJnt.is";
connectAttr "Forearm_R_TmpJnt.s" "Wrist_R_TmpJnt.is";
connectAttr "Wrist_R_TmpJnt.s" "Hand_R_TmpJnt.is";
connectAttr "Hand_R_TmpJnt.s" "Thumb1_R_TmpJnt.is";
connectAttr "Thumb1_R_TmpJnt.s" "Thumb2_R_TmpJnt.is";
connectAttr "Thumb2_R_TmpJnt.s" "Thumb3_R_TmpJnt.is";
connectAttr "Thumb3_R_TmpJnt.s" "Thumb4_R_TmpJnt.is";
connectAttr "Hand_R_TmpJnt.s" "HandCupOuter_R_TmpJnt.is";
connectAttr "HandCupOuter_R_TmpJnt.s" "Ring1_R_TmpJnt.is";
connectAttr "Ring1_R_TmpJnt.s" "Ring2_R_TmpJnt.is";
connectAttr "Ring2_R_TmpJnt.s" "Ring3_R_TmpJnt.is";
connectAttr "Ring3_R_TmpJnt.s" "Ring4_R_TmpJnt.is";
connectAttr "Ring4_R_TmpJnt.s" "Ring5_R_TmpJnt.is";
connectAttr "HandCupOuter_R_TmpJnt.s" "Pinky1_R_TmpJnt.is";
connectAttr "Pinky1_R_TmpJnt.s" "Pinky2_R_TmpJnt.is";
connectAttr "Pinky2_R_TmpJnt.s" "Pinky3_R_TmpJnt.is";
connectAttr "Pinky3_R_TmpJnt.s" "Pinky4_R_TmpJnt.is";
connectAttr "Pinky4_R_TmpJnt.s" "Pinky5_R_TmpJnt.is";
connectAttr "Hand_R_TmpJnt.s" "HandCupInner_R_TmpJnt.is";
connectAttr "HandCupInner_R_TmpJnt.s" "Middle1_R_TmpJnt.is";
connectAttr "Middle1_R_TmpJnt.s" "Middle2_R_TmpJnt.is";
connectAttr "Middle2_R_TmpJnt.s" "Middle3_R_TmpJnt.is";
connectAttr "Middle3_R_TmpJnt.s" "Middle4_R_TmpJnt.is";
connectAttr "Middle4_R_TmpJnt.s" "Middle5_R_TmpJnt.is";
connectAttr "HandCupInner_R_TmpJnt.s" "Index1_R_TmpJnt.is";
connectAttr "Index1_R_TmpJnt.s" "Index2_R_TmpJnt.is";
connectAttr "Index2_R_TmpJnt.s" "Index3_R_TmpJnt.is";
connectAttr "Index3_R_TmpJnt.s" "Index4_R_TmpJnt.is";
connectAttr "Index4_R_TmpJnt.s" "Index5_R_TmpJnt.is";
connectAttr "Forearm_R_TmpJnt.s" "Elbow_R_TmpJnt.is";
connectAttr "UpArm_R_TmpJnt.s" "ShoulderArmor_R_TmpJnt.is";
relationship "link" ":lightLinker1" ":initialShadingGroup.message" ":defaultLightSet.message";
relationship "link" ":lightLinker1" ":initialParticleSE.message" ":defaultLightSet.message";
relationship "shadowLink" ":lightLinker1" ":initialShadingGroup.message" ":defaultLightSet.message";
relationship "shadowLink" ":lightLinker1" ":initialParticleSE.message" ":defaultLightSet.message";
connectAttr "layerManager.dli[0]" "defaultLayer.id";
connectAttr "renderLayerManager.rlmi[0]" "defaultRenderLayer.rlid";
connectAttr "Spine5_TmpJnt.msg" "MayaNodeEditorSavedTabsInfo.tgi[0].ni[0].dn";
connectAttr "Spine1_TmpJnt.msg" "MayaNodeEditorSavedTabsInfo.tgi[0].ni[1].dn";
connectAttr "Iris_R_TmpJnt.msg" "MayaNodeEditorSavedTabsInfo.tgi[0].ni[2].dn";
connectAttr "Ball_L_TmpJnt.msg" "MayaNodeEditorSavedTabsInfo.tgi[0].ni[3].dn";
connectAttr "Ring2_L_TmpJnt.msg" "MayaNodeEditorSavedTabsInfo.tgi[0].ni[4].dn";
connectAttr "EyeTrgt_L_TmpJnt.msg" "MayaNodeEditorSavedTabsInfo.tgi[0].ni[5].dn"
		;
connectAttr "HandCupOuter_R_TmpJnt.msg" "MayaNodeEditorSavedTabsInfo.tgi[0].ni[6].dn"
		;
connectAttr "Pinky4_R_TmpJnt.msg" "MayaNodeEditorSavedTabsInfo.tgi[0].ni[7].dn";
connectAttr "Head_TmpJnt.msg" "MayaNodeEditorSavedTabsInfo.tgi[0].ni[8].dn";
connectAttr "Index3_L_TmpJnt.msg" "MayaNodeEditorSavedTabsInfo.tgi[0].ni[9].dn";
connectAttr "KneePos_L_TmpJnt.msg" "MayaNodeEditorSavedTabsInfo.tgi[0].ni[10].dn"
		;
connectAttr "Middle5_R_TmpJnt.msg" "MayaNodeEditorSavedTabsInfo.tgi[0].ni[11].dn"
		;
connectAttr "Elbow_R_TmpJnt.msg" "MayaNodeEditorSavedTabsInfo.tgi[0].ni[12].dn";
connectAttr "EyeDot_L_TmpJnt.msg" "MayaNodeEditorSavedTabsInfo.tgi[0].ni[13].dn"
		;
connectAttr "FootOut_L_TmpJnt.msg" "MayaNodeEditorSavedTabsInfo.tgi[0].ni[14].dn"
		;
connectAttr "EyeLid_L_TmpJnt.msg" "MayaNodeEditorSavedTabsInfo.tgi[0].ni[15].dn"
		;
connectAttr "HandCupInner_R_TmpJnt.msg" "MayaNodeEditorSavedTabsInfo.tgi[0].ni[16].dn"
		;
connectAttr "Index3_R_TmpJnt.msg" "MayaNodeEditorSavedTabsInfo.tgi[0].ni[17].dn"
		;
connectAttr "Knee_L_TmpJnt.msg" "MayaNodeEditorSavedTabsInfo.tgi[0].ni[18].dn";
connectAttr "Boob_L_TmpJnt.msg" "MayaNodeEditorSavedTabsInfo.tgi[0].ni[19].dn";
connectAttr "JawUprRoot_TmpJnt.msg" "MayaNodeEditorSavedTabsInfo.tgi[0].ni[20].dn"
		;
connectAttr "JawLwr1_TmpJnt.msg" "MayaNodeEditorSavedTabsInfo.tgi[0].ni[21].dn";
connectAttr "Pinky1_R_TmpJnt.msg" "MayaNodeEditorSavedTabsInfo.tgi[0].ni[22].dn"
		;
connectAttr "Clav_L_TmpJnt.msg" "MayaNodeEditorSavedTabsInfo.tgi[0].ni[23].dn";
connectAttr "Ring5_L_TmpJnt.msg" "MayaNodeEditorSavedTabsInfo.tgi[0].ni[24].dn";
connectAttr "EyeTrgt_TmpJnt.msg" "MayaNodeEditorSavedTabsInfo.tgi[0].ni[25].dn";
connectAttr "Middle1_R_TmpJnt.msg" "MayaNodeEditorSavedTabsInfo.tgi[0].ni[26].dn"
		;
connectAttr "Thumb1_R_TmpJnt.msg" "MayaNodeEditorSavedTabsInfo.tgi[0].ni[27].dn"
		;
connectAttr "Thumb4_R_TmpJnt.msg" "MayaNodeEditorSavedTabsInfo.tgi[0].ni[28].dn"
		;
connectAttr "Index2_L_TmpJnt.msg" "MayaNodeEditorSavedTabsInfo.tgi[0].ni[29].dn"
		;
connectAttr "Index5_L_TmpJnt.msg" "MayaNodeEditorSavedTabsInfo.tgi[0].ni[30].dn"
		;
connectAttr "Ring2_R_TmpJnt.msg" "MayaNodeEditorSavedTabsInfo.tgi[0].ni[31].dn";
connectAttr "Tongue6_TmpJnt.msg" "MayaNodeEditorSavedTabsInfo.tgi[0].ni[32].dn";
connectAttr "Spine3_TmpJnt.msg" "MayaNodeEditorSavedTabsInfo.tgi[0].ni[33].dn";
connectAttr "BoobTip_L_TmpJnt.msg" "MayaNodeEditorSavedTabsInfo.tgi[0].ni[34].dn"
		;
connectAttr "Hand_L_TmpJnt.msg" "MayaNodeEditorSavedTabsInfo.tgi[0].ni[35].dn";
connectAttr "JawLwrEnd_TmpJnt.msg" "MayaNodeEditorSavedTabsInfo.tgi[0].ni[36].dn"
		;
connectAttr "Iris_L_TmpJnt.msg" "MayaNodeEditorSavedTabsInfo.tgi[0].ni[37].dn";
connectAttr "Heel_L_TmpJnt.msg" "MayaNodeEditorSavedTabsInfo.tgi[0].ni[38].dn";
connectAttr "Thumb1_L_TmpJnt.msg" "MayaNodeEditorSavedTabsInfo.tgi[0].ni[39].dn"
		;
connectAttr "Middle2_L_TmpJnt.msg" "MayaNodeEditorSavedTabsInfo.tgi[0].ni[40].dn"
		;
connectAttr "Middle3_L_TmpJnt.msg" "MayaNodeEditorSavedTabsInfo.tgi[0].ni[41].dn"
		;
connectAttr "HeelIkTwistPiv_L_TmpJnt.msg" "MayaNodeEditorSavedTabsInfo.tgi[0].ni[42].dn"
		;
connectAttr "Ring4_R_TmpJnt.msg" "MayaNodeEditorSavedTabsInfo.tgi[0].ni[43].dn";
connectAttr "HandCupInner_L_TmpJnt.msg" "MayaNodeEditorSavedTabsInfo.tgi[0].ni[44].dn"
		;
connectAttr "Root_TmpJnt.msg" "MayaNodeEditorSavedTabsInfo.tgi[0].ni[45].dn";
connectAttr "TeethUpr_TmpJnt.msg" "MayaNodeEditorSavedTabsInfo.tgi[0].ni[46].dn"
		;
connectAttr "Pinky5_R_TmpJnt.msg" "MayaNodeEditorSavedTabsInfo.tgi[0].ni[47].dn"
		;
connectAttr "Eye_L_TmpJnt.msg" "MayaNodeEditorSavedTabsInfo.tgi[0].ni[48].dn";
connectAttr "UpLeg_L_TmpJnt.msg" "MayaNodeEditorSavedTabsInfo.tgi[0].ni[49].dn";
connectAttr "Pelvis_TmpJnt.msg" "MayaNodeEditorSavedTabsInfo.tgi[0].ni[50].dn";
connectAttr "Middle3_R_TmpJnt.msg" "MayaNodeEditorSavedTabsInfo.tgi[0].ni[51].dn"
		;
connectAttr "Elbow_L_TmpJnt.msg" "MayaNodeEditorSavedTabsInfo.tgi[0].ni[52].dn";
connectAttr "Thumb2_R_TmpJnt.msg" "MayaNodeEditorSavedTabsInfo.tgi[0].ni[53].dn"
		;
connectAttr "JawUpr1_TmpJnt.msg" "MayaNodeEditorSavedTabsInfo.tgi[0].ni[54].dn";
connectAttr "Index1_L_TmpJnt.msg" "MayaNodeEditorSavedTabsInfo.tgi[0].ni[55].dn"
		;
connectAttr "Spine4_TmpJnt.msg" "MayaNodeEditorSavedTabsInfo.tgi[0].ni[56].dn";
connectAttr "Pinky1_L_TmpJnt.msg" "MayaNodeEditorSavedTabsInfo.tgi[0].ni[57].dn"
		;
connectAttr "ShoulderArmor_R_TmpJnt.msg" "MayaNodeEditorSavedTabsInfo.tgi[0].ni[58].dn"
		;
connectAttr "Middle4_L_TmpJnt.msg" "MayaNodeEditorSavedTabsInfo.tgi[0].ni[59].dn"
		;
connectAttr "Thumb3_R_TmpJnt.msg" "MayaNodeEditorSavedTabsInfo.tgi[0].ni[60].dn"
		;
connectAttr "TmpJnt_Grp.msg" "MayaNodeEditorSavedTabsInfo.tgi[0].ni[61].dn";
connectAttr "Pinky3_L_TmpJnt.msg" "MayaNodeEditorSavedTabsInfo.tgi[0].ni[62].dn"
		;
connectAttr "Ring4_L_TmpJnt.msg" "MayaNodeEditorSavedTabsInfo.tgi[0].ni[63].dn";
connectAttr "Ankle_L_TmpJnt.msg" "MayaNodeEditorSavedTabsInfo.tgi[0].ni[64].dn";
connectAttr "Pinky2_R_TmpJnt.msg" "MayaNodeEditorSavedTabsInfo.tgi[0].ni[65].dn"
		;
connectAttr "Middle2_R_TmpJnt.msg" "MayaNodeEditorSavedTabsInfo.tgi[0].ni[66].dn"
		;
connectAttr "Tongue3_TmpJnt.msg" "MayaNodeEditorSavedTabsInfo.tgi[0].ni[67].dn";
connectAttr "Hand_R_TmpJnt.msg" "MayaNodeEditorSavedTabsInfo.tgi[0].ni[68].dn";
connectAttr "Wrist_R_TmpJnt.msg" "MayaNodeEditorSavedTabsInfo.tgi[0].ni[69].dn";
connectAttr "Thumb2_L_TmpJnt.msg" "MayaNodeEditorSavedTabsInfo.tgi[0].ni[70].dn"
		;
connectAttr "Pinky3_R_TmpJnt.msg" "MayaNodeEditorSavedTabsInfo.tgi[0].ni[71].dn"
		;
connectAttr "Index5_R_TmpJnt.msg" "MayaNodeEditorSavedTabsInfo.tgi[0].ni[72].dn"
		;
connectAttr "LowLeg_L_TmpJnt.msg" "MayaNodeEditorSavedTabsInfo.tgi[0].ni[73].dn"
		;
connectAttr "ShoulderArmor_L_TmpJnt.msg" "MayaNodeEditorSavedTabsInfo.tgi[0].ni[74].dn"
		;
connectAttr "Tongue1_TmpJnt.msg" "MayaNodeEditorSavedTabsInfo.tgi[0].ni[75].dn";
connectAttr "Index1_R_TmpJnt.msg" "MayaNodeEditorSavedTabsInfo.tgi[0].ni[76].dn"
		;
connectAttr "JawLwr2_TmpJnt.msg" "MayaNodeEditorSavedTabsInfo.tgi[0].ni[77].dn";
connectAttr "HandCupOuter_L_TmpJnt.msg" "MayaNodeEditorSavedTabsInfo.tgi[0].ni[78].dn"
		;
connectAttr "Thumb4_L_TmpJnt.msg" "MayaNodeEditorSavedTabsInfo.tgi[0].ni[79].dn"
		;
connectAttr "NeckEnd_TmpJnt.msg" "MayaNodeEditorSavedTabsInfo.tgi[0].ni[80].dn";
connectAttr "Pinky5_L_TmpJnt.msg" "MayaNodeEditorSavedTabsInfo.tgi[0].ni[81].dn"
		;
connectAttr "Pinky2_L_TmpJnt.msg" "MayaNodeEditorSavedTabsInfo.tgi[0].ni[82].dn"
		;
connectAttr "Tongue4_TmpJnt.msg" "MayaNodeEditorSavedTabsInfo.tgi[0].ni[83].dn";
connectAttr "Forearm_L_TmpJnt.msg" "MayaNodeEditorSavedTabsInfo.tgi[0].ni[84].dn"
		;
connectAttr "UpArm_R_TmpJnt.msg" "MayaNodeEditorSavedTabsInfo.tgi[0].ni[85].dn";
connectAttr "Ring3_R_TmpJnt.msg" "MayaNodeEditorSavedTabsInfo.tgi[0].ni[86].dn";
connectAttr "TeethLwr_TmpJnt.msg" "MayaNodeEditorSavedTabsInfo.tgi[0].ni[87].dn"
		;
connectAttr "Ring5_R_TmpJnt.msg" "MayaNodeEditorSavedTabsInfo.tgi[0].ni[88].dn";
connectAttr "Ring3_L_TmpJnt.msg" "MayaNodeEditorSavedTabsInfo.tgi[0].ni[89].dn";
connectAttr "Index2_R_TmpJnt.msg" "MayaNodeEditorSavedTabsInfo.tgi[0].ni[90].dn"
		;
connectAttr "Toe_L_TmpJnt.msg" "MayaNodeEditorSavedTabsInfo.tgi[0].ni[91].dn";
connectAttr "Thumb3_L_TmpJnt.msg" "MayaNodeEditorSavedTabsInfo.tgi[0].ni[92].dn"
		;
connectAttr "Middle5_L_TmpJnt.msg" "MayaNodeEditorSavedTabsInfo.tgi[0].ni[93].dn"
		;
connectAttr "FootIn_L_TmpJnt.msg" "MayaNodeEditorSavedTabsInfo.tgi[0].ni[94].dn"
		;
connectAttr "HeadEnd_TmpJnt.msg" "MayaNodeEditorSavedTabsInfo.tgi[0].ni[95].dn";
connectAttr "Tongue2_TmpJnt.msg" "MayaNodeEditorSavedTabsInfo.tgi[0].ni[96].dn";
connectAttr "Middle4_R_TmpJnt.msg" "MayaNodeEditorSavedTabsInfo.tgi[0].ni[97].dn"
		;
connectAttr "JawUprEnd_TmpJnt.msg" "MayaNodeEditorSavedTabsInfo.tgi[0].ni[98].dn"
		;
connectAttr "Neck_TmpJnt.msg" "MayaNodeEditorSavedTabsInfo.tgi[0].ni[99].dn";
connectAttr "Middle1_L_TmpJnt.msg" "MayaNodeEditorSavedTabsInfo.tgi[0].ni[100].dn"
		;
connectAttr "Spine2_TmpJnt.msg" "MayaNodeEditorSavedTabsInfo.tgi[0].ni[101].dn";
connectAttr "UpArm_L_TmpJnt.msg" "MayaNodeEditorSavedTabsInfo.tgi[0].ni[102].dn"
		;
connectAttr "Pupil_L_TmpJnt.msg" "MayaNodeEditorSavedTabsInfo.tgi[0].ni[103].dn"
		;
connectAttr "EyeDot_R_TmpJnt.msg" "MayaNodeEditorSavedTabsInfo.tgi[0].ni[104].dn"
		;
connectAttr "BoobTip_R_TmpJnt.msg" "MayaNodeEditorSavedTabsInfo.tgi[0].ni[105].dn"
		;
connectAttr "Wrist_L_TmpJnt.msg" "MayaNodeEditorSavedTabsInfo.tgi[0].ni[106].dn"
		;
connectAttr "Boob_R_TmpJnt.msg" "MayaNodeEditorSavedTabsInfo.tgi[0].ni[107].dn";
connectAttr "Index4_L_TmpJnt.msg" "MayaNodeEditorSavedTabsInfo.tgi[0].ni[108].dn"
		;
connectAttr "EyeLid_R_TmpJnt.msg" "MayaNodeEditorSavedTabsInfo.tgi[0].ni[109].dn"
		;
connectAttr "Forearm_R_TmpJnt.msg" "MayaNodeEditorSavedTabsInfo.tgi[0].ni[110].dn"
		;
connectAttr "Pupil_R_TmpJnt.msg" "MayaNodeEditorSavedTabsInfo.tgi[0].ni[111].dn"
		;
connectAttr "Index4_R_TmpJnt.msg" "MayaNodeEditorSavedTabsInfo.tgi[0].ni[112].dn"
		;
connectAttr "Eye_R_TmpJnt.msg" "MayaNodeEditorSavedTabsInfo.tgi[0].ni[113].dn";
connectAttr "Clav_R_TmpJnt.msg" "MayaNodeEditorSavedTabsInfo.tgi[0].ni[114].dn";
connectAttr "EyeTrgt_R_TmpJnt.msg" "MayaNodeEditorSavedTabsInfo.tgi[0].ni[115].dn"
		;
connectAttr "Pinky4_L_TmpJnt.msg" "MayaNodeEditorSavedTabsInfo.tgi[0].ni[116].dn"
		;
connectAttr "Ring1_R_TmpJnt.msg" "MayaNodeEditorSavedTabsInfo.tgi[0].ni[117].dn"
		;
connectAttr "Ring1_L_TmpJnt.msg" "MayaNodeEditorSavedTabsInfo.tgi[0].ni[118].dn"
		;
connectAttr "Tongue5_TmpJnt.msg" "MayaNodeEditorSavedTabsInfo.tgi[0].ni[119].dn"
		;
connectAttr "UpLeg_R_TmpJnt.msg" "MayaNodeEditorSavedTabsInfo.tgi[0].ni[120].dn"
		;
connectAttr "LowLeg_R_TmpJnt.msg" "MayaNodeEditorSavedTabsInfo.tgi[0].ni[121].dn"
		;
connectAttr "Ankle_R_TmpJnt.msg" "MayaNodeEditorSavedTabsInfo.tgi[0].ni[122].dn"
		;
connectAttr "Ball_R_TmpJnt.msg" "MayaNodeEditorSavedTabsInfo.tgi[0].ni[123].dn";
connectAttr "Toe_R_TmpJnt.msg" "MayaNodeEditorSavedTabsInfo.tgi[0].ni[124].dn";
connectAttr "HeelIkTwistPiv_R_TmpJnt.msg" "MayaNodeEditorSavedTabsInfo.tgi[0].ni[125].dn"
		;
connectAttr "Heel_R_TmpJnt.msg" "MayaNodeEditorSavedTabsInfo.tgi[0].ni[126].dn";
connectAttr "FootOut_R_TmpJnt.msg" "MayaNodeEditorSavedTabsInfo.tgi[0].ni[127].dn"
		;
connectAttr "FootIn_R_TmpJnt.msg" "MayaNodeEditorSavedTabsInfo.tgi[0].ni[128].dn"
		;
connectAttr "Knee_R_TmpJnt.msg" "MayaNodeEditorSavedTabsInfo.tgi[0].ni[129].dn";
connectAttr "KneePos_R_TmpJnt.msg" "MayaNodeEditorSavedTabsInfo.tgi[0].ni[130].dn"
		;
connectAttr "defaultRenderLayer.msg" ":defaultRenderingList1.r" -na;
// End of characterTmp.ma
