//Maya ASCII 2018ff09 scene
//Name: clavMusTmp.ma
//Last modified: Tue, Jun 07, 2022 07:25:30 PM
//Codeset: 1252
requires maya "2018ff09";
requires "stereoCamera" "10.0";
requires "mtoa" "3.3.0.2";
currentUnit -l centimeter -a degree -t film;
fileInfo "application" "maya";
fileInfo "product" "Maya 2018";
fileInfo "version" "2018";
fileInfo "cutIdentifier" "201903222215-65bada0e52";
fileInfo "osv" "Microsoft Windows 8 Business Edition, 64-bit  (Build 9200)\n";
createNode transform -s -n "persp";
	rename -uid "C51B17DC-4419-808B-996B-56A460D914E7";
	setAttr ".v" no;
	setAttr ".t" -type "double3" 3.8560637001584195 15.165066187762831 19.934251395056926 ;
	setAttr ".r" -type "double3" -9.9383527277865849 -1432.2000000001192 0 ;
createNode camera -s -n "perspShape" -p "persp";
	rename -uid "1DF59276-403B-3E01-3C34-A1B1350779D1";
	setAttr -k off ".v" no;
	setAttr ".fl" 34.999999999999993;
	setAttr ".coi" 20.915509811712138;
	setAttr ".imn" -type "string" "persp";
	setAttr ".den" -type "string" "persp_depth";
	setAttr ".man" -type "string" "persp_mask";
	setAttr ".tp" -type "double3" 0.8986892355795375 11.933873830973486 0.03972859812477153 ;
	setAttr ".hc" -type "string" "viewSet -p %camera";
	setAttr ".ai_translator" -type "string" "perspective";
createNode transform -s -n "top";
	rename -uid "4BF23AE2-4D1D-A7EE-372B-FE9DEE18BD10";
	setAttr ".v" no;
	setAttr ".t" -type "double3" 0 1000.1 0 ;
	setAttr ".r" -type "double3" -89.999999999999986 0 0 ;
createNode camera -s -n "topShape" -p "top";
	rename -uid "FB6F3D60-4A3C-4135-9E50-2D9AA0F1256C";
	setAttr -k off ".v" no;
	setAttr ".rnd" no;
	setAttr ".coi" 1000.1;
	setAttr ".ow" 30;
	setAttr ".imn" -type "string" "top";
	setAttr ".den" -type "string" "top_depth";
	setAttr ".man" -type "string" "top_mask";
	setAttr ".hc" -type "string" "viewSet -t %camera";
	setAttr ".o" yes;
	setAttr ".ai_translator" -type "string" "orthographic";
createNode transform -s -n "front";
	rename -uid "D44754BE-427A-B0B4-4B0A-5A9586EF53B2";
	setAttr ".v" no;
	setAttr ".t" -type "double3" -0.064466169941812534 8.7470211624594345 1000.1619742250675 ;
createNode camera -s -n "frontShape" -p "front";
	rename -uid "86F3D082-49F7-6854-69D1-6D98F85C1CA2";
	setAttr -k off ".v" no;
	setAttr ".rnd" no;
	setAttr ".coi" 1000.2362687269574;
	setAttr ".ow" 4.522856622509245;
	setAttr ".imn" -type "string" "front";
	setAttr ".den" -type "string" "front_depth";
	setAttr ".man" -type "string" "front_mask";
	setAttr ".tp" -type "double3" 1.0902027797183746 12.961293658948682 -0.074294501889849929 ;
	setAttr ".hc" -type "string" "viewSet -f %camera";
	setAttr ".o" yes;
	setAttr ".ai_translator" -type "string" "orthographic";
createNode transform -s -n "side";
	rename -uid "B819AEED-4446-EF35-7F66-70AA18715008";
	setAttr ".v" no;
	setAttr ".t" -type "double3" 1000.1648174166577 8.8990070505002219 0.018453569358541554 ;
	setAttr ".r" -type "double3" 0 89.999999999999986 0 ;
createNode camera -s -n "sideShape" -p "side";
	rename -uid "F736F62F-44BE-CB0A-2F63-C7966877BC58";
	setAttr -k off ".v" no;
	setAttr ".rnd" no;
	setAttr ".coi" 999.59347678562369;
	setAttr ".ow" 5.3051925394300783;
	setAttr ".imn" -type "string" "side";
	setAttr ".den" -type "string" "side_depth";
	setAttr ".man" -type "string" "side_mask";
	setAttr ".tp" -type "double3" 0.5713406310340241 7.9178617988222664 0.060502651573089317 ;
	setAttr ".hc" -type "string" "viewSet -s %camera";
	setAttr ".o" yes;
	setAttr ".ai_translator" -type "string" "orthographic";
createNode transform -n "SpineMusRootJnt_Grp";
	rename -uid "5FA807E5-4148-FD12-F4BC-81A86D0AA58A";
	setAttr ".t" -type "double3" 0 12.014546394348145 0.16905549168586731 ;
createNode joint -n "SpineMusRoot_TmpJnt" -p "SpineMusRootJnt_Grp";
	rename -uid "8A0202A4-4DC2-9DCB-6DB9-6D9C3F397166";
	addAttr -ci true -sn "liw" -ln "lockInfluenceWeights" -min 0 -max 1 -at "bool";
	setAttr ".bps" -type "matrix" 1 0 0 0 0 1 0 0 0 0 1 0 0 13.877691692358287 -0.078477716306750211 1;
	setAttr ".liw" yes;
createNode joint -n "ClavMus1_L_TmpJnt" -p "SpineMusRoot_TmpJnt";
	rename -uid "18B7F273-48CF-C414-ACCF-77B40059A8F5";
	setAttr ".t" -type "double3" 0.28298050165176392 1.0595188140869141 0.15796813368797302 ;
createNode joint -n "ClavMus2_L_TmpJnt" -p "ClavMus1_L_TmpJnt";
	rename -uid "B75CA402-49D1-B6D1-1E64-CC92AD891BF6";
	setAttr ".t" -type "double3" 0.80722230672836304 -0.11277198791503906 -0.40131812542676926 ;
createNode joint -n "ArmPoint1Skin_L_TmpJnt" -p "ClavMus2_L_TmpJnt";
	rename -uid "10A98550-4849-1BDE-CE83-C892CACBF877";
createNode joint -n "UpArmRootAdjSkin_L_TmpJnt" -p "ArmPoint1Skin_L_TmpJnt";
	rename -uid "0942E1A3-4B72-7B09-7992-8A92B2E4B25A";
	setAttr ".t" -type "double3" 2.6645352591003757e-15 -0.55173568648769766 2.2204460492503131e-16 ;
	setAttr ".r" -type "double3" -4.7708320221952744e-15 -9.5416640443905503e-15 -8.3489560388417319e-15 ;
createNode joint -n "ScapRoot1_L_TmpJnt" -p "ArmPoint1Skin_L_TmpJnt";
	rename -uid "DF418626-4A8E-1323-A477-F68693EE93DC";
	setAttr ".t" -type "double3" 4.4408920985006262e-16 -0.66055783238204313 1.1102230246251565e-16 ;
createNode joint -n "Scap1Skin_L_TmpJnt" -p "ScapRoot1_L_TmpJnt";
	rename -uid "9B19CCBA-4F64-457F-023E-1788AD53708E";
	setAttr ".t" -type "double3" -0.7033392264256092 0.25490342594979865 -0.45737908234940983 ;
	setAttr ".mnrl" -type "double3" -360 -360 -360 ;
	setAttr ".mxrl" -type "double3" 360 360 360 ;
	setAttr ".jo" -type "double3" 10.55403151231398 0 -180 ;
createNode joint -n "Scap2Skin_L_TmpJnt" -p "Scap1Skin_L_TmpJnt";
	rename -uid "D1CA730B-4FD6-96F6-DF6F-1B83EA73B818";
	setAttr ".t" -type "double3" 0 0.56682851874438001 -4.4408920985006262e-16 ;
	setAttr ".mnrl" -type "double3" -360 -360 -360 ;
	setAttr ".mxrl" -type "double3" 360 360 360 ;
createNode joint -n "Trap1Skin_L_TmpJnt" -p "ClavMus2_L_TmpJnt";
	rename -uid "A80FF6FF-43E5-A6C7-0038-A5ADA6D3B28C";
	setAttr ".t" -type "double3" -0.65031533058706792 0.32618729855379236 -0.052608695112948911 ;
	setAttr ".mnrl" -type "double3" -360 -360 -360 ;
	setAttr ".mxrl" -type "double3" 360 360 360 ;
createNode joint -n "Trap2_L_TmpJnt" -p "Trap1Skin_L_TmpJnt";
	rename -uid "B870AE89-4C68-7DEB-94F5-E5B9DB216CBA";
	setAttr ".t" -type "double3" -0.76466712004730253 -3.0728038780125644e-07 3.9570384191556229e-09 ;
	setAttr ".mnrl" -type "double3" -360 -360 -360 ;
	setAttr ".mxrl" -type "double3" 360 360 360 ;
	setAttr ".jo" -type "double3" 7.2755188338477943e-14 -6.3611093629270351e-15 2.631412037242082e-14 ;
createNode joint -n "Trap1Bck_L_TmpJnt" -p "ClavMus1_L_TmpJnt";
	rename -uid "1FCD6497-4FAC-1A9C-F902-0DB4D2C2663F";
	addAttr -ci true -sn "liw" -ln "lockInfluenceWeights" -min 0 -max 1 -at "bool";
	setAttr ".t" -type "double3" 0.10388308186507744 -0.21778827755666263 -0.84365789087320753 ;
	setAttr ".mnrl" -type "double3" -360 -360 -360 ;
	setAttr ".mxrl" -type "double3" 360 360 360 ;
	setAttr ".jo" -type "double3" -89.999999999999773 0 -90.000000000000256 ;
	setAttr ".bps" -type "matrix" -0.88476307775722929 0.43750729362333607 0.16056669724428962 0
		 0.43413105128487373 0.89901653154065253 -0.057441329431910833 0 -0.16948311581938108 0.018885021657359152 -0.98535213472603567 0
		 1.4645788874204124 15.898612605406811 -0.91989982469252873 1;
	setAttr ".liw" yes;
createNode joint -n "trap2Bck_L_TmpJnt" -p "Trap1Bck_L_TmpJnt";
	rename -uid "7B536829-4941-1D0C-E933-E2AD969F9D02";
	addAttr -ci true -sn "liw" -ln "lockInfluenceWeights" -min 0 -max 1 -at "bool";
	setAttr ".mnrl" -type "double3" -360 -360 -360 ;
	setAttr ".mxrl" -type "double3" 360 360 360 ;
	setAttr ".jo" -type "double3" -3.1805546814635168e-15 -6.3611093629270335e-15 2.4717875269080888e-29 ;
	setAttr ".bps" -type "matrix" -0.88476307775722929 0.43750729362333607 0.16056669724428962 0
		 0.43413105128487373 0.89901653154065253 -0.057441329431910833 0 -0.16948311581938108 0.018885021657359152 -0.98535213472603567 0
		 1.4645788874204124 15.898612605406811 -0.91989982469252873 1;
	setAttr ".liw" yes;
createNode joint -n "Trap3SkinBck_L_TmpJnt" -p "trap2Bck_L_TmpJnt";
	rename -uid "CE3A4616-4C70-975F-706F-89B979CC6BD9";
	addAttr -ci true -sn "liw" -ln "lockInfluenceWeights" -min 0 -max 1 -at "bool";
	setAttr ".mnrl" -type "double3" -360 -360 -360 ;
	setAttr ".mxrl" -type "double3" 360 360 360 ;
	setAttr ".jo" -type "double3" -3.1805546814635168e-15 -6.3611093629270335e-15 2.4717875269080888e-29 ;
	setAttr ".bps" -type "matrix" -4.4408920985006262e-15 -1 0 0 3.9412917374193057e-15 0 -1 0
		 1 -4.3853809472693683e-15 3.8857805861880479e-15 0 0.85796983979362795 16.002831354756871 -1.2558582349279992 1;
	setAttr ".liw" yes;
createNode joint -n "Pec1Skin_L_TmpJnt" -p "ClavMus1_L_TmpJnt";
	rename -uid "D2EA6233-440B-2E58-16BD-D69682873C86";
	setAttr ".t" -type "double3" 0.23096717396567645 -0.58336848896331439 0.27929727745207344 ;
	setAttr ".mnrl" -type "double3" -360 -360 -360 ;
	setAttr ".mxrl" -type "double3" 360 360 360 ;
	setAttr ".jo" -type "double3" -75.000000000000028 0 0 ;
createNode joint -n "Pec2Skin_L_TmpJnt" -p "Pec1Skin_L_TmpJnt";
	rename -uid "5363C376-46F2-AC26-0B45-D9959B7888CF";
	setAttr ".t" -type "double3" -2.2204460492503131e-16 -0.49788481132071105 1.7763568394002505e-15 ;
	setAttr ".mnrl" -type "double3" -360 -360 -360 ;
	setAttr ".mxrl" -type "double3" 360 360 360 ;
createNode joint -n "Late1Skin_L_TmpJnt" -p "ClavMus1_L_TmpJnt";
	rename -uid "3327AC9B-4C54-3CB9-CC76-B8A265C5AB82";
	setAttr ".t" -type "double3" 0.53358702477912179 -1.1556022218300726 -0.28729502724906886 ;
	setAttr ".mnrl" -type "double3" -360 -360 -360 ;
	setAttr ".mxrl" -type "double3" 360 360 360 ;
createNode joint -n "ClavMus1_R_TmpJnt" -p "SpineMusRoot_TmpJnt";
	rename -uid "85683F96-42C9-E9E9-8807-D5B98694A328";
	setAttr ".t" -type "double3" -0.282981 1.0595536056518551 0.15796850831413267 ;
	setAttr ".jo" -type "double3" -180 0 0 ;
createNode joint -n "ClavMus2_R_TmpJnt" -p "ClavMus1_R_TmpJnt";
	rename -uid "B5AB5E48-4BD5-D706-1694-E0B6BA6FA523";
	setAttr ".t" -type "double3" -0.80721900000000013 0.11280000000000001 0.40131849999999997 ;
createNode joint -n "ArmPoint1Skin_R_TmpJnt" -p "ClavMus2_R_TmpJnt";
	rename -uid "C762B00B-4438-6F4F-0189-BC9EFFA1239E";
	setAttr ".t" -type "double3" 0 0 1.3877787807814457e-17 ;
createNode joint -n "UpArmRootAdjSkin_R_TmpJnt" -p "ArmPoint1Skin_R_TmpJnt";
	rename -uid "25B6A6E5-4FEC-7259-E660-34918D3B0435";
	setAttr ".t" -type "double3" 0 0.5517000000000003 -5.5511151231257827e-17 ;
	setAttr ".r" -type "double3" -4.7708320221952744e-15 -9.5416640443905503e-15 -8.3489560388417319e-15 ;
createNode joint -n "ScapRoot1_R_TmpJnt" -p "ArmPoint1Skin_R_TmpJnt";
	rename -uid "BF5BCEFD-4C9E-0720-B7EC-3AAC0C72C60C";
	setAttr ".t" -type "double3" 0 0.66059999999999874 -6.9388939039072284e-17 ;
createNode joint -n "Scap1Skin_R_TmpJnt" -p "ScapRoot1_R_TmpJnt";
	rename -uid "B8ADFAF6-4A72-D971-B3C8-8D91B40A55E7";
	setAttr ".t" -type "double3" 0.70333600000000007 -0.25489999999999924 0.45737949999999999 ;
	setAttr ".mnrl" -type "double3" -360 -360 -360 ;
	setAttr ".mxrl" -type "double3" 360 360 360 ;
	setAttr ".jo" -type "double3" 10.55403151231395 -8.1832042285712642e-15 -180 ;
createNode joint -n "Scap2Skin_R_TmpJnt" -p "Scap1Skin_R_TmpJnt";
	rename -uid "CDE74806-43D0-DF67-6047-85AB5A6AD64F";
	setAttr ".t" -type "double3" -5.5511151231257827e-17 -0.56678995018425127 -7.3576174215439494e-06 ;
	setAttr ".mnrl" -type "double3" -360 -360 -360 ;
	setAttr ".mxrl" -type "double3" 360 360 360 ;
createNode joint -n "Trap1Skin_R_TmpJnt" -p "ClavMus2_R_TmpJnt";
	rename -uid "73E71523-4F8A-BBF4-D397-BC94EED473A0";
	setAttr ".t" -type "double3" 0.65031300000000014 -0.32620000000000005 0.052608500000000058 ;
	setAttr ".mnrl" -type "double3" -360 -360 -360 ;
	setAttr ".mxrl" -type "double3" 360 360 360 ;
createNode joint -n "Trap2_R_TmpJnt" -p "Trap1Skin_R_TmpJnt";
	rename -uid "A6AE30B8-4C17-EE85-8656-6494F3281999";
	setAttr ".t" -type "double3" 0.764667 0 0 ;
	setAttr ".mnrl" -type "double3" -360 -360 -360 ;
	setAttr ".mxrl" -type "double3" 360 360 360 ;
createNode joint -n "Trap1Bck_R_TmpJnt" -p "ClavMus1_R_TmpJnt";
	rename -uid "31B2F7E3-4584-C7FA-8B32-9AA66D0708D1";
	addAttr -ci true -sn "liw" -ln "lockInfluenceWeights" -min 0 -max 1 -at "bool";
	setAttr ".t" -type "double3" -0.103883 0.21780000000000044 0.843658 ;
	setAttr ".mnrl" -type "double3" -360 -360 -360 ;
	setAttr ".mxrl" -type "double3" 360 360 360 ;
	setAttr ".jo" -type "double3" -89.999999999999773 -6.361109362927032e-15 -90.000000000000256 ;
	setAttr ".bps" -type "matrix" -0.88476307775722929 0.43750729362333607 0.16056669724428962 0
		 0.43413105128487373 0.89901653154065253 -0.057441329431910833 0 -0.16948311581938108 0.018885021657359152 -0.98535213472603567 0
		 1.4645788874204124 15.898612605406811 -0.91989982469252873 1;
	setAttr ".liw" yes;
createNode joint -n "trap2Bck_R_TmpJnt" -p "Trap1Bck_R_TmpJnt";
	rename -uid "4FEB07B2-4371-6304-C2F6-449AA6BF7693";
	addAttr -ci true -sn "liw" -ln "lockInfluenceWeights" -min 0 -max 1 -at "bool";
	setAttr ".mnrl" -type "double3" -360 -360 -360 ;
	setAttr ".mxrl" -type "double3" 360 360 360 ;
	setAttr ".bps" -type "matrix" -0.88476307775722929 0.43750729362333607 0.16056669724428962 0
		 0.43413105128487373 0.89901653154065253 -0.057441329431910833 0 -0.16948311581938108 0.018885021657359152 -0.98535213472603567 0
		 1.4645788874204124 15.898612605406811 -0.91989982469252873 1;
	setAttr ".liw" yes;
createNode joint -n "Trap3SkinBck_R_TmpJnt" -p "trap2Bck_R_TmpJnt";
	rename -uid "9AFD6B12-440E-5F67-6C04-B5AA528EBA98";
	addAttr -ci true -sn "liw" -ln "lockInfluenceWeights" -min 0 -max 1 -at "bool";
	setAttr ".mnrl" -type "double3" -360 -360 -360 ;
	setAttr ".mxrl" -type "double3" 360 360 360 ;
	setAttr ".bps" -type "matrix" -4.4408920985006262e-15 -1 0 0 3.9412917374193057e-15 0 -1 0
		 1 -4.3853809472693683e-15 3.8857805861880479e-15 0 0.85796983979362795 16.002831354756871 -1.2558582349279992 1;
	setAttr ".liw" yes;
createNode joint -n "Pec1Skin_R_TmpJnt" -p "ClavMus1_R_TmpJnt";
	rename -uid "E04BFFA2-47BA-D9C4-646E-C5B47665ECE8";
	setAttr ".t" -type "double3" -0.23096699999999998 0.58339999999999925 -0.27929700000000007 ;
	setAttr ".mnrl" -type "double3" -360 -360 -360 ;
	setAttr ".mxrl" -type "double3" 360 360 360 ;
	setAttr ".jo" -type "double3" -75.000000000000043 0 0 ;
createNode joint -n "Pec2Skin_R_TmpJnt" -p "Pec1Skin_R_TmpJnt";
	rename -uid "0AB28CF9-4C0C-C0FD-6693-1DA4DE47802E";
	setAttr ".t" -type "double3" 0 0.49789385736682679 3.6842657001656676e-05 ;
	setAttr ".mnrl" -type "double3" -360 -360 -360 ;
	setAttr ".mxrl" -type "double3" 360 360 360 ;
createNode joint -n "Late1Skin_R_TmpJnt" -p "ClavMus1_R_TmpJnt";
	rename -uid "1A0F289A-4C8B-CE78-B99D-BA923A33C50D";
	setAttr ".t" -type "double3" -0.533587 1.1555999999999997 0.28729539999999981 ;
	setAttr ".mnrl" -type "double3" -360 -360 -360 ;
	setAttr ".mxrl" -type "double3" 360 360 360 ;
createNode lightLinker -s -n "lightLinker1";
	rename -uid "B3D029EF-4844-40C7-9B2F-389290C5C847";
	setAttr -s 2 ".lnk";
	setAttr -s 2 ".slnk";
createNode shapeEditorManager -n "shapeEditorManager";
	rename -uid "BA02FE66-4335-8E03-5005-B8A4620EEFBB";
	setAttr ".bsdt[0].bscd" -type "Int32Array" 0 ;
createNode poseInterpolatorManager -n "poseInterpolatorManager";
	rename -uid "2C739069-449B-02BD-A6B0-738BA7963C8E";
createNode displayLayerManager -n "layerManager";
	rename -uid "D7BDBA0D-42FD-6C00-779E-B4A76294DF12";
	setAttr -s 2 ".dli[1]"  1;
createNode displayLayer -n "defaultLayer";
	rename -uid "C02CEE05-4EE8-B574-E822-4DB1AE09F68E";
createNode renderLayerManager -n "renderLayerManager";
	rename -uid "4BA2CDDC-403E-2A1C-6411-E4B0A4392B51";
createNode renderLayer -n "defaultRenderLayer";
	rename -uid "D77BFA6F-40D7-9614-EE47-8C94DC834AC4";
	setAttr ".g" yes;
createNode script -n "sceneConfigurationScriptNode";
	rename -uid "35D93FC4-44B2-78AD-1B19-9EB959CD5D61";
	setAttr ".b" -type "string" "playbackOptions -min 1 -max 120 -ast 1 -aet 200 ";
	setAttr ".st" 6;
createNode nodeGraphEditorInfo -n "hyperShadePrimaryNodeEditorSavedTabsInfo";
	rename -uid "BA10262F-459E-2354-9FB5-4C86C0A67BA6";
	setAttr ".def" no;
	setAttr ".tgi[0].tn" -type "string" "Untitled_1";
	setAttr ".tgi[0].vl" -type "double2" -330.95236780151544 -146.42856561002301 ;
	setAttr ".tgi[0].vh" -type "double2" 317.85713022663526 338.09522466054096 ;
select -ne :time1;
	setAttr -av -k on ".cch";
	setAttr -k on ".fzn";
	setAttr -av -cb on ".ihi";
	setAttr -av -k on ".nds";
	setAttr -cb on ".bnm";
	setAttr -k on ".o" 1;
	setAttr -av -k on ".unw" 1;
	setAttr -av -k on ".etw";
	setAttr -av -k on ".tps";
	setAttr -av -k on ".tms";
select -ne :hardwareRenderingGlobals;
	setAttr -av -k on ".cch";
	setAttr -av -k on ".ihi";
	setAttr -av -k on ".nds";
	setAttr -cb on ".bnm";
	setAttr ".otfna" -type "stringArray" 22 "NURBS Curves" "NURBS Surfaces" "Polygons" "Subdiv Surface" "Particles" "Particle Instance" "Fluids" "Strokes" "Image Planes" "UI" "Lights" "Cameras" "Locators" "Joints" "IK Handles" "Deformers" "Motion Trails" "Components" "Hair Systems" "Follicles" "Misc. UI" "Ornaments"  ;
	setAttr ".otfva" -type "Int32Array" 22 0 1 1 1 1 1
		 1 1 1 0 0 0 0 0 0 0 0 0
		 0 0 0 0 ;
	setAttr -k on ".hwi";
	setAttr -av ".ta";
	setAttr -av ".tq";
	setAttr -av ".etmr";
	setAttr -av ".tmr";
	setAttr -av ".aoon";
	setAttr -av ".aoam";
	setAttr -av ".aora";
	setAttr -k on ".hff";
	setAttr -av -k on ".hfd";
	setAttr -av -k on ".hfs";
	setAttr -av -k on ".hfe";
	setAttr -av ".hfc";
	setAttr -av -k on ".hfcr";
	setAttr -av -k on ".hfcg";
	setAttr -av -k on ".hfcb";
	setAttr -av -k on ".hfa";
	setAttr -av ".mbe";
	setAttr -av -k on ".mbsof";
	setAttr -k on ".blen";
	setAttr -k on ".blat";
	setAttr -av ".msaa";
	setAttr ".fprt" yes;
select -ne :renderPartition;
	setAttr -av -k on ".cch";
	setAttr -cb on ".ihi";
	setAttr -av -k on ".nds";
	setAttr -cb on ".bnm";
	setAttr -s 2 ".st";
	setAttr -cb on ".an";
	setAttr -cb on ".pt";
select -ne :renderGlobalsList1;
	setAttr -k on ".cch";
	setAttr -cb on ".ihi";
	setAttr -k on ".nds";
	setAttr -cb on ".bnm";
select -ne :defaultShaderList1;
	setAttr -k on ".cch";
	setAttr -cb on ".ihi";
	setAttr -k on ".nds";
	setAttr -cb on ".bnm";
	setAttr -s 4 ".s";
select -ne :postProcessList1;
	setAttr -k on ".cch";
	setAttr -cb on ".ihi";
	setAttr -k on ".nds";
	setAttr -cb on ".bnm";
	setAttr -s 2 ".p";
select -ne :defaultRenderingList1;
	setAttr -k on ".ihi";
select -ne :initialShadingGroup;
	setAttr -av -k on ".cch";
	setAttr -k on ".fzn";
	setAttr -cb on ".ihi";
	setAttr -av -k on ".nds";
	setAttr -cb on ".bnm";
	setAttr -k on ".bbx";
	setAttr -k on ".vwm";
	setAttr -k on ".tpv";
	setAttr -k on ".uit";
	setAttr -k on ".mwc";
	setAttr -cb on ".an";
	setAttr -cb on ".il";
	setAttr -cb on ".vo";
	setAttr -cb on ".eo";
	setAttr -cb on ".fo";
	setAttr -cb on ".epo";
	setAttr -k on ".ro" yes;
select -ne :initialParticleSE;
	setAttr -av -k on ".cch";
	setAttr -cb on ".ihi";
	setAttr -av -k on ".nds";
	setAttr -cb on ".bnm";
	setAttr -k on ".mwc";
	setAttr -cb on ".an";
	setAttr -cb on ".il";
	setAttr -cb on ".vo";
	setAttr -cb on ".eo";
	setAttr -cb on ".fo";
	setAttr -cb on ".epo";
	setAttr -k on ".ro" yes;
lockNode -l 0 -lu 1;
select -ne :defaultRenderGlobals;
	setAttr -av -k on ".cch";
	setAttr -cb on ".ihi";
	setAttr -av -k on ".nds";
	setAttr -cb on ".bnm";
	setAttr -av -k on ".macc";
	setAttr -av -k on ".macd";
	setAttr -av -k on ".macq";
	setAttr -av -k on ".mcfr";
	setAttr -cb on ".ifg";
	setAttr -av -k on ".clip";
	setAttr -av -k on ".edm";
	setAttr -av -k on ".edl";
	setAttr -av -cb on ".ren" -type "string" "arnold";
	setAttr -av -k on ".esr";
	setAttr -av -k on ".ors";
	setAttr -cb on ".sdf";
	setAttr -av -k on ".outf";
	setAttr -av -cb on ".imfkey";
	setAttr -av -k on ".gama";
	setAttr -k on ".exrc";
	setAttr -k on ".expt";
	setAttr -av -k on ".an";
	setAttr -k on ".ar";
	setAttr -av -k on ".fs";
	setAttr -av -k on ".ef";
	setAttr -av -k on ".bfs";
	setAttr -k on ".me";
	setAttr -k on ".se";
	setAttr -av -k on ".be";
	setAttr -av -cb on ".ep";
	setAttr -av -k on ".fec";
	setAttr -av -k on ".ofc";
	setAttr -cb on ".ofe";
	setAttr -cb on ".efe";
	setAttr -k on ".oft";
	setAttr -k on ".umfn";
	setAttr -k on ".ufe";
	setAttr -av -cb on ".pff";
	setAttr -av -k on ".peie";
	setAttr -av -cb on ".ifp";
	setAttr -k on ".rv";
	setAttr -av -k on ".comp";
	setAttr -av -k on ".cth";
	setAttr -av -k on ".soll";
	setAttr -cb on ".sosl";
	setAttr -av -k on ".rd";
	setAttr -av -k on ".lp";
	setAttr -av -k on ".sp";
	setAttr -av -k on ".shs";
	setAttr -av -k on ".lpr";
	setAttr -cb on ".gv";
	setAttr -cb on ".sv";
	setAttr -av -k on ".mm";
	setAttr -av -k on ".npu";
	setAttr -av -k on ".itf";
	setAttr -av -k on ".shp";
	setAttr -cb on ".isp";
	setAttr -av -k on ".uf";
	setAttr -av -k on ".oi";
	setAttr -av -k on ".rut";
	setAttr -av -k on ".mot";
	setAttr -av -k on ".mb";
	setAttr -av -k on ".mbf";
	setAttr -av -k on ".mbso";
	setAttr -av -k on ".mbsc";
	setAttr -av -k on ".afp";
	setAttr -av -k on ".pfb";
	setAttr -av -k on ".pram";
	setAttr -av -k on ".poam";
	setAttr -av -k on ".prlm";
	setAttr -av -k on ".polm";
	setAttr -av -cb on ".prm";
	setAttr -av -cb on ".pom";
	setAttr -cb on ".pfrm";
	setAttr -cb on ".pfom";
	setAttr -av -k on ".bll";
	setAttr -av -k on ".bls";
	setAttr -av -k on ".smv";
	setAttr -av -k on ".ubc";
	setAttr -av -k on ".mbc";
	setAttr -cb on ".mbt";
	setAttr -av -k on ".udbx";
	setAttr -av -k on ".smc";
	setAttr -av -k on ".kmv";
	setAttr -cb on ".isl";
	setAttr -cb on ".ism";
	setAttr -cb on ".imb";
	setAttr -av -k on ".rlen";
	setAttr -av -k on ".frts";
	setAttr -av -k on ".tlwd";
	setAttr -av -k on ".tlht";
	setAttr -av -k on ".jfc";
	setAttr -cb on ".rsb";
	setAttr -av -k on ".ope";
	setAttr -av -k on ".oppf";
	setAttr -av -k on ".rcp";
	setAttr -av -k on ".icp";
	setAttr -av -k on ".ocp";
	setAttr -cb on ".hbl";
select -ne :defaultResolution;
	setAttr -av -k on ".cch";
	setAttr -av -k on ".ihi";
	setAttr -av -k on ".nds";
	setAttr -k on ".bnm";
	setAttr -av -k on ".w";
	setAttr -av -k on ".h";
	setAttr -av -k on ".pa" 1;
	setAttr -av -k on ".al";
	setAttr -av -k on ".dar";
	setAttr -av -k on ".ldar";
	setAttr -av -k on ".dpi";
	setAttr -av -k on ".off";
	setAttr -av -k on ".fld";
	setAttr -av -k on ".zsl";
	setAttr -av -k on ".isu";
	setAttr -av -k on ".pdu";
select -ne :defaultColorMgtGlobals;
	setAttr ".cfe" yes;
	setAttr ".cfp" -type "string" "O:/Pipeline/core/rf_lib/OpenColorIO-Configs/aces_1.2/config.ocio";
	setAttr ".vtn" -type "string" "sRGB (ACES)";
	setAttr ".wsn" -type "string" "ACES - ACEScg";
	setAttr ".otn" -type "string" "sRGB (ACES)";
	setAttr ".potn" -type "string" "sRGB (ACES)";
select -ne :hardwareRenderGlobals;
	setAttr -av -k on ".cch";
	setAttr -av -cb on ".ihi";
	setAttr -av -k on ".nds";
	setAttr -cb on ".bnm";
	setAttr -av -k off -cb on ".ctrs" 256;
	setAttr -av -k off -cb on ".btrs" 512;
	setAttr -av -k off -cb on ".fbfm";
	setAttr -av -k off -cb on ".ehql";
	setAttr -av -k off -cb on ".eams";
	setAttr -av -k off -cb on ".eeaa";
	setAttr -av -k off -cb on ".engm";
	setAttr -av -k off -cb on ".mes";
	setAttr -av -k off -cb on ".emb";
	setAttr -av -k off -cb on ".mbbf";
	setAttr -av -k off -cb on ".mbs";
	setAttr -av -k off -cb on ".trm";
	setAttr -av -k off -cb on ".tshc";
	setAttr -av -k off -cb on ".enpt";
	setAttr -av -k off -cb on ".clmt";
	setAttr -av -k off -cb on ".tcov";
	setAttr -av -k off -cb on ".lith";
	setAttr -av -k off -cb on ".sobc";
	setAttr -av -k off -cb on ".cuth";
	setAttr -av -k off -cb on ".hgcd";
	setAttr -av -k off -cb on ".hgci";
	setAttr -av -k off -cb on ".mgcs";
	setAttr -av -k off -cb on ".twa";
	setAttr -av -k off -cb on ".twz";
	setAttr -cb on ".hwcc";
	setAttr -cb on ".hwdp";
	setAttr -cb on ".hwql";
	setAttr -k on ".hwfr";
	setAttr -k on ".soll";
	setAttr -k on ".sosl";
	setAttr -k on ".bswa";
	setAttr -k on ".shml";
	setAttr -k on ".hwel";
connectAttr "SpineMusRoot_TmpJnt.s" "ClavMus1_L_TmpJnt.is";
connectAttr "ClavMus1_L_TmpJnt.s" "ClavMus2_L_TmpJnt.is";
connectAttr "ClavMus2_L_TmpJnt.s" "ArmPoint1Skin_L_TmpJnt.is";
connectAttr "ArmPoint1Skin_L_TmpJnt.s" "UpArmRootAdjSkin_L_TmpJnt.is";
connectAttr "ArmPoint1Skin_L_TmpJnt.s" "ScapRoot1_L_TmpJnt.is";
connectAttr "ScapRoot1_L_TmpJnt.s" "Scap1Skin_L_TmpJnt.is";
connectAttr "Scap1Skin_L_TmpJnt.s" "Scap2Skin_L_TmpJnt.is";
connectAttr "ClavMus2_L_TmpJnt.s" "Trap1Skin_L_TmpJnt.is";
connectAttr "Trap1Skin_L_TmpJnt.s" "Trap2_L_TmpJnt.is";
connectAttr "ClavMus1_L_TmpJnt.s" "Trap1Bck_L_TmpJnt.is";
connectAttr "Trap1Bck_L_TmpJnt.s" "trap2Bck_L_TmpJnt.is";
connectAttr "trap2Bck_L_TmpJnt.s" "Trap3SkinBck_L_TmpJnt.is";
connectAttr "ClavMus1_L_TmpJnt.s" "Pec1Skin_L_TmpJnt.is";
connectAttr "Pec1Skin_L_TmpJnt.s" "Pec2Skin_L_TmpJnt.is";
connectAttr "ClavMus1_L_TmpJnt.s" "Late1Skin_L_TmpJnt.is";
connectAttr "SpineMusRoot_TmpJnt.s" "ClavMus1_R_TmpJnt.is";
connectAttr "ClavMus1_R_TmpJnt.s" "ClavMus2_R_TmpJnt.is";
connectAttr "ClavMus2_R_TmpJnt.s" "ArmPoint1Skin_R_TmpJnt.is";
connectAttr "ArmPoint1Skin_R_TmpJnt.s" "UpArmRootAdjSkin_R_TmpJnt.is";
connectAttr "ArmPoint1Skin_R_TmpJnt.s" "ScapRoot1_R_TmpJnt.is";
connectAttr "ScapRoot1_R_TmpJnt.s" "Scap1Skin_R_TmpJnt.is";
connectAttr "Scap1Skin_R_TmpJnt.s" "Scap2Skin_R_TmpJnt.is";
connectAttr "ClavMus2_R_TmpJnt.s" "Trap1Skin_R_TmpJnt.is";
connectAttr "Trap1Skin_R_TmpJnt.s" "Trap2_R_TmpJnt.is";
connectAttr "ClavMus1_R_TmpJnt.s" "Trap1Bck_R_TmpJnt.is";
connectAttr "Trap1Bck_R_TmpJnt.s" "trap2Bck_R_TmpJnt.is";
connectAttr "trap2Bck_R_TmpJnt.s" "Trap3SkinBck_R_TmpJnt.is";
connectAttr "ClavMus1_R_TmpJnt.s" "Pec1Skin_R_TmpJnt.is";
connectAttr "Pec1Skin_R_TmpJnt.s" "Pec2Skin_R_TmpJnt.is";
connectAttr "ClavMus1_R_TmpJnt.s" "Late1Skin_R_TmpJnt.is";
relationship "link" ":lightLinker1" ":initialShadingGroup.message" ":defaultLightSet.message";
relationship "link" ":lightLinker1" ":initialParticleSE.message" ":defaultLightSet.message";
relationship "shadowLink" ":lightLinker1" ":initialShadingGroup.message" ":defaultLightSet.message";
relationship "shadowLink" ":lightLinker1" ":initialParticleSE.message" ":defaultLightSet.message";
connectAttr "layerManager.dli[0]" "defaultLayer.id";
connectAttr "renderLayerManager.rlmi[0]" "defaultRenderLayer.rlid";
connectAttr "defaultRenderLayer.msg" ":defaultRenderingList1.r" -na;
dataStructure -fmt "raw" -as "name=faceConnectMarkerStructure:bool=faceConnectMarker:string[200]=faceConnectOutputGroups";
dataStructure -fmt "raw" -as "name=FBXFastExportSetting_FBX:string=54";
dataStructure -fmt "raw" -as "name=idStructure:int32=ID";
dataStructure -fmt "raw" -as "name=faceConnectOutputStructure:bool=faceConnectOutput:string[200]=faceConnectOutputAttributes:string[200]=faceConnectOutputGroups";
dataStructure -fmt "raw" -as "name=externalContentTablZ:string=nodZ:string=key:string=upath:uint32=upathcrc:string=rpath:string=roles";
dataStructure -fmt "raw" -as "name=FBXFastExportSetting_MB:string=19424";
// End of clavMusTmp.ma
