//Maya ASCII 2017ff05 scene
//Name: SpiderGirl_Hair.ma
//Last modified: Mon, May 14, 2018 12:42:41 PM
//Codeset: 1252
requires maya "2017ff05";
requires -nodeType "RedshiftHair" -nodeType "RedshiftHairPosition" "redshift4maya" "2.5.40";
requires -dataType "pgYetiMayaData" -dataType "pgYetiMayaStrandData" -dataType "pgYetiMayaFeatherData"
		 "pgYetiMaya" "2.2.1";
requires "stereoCamera" "10.0";
currentUnit -l centimeter -a degree -t film;
fileInfo "application" "maya";
fileInfo "product" "Maya 2017";
fileInfo "version" "2017";
fileInfo "cutIdentifier" "201706020738-1017329";
fileInfo "osv" "Microsoft Windows 8 Business Edition, 64-bit  (Build 9200)\n";
createNode RedshiftHair -n "SpiderGirl_Hair_YtS";
	rename -uid "656C5594-46C4-88CD-B58A-CF910B00DBED";
	setAttr ".irefl_weight" 1;
	setAttr ".irefl_gloss" 0.85000002384185791;
	setAttr ".diffuse_weight" 1;
	setAttr ".diffuseTrans_weight" 0.85000002384185791;
	setAttr ".trans_color" -type "float3" 0.027464647 0.014137002 0.067000002 ;
	setAttr ".trans_weight" 0.85000002384185791;
	setAttr ".refl_color" -type "float3" 0.4099201 0.21100003 1 ;
	setAttr ".refl_weight" 0.05000000074505806;
	setAttr ".refl_gloss" 0.89999997615814209;
	setAttr ".angularShift" -2.5;
	setAttr ".depth_override" yes;
	setAttr ".refl_enablecutoff" yes;
	setAttr ".trans_enablecutoff" yes;
createNode ramp -n "SPDG_Hair_SHD_ramp4";
	rename -uid "9EB89401-411F-10D5-2481-7990F927FEFA";
	setAttr -s 2 ".cel";
	setAttr ".cel[0].ep" 0;
	setAttr ".cel[0].ec" -type "float3" 0.031399999 0.018999999 0.090000004 ;
	setAttr ".cel[1].ep" 1;
	setAttr ".cel[1].ec" -type "float3" 0.078000002 0.048999999 0.233 ;
createNode RedshiftHairPosition -n "SPDG_Hair_SHD_rsHairPosition4";
	rename -uid "E2D921D2-4931-F1F8-CCFF-868F1C112509";
createNode ramp -n "SPDG_Hair_SHD_ramp5";
	rename -uid "0FA8D5C6-4372-9919-3CB8-9D9FEABF5317";
	setAttr ".in" 4;
	setAttr -s 5 ".cel";
	setAttr ".cel[0].ep" 0.77399379014968872;
	setAttr ".cel[0].ec" -type "float3" 0.5 0.5 0.5 ;
	setAttr ".cel[1].ep" 1;
	setAttr ".cel[1].ec" -type "float3" 1 1 1 ;
	setAttr ".cel[2].ep" 0.53560370206832886;
	setAttr ".cel[2].ec" -type "float3" 0.025 0.025 0.025 ;
	setAttr ".cel[3].ep" 0.31578946113586426;
	setAttr ".cel[3].ec" -type "float3" 0.0099999998 0.0099999998 0.0099999998 ;
	setAttr ".cel[4].ep" 0.10216700285673141;
	setAttr ".cel[4].ec" -type "float3" 0 0 0 ;
createNode RedshiftHairPosition -n "SPDG_Hair_SHD_rsHairPosition5";
	rename -uid "2F8DE838-44BD-BCF3-4FF0-5E8425A6C85F";
select -ne :time1;
	setAttr -av -k on ".cch";
	setAttr -av -cb on ".ihi";
	setAttr -av -k on ".nds";
	setAttr -cb on ".bnm";
	setAttr -k on ".o" 1;
	setAttr -av -k on ".unw" 1;
	setAttr -k on ".etw";
	setAttr -k on ".tps";
	setAttr -av -k on ".tms";
select -ne :hardwareRenderingGlobals;
	setAttr ".otfna" -type "stringArray" 22 "NURBS Curves" "NURBS Surfaces" "Polygons" "Subdiv Surface" "Particles" "Particle Instance" "Fluids" "Strokes" "Image Planes" "UI" "Lights" "Cameras" "Locators" "Joints" "IK Handles" "Deformers" "Motion Trails" "Components" "Hair Systems" "Follicles" "Misc. UI" "Ornaments"  ;
	setAttr ".otfva" -type "Int32Array" 22 0 1 1 1 1 1
		 1 1 1 0 0 0 0 0 0 0 0 0
		 0 0 0 0 ;
	setAttr ".mhl" 16;
	setAttr ".cons" no;
	setAttr ".vac" 2;
	setAttr ".hwi" yes;
	setAttr ".ta" 0;
	setAttr ".etmr" yes;
	setAttr ".tmr" 1024;
	setAttr -k on ".mbsof";
	setAttr ".msaa" yes;
	setAttr ".aasc" 16;
	setAttr ".laa" yes;
select -ne :renderPartition;
	setAttr -k on ".cch";
	setAttr -cb on ".ihi";
	setAttr -k on ".nds";
	setAttr -cb on ".bnm";
	setAttr -s 12 ".st";
	setAttr -cb on ".an";
	setAttr -cb on ".pt";
select -ne :renderGlobalsList1;
	setAttr -k on ".cch";
	setAttr -cb on ".ihi";
	setAttr -k on ".nds";
	setAttr -cb on ".bnm";
select -ne :defaultShaderList1;
	setAttr -k on ".cch";
	setAttr -cb on ".ihi";
	setAttr -k on ".nds";
	setAttr -cb on ".bnm";
	setAttr -s 14 ".s";
select -ne :postProcessList1;
	setAttr -k on ".cch";
	setAttr -cb on ".ihi";
	setAttr -k on ".nds";
	setAttr -cb on ".bnm";
	setAttr -s 2 ".p";
select -ne :defaultRenderUtilityList1;
	setAttr -k on ".cch";
	setAttr -cb on ".ihi";
	setAttr -av -k on ".nds";
	setAttr -cb on ".bnm";
	setAttr -s 3 ".u";
select -ne :defaultRenderingList1;
	setAttr -k on ".ihi";
	setAttr -s 5 ".r";
select -ne :defaultTextureList1;
	setAttr -k on ".cch";
	setAttr -cb on ".ihi";
	setAttr -k on ".nds";
	setAttr -cb on ".bnm";
	setAttr -s 3 ".tx";
select -ne :initialShadingGroup;
	setAttr -av -k on ".cch";
	setAttr -cb on ".ihi";
	setAttr -av -k on ".nds";
	setAttr -cb on ".bnm";
	setAttr -s 17 ".dsm";
	setAttr -k on ".mwc";
	setAttr -cb on ".an";
	setAttr -cb on ".il";
	setAttr -cb on ".vo";
	setAttr -cb on ".eo";
	setAttr -cb on ".fo";
	setAttr -cb on ".epo";
	setAttr -k on ".ro" yes;
	setAttr ".ai_surface_shader" -type "float3" 4.4484747e-035 0 3.4028235e+038 ;
	setAttr ".ai_volume_shader" -type "float3" 4.4484747e-035 0 3.4028235e+038 ;
select -ne :initialParticleSE;
	setAttr -av -k on ".cch";
	setAttr -cb on ".ihi";
	setAttr -av -k on ".nds";
	setAttr -cb on ".bnm";
	setAttr -k on ".mwc";
	setAttr -cb on ".an";
	setAttr -cb on ".il";
	setAttr -cb on ".vo";
	setAttr -cb on ".eo";
	setAttr -cb on ".fo";
	setAttr -cb on ".epo";
	setAttr -k on ".ro" yes;
	setAttr ".ai_surface_shader" -type "float3" 4.4484747e-035 0 3.4028235e+038 ;
	setAttr ".ai_volume_shader" -type "float3" 4.4484747e-035 0 3.4028235e+038 ;
select -ne :defaultRenderGlobals;
	setAttr -k on ".cch";
	setAttr -cb on ".ihi";
	setAttr -k on ".nds";
	setAttr -cb on ".bnm";
	setAttr -k on ".macc";
	setAttr -k on ".macd";
	setAttr -k on ".macq";
	setAttr -k on ".mcfr";
	setAttr -cb on ".ifg";
	setAttr -k on ".clip";
	setAttr -k on ".edm";
	setAttr -k on ".edl" no;
	setAttr -cb on ".ren" -type "string" "redshift";
	setAttr -av -k on ".esr";
	setAttr -k on ".ors";
	setAttr -cb on ".sdf";
	setAttr -av -k on ".outf" 51;
	setAttr -cb on ".imfkey" -type "string" "iff";
	setAttr -k on ".gama";
	setAttr -k on ".an";
	setAttr -k on ".ar";
	setAttr -k on ".fs";
	setAttr -k on ".ef";
	setAttr -av -k on ".bfs";
	setAttr -k on ".me";
	setAttr -k on ".se";
	setAttr -k on ".be";
	setAttr -cb on ".ep";
	setAttr -k on ".fec";
	setAttr -av -k on ".ofc";
	setAttr -cb on ".ofe";
	setAttr -cb on ".efe";
	setAttr -k on ".oft";
	setAttr -k on ".umfn";
	setAttr -k on ".ufe";
	setAttr -cb on ".pff" yes;
	setAttr -k on ".peie";
	setAttr -cb on ".ifp";
	setAttr -k on ".rv";
	setAttr -k on ".comp";
	setAttr -k on ".cth";
	setAttr -k on ".soll";
	setAttr -cb on ".sosl";
	setAttr -k on ".rd";
	setAttr -k on ".lp";
	setAttr -av -k on ".sp";
	setAttr -k on ".shs";
	setAttr -av -k on ".lpr";
	setAttr -cb on ".gv";
	setAttr -cb on ".sv";
	setAttr -k on ".mm";
	setAttr -k on ".npu";
	setAttr -k on ".itf";
	setAttr -k on ".shp";
	setAttr -cb on ".isp";
	setAttr -k on ".uf";
	setAttr -k on ".oi";
	setAttr -k on ".rut";
	setAttr -k on ".mot";
	setAttr -av -k on ".mb";
	setAttr -av -k on ".mbf";
	setAttr -k on ".mbso";
	setAttr -k on ".mbsc";
	setAttr -k on ".afp";
	setAttr -k on ".pfb";
	setAttr -k on ".pram" -type "string" " pgYetiPreRender; pgYetiVRayPreRender";
	setAttr -k on ".poam" -type "string" "pgYetiVRayPostRender";
	setAttr -k on ".prlm";
	setAttr -k on ".polm";
	setAttr -cb on ".prm";
	setAttr -cb on ".pom";
	setAttr -cb on ".pfrm";
	setAttr -cb on ".pfom";
	setAttr -av -k on ".bll";
	setAttr -av -k on ".bls";
	setAttr -av -k on ".smv";
	setAttr -k on ".ubc";
	setAttr -k on ".mbc";
	setAttr -cb on ".mbt";
	setAttr -k on ".udbx";
	setAttr -k on ".smc";
	setAttr -k on ".kmv";
	setAttr -cb on ".isl";
	setAttr -cb on ".ism";
	setAttr -cb on ".imb";
	setAttr -k on ".rlen";
	setAttr -av -k on ".frts";
	setAttr -k on ".tlwd";
	setAttr -k on ".tlht";
	setAttr -k on ".jfc";
	setAttr -cb on ".rsb";
	setAttr -k on ".ope";
	setAttr -k on ".oppf";
	setAttr -k on ".rcp";
	setAttr -k on ".icp";
	setAttr -k on ".ocp";
	setAttr -cb on ".hbl";
select -ne :defaultResolution;
	setAttr -av -k on ".cch";
	setAttr -k on ".ihi";
	setAttr -av -k on ".nds";
	setAttr -k on ".bnm";
	setAttr -av -k on ".w" 2048;
	setAttr -av -k on ".h" 2048;
	setAttr -av -k on ".pa" 1;
	setAttr -av -k on ".al";
	setAttr -av -k on ".dar" 1;
	setAttr -av -k on ".ldar";
	setAttr -k on ".dpi" 300;
	setAttr -av -k on ".off";
	setAttr -av -k on ".fld";
	setAttr -av -k on ".zsl";
	setAttr -k on ".isu";
	setAttr -k on ".pdu";
select -ne :defaultColorMgtGlobals;
	setAttr ".ote" yes;
select -ne :hardwareRenderGlobals;
	setAttr -k on ".cch";
	setAttr -cb on ".ihi";
	setAttr -k on ".nds";
	setAttr -cb on ".bnm";
	setAttr -k off -cb on ".ctrs" 256;
	setAttr -av -k off -cb on ".btrs" 512;
	setAttr -k off -cb on ".fbfm";
	setAttr -k off -cb on ".ehql";
	setAttr -k off -cb on ".eams";
	setAttr -k off -cb on ".eeaa";
	setAttr -k off -cb on ".engm";
	setAttr -k off -cb on ".mes";
	setAttr -k off -cb on ".emb";
	setAttr -av -k off -cb on ".mbbf";
	setAttr -k off -cb on ".mbs";
	setAttr -k off -cb on ".trm";
	setAttr -k off -cb on ".tshc";
	setAttr -k off -cb on ".enpt";
	setAttr -k off -cb on ".clmt";
	setAttr -k off -cb on ".tcov";
	setAttr -k off -cb on ".lith";
	setAttr -k off -cb on ".sobc";
	setAttr -k off -cb on ".cuth";
	setAttr -k off -cb on ".hgcd";
	setAttr -k off -cb on ".hgci";
	setAttr -k off -cb on ".mgcs";
	setAttr -k off -cb on ".twa";
	setAttr -k off -cb on ".twz";
	setAttr -cb on ".hwcc";
	setAttr -cb on ".hwdp";
	setAttr -cb on ".hwql";
	setAttr -k on ".hwfr";
	setAttr -k on ".soll";
	setAttr -k on ".sosl";
	setAttr -k on ".bswa";
	setAttr -k on ".shml";
	setAttr -k on ".hwel";
connectAttr "SPDG_Hair_SHD_ramp4.oc" "SpiderGirl_Hair_YtS.diffuse_color";
connectAttr "SPDG_Hair_SHD_ramp4.oc" "SpiderGirl_Hair_YtS.irefl_color";
connectAttr "SPDG_Hair_SHD_ramp5.oa" "SpiderGirl_Hair_YtS.transp_weight";
connectAttr "SPDG_Hair_SHD_rsHairPosition4.uv" "SPDG_Hair_SHD_ramp4.uv";
connectAttr "SPDG_Hair_SHD_rsHairPosition5.uv" "SPDG_Hair_SHD_ramp5.uv";
connectAttr "SpiderGirl_Hair_YtS.msg" ":defaultShaderList1.s" -na;
connectAttr "SPDG_Hair_SHD_rsHairPosition4.msg" ":defaultRenderUtilityList1.u" -na
		;
connectAttr "SPDG_Hair_SHD_rsHairPosition5.msg" ":defaultRenderUtilityList1.u" -na
		;
connectAttr "SPDG_Hair_SHD_ramp4.msg" ":defaultTextureList1.tx" -na;
connectAttr "SPDG_Hair_SHD_ramp5.msg" ":defaultTextureList1.tx" -na;
// End of SpiderGirl_Hair.ma
