+ mtoa any $RFSCRIPT\plugins\Maya2018\solidangle\3.3.0.2
PATH +:= bin
MAYA_CUSTOM_TEMPLATE_PATH +:= scripts/mtoa/ui/templates
MAYA_SCRIPT_PATH +:= scripts/mtoa/mel
MAYA_RENDER_DESC_PATH += $RFSCRIPT\plugins\Maya2018\solidangle\3.3.0.2
