+ pgYetiMaya any $RFSCRIPT/plugins/Maya2018/yeti_3.6.1
PATH +:= bin
MTOA_EXTENSIONS_PATH +:= plug-ins
ARNOLD_PLUGIN_PATH +:= bin
VRAY_FOR_MAYA2018_PLUGINS +:= bin
VRAY_FOR_MAYA2019_PLUGINS +:= bin
VRAY_FOR_MAYA2020_PLUGINS +:= bin
VRAY_PLUGINS +:= bin
peregrinel_LICENSE=localhost:5053